{
	"parameters": {
		"profiles_for_regulation": 2, 
		"large_gain": 65.0, 
		"small_gain": 25.0, 
		"dead_band": 1, 
		"valves_max": 100, 
		"valves_min": 2, 
		"integral_band": 0, 
		"disturbation_type": 0, 
		"disturbation_amount": 0.0, 
		"disturbation_amplitude": 0.0, 
		"disturbation_cycles": 0, 
		"disturbation_frequency": 0, 
		"phase_shift_misDx_haulDx": 5, 
		"phase_shift_misSx_haulDx": 5, 
		"phase_shift_misDx_haulSx": 0, 
		"phase_shift_misSx_haulSx": 0, 
		"matrix_major": 1, 
		"matrix_minor": 0
	},
	"production": {
		"code_customer": "MONO", 
		"code_product": "2", 
		"thickness": 20.2, 
		"tolerance": 2.0, 
		"layflat": 1440.0, 
		"line_speed": 39.0, 
		"flow": 173.0, 
		"melt_d": 1.3
	},
	"status": {
	"application": {
		"measurer_active": true, 
		"actuation_active": true
	},
	"measurer": {
		"direction": -1
	},
	"hauloff": {
		"direction": -1, 
		"last_period": 366000, 
		"position": 0, 
		"speed": 0
	}
	},
	"stats": {
		"mean_thickness": 20.2, 
		"max_thickness": 20.76655, 
		"min_thickness": 19.71787, 
		"stdDev": 0.2454211, 
		"sigma_abs": 0.4908422, 
		"sigma_perc": 2.429912
	},
	"rawProfile": [
		595, 
		596, 
		596, 
		597, 
		598, 
		599, 
		601, 
		602, 
		603, 
		604, 
		605, 
		606, 
		606, 
		606, 
		606, 
		606, 
		606, 
		605, 
		605, 
		606, 
		606, 
		607, 
		609, 
		610, 
		612, 
		613, 
		614, 
		615, 
		615, 
		615, 
		614, 
		613, 
		612, 
		611, 
		610, 
		610, 
		609, 
		609, 
		609, 
		608, 
		608, 
		608, 
		607, 
		607, 
		606, 
		606, 
		606, 
		605, 
		605, 
		605, 
		606, 
		606, 
		607, 
		608, 
		608, 
		609, 
		610, 
		610, 
		611, 
		611, 
		611, 
		611, 
		611, 
		611, 
		611, 
		612, 
		612, 
		612, 
		613, 
		613, 
		614, 
		614, 
		614, 
		614, 
		614, 
		614, 
		614, 
		613, 
		613, 
		612, 
		611, 
		611, 
		611, 
		610, 
		610, 
		610, 
		609, 
		609, 
		608, 
		608, 
		607, 
		605, 
		604, 
		603, 
		601, 
		600, 
		599, 
		598, 
		598, 
		598, 
		599, 
		600, 
		601, 
		603, 
		605, 
		607, 
		609, 
		610, 
		612, 
		613, 
		614, 
		614, 
		615, 
		615, 
		615, 
		615, 
		616, 
		616, 
		617, 
		618, 
		620, 
		621, 
		622, 
		623, 
		623, 
		623, 
		623, 
		622, 
		620, 
		618, 
		616, 
		614, 
		612, 
		610, 
		609, 
		607, 
		606, 
		605, 
		605, 
		604, 
		604, 
		605, 
		605, 
		605, 
		605, 
		605, 
		605, 
		605, 
		604, 
		603, 
		602, 
		600, 
		599, 
		598, 
		596, 
		595, 
		594, 
		594, 
		593, 
		593, 
		592, 
		592, 
		592, 
		592, 
		592, 
		592, 
		592, 
		592, 
		592, 
		592, 
		591, 
		591, 
		590, 
		590, 
		590, 
		590, 
		590, 
		591, 
		592, 
		593, 
		594, 
		594, 
		595, 
		596, 
		596, 
		596, 
		597, 
		597, 
		598, 
		599, 
		600, 
		601, 
		603, 
		604, 
		605, 
		606, 
		606, 
		607, 
		607, 
		607, 
		607, 
		607, 
		606, 
		606, 
		607, 
		607, 
		607, 
		608, 
		608, 
		608, 
		608, 
		608, 
		608, 
		607, 
		607, 
		607, 
		607, 
		607, 
		608, 
		608, 
		609, 
		610, 
		611, 
		611, 
		611, 
		611, 
		610, 
		609, 
		608, 
		607, 
		605, 
		603, 
		602, 
		601, 
		600, 
		600, 
		599, 
		599, 
		600, 
		600, 
		600, 
		601, 
		601, 
		600, 
		600, 
		599, 
		598, 
		596, 
		595, 
		594, 
		593, 
		592, 
		592, 
		593, 
		594, 
		595, 
		596, 
		598, 
		600, 
		602, 
		603, 
		604, 
		604, 
		604, 
		604, 
		603, 
		601, 
		599, 
		598, 
		596, 
		594, 
		593, 
		592, 
		592, 
		592, 
		593, 
		595, 
		598, 
		601, 
		605, 
		609, 
		612, 
		616, 
		618, 
		620, 
		621, 
		620, 
		619, 
		616, 
		613, 
		609, 
		606, 
		603, 
		600, 
		599, 
		599, 
		600, 
		602, 
		605, 
		607, 
		610, 
		613, 
		615, 
		616, 
		617, 
		617, 
		617, 
		616, 
		615, 
		613, 
		612, 
		611, 
		609, 
		608, 
		608, 
		607, 
		606, 
		606, 
		605, 
		605, 
		604, 
		604, 
		603, 
		602, 
		602, 
		602, 
		602, 
		602, 
		603, 
		603, 
		603, 
		603, 
		602, 
		601, 
		600, 
		599, 
		598, 
		597, 
		596, 
		596, 
		596, 
		597, 
		599, 
		600, 
		601, 
		603, 
		604, 
		604, 
		604, 
		604, 
		603, 
		602, 
		601, 
		599, 
		598, 
		597, 
		596, 
		595, 
		595, 
		595
	],
	"zonesProfile": [
		19.91825, 
		20.0986, 
		20.23219, 
		20.22551, 
		20.33238, 
		20.51941, 
		20.43926, 
		20.33906, 
		20.27895, 
		20.21883, 
		20.27227, 
		20.37914, 
		20.40586, 
		20.45262, 
		20.50605, 
		20.47933, 
		20.3925, 
		20.33238, 
		20.17208, 
		19.99173, 
		20.09192, 
		20.37914, 
		20.52609, 
		20.5862, 
		20.76655, 
		20.74651, 
		20.44593, 
		20.21883, 
		20.1988, 
		20.18543, 
		20.00509, 
		19.83142, 
		19.77131, 
		19.77131, 
		19.71787, 
		19.74459, 
		19.8715, 
		19.95165, 
		20.12532, 
		20.25891, 
		20.25891, 
		20.29231, 
		20.29231, 
		20.28563, 
		20.38582, 
		20.33906, 
		20.11196, 
		20.02513, 
		20.05185, 
		19.91825, 
		19.79803, 
		19.97837, 
		20.16539, 
		20.01845, 
		19.79135, 
		19.98505, 
		20.53945, 
		20.63296, 
		20.15204, 
		20.12532, 
		20.51273, 
		20.55949, 
		20.3591, 
		20.23219, 
		20.13868, 
		20.11864, 
		20.0986, 
		19.94497, 
		19.99173, 
		20.16539, 
		20.05853, 
		19.89154
	],
	"actuators": {
	"values": [
		45.1176, 
		32.28872, 
		15.80865, 
		21.39927, 
		25.3015, 
		28.20972, 
		29.97756, 
		7.434949, 
		13.55653, 
		11.25543, 
		17.20193, 
		12.1011, 
		21.2799, 
		22.06761, 
		18.98831, 
		18.14777, 
		26.50669, 
		26.21362, 
		35.33766, 
		32.22775, 
		14.04539, 
		18.31219, 
		28.08695, 
		30.85606, 
		20.36922, 
		27.72725, 
		45.53391, 
		55.09428, 
		43.52745, 
		36.09026, 
		32.61547, 
		45.69121, 
		46.65143, 
		50.97704, 
		36.32272, 
		37.38126, 
		30.93031, 
		41.8218, 
		17.04199, 
		26.57777, 
		17.37073, 
		25.51282, 
		18.19235, 
		12.25119, 
		23.6719, 
		45.03165, 
		68.49133, 
		50.26837, 
		31.13686, 
		18.82344, 
		36.71981, 
		36.43501, 
		43.19419, 
		58.99633, 
		71.28504, 
		42.28624, 
		10.66361, 
		16.04235, 
		38.52868, 
		33.91998, 
		26.94588, 
		22.48358, 
		17.49928, 
		29.45491, 
		35.3378, 
		21.60379, 
		17.35094, 
		27.06462, 
		28.39316, 
		18.75266, 
		18.52965, 
		38.01397
	],
	"forced": [
		false, 
		false, 
		false, 
		false, 
		false, 
		false, 
		false, 
		false, 
		false, 
		false, 
		false, 
		false, 
		false, 
		false, 
		false, 
		false, 
		false, 
		false, 
		false, 
		false, 
		false, 
		false, 
		false, 
		false, 
		false, 
		false, 
		false, 
		false, 
		false, 
		false, 
		false, 
		false, 
		false, 
		false, 
		false, 
		false, 
		false, 
		false, 
		false, 
		false, 
		false, 
		false, 
		false, 
		false, 
		false, 
		false, 
		false, 
		false, 
		false, 
		false, 
		false, 
		false, 
		false, 
		false, 
		false, 
		false, 
		false, 
		false, 
		false, 
		false, 
		false, 
		false, 
		false, 
		false, 
		false, 
		false, 
		false, 
		false, 
		false, 
		false, 
		false, 
		false
	]
	}
}

