{
	"parameters": {
		"profiles_for_regulation": 2, 
		"large_gain": 65.0, 
		"small_gain": 25.0, 
		"dead_band": 1, 
		"valves_max": 100, 
		"valves_min": 2, 
		"integral_band": 0, 
		"disturbation_type": 0, 
		"disturbation_amount": 0.0, 
		"disturbation_amplitude": 0.0, 
		"disturbation_cycles": 0, 
		"disturbation_frequency": 0, 
		"phase_shift_misDx_haulDx": 5, 
		"phase_shift_misSx_haulDx": 5, 
		"phase_shift_misDx_haulSx": 0, 
		"phase_shift_misSx_haulSx": 0, 
		"matrix_major": 1, 
		"matrix_minor": 0
	},
	"production": {
		"code_customer": "MONO", 
		"code_product": "2", 
		"thickness": 20.2, 
		"tolerance": 2.0, 
		"layflat": 1440.0, 
		"line_speed": 39.0, 
		"flow": 173.0, 
		"melt_d": 1.3
	},
	"status": {
	"application": {
		"measurer_active": true, 
		"actuation_active": true
	},
	"measurer": {
		"direction": -1
	},
	"hauloff": {
		"direction": -1, 
		"last_period": 220000, 
		"position": 0, 
		"speed": 0
	}
	},
	"stats": {
		"mean_thickness": 20.2, 
		"max_thickness": 21.004, 
		"min_thickness": 19.25144, 
		"stdDev": 0.4027827, 
		"sigma_abs": 0.8055654, 
		"sigma_perc": 3.987947
	},
	"rawProfile": [
		607, 
		606, 
		604, 
		603, 
		602, 
		602, 
		603, 
		604, 
		605, 
		607, 
		609, 
		611, 
		613, 
		614, 
		614, 
		613, 
		612, 
		610, 
		607, 
		604, 
		601, 
		598, 
		595, 
		593, 
		591, 
		589, 
		588, 
		587, 
		587, 
		586, 
		586, 
		585, 
		585, 
		586, 
		586, 
		588, 
		589, 
		591, 
		592, 
		594, 
		596, 
		597, 
		598, 
		598, 
		597, 
		597, 
		596, 
		594, 
		593, 
		592, 
		591, 
		591, 
		590, 
		591, 
		591, 
		592, 
		593, 
		593, 
		594, 
		595, 
		596, 
		596, 
		596, 
		596, 
		596, 
		596, 
		596, 
		596, 
		596, 
		596, 
		596, 
		596, 
		597, 
		597, 
		598, 
		598, 
		598, 
		598, 
		598, 
		597, 
		596, 
		595, 
		594, 
		593, 
		592, 
		591, 
		590, 
		589, 
		588, 
		587, 
		586, 
		586, 
		585, 
		584, 
		584, 
		583, 
		583, 
		582, 
		582, 
		582, 
		583, 
		583, 
		584, 
		585, 
		586, 
		587, 
		587, 
		588, 
		587, 
		587, 
		585, 
		584, 
		582, 
		580, 
		578, 
		577, 
		576, 
		575, 
		575, 
		575, 
		576, 
		578, 
		580, 
		581, 
		583, 
		585, 
		587, 
		589, 
		590, 
		591, 
		593, 
		594, 
		595, 
		596, 
		597, 
		598, 
		599, 
		600, 
		601, 
		602, 
		603, 
		604, 
		604, 
		605, 
		605, 
		606, 
		606, 
		606, 
		607, 
		607, 
		607, 
		607, 
		606, 
		606, 
		605, 
		604, 
		603, 
		603, 
		602, 
		601, 
		601, 
		601, 
		602, 
		603, 
		604, 
		606, 
		609, 
		611, 
		614, 
		616, 
		618, 
		620, 
		621, 
		622, 
		622, 
		622, 
		622, 
		621, 
		621, 
		620, 
		619, 
		618, 
		616, 
		615, 
		613, 
		612, 
		611, 
		611, 
		610, 
		611, 
		612, 
		613, 
		615, 
		617, 
		619, 
		621, 
		623, 
		624, 
		624, 
		624, 
		623, 
		621, 
		619, 
		617, 
		614, 
		611, 
		609, 
		606, 
		604, 
		601, 
		600, 
		598, 
		598, 
		598, 
		598, 
		599, 
		601, 
		603, 
		606, 
		608, 
		611, 
		613, 
		614, 
		615, 
		615, 
		615, 
		614, 
		613, 
		611, 
		610, 
		608, 
		606, 
		605, 
		604, 
		603, 
		603, 
		603, 
		604, 
		605, 
		607, 
		609, 
		612, 
		614, 
		616, 
		618, 
		620, 
		621, 
		622, 
		622, 
		621, 
		620, 
		619, 
		617, 
		615, 
		613, 
		612, 
		610, 
		609, 
		609, 
		608, 
		608, 
		608, 
		607, 
		607, 
		606, 
		605, 
		604, 
		603, 
		602, 
		600, 
		599, 
		598, 
		597, 
		596, 
		596, 
		596, 
		597, 
		598, 
		600, 
		603, 
		606, 
		610, 
		613, 
		617, 
		621, 
		624, 
		627, 
		629, 
		630, 
		630, 
		629, 
		627, 
		625, 
		623, 
		620, 
		618, 
		615, 
		612, 
		610, 
		609, 
		607, 
		606, 
		606, 
		605, 
		605, 
		605, 
		605, 
		605, 
		605, 
		606, 
		606, 
		606, 
		607, 
		608, 
		608, 
		609, 
		610, 
		610, 
		611, 
		611, 
		611, 
		611, 
		611, 
		611, 
		612, 
		613, 
		615, 
		617, 
		620, 
		622, 
		624, 
		625, 
		626, 
		627, 
		626, 
		625, 
		623, 
		621, 
		619, 
		616, 
		613, 
		611, 
		609, 
		607, 
		606, 
		605, 
		605, 
		606, 
		607, 
		608, 
		609, 
		611, 
		612, 
		613, 
		613, 
		614, 
		613, 
		612, 
		611, 
		609
	],
	"zonesProfile": [
		20.21468, 
		20.20799, 
		20.47556, 
		20.37522, 
		19.92035, 
		19.6461, 
		19.5859, 
		19.75982, 
		19.97387, 
		19.88022, 
		19.75982, 
		19.84678, 
		19.93373, 
		19.93373, 
		19.96049, 
		19.99394, 
		19.86684, 
		19.69961, 
		19.56583, 
		19.47887, 
		19.53907, 
		19.63941, 
		19.4588, 
		19.25144, 
		19.38522, 
		19.67954, 
		19.90029, 
		20.06752, 
		20.20799, 
		20.28157, 
		20.27488, 
		20.15448, 
		20.1411, 
		20.44211, 
		20.7565, 
		20.77657, 
		20.60934, 
		20.43542, 
		20.57589, 
		20.84346, 
		20.6963, 
		20.27488, 
		20.014, 
		20.18123, 
		20.52238, 
		20.48893, 
		20.24144, 
		20.21468, 
		20.52907, 
		20.77657, 
		20.62941, 
		20.3886, 
		20.30832, 
		20.16117, 
		19.97387, 
		20.02738, 
		20.51569, 
		21.004, 
		20.89697, 
		20.49562, 
		20.2615, 
		20.24144, 
		20.30164, 
		20.40867, 
		20.44211, 
		20.64948, 
		20.92373, 
		20.76319, 
		20.37522, 
		20.27488, 
		20.45549, 
		20.46218
	],
	"actuators": {
	"values": [
		39.77314, 
		36.36798, 
		20.55329, 
		16.46833, 
		21.59593, 
		27.81799, 
		31.15044, 
		16.39498, 
		13.71279, 
		12.96094, 
		16.28105, 
		17.89171, 
		20.82541, 
		22.65999, 
		17.57873, 
		15.62103, 
		21.41329, 
		20.91369, 
		28.49989, 
		22.2803, 
		17.69419, 
		17.39701, 
		27.1768, 
		23.41453, 
		20.25311, 
		22.52832, 
		37.14917, 
		44.13445, 
		39.8971, 
		37.10562, 
		35.50364, 
		41.86171, 
		46.53103, 
		48.3792, 
		42.66919, 
		37.89611, 
		35.23637, 
		38.91684, 
		25.8995, 
		23.75331, 
		16.45484, 
		18.3102, 
		19.32946, 
		18.21524, 
		29.84957, 
		43.69829, 
		56.73929, 
		51.57104, 
		33.30416, 
		29.09934, 
		34.05178, 
		37.94893, 
		43.22165, 
		53.44553, 
		56.5032, 
		49.1293, 
		31.05781, 
		24.6832, 
		27.05169, 
		25.54443, 
		31.30927, 
		30.05093, 
		32.7597, 
		39.38366, 
		41.11915, 
		32.48306, 
		16.17074, 
		21.40853, 
		20.52744, 
		28.91729, 
		22.87835, 
		38.08638
	],
	"forced": [
		false, 
		false, 
		false, 
		false, 
		false, 
		false, 
		false, 
		false, 
		false, 
		false, 
		false, 
		false, 
		false, 
		false, 
		false, 
		false, 
		false, 
		false, 
		false, 
		false, 
		false, 
		false, 
		false, 
		false, 
		false, 
		false, 
		false, 
		false, 
		false, 
		false, 
		false, 
		false, 
		false, 
		false, 
		false, 
		false, 
		false, 
		false, 
		false, 
		false, 
		false, 
		false, 
		false, 
		false, 
		false, 
		false, 
		false, 
		false, 
		false, 
		false, 
		false, 
		false, 
		false, 
		false, 
		false, 
		false, 
		false, 
		false, 
		false, 
		false, 
		false, 
		false, 
		false, 
		false, 
		false, 
		false, 
		false, 
		false, 
		false, 
		false, 
		false, 
		false
	]
	}
}

