{
	"parameters": {
		"profiles_for_regulation": 2, 
		"large_gain": 65.0, 
		"small_gain": 25.0, 
		"dead_band": 1, 
		"valves_max": 100, 
		"valves_min": 2, 
		"integral_band": 0, 
		"disturbation_type": 0, 
		"disturbation_amount": 0.0, 
		"disturbation_amplitude": 0.0, 
		"disturbation_cycles": 0, 
		"disturbation_frequency": 0, 
		"phase_shift_misDx_haulDx": 5, 
		"phase_shift_misSx_haulDx": 5, 
		"phase_shift_misDx_haulSx": 0, 
		"phase_shift_misSx_haulSx": 0, 
		"matrix_major": 1, 
		"matrix_minor": 0
	},
	"production": {
		"code_customer": "MONO", 
		"code_product": "2", 
		"thickness": 20.2, 
		"tolerance": 2.0, 
		"layflat": 1440.0, 
		"line_speed": 39.0, 
		"flow": 173.0, 
		"melt_d": 1.3
	},
	"status": {
	"application": {
		"measurer_active": true, 
		"actuation_active": true
	},
	"measurer": {
		"direction": 1
	},
	"hauloff": {
		"direction": -1, 
		"last_period": 516000, 
		"position": 0, 
		"speed": 0
	}
	},
	"stats": {
		"mean_thickness": 20.2, 
		"max_thickness": 21.4518, 
		"min_thickness": 18.93433, 
		"stdDev": 0.6452507, 
		"sigma_abs": 1.290501, 
		"sigma_perc": 6.38862
	},
	"rawProfile": [
		599, 
		598, 
		597, 
		596, 
		596, 
		596, 
		597, 
		599, 
		601, 
		603, 
		606, 
		610, 
		614, 
		618, 
		622, 
		626, 
		630, 
		634, 
		637, 
		640, 
		642, 
		643, 
		644, 
		645, 
		645, 
		644, 
		643, 
		642, 
		640, 
		637, 
		635, 
		633, 
		631, 
		629, 
		628, 
		628, 
		628, 
		629, 
		631, 
		633, 
		636, 
		638, 
		641, 
		643, 
		644, 
		645, 
		645, 
		645, 
		644, 
		642, 
		640, 
		638, 
		637, 
		635, 
		633, 
		631, 
		630, 
		628, 
		627, 
		625, 
		623, 
		621, 
		619, 
		617, 
		615, 
		613, 
		611, 
		610, 
		609, 
		609, 
		609, 
		610, 
		611, 
		612, 
		614, 
		616, 
		618, 
		620, 
		622, 
		623, 
		624, 
		624, 
		624, 
		624, 
		624, 
		623, 
		622, 
		621, 
		620, 
		618, 
		617, 
		615, 
		614, 
		613, 
		613, 
		612, 
		613, 
		613, 
		615, 
		617, 
		619, 
		622, 
		625, 
		628, 
		630, 
		633, 
		634, 
		636, 
		636, 
		636, 
		635, 
		633, 
		631, 
		629, 
		627, 
		625, 
		623, 
		621, 
		621, 
		620, 
		620, 
		620, 
		620, 
		620, 
		620, 
		619, 
		618, 
		616, 
		613, 
		609, 
		605, 
		600, 
		595, 
		590, 
		585, 
		581, 
		577, 
		573, 
		570, 
		568, 
		567, 
		567, 
		568, 
		569, 
		572, 
		574, 
		577, 
		580, 
		583, 
		586, 
		588, 
		590, 
		592, 
		593, 
		594, 
		594, 
		594, 
		594, 
		593, 
		593, 
		591, 
		590, 
		589, 
		587, 
		586, 
		584, 
		583, 
		582, 
		580, 
		579, 
		578, 
		578, 
		577, 
		578, 
		578, 
		579, 
		580, 
		580, 
		581, 
		582, 
		582, 
		582, 
		582, 
		581, 
		580, 
		578, 
		577, 
		575, 
		574, 
		573, 
		573, 
		573, 
		574, 
		575, 
		577, 
		579, 
		581, 
		584, 
		587, 
		590, 
		593, 
		596, 
		599, 
		603, 
		606, 
		609, 
		613, 
		616, 
		618, 
		621, 
		623, 
		624, 
		625, 
		626, 
		626, 
		626, 
		626, 
		625, 
		624, 
		623, 
		621, 
		619, 
		617, 
		615, 
		612, 
		610, 
		607, 
		604, 
		601, 
		598, 
		595, 
		593, 
		591, 
		590, 
		590, 
		590, 
		591, 
		593, 
		596, 
		599, 
		603, 
		607, 
		611, 
		614, 
		618, 
		621, 
		623, 
		624, 
		625, 
		624, 
		623, 
		621, 
		619, 
		616, 
		614, 
		611, 
		609, 
		606, 
		605, 
		603, 
		601, 
		600, 
		599, 
		597, 
		595, 
		593, 
		591, 
		589, 
		586, 
		584, 
		581, 
		579, 
		577, 
		575, 
		574, 
		574, 
		574, 
		575, 
		577, 
		579, 
		583, 
		586, 
		590, 
		594, 
		598, 
		602, 
		606, 
		609, 
		611, 
		614, 
		615, 
		616, 
		617, 
		617, 
		617, 
		617, 
		617, 
		617, 
		617, 
		616, 
		615, 
		615, 
		613, 
		612, 
		610, 
		609, 
		607, 
		604, 
		602, 
		600, 
		598, 
		596, 
		594, 
		593, 
		592, 
		591, 
		590, 
		589, 
		589, 
		588, 
		587, 
		586, 
		585, 
		584, 
		583, 
		583, 
		584, 
		585, 
		587, 
		590, 
		593, 
		596, 
		599, 
		602, 
		605, 
		607, 
		609, 
		610, 
		611, 
		611, 
		611, 
		611, 
		610, 
		610, 
		609, 
		609, 
		608, 
		608, 
		608, 
		607, 
		607, 
		606, 
		606, 
		606, 
		605, 
		604, 
		603, 
		602, 
		601, 
		600
	],
	"zonesProfile": [
		19.8867, 
		19.9533, 
		20.44615, 
		21.09216, 
		21.43848, 
		21.3519, 
		21.0189, 
		20.97228, 
		21.32526, 
		21.4518, 
		21.19872, 
		20.919, 
		20.61264, 
		20.32626, 
		20.3529, 
		20.63928, 
		20.77914, 
		20.67258, 
		20.45946, 
		20.44614, 
		20.80578, 
		21.14544, 
		21.01224, 
		20.71254, 
		20.64594, 
		20.47944, 
		19.81344, 
		19.10749, 
		18.93433, 
		19.31395, 
		19.69357, 
		19.76682, 
		19.60033, 
		19.36723, 
		19.24069, 
		19.32727, 
		19.36057, 
		19.16077, 
		19.12747, 
		19.45381, 
		19.95997, 
		20.49276, 
		20.80578, 
		20.80578, 
		20.53938, 
		20.11314, 
		19.70688, 
		19.77349, 
		20.33293, 
		20.75916, 
		20.59932, 
		20.20638, 
		19.92666, 
		19.60033, 
		19.22071, 
		19.17409, 
		19.65361, 
		20.25966, 
		20.52606, 
		20.53938, 
		20.41284, 
		20.12646, 
		19.80013, 
		19.62697, 
		19.48045, 
		19.50709, 
		19.94665, 
		20.29963, 
		20.3196, 
		20.24634, 
		20.17974, 
		20.04654
	],
	"actuators": {
	"values": [
		33.62515, 
		32.99541, 
		27.26165, 
		26.1064, 
		27.17107, 
		29.96264, 
		28.76086, 
		22.22415, 
		16.08105, 
		14.78512, 
		15.4061, 
		17.03245, 
		19.44645, 
		20.68915, 
		19.4882, 
		21.22045, 
		24.16533, 
		25.47345, 
		24.28521, 
		20.33682, 
		18.40776, 
		20.54291, 
		27.29614, 
		27.95712, 
		31.62006, 
		33.72234, 
		39.37292, 
		40.84544, 
		37.46731, 
		35.50584, 
		36.97992, 
		40.29248, 
		43.41595, 
		44.21477, 
		40.23911, 
		36.95637, 
		33.47604, 
		32.77668, 
		27.49004, 
		26.1332, 
		21.68297, 
		22.13632, 
		25.95562, 
		28.92504, 
		35.92181, 
		41.80376, 
		46.66664, 
		45.35513, 
		32.45685, 
		30.50118, 
		28.82018, 
		33.10368, 
		36.32691, 
		40.17114, 
		41.03317, 
		37.82637, 
		33.94013, 
		29.22363, 
		30.18267, 
		27.7247, 
		30.21833, 
		30.8801, 
		30.33721, 
		33.42734, 
		33.8618, 
		29.56509, 
		23.57442, 
		22.87696, 
		22.74238, 
		28.28664, 
		27.59302, 
		34.03198
	],
	"forced": [
		false, 
		false, 
		false, 
		false, 
		false, 
		false, 
		false, 
		false, 
		false, 
		false, 
		false, 
		false, 
		false, 
		false, 
		false, 
		false, 
		false, 
		false, 
		false, 
		false, 
		false, 
		false, 
		false, 
		false, 
		false, 
		false, 
		false, 
		false, 
		false, 
		false, 
		false, 
		false, 
		false, 
		false, 
		false, 
		false, 
		false, 
		false, 
		false, 
		false, 
		false, 
		false, 
		false, 
		false, 
		false, 
		false, 
		false, 
		false, 
		false, 
		false, 
		false, 
		false, 
		false, 
		false, 
		false, 
		false, 
		false, 
		false, 
		false, 
		false, 
		false, 
		false, 
		false, 
		false, 
		false, 
		false, 
		false, 
		false, 
		false, 
		false, 
		false, 
		false
	]
	}
}

