{
	"parameters": {
		"profiles_for_regulation": 2, 
		"large_gain": 65.0, 
		"small_gain": 25.0, 
		"dead_band": 1, 
		"valves_max": 100, 
		"valves_min": 2, 
		"integral_band": 0, 
		"disturbation_type": 0, 
		"disturbation_amount": 0.0, 
		"disturbation_amplitude": 0.0, 
		"disturbation_cycles": 0, 
		"disturbation_frequency": 0, 
		"phase_shift_misDx_haulDx": 5, 
		"phase_shift_misSx_haulDx": 5, 
		"phase_shift_misDx_haulSx": 0, 
		"phase_shift_misSx_haulSx": 0, 
		"matrix_major": 1, 
		"matrix_minor": 0
	},
	"production": {
		"code_customer": "MONO", 
		"code_product": "2", 
		"thickness": 20.2, 
		"tolerance": 2.0, 
		"layflat": 1440.0, 
		"line_speed": 39.0, 
		"flow": 173.0, 
		"melt_d": 1.3
	},
	"status": {
	"application": {
		"measurer_active": true, 
		"actuation_active": true
	},
	"measurer": {
		"direction": -1
	},
	"hauloff": {
		"direction": 1, 
		"last_period": 1119000, 
		"position": 0, 
		"speed": 0
	}
	},
	"stats": {
		"mean_thickness": 20.2, 
		"max_thickness": 20.82762, 
		"min_thickness": 19.48089, 
		"stdDev": 0.3429523, 
		"sigma_abs": 0.6859046, 
		"sigma_perc": 3.395566
	},
	"rawProfile": [
		610, 
		609, 
		608, 
		608, 
		608, 
		608, 
		609, 
		610, 
		611, 
		612, 
		612, 
		612, 
		612, 
		610, 
		608, 
		605, 
		602, 
		598, 
		595, 
		591, 
		589, 
		587, 
		585, 
		585, 
		585, 
		586, 
		587, 
		588, 
		590, 
		592, 
		594, 
		596, 
		598, 
		600, 
		602, 
		605, 
		608, 
		610, 
		612, 
		614, 
		616, 
		617, 
		617, 
		617, 
		616, 
		614, 
		613, 
		611, 
		610, 
		609, 
		608, 
		608, 
		607, 
		607, 
		608, 
		608, 
		608, 
		609, 
		609, 
		609, 
		609, 
		609, 
		609, 
		609, 
		608, 
		608, 
		608, 
		609, 
		609, 
		610, 
		610, 
		611, 
		612, 
		612, 
		613, 
		613, 
		613, 
		612, 
		611, 
		610, 
		608, 
		607, 
		606, 
		605, 
		604, 
		603, 
		602, 
		601, 
		601, 
		600, 
		600, 
		599, 
		598, 
		598, 
		597, 
		597, 
		596, 
		596, 
		596, 
		597, 
		598, 
		599, 
		600, 
		601, 
		601, 
		602, 
		602, 
		601, 
		600, 
		598, 
		596, 
		594, 
		592, 
		589, 
		587, 
		585, 
		584, 
		583, 
		583, 
		584, 
		585, 
		586, 
		587, 
		589, 
		590, 
		592, 
		593, 
		594, 
		595, 
		596, 
		597, 
		598, 
		599, 
		600, 
		601, 
		602, 
		603, 
		604, 
		605, 
		607, 
		608, 
		609, 
		611, 
		612, 
		614, 
		616, 
		617, 
		618, 
		619, 
		620, 
		621, 
		622, 
		622, 
		622, 
		622, 
		621, 
		621, 
		620, 
		619, 
		617, 
		616, 
		614, 
		612, 
		610, 
		609, 
		607, 
		605, 
		604, 
		602, 
		601, 
		600, 
		599, 
		599, 
		600, 
		601, 
		602, 
		603, 
		605, 
		608, 
		610, 
		612, 
		614, 
		615, 
		616, 
		617, 
		618, 
		619, 
		620, 
		621, 
		621, 
		622, 
		623, 
		624, 
		624, 
		623, 
		622, 
		621, 
		619, 
		616, 
		613, 
		610, 
		606, 
		603, 
		601, 
		598, 
		596, 
		595, 
		594, 
		594, 
		594, 
		594, 
		595, 
		596, 
		598, 
		599, 
		602, 
		604, 
		606, 
		608, 
		610, 
		611, 
		612, 
		612, 
		612, 
		612, 
		610, 
		609, 
		607, 
		605, 
		604, 
		602, 
		600, 
		599, 
		599, 
		599, 
		600, 
		601, 
		602, 
		604, 
		607, 
		609, 
		611, 
		614, 
		616, 
		617, 
		618, 
		618, 
		618, 
		617, 
		616, 
		614, 
		612, 
		610, 
		608, 
		607, 
		605, 
		604, 
		603, 
		603, 
		602, 
		601, 
		599, 
		598, 
		596, 
		594, 
		593, 
		591, 
		589, 
		588, 
		587, 
		586, 
		586, 
		587, 
		588, 
		589, 
		592, 
		595, 
		598, 
		602, 
		606, 
		610, 
		614, 
		617, 
		620, 
		621, 
		622, 
		621, 
		620, 
		617, 
		613, 
		609, 
		605, 
		601, 
		597, 
		593, 
		590, 
		588, 
		587, 
		587, 
		588, 
		589, 
		591, 
		593, 
		596, 
		599, 
		602, 
		605, 
		608, 
		610, 
		613, 
		616, 
		618, 
		620, 
		622, 
		624, 
		625, 
		625, 
		625, 
		625, 
		625, 
		624, 
		624, 
		623, 
		623, 
		623, 
		623, 
		624, 
		624, 
		624, 
		623, 
		622, 
		620, 
		618, 
		615, 
		611, 
		607, 
		604, 
		600, 
		598, 
		596, 
		594, 
		594, 
		594, 
		596, 
		597, 
		600, 
		602, 
		605, 
		608, 
		611, 
		613, 
		615, 
		616, 
		617, 
		617, 
		616, 
		615, 
		614, 
		613, 
		611
	],
	"zonesProfile": [
		20.3076, 
		20.3876, 
		20.05425, 
		19.5809, 
		19.57423, 
		19.86758, 
		20.24759, 
		20.54094, 
		20.4276, 
		20.26093, 
		20.28093, 
		20.30093, 
		20.28093, 
		20.3676, 
		20.41427, 
		20.24093, 
		20.07425, 
		19.96758, 
		19.88091, 
		19.96758, 
		20.04092, 
		19.79424, 
		19.48089, 
		19.5409, 
		19.76091, 
		19.93425, 
		20.10092, 
		20.31426, 
		20.56094, 
		20.71428, 
		20.68762, 
		20.46094, 
		20.18093, 
		19.99425, 
		20.12759, 
		20.44761, 
		20.63428, 
		20.76095, 
		20.67428, 
		20.22093, 
		19.84758, 
		19.84758, 
		20.12759, 
		20.38094, 
		20.2876, 
		20.02758, 
		20.04092, 
		20.38094, 
		20.58761, 
		20.40094, 
		20.14759, 
		19.97425, 
		19.7009, 
		19.5609, 
		19.84091, 
		20.44761, 
		20.67428, 
		20.16759, 
		19.63424, 
		19.71424, 
		20.16092, 
		20.59428, 
		20.82762, 
		20.79429, 
		20.78762, 
		20.65428, 
		20.13426, 
		19.82758, 
		20.08092, 
		20.48094, 
		20.50094, 
		20.3076
	],
	"actuators": {
	"values": [
		41.14867, 
		34.38593, 
		19.61234, 
		13.90878, 
		26.07318, 
		28.76662, 
		35.40329, 
		14.48231, 
		15.67097, 
		12.83494, 
		17.78356, 
		18.57932, 
		21.08975, 
		22.89188, 
		16.79125, 
		14.91052, 
		22.73172, 
		22.82053, 
		30.47293, 
		26.40858, 
		16.94174, 
		19.70444, 
		29.72495, 
		29.98038, 
		23.41634, 
		25.13816, 
		37.36622, 
		44.00628, 
		38.42003, 
		34.3394, 
		30.92235, 
		42.58262, 
		44.65665, 
		50.18727, 
		38.80309, 
		36.0097, 
		31.79267, 
		37.35722, 
		22.30714, 
		21.40455, 
		13.57836, 
		20.85726, 
		19.93136, 
		18.22875, 
		29.21466, 
		43.58052, 
		59.16045, 
		50.92174, 
		32.47019, 
		24.42327, 
		33.54582, 
		37.61944, 
		44.533, 
		55.87072, 
		61.3073, 
		49.26432, 
		26.48961, 
		19.15464, 
		27.1378, 
		28.97539, 
		34.49199, 
		30.98288, 
		31.17643, 
		37.55005, 
		39.84837, 
		28.1352, 
		12.2588, 
		20.36808, 
		24.5978, 
		29.54291, 
		22.13214, 
		36.70601
	],
	"forced": [
		false, 
		false, 
		false, 
		false, 
		false, 
		false, 
		false, 
		false, 
		false, 
		false, 
		false, 
		false, 
		false, 
		false, 
		false, 
		false, 
		false, 
		false, 
		false, 
		false, 
		false, 
		false, 
		false, 
		false, 
		false, 
		false, 
		false, 
		false, 
		false, 
		false, 
		false, 
		false, 
		false, 
		false, 
		false, 
		false, 
		false, 
		false, 
		false, 
		false, 
		false, 
		false, 
		false, 
		false, 
		false, 
		false, 
		false, 
		false, 
		false, 
		false, 
		false, 
		false, 
		false, 
		false, 
		false, 
		false, 
		false, 
		false, 
		false, 
		false, 
		false, 
		false, 
		false, 
		false, 
		false, 
		false, 
		false, 
		false, 
		false, 
		false, 
		false, 
		false
	]
	}
}

