{
	"parameters": {
		"profiles_for_regulation": 2, 
		"large_gain": 65.0, 
		"small_gain": 25.0, 
		"dead_band": 1, 
		"valves_max": 100, 
		"valves_min": 2, 
		"integral_band": 0, 
		"disturbation_type": 0, 
		"disturbation_amount": 0.0, 
		"disturbation_amplitude": 0.0, 
		"disturbation_cycles": 0, 
		"disturbation_frequency": 0, 
		"phase_shift_misDx_haulDx": 5, 
		"phase_shift_misSx_haulDx": 5, 
		"phase_shift_misDx_haulSx": 0, 
		"phase_shift_misSx_haulSx": 0, 
		"matrix_major": 1, 
		"matrix_minor": 0
	},
	"production": {
		"code_customer": "MONO", 
		"code_product": "2", 
		"thickness": 20.2, 
		"tolerance": 2.0, 
		"layflat": 1440.0, 
		"line_speed": 39.0, 
		"flow": 173.0, 
		"melt_d": 1.3
	},
	"status": {
	"application": {
		"measurer_active": true, 
		"actuation_active": true
	},
	"measurer": {
		"direction": 1
	},
	"hauloff": {
		"direction": -1, 
		"last_period": 929000, 
		"position": 0, 
		"speed": 0
	}
	},
	"stats": {
		"mean_thickness": 20.2, 
		"max_thickness": 21.65648, 
		"min_thickness": 18.9611, 
		"stdDev": 0.6687263, 
		"sigma_abs": 1.337453, 
		"sigma_perc": 6.621052
	},
	"rawProfile": [
		589, 
		587, 
		585, 
		583, 
		582, 
		581, 
		581, 
		582, 
		583, 
		585, 
		587, 
		591, 
		595, 
		600, 
		605, 
		611, 
		616, 
		621, 
		626, 
		630, 
		633, 
		635, 
		637, 
		638, 
		639, 
		638, 
		637, 
		636, 
		634, 
		631, 
		629, 
		627, 
		625, 
		624, 
		623, 
		624, 
		625, 
		627, 
		630, 
		633, 
		636, 
		640, 
		643, 
		646, 
		648, 
		650, 
		650, 
		650, 
		649, 
		647, 
		646, 
		643, 
		641, 
		639, 
		637, 
		635, 
		634, 
		632, 
		630, 
		629, 
		628, 
		626, 
		624, 
		623, 
		621, 
		619, 
		618, 
		616, 
		615, 
		615, 
		615, 
		615, 
		616, 
		617, 
		618, 
		620, 
		621, 
		622, 
		623, 
		623, 
		624, 
		623, 
		623, 
		622, 
		621, 
		620, 
		618, 
		617, 
		615, 
		613, 
		611, 
		609, 
		607, 
		605, 
		604, 
		602, 
		601, 
		601, 
		601, 
		602, 
		604, 
		606, 
		609, 
		612, 
		615, 
		619, 
		622, 
		624, 
		626, 
		627, 
		628, 
		628, 
		628, 
		628, 
		627, 
		627, 
		627, 
		627, 
		627, 
		628, 
		630, 
		631, 
		633, 
		634, 
		635, 
		636, 
		635, 
		634, 
		632, 
		628, 
		624, 
		620, 
		615, 
		610, 
		604, 
		599, 
		594, 
		589, 
		585, 
		582, 
		579, 
		578, 
		578, 
		578, 
		579, 
		581, 
		583, 
		586, 
		588, 
		590, 
		592, 
		594, 
		595, 
		596, 
		596, 
		596, 
		596, 
		595, 
		594, 
		593, 
		591, 
		589, 
		587, 
		585, 
		582, 
		580, 
		577, 
		575, 
		573, 
		571, 
		569, 
		568, 
		568, 
		568, 
		569, 
		570, 
		571, 
		573, 
		575, 
		577, 
		578, 
		579, 
		580, 
		581, 
		580, 
		580, 
		580, 
		579, 
		579, 
		579, 
		579, 
		579, 
		580, 
		582, 
		584, 
		586, 
		588, 
		591, 
		593, 
		596, 
		599, 
		601, 
		604, 
		607, 
		610, 
		613, 
		615, 
		618, 
		620, 
		622, 
		623, 
		624, 
		625, 
		626, 
		626, 
		626, 
		626, 
		625, 
		624, 
		623, 
		621, 
		619, 
		617, 
		614, 
		611, 
		608, 
		604, 
		601, 
		597, 
		594, 
		590, 
		588, 
		585, 
		584, 
		583, 
		583, 
		584, 
		586, 
		589, 
		593, 
		597, 
		602, 
		606, 
		610, 
		614, 
		618, 
		621, 
		623, 
		624, 
		624, 
		624, 
		623, 
		621, 
		620, 
		618, 
		617, 
		615, 
		614, 
		613, 
		612, 
		606, 
		605, 
		604, 
		602, 
		600, 
		598, 
		595, 
		592, 
		589, 
		586, 
		583, 
		580, 
		577, 
		575, 
		573, 
		572, 
		572, 
		573, 
		575, 
		577, 
		581, 
		584, 
		589, 
		594, 
		599, 
		603, 
		608, 
		612, 
		615, 
		618, 
		620, 
		621, 
		622, 
		622, 
		622, 
		621, 
		620, 
		619, 
		618, 
		617, 
		616, 
		614, 
		613, 
		611, 
		610, 
		608, 
		606, 
		604, 
		602, 
		600, 
		598, 
		597, 
		595, 
		593, 
		592, 
		590, 
		588, 
		586, 
		584, 
		581, 
		579, 
		576, 
		574, 
		572, 
		571, 
		571, 
		571, 
		573, 
		575, 
		578, 
		582, 
		585, 
		589, 
		592, 
		595, 
		598, 
		600, 
		601, 
		602, 
		603, 
		604, 
		604, 
		604, 
		604, 
		604, 
		603, 
		603, 
		603, 
		603, 
		603, 
		602, 
		602, 
		602, 
		601, 
		601, 
		600, 
		598, 
		597, 
		595, 
		592
	],
	"zonesProfile": [
		19.52152, 
		19.42812, 
		19.86845, 
		20.70909, 
		21.22949, 
		21.18946, 
		20.86921, 
		20.9426, 
		21.43631, 
		21.65648, 
		21.38961, 
		21.08271, 
		20.82919, 
		20.56898, 
		20.55564, 
		20.74245, 
		20.76914, 
		20.56898, 
		20.25541, 
		20.06193, 
		20.32213, 
		20.8025, 
		20.9426, 
		20.92259, 
		21.10273, 
		21.11607, 
		20.50227, 
		19.67497, 
		19.29468, 
		19.53487, 
		19.83509, 
		19.84177, 
		19.57489, 
		19.18793, 
		18.9611, 
		19.12122, 
		19.33471, 
		19.32804, 
		19.37474, 
		19.70833, 
		20.15534, 
		20.60234, 
		20.84253, 
		20.84253, 
		20.56231, 
		20.04192, 
		19.54821, 
		19.58157, 
		20.20871, 
		20.74912, 
		20.72244, 
		20.48892, 
		20.12865, 
		19.74836, 
		19.268, 
		19.14123, 
		19.66163, 
		20.38885, 
		20.72911, 
		20.64905, 
		20.44222, 
		20.14867, 
		19.84844, 
		19.54154, 
		19.16125, 
		19.13456, 
		19.63494, 
		20.04192, 
		20.14867, 
		20.11531, 
		20.06861, 
		19.89514
	],
	"actuators": {
	"values": [
		34.39621, 
		34.12693, 
		27.79254, 
		25.37693, 
		25.77251, 
		28.59621, 
		28.0767, 
		21.47387, 
		14.36955, 
		12.75409, 
		13.97921, 
		15.97202, 
		18.68518, 
		20.35386, 
		19.17091, 
		20.23113, 
		23.44213, 
		24.5147, 
		24.77433, 
		20.09996, 
		18.49764, 
		19.35918, 
		26.42074, 
		27.17957, 
		30.75407, 
		32.33234, 
		39.62782, 
		41.61238, 
		39.07563, 
		36.25249, 
		37.39425, 
		40.65516, 
		44.12704, 
		45.50263, 
		41.87977, 
		38.24089, 
		34.30532, 
		33.90002, 
		28.55182, 
		26.95968, 
		21.49409, 
		21.77154, 
		25.13809, 
		27.97656, 
		35.72781, 
		41.34663, 
		47.97805, 
		46.10545, 
		32.57151, 
		29.47059, 
		28.22506, 
		32.828, 
		36.21179, 
		40.72822, 
		42.12885, 
		39.57677, 
		34.26745, 
		29.58456, 
		28.97309, 
		27.33917, 
		29.5173, 
		31.0624, 
		30.59262, 
		34.11843, 
		35.03022, 
		31.22379, 
		24.12659, 
		23.42268, 
		22.40954, 
		28.55453, 
		27.27103, 
		34.55118
	],
	"forced": [
		false, 
		false, 
		false, 
		false, 
		false, 
		false, 
		false, 
		false, 
		false, 
		false, 
		false, 
		false, 
		false, 
		false, 
		false, 
		false, 
		false, 
		false, 
		false, 
		false, 
		false, 
		false, 
		false, 
		false, 
		false, 
		false, 
		false, 
		false, 
		false, 
		false, 
		false, 
		false, 
		false, 
		false, 
		false, 
		false, 
		false, 
		false, 
		false, 
		false, 
		false, 
		false, 
		false, 
		false, 
		false, 
		false, 
		false, 
		false, 
		false, 
		false, 
		false, 
		false, 
		false, 
		false, 
		false, 
		false, 
		false, 
		false, 
		false, 
		false, 
		false, 
		false, 
		false, 
		false, 
		false, 
		false, 
		false, 
		false, 
		false, 
		false, 
		false, 
		false
	]
	}
}

