{
	"parameters": {
		"profiles_for_regulation": 2, 
		"large_gain": 65.0, 
		"small_gain": 25.0, 
		"dead_band": 1, 
		"valves_max": 100, 
		"valves_min": 2, 
		"integral_band": 0, 
		"disturbation_type": 0, 
		"disturbation_amount": 0.0, 
		"disturbation_amplitude": 0.0, 
		"disturbation_cycles": 0, 
		"disturbation_frequency": 0, 
		"phase_shift_misDx_haulDx": 5, 
		"phase_shift_misSx_haulDx": 5, 
		"phase_shift_misDx_haulSx": 0, 
		"phase_shift_misSx_haulSx": 0, 
		"matrix_major": 1, 
		"matrix_minor": 0
	},
	"production": {
		"code_customer": "MONO", 
		"code_product": "2", 
		"thickness": 20.2, 
		"tolerance": 2.0, 
		"layflat": 1440.0, 
		"line_speed": 39.0, 
		"flow": 173.0, 
		"melt_d": 1.3
	},
	"status": {
	"application": {
		"measurer_active": true, 
		"actuation_active": true
	},
	"measurer": {
		"direction": -1
	},
	"hauloff": {
		"direction": -1, 
		"last_period": 1153000, 
		"position": 0, 
		"speed": 0
	}
	},
	"stats": {
		"mean_thickness": 20.2, 
		"max_thickness": 20.63774, 
		"min_thickness": 19.79155, 
		"stdDev": 0.2077461, 
		"sigma_abs": 0.4154921, 
		"sigma_perc": 2.056892
	},
	"rawProfile": [
		596, 
		596, 
		597, 
		598, 
		599, 
		600, 
		602, 
		603, 
		605, 
		607, 
		608, 
		609, 
		609, 
		609, 
		609, 
		608, 
		607, 
		606, 
		605, 
		604, 
		604, 
		604, 
		604, 
		605, 
		606, 
		607, 
		608, 
		608, 
		608, 
		608, 
		607, 
		606, 
		604, 
		602, 
		601, 
		599, 
		597, 
		596, 
		595, 
		594, 
		593, 
		593, 
		592, 
		591, 
		591, 
		590, 
		590, 
		590, 
		590, 
		590, 
		590, 
		590, 
		590, 
		591, 
		591, 
		592, 
		592, 
		592, 
		592, 
		592, 
		592, 
		592, 
		592, 
		592, 
		592, 
		592, 
		592, 
		593, 
		594, 
		595, 
		596, 
		597, 
		599, 
		600, 
		601, 
		602, 
		603, 
		604, 
		605, 
		605, 
		605, 
		606, 
		606, 
		607, 
		607, 
		608, 
		609, 
		609, 
		610, 
		610, 
		610, 
		610, 
		610, 
		609, 
		608, 
		607, 
		606, 
		605, 
		604, 
		603, 
		603, 
		603, 
		603, 
		603, 
		604, 
		605, 
		605, 
		606, 
		606, 
		606, 
		606, 
		605, 
		604, 
		603, 
		601, 
		600, 
		600, 
		599, 
		599, 
		600, 
		600, 
		601, 
		602, 
		603, 
		604, 
		605, 
		606, 
		606, 
		606, 
		606, 
		605, 
		605, 
		604, 
		603, 
		603, 
		602, 
		602, 
		601, 
		601, 
		601, 
		601, 
		601, 
		601, 
		601, 
		601, 
		602, 
		602, 
		601, 
		601, 
		601, 
		601, 
		600, 
		600, 
		599, 
		599, 
		599, 
		599, 
		599, 
		599, 
		599, 
		599, 
		599, 
		600, 
		601, 
		602, 
		603, 
		604, 
		605, 
		606, 
		607, 
		607, 
		607, 
		607, 
		606, 
		606, 
		605, 
		604, 
		604, 
		603, 
		603, 
		603, 
		602, 
		602, 
		602, 
		602, 
		602, 
		602, 
		602, 
		603, 
		603, 
		604, 
		605, 
		607, 
		608, 
		609, 
		610, 
		611, 
		612, 
		612, 
		612, 
		612, 
		612, 
		612, 
		612, 
		612, 
		612, 
		612, 
		612, 
		612, 
		612, 
		611, 
		610, 
		609, 
		608, 
		607, 
		606, 
		605, 
		604, 
		604, 
		604, 
		605, 
		606, 
		607, 
		608, 
		609, 
		609, 
		609, 
		609, 
		608, 
		606, 
		604, 
		602, 
		599, 
		597, 
		594, 
		592, 
		591, 
		589, 
		588, 
		588, 
		588, 
		589, 
		589, 
		590, 
		591, 
		593, 
		594, 
		595, 
		595, 
		596, 
		597, 
		598, 
		599, 
		600, 
		601, 
		602, 
		604, 
		605, 
		606, 
		607, 
		608, 
		608, 
		608, 
		607, 
		606, 
		605, 
		603, 
		601, 
		599, 
		597, 
		596, 
		595, 
		594, 
		595, 
		596, 
		597, 
		600, 
		603, 
		606, 
		609, 
		611, 
		613, 
		614, 
		614, 
		613, 
		611, 
		607, 
		603, 
		599, 
		595, 
		592, 
		590, 
		589, 
		590, 
		591, 
		594, 
		598, 
		602, 
		606, 
		610, 
		613, 
		615, 
		616, 
		615, 
		614, 
		612, 
		609, 
		605, 
		602, 
		599, 
		596, 
		593, 
		592, 
		591, 
		590, 
		590, 
		591, 
		591, 
		591, 
		592, 
		592, 
		592, 
		593, 
		594, 
		594, 
		596, 
		597, 
		599, 
		601, 
		602, 
		603, 
		604, 
		604, 
		604, 
		603, 
		603, 
		602, 
		601, 
		600, 
		600, 
		600, 
		600, 
		600, 
		601, 
		601, 
		601, 
		601, 
		601, 
		600, 
		600, 
		599, 
		598, 
		597, 
		597, 
		596, 
		595, 
		595, 
		595, 
		595, 
		595
	],
	"zonesProfile": [
		20.05346, 
		20.26166, 
		20.44298, 
		20.34896, 
		20.30195, 
		20.4094, 
		20.2818, 
		20.01989, 
		19.87885, 
		19.8117, 
		19.82513, 
		19.87885, 
		19.87885, 
		19.91915, 
		20.10048, 
		20.27509, 
		20.35568, 
		20.45642, 
		20.46313, 
		20.31538, 
		20.25494, 
		20.33553, 
		20.27509, 
		20.13405, 
		20.21465, 
		20.34225, 
		20.2818, 
		20.1945, 
		20.18107, 
		20.1945, 
		20.14077, 
		20.11391, 
		20.1542, 
		20.31538, 
		20.36911, 
		20.27509, 
		20.22136, 
		20.22808, 
		20.36911, 
		20.53029, 
		20.55044, 
		20.55044, 
		20.4497, 
		20.30195, 
		20.38254, 
		20.42284, 
		20.12062, 
		19.79826, 
		19.79155, 
		19.96616, 
		20.11391, 
		20.30867, 
		20.39597, 
		20.18107, 
		19.98631, 
		20.24822, 
		20.58401, 
		20.24822, 
		19.82513, 
		20.21465, 
		20.63774, 
		20.32882, 
		19.89228, 
		19.84527, 
		19.91243, 
		20.11391, 
		20.26837, 
		20.18778, 
		20.16092, 
		20.16764, 
		20.06018, 
		19.97959
	],
	"actuators": {
	"values": [
		50.3215, 
		31.33216, 
		16.08973, 
		24.97727, 
		23.02727, 
		24.84762, 
		30.08229, 
		8.791822, 
		15.31487, 
		13.43008, 
		19.00806, 
		11.83703, 
		23.68104, 
		22.43487, 
		19.15472, 
		13.83846, 
		22.01408, 
		19.39138, 
		31.93271, 
		31.04593, 
		13.10579, 
		13.90945, 
		25.49746, 
		28.96023, 
		15.25588, 
		23.51656, 
		45.89687, 
		57.18066, 
		42.75425, 
		37.49801, 
		32.96921, 
		48.57317, 
		48.51814, 
		49.10892, 
		37.9552, 
		38.26901, 
		33.17589, 
		46.26571, 
		14.93791, 
		27.29428, 
		15.90887, 
		23.90989, 
		20.64417, 
		11.65995, 
		25.54097, 
		41.52761, 
		76.66196, 
		54.69944, 
		37.11537, 
		15.11691, 
		41.28318, 
		29.65245, 
		39.05249, 
		61.15419, 
		76.88732, 
		37.89544, 
		2, 
		17.7254, 
		45.83041, 
		33.31313, 
		14.2959, 
		24.42046, 
		19.54543, 
		35.92904, 
		38.35759, 
		20.90457, 
		14.50315, 
		26.82936, 
		27.15217, 
		17.30244, 
		23.58718, 
		42.89153
	],
	"forced": [
		false, 
		false, 
		false, 
		false, 
		false, 
		false, 
		false, 
		false, 
		false, 
		false, 
		false, 
		false, 
		false, 
		false, 
		false, 
		false, 
		false, 
		false, 
		false, 
		false, 
		false, 
		false, 
		false, 
		false, 
		false, 
		false, 
		false, 
		false, 
		false, 
		false, 
		false, 
		false, 
		false, 
		false, 
		false, 
		false, 
		false, 
		false, 
		false, 
		false, 
		false, 
		false, 
		false, 
		false, 
		false, 
		false, 
		false, 
		false, 
		false, 
		false, 
		false, 
		false, 
		false, 
		false, 
		false, 
		false, 
		false, 
		false, 
		false, 
		false, 
		false, 
		false, 
		false, 
		false, 
		false, 
		false, 
		false, 
		false, 
		false, 
		false, 
		false, 
		false
	]
	}
}

