{
	"parameters": {
		"profiles_for_regulation": 2, 
		"large_gain": 65.0, 
		"small_gain": 25.0, 
		"dead_band": 1, 
		"valves_max": 100, 
		"valves_min": 2, 
		"integral_band": 0, 
		"disturbation_type": 0, 
		"disturbation_amount": 0.0, 
		"disturbation_amplitude": 0.0, 
		"disturbation_cycles": 0, 
		"disturbation_frequency": 0, 
		"phase_shift_misDx_haulDx": 5, 
		"phase_shift_misSx_haulDx": 5, 
		"phase_shift_misDx_haulSx": 0, 
		"phase_shift_misSx_haulSx": 0, 
		"matrix_major": 1, 
		"matrix_minor": 0
	},
	"production": {
		"code_customer": "MONO", 
		"code_product": "2", 
		"thickness": 20.2, 
		"tolerance": 2.0, 
		"layflat": 1440.0, 
		"line_speed": 36.0, 
		"flow": 160.0, 
		"melt_d": 1.3
	},
	"status": {
	"application": {
		"measurer_active": true, 
		"actuation_active": true
	},
	"measurer": {
		"direction": 1
	},
	"hauloff": {
		"direction": 1, 
		"last_period": 234000, 
		"position": 0, 
		"speed": 0
	}
	},
	"stats": {
		"mean_thickness": 20.2, 
		"max_thickness": 21.05471, 
		"min_thickness": 19.49633, 
		"stdDev": 0.3668387, 
		"sigma_abs": 0.7336774, 
		"sigma_perc": 3.632066
	},
	"rawProfile": [
		615, 
		614, 
		613, 
		612, 
		612, 
		613, 
		614, 
		616, 
		618, 
		620, 
		623, 
		625, 
		627, 
		629, 
		630, 
		630, 
		629, 
		628, 
		626, 
		624, 
		622, 
		620, 
		618, 
		616, 
		615, 
		614, 
		613, 
		612, 
		611, 
		611, 
		611, 
		610, 
		610, 
		611, 
		611, 
		612, 
		613, 
		614, 
		615, 
		616, 
		617, 
		617, 
		617, 
		617, 
		616, 
		615, 
		614, 
		612, 
		611, 
		609, 
		608, 
		607, 
		606, 
		605, 
		604, 
		603, 
		603, 
		602, 
		601, 
		600, 
		600, 
		599, 
		598, 
		597, 
		596, 
		596, 
		596, 
		596, 
		596, 
		596, 
		597, 
		597, 
		598, 
		598, 
		598, 
		598, 
		598, 
		598, 
		597, 
		596, 
		596, 
		595, 
		595, 
		596, 
		596, 
		597, 
		598, 
		599, 
		601, 
		602, 
		602, 
		603, 
		603, 
		603, 
		602, 
		602, 
		601, 
		600, 
		600, 
		599, 
		599, 
		599, 
		598, 
		598, 
		598, 
		598, 
		597, 
		597, 
		596, 
		595, 
		594, 
		593, 
		592, 
		592, 
		591, 
		591, 
		591, 
		592, 
		593, 
		595, 
		597, 
		599, 
		600, 
		602, 
		604, 
		605, 
		606, 
		606, 
		607, 
		607, 
		607, 
		608, 
		609, 
		610, 
		611, 
		612, 
		613, 
		614, 
		615, 
		616, 
		617, 
		618, 
		619, 
		620, 
		621, 
		621, 
		622, 
		622, 
		622, 
		621, 
		621, 
		619, 
		618, 
		617, 
		615, 
		613, 
		612, 
		610, 
		609, 
		608, 
		608, 
		607, 
		607, 
		608, 
		609, 
		610, 
		611, 
		612, 
		612, 
		613, 
		613, 
		613, 
		613, 
		613, 
		613, 
		612, 
		612, 
		612, 
		612, 
		613, 
		613, 
		613, 
		613, 
		613, 
		613, 
		613, 
		614, 
		615, 
		617, 
		620, 
		622, 
		625, 
		628, 
		631, 
		633, 
		635, 
		636, 
		636, 
		635, 
		633, 
		631, 
		628, 
		625, 
		622, 
		620, 
		617, 
		615, 
		613, 
		612, 
		611, 
		610, 
		610, 
		610, 
		610, 
		611, 
		613, 
		614, 
		616, 
		617, 
		618, 
		619, 
		619, 
		619, 
		618, 
		617, 
		615, 
		613, 
		611, 
		609, 
		607, 
		605, 
		604, 
		603, 
		602, 
		602, 
		603, 
		604, 
		605, 
		606, 
		608, 
		609, 
		611, 
		612, 
		612, 
		612, 
		611, 
		610, 
		608, 
		605, 
		602, 
		599, 
		597, 
		594, 
		592, 
		590, 
		590, 
		590, 
		590, 
		591, 
		592, 
		593, 
		594, 
		594, 
		595, 
		595, 
		594, 
		594, 
		593, 
		592, 
		591, 
		590, 
		589, 
		589, 
		589, 
		590, 
		592, 
		594, 
		597, 
		600, 
		605, 
		609, 
		614, 
		619, 
		623, 
		627, 
		630, 
		631, 
		631, 
		630, 
		627, 
		623, 
		618, 
		613, 
		608, 
		602, 
		598, 
		594, 
		590, 
		588, 
		587, 
		587, 
		587, 
		589, 
		590, 
		592, 
		594, 
		597, 
		599, 
		601, 
		604, 
		606, 
		608, 
		610, 
		612, 
		614, 
		615, 
		616, 
		616, 
		617, 
		616, 
		616, 
		616, 
		615, 
		616, 
		617, 
		618, 
		620, 
		623, 
		626, 
		628, 
		630, 
		632, 
		633, 
		632, 
		631, 
		629, 
		627, 
		623, 
		620, 
		616, 
		613, 
		610, 
		607, 
		605, 
		604, 
		604, 
		605, 
		606, 
		608, 
		610, 
		612, 
		614, 
		616, 
		617, 
		618, 
		618, 
		618, 
		618, 
		617, 
		616
	],
	"zonesProfile": [
		20.37831, 
		20.71651, 
		20.84251, 
		20.55736, 
		20.32526, 
		20.24569, 
		20.32526, 
		20.45126, 
		20.34516, 
		20.12632, 
		19.98043, 
		19.85443, 
		19.76159, 
		19.80138, 
		19.82127, 
		19.74833, 
		19.83454, 
		19.98043, 
		19.92738, 
		19.8478, 
		19.80138, 
		19.66875, 
		19.6157, 
		19.8478, 
		20.0799, 
		20.16611, 
		20.32526, 
		20.49104, 
		20.61041, 
		20.53083, 
		20.28547, 
		20.14621, 
		20.25231, 
		20.32526, 
		20.29873, 
		20.32526, 
		20.37168, 
		20.72978, 
		21.05471, 
		20.81598, 
		20.40484, 
		20.23242, 
		20.36505, 
		20.51094, 
		20.32526, 
		20.03348, 
		20.02685, 
		20.23905, 
		20.19926, 
		19.78812, 
		19.56928, 
		19.68201, 
		19.68202, 
		19.54939, 
		19.71517, 
		20.35842, 
		20.8823, 
		20.48441, 
		19.70854, 
		19.49633, 
		19.78148, 
		20.15948, 
		20.41147, 
		20.4181, 
		20.58389, 
		20.92209, 
		20.7563, 
		20.23242, 
		20.07327, 
		20.35179, 
		20.48442, 
		20.35842
	],
	"actuators": {
	"values": [
		42.53521, 
		38.23406, 
		21.05469, 
		15.72781, 
		18.27482, 
		28.64013, 
		30.83227, 
		22.69262, 
		11.10331, 
		11.36334, 
		17.23866, 
		18.10559, 
		20.4304, 
		26.23952, 
		19.59489, 
		16.18254, 
		21.17657, 
		24.9622, 
		26.45828, 
		27.6674, 
		17.27831, 
		17.44748, 
		19.94351, 
		24.00012, 
		21.6315, 
		25.47139, 
		37.46911, 
		45.45033, 
		41.07149, 
		37.99907, 
		39.13599, 
		41.90023, 
		45.94208, 
		40.30193, 
		39.22145, 
		38.43519, 
		40.28629, 
		36.85732, 
		28.67335, 
		16.03971, 
		18.98481, 
		17.6909, 
		19.02958, 
		20.27629, 
		26.24695, 
		44.23846, 
		60.93469, 
		55.21544, 
		38.30162, 
		17.58969, 
		29.29065, 
		39.86935, 
		50.128, 
		59.1616, 
		64.70485, 
		53.87599, 
		32.50529, 
		16.17234, 
		21.02038, 
		27.48469, 
		31.23645, 
		32.52559, 
		33.61709, 
		28.97513, 
		39.07375, 
		27.28279, 
		17.07969, 
		13.35167, 
		21.6895, 
		24.51432, 
		32.54928, 
		37.78798
	],
	"forced": [
		false, 
		false, 
		false, 
		false, 
		false, 
		false, 
		false, 
		false, 
		false, 
		false, 
		false, 
		false, 
		false, 
		false, 
		false, 
		false, 
		false, 
		false, 
		false, 
		false, 
		false, 
		false, 
		false, 
		false, 
		false, 
		false, 
		false, 
		false, 
		false, 
		false, 
		false, 
		false, 
		false, 
		false, 
		false, 
		false, 
		false, 
		false, 
		false, 
		false, 
		false, 
		false, 
		false, 
		false, 
		false, 
		false, 
		false, 
		false, 
		false, 
		false, 
		false, 
		false, 
		false, 
		false, 
		false, 
		false, 
		false, 
		false, 
		false, 
		false, 
		false, 
		false, 
		false, 
		false, 
		false, 
		false, 
		false, 
		false, 
		false, 
		false, 
		false, 
		false
	]
	}
}

