{
	"parameters": {
		"profiles_for_regulation": 2, 
		"large_gain": 65.0, 
		"small_gain": 25.0, 
		"dead_band": 1, 
		"valves_max": 100, 
		"valves_min": 2, 
		"integral_band": 0, 
		"disturbation_type": 0, 
		"disturbation_amount": 0.0, 
		"disturbation_amplitude": 0.0, 
		"disturbation_cycles": 0, 
		"disturbation_frequency": 0, 
		"phase_shift_misDx_haulDx": 5, 
		"phase_shift_misSx_haulDx": 5, 
		"phase_shift_misDx_haulSx": 0, 
		"phase_shift_misSx_haulSx": 0, 
		"matrix_major": 1, 
		"matrix_minor": 0
	},
	"production": {
		"code_customer": "MONO", 
		"code_product": "2", 
		"thickness": 20.2, 
		"tolerance": 2.0, 
		"layflat": 1440.0, 
		"line_speed": 36.0, 
		"flow": 160.0, 
		"melt_d": 1.3
	},
	"status": {
	"application": {
		"measurer_active": true, 
		"actuation_active": true
	},
	"measurer": {
		"direction": 1
	},
	"hauloff": {
		"direction": -1, 
		"last_period": 619000, 
		"position": 0, 
		"speed": 0
	}
	},
	"stats": {
		"mean_thickness": 20.2, 
		"max_thickness": 21.15993, 
		"min_thickness": 18.79919, 
		"stdDev": 0.5398525, 
		"sigma_abs": 1.079705, 
		"sigma_perc": 5.345074
	},
	"rawProfile": [
		591, 
		590, 
		590, 
		590, 
		590, 
		591, 
		593, 
		595, 
		598, 
		602, 
		606, 
		610, 
		614, 
		619, 
		623, 
		627, 
		630, 
		633, 
		634, 
		635, 
		636, 
		636, 
		635, 
		634, 
		632, 
		630, 
		628, 
		625, 
		623, 
		620, 
		617, 
		615, 
		612, 
		610, 
		609, 
		608, 
		607, 
		608, 
		609, 
		610, 
		611, 
		613, 
		614, 
		615, 
		615, 
		615, 
		614, 
		613, 
		612, 
		611, 
		609, 
		608, 
		607, 
		606, 
		606, 
		606, 
		606, 
		606, 
		606, 
		607, 
		607, 
		608, 
		608, 
		608, 
		609, 
		609, 
		609, 
		610, 
		610, 
		611, 
		612, 
		614, 
		615, 
		617, 
		619, 
		621, 
		622, 
		623, 
		624, 
		625, 
		625, 
		625, 
		625, 
		625, 
		625, 
		625, 
		625, 
		625, 
		625, 
		625, 
		624, 
		624, 
		623, 
		623, 
		622, 
		622, 
		621, 
		621, 
		620, 
		620, 
		621, 
		621, 
		622, 
		623, 
		623, 
		624, 
		624, 
		624, 
		623, 
		623, 
		621, 
		620, 
		618, 
		617, 
		615, 
		614, 
		614, 
		613, 
		614, 
		614, 
		615, 
		616, 
		617, 
		618, 
		618, 
		618, 
		617, 
		616, 
		614, 
		611, 
		609, 
		606, 
		603, 
		601, 
		599, 
		597, 
		595, 
		594, 
		594, 
		593, 
		594, 
		595, 
		596, 
		598, 
		600, 
		602, 
		604, 
		605, 
		607, 
		608, 
		608, 
		608, 
		608, 
		607, 
		606, 
		604, 
		602, 
		601, 
		599, 
		597, 
		595, 
		593, 
		591, 
		589, 
		588, 
		587, 
		585, 
		584, 
		583, 
		583, 
		582, 
		582, 
		581, 
		581, 
		582, 
		582, 
		583, 
		584, 
		585, 
		586, 
		587, 
		589, 
		590, 
		591, 
		592, 
		593, 
		594, 
		595, 
		597, 
		599, 
		602, 
		604, 
		606, 
		609, 
		611, 
		612, 
		613, 
		614, 
		614, 
		614, 
		613, 
		612, 
		611, 
		609, 
		608, 
		606, 
		604, 
		602, 
		600, 
		598, 
		596, 
		594, 
		592, 
		591, 
		590, 
		590, 
		590, 
		590, 
		590, 
		591, 
		591, 
		591, 
		590, 
		589, 
		587, 
		585, 
		582, 
		579, 
		576, 
		572, 
		569, 
		566, 
		563, 
		561, 
		560, 
		561, 
		562, 
		564, 
		568, 
		572, 
		578, 
		584, 
		591, 
		598, 
		605, 
		611, 
		617, 
		622, 
		625, 
		627, 
		627, 
		626, 
		624, 
		621, 
		618, 
		614, 
		610, 
		607, 
		604, 
		601, 
		598, 
		595, 
		593, 
		590, 
		588, 
		585, 
		582, 
		580, 
		577, 
		575, 
		573, 
		571, 
		570, 
		570, 
		571, 
		572, 
		574, 
		577, 
		580, 
		584, 
		589, 
		594, 
		600, 
		605, 
		610, 
		615, 
		619, 
		623, 
		626, 
		628, 
		629, 
		629, 
		629, 
		629, 
		628, 
		627, 
		626, 
		624, 
		623, 
		621, 
		620, 
		619, 
		617, 
		616, 
		615, 
		613, 
		612, 
		611, 
		610, 
		609, 
		608, 
		607, 
		607, 
		606, 
		605, 
		604, 
		604, 
		603, 
		601, 
		600, 
		598, 
		596, 
		594, 
		593, 
		592, 
		593, 
		594, 
		596, 
		598, 
		602, 
		606, 
		611, 
		615, 
		619, 
		622, 
		625, 
		628, 
		629, 
		630, 
		630, 
		630, 
		630, 
		628, 
		627, 
		625, 
		623, 
		621, 
		618, 
		616, 
		614, 
		611, 
		609, 
		606, 
		604, 
		602, 
		600, 
		598, 
		596, 
		594, 
		592
	],
	"zonesProfile": [
		19.67947, 
		19.86619, 
		20.48639, 
		21.06657, 
		21.15993, 
		20.8465, 
		20.42637, 
		20.28633, 
		20.45971, 
		20.4397, 
		20.24631, 
		20.21297, 
		20.27299, 
		20.33301, 
		20.51973, 
		20.77314, 
		20.83983, 
		20.83983, 
		20.77981, 
		20.69979, 
		20.7398, 
		20.79315, 
		20.61309, 
		20.46638, 
		20.56641, 
		20.51306, 
		20.12627, 
		19.82618, 
		19.89287, 
		20.17962, 
		20.25298, 
		20.02624, 
		19.71281, 
		19.48607, 
		19.39271, 
		19.47274, 
		19.66613, 
		19.85952, 
		20.21964, 
		20.45304, 
		20.35968, 
		20.07293, 
		19.75949, 
		19.67947, 
		19.65946, 
		19.29935, 
		18.79919, 
		18.85254, 
		19.71281, 
		20.68645, 
		20.77981, 
		20.24631, 
		19.76616, 
		19.3327, 
		19.03927, 
		19.25267, 
		19.9929, 
		20.74647, 
		20.96654, 
		20.81316, 
		20.58642, 
		20.37302, 
		20.22631, 
		20.08626, 
		19.82618, 
		19.89287, 
		20.49306, 
		20.9532, 
		20.93986, 
		20.61976, 
		20.21964, 
		19.87286
	],
	"actuators": {
	"values": [
		41.15794, 
		37.74017, 
		30.7639, 
		25.46032, 
		21.68819, 
		27.35995, 
		26.86206, 
		22.82601, 
		13.77922, 
		13.46768, 
		15.68773, 
		17.24785, 
		20.33842, 
		24.18817, 
		20.90749, 
		19.66949, 
		21.55612, 
		27.35011, 
		27.34308, 
		27.23589, 
		20.06835, 
		18.47887, 
		21.55869, 
		25.87521, 
		26.88745, 
		31.52809, 
		38.91896, 
		45.18056, 
		44.22306, 
		40.90052, 
		40.41901, 
		42.40188, 
		43.4328, 
		40.75917, 
		39.14592, 
		36.89012, 
		37.62195, 
		34.66323, 
		30.38617, 
		21.62787, 
		20.22702, 
		18.19247, 
		19.99319, 
		20.85569, 
		29.38097, 
		39.65062, 
		53.34427, 
		50.36515, 
		38.77581, 
		20.55999, 
		24.01938, 
		31.12501, 
		39.74523, 
		46.90893, 
		52.10472, 
		47.30636, 
		36.95835, 
		24.89995, 
		23.17783, 
		23.13749, 
		24.03744, 
		28.16795, 
		30.84039, 
		30.44943, 
		36.62933, 
		31.68158, 
		24.95931, 
		17.95529, 
		20.97108, 
		22.45168, 
		31.6936, 
		35.57555
	],
	"forced": [
		false, 
		false, 
		false, 
		false, 
		false, 
		false, 
		false, 
		false, 
		false, 
		false, 
		false, 
		false, 
		false, 
		false, 
		false, 
		false, 
		false, 
		false, 
		false, 
		false, 
		false, 
		false, 
		false, 
		false, 
		false, 
		false, 
		false, 
		false, 
		false, 
		false, 
		false, 
		false, 
		false, 
		false, 
		false, 
		false, 
		false, 
		false, 
		false, 
		false, 
		false, 
		false, 
		false, 
		false, 
		false, 
		false, 
		false, 
		false, 
		false, 
		false, 
		false, 
		false, 
		false, 
		false, 
		false, 
		false, 
		false, 
		false, 
		false, 
		false, 
		false, 
		false, 
		false, 
		false, 
		false, 
		false, 
		false, 
		false, 
		false, 
		false, 
		false, 
		false
	]
	}
}

