{
	"parameters": {
		"profiles_for_regulation": 2, 
		"large_gain": 65.0, 
		"small_gain": 25.0, 
		"dead_band": 1, 
		"valves_max": 100, 
		"valves_min": 2, 
		"integral_band": 0, 
		"disturbation_type": 0, 
		"disturbation_amount": 0.0, 
		"disturbation_amplitude": 0.0, 
		"disturbation_cycles": 0, 
		"disturbation_frequency": 0, 
		"phase_shift_misDx_haulDx": 5, 
		"phase_shift_misSx_haulDx": 5, 
		"phase_shift_misDx_haulSx": 0, 
		"phase_shift_misSx_haulSx": 0, 
		"matrix_major": 1, 
		"matrix_minor": 0
	},
	"production": {
		"code_customer": "MONO", 
		"code_product": "2", 
		"thickness": 20.2, 
		"tolerance": 2.0, 
		"layflat": 1440.0, 
		"line_speed": 36.0, 
		"flow": 160.0, 
		"melt_d": 1.3
	},
	"status": {
	"application": {
		"measurer_active": true, 
		"actuation_active": true
	},
	"measurer": {
		"direction": 1
	},
	"hauloff": {
		"direction": 1, 
		"last_period": 1631000, 
		"position": 0, 
		"speed": 0
	}
	},
	"stats": {
		"mean_thickness": 20.2, 
		"max_thickness": 20.82445, 
		"min_thickness": 19.10238, 
		"stdDev": 0.3891245, 
		"sigma_abs": 0.7782491, 
		"sigma_perc": 3.852717
	},
	"rawProfile": [
		599, 
		598, 
		597, 
		597, 
		597, 
		598, 
		600, 
		602, 
		605, 
		608, 
		612, 
		615, 
		619, 
		621, 
		624, 
		625, 
		626, 
		626, 
		625, 
		623, 
		621, 
		618, 
		616, 
		613, 
		610, 
		607, 
		604, 
		602, 
		600, 
		597, 
		596, 
		594, 
		594, 
		594, 
		594, 
		595, 
		597, 
		599, 
		602, 
		605, 
		607, 
		610, 
		612, 
		613, 
		614, 
		615, 
		614, 
		614, 
		613, 
		612, 
		611, 
		610, 
		610, 
		609, 
		609, 
		609, 
		609, 
		609, 
		609, 
		608, 
		608, 
		608, 
		607, 
		607, 
		606, 
		606, 
		606, 
		606, 
		606, 
		607, 
		608, 
		610, 
		611, 
		613, 
		614, 
		615, 
		616, 
		617, 
		617, 
		617, 
		617, 
		617, 
		616, 
		616, 
		615, 
		615, 
		615, 
		615, 
		615, 
		615, 
		614, 
		614, 
		613, 
		612, 
		612, 
		611, 
		610, 
		609, 
		609, 
		609, 
		610, 
		610, 
		611, 
		612, 
		613, 
		614, 
		614, 
		614, 
		614, 
		613, 
		612, 
		611, 
		610, 
		610, 
		609, 
		609, 
		610, 
		611, 
		612, 
		614, 
		615, 
		617, 
		619, 
		620, 
		621, 
		622, 
		622, 
		622, 
		622, 
		622, 
		621, 
		621, 
		620, 
		620, 
		619, 
		619, 
		618, 
		618, 
		618, 
		617, 
		617, 
		617, 
		617, 
		617, 
		618, 
		618, 
		618, 
		618, 
		617, 
		617, 
		616, 
		614, 
		613, 
		611, 
		609, 
		607, 
		606, 
		604, 
		602, 
		602, 
		601, 
		601, 
		601, 
		602, 
		603, 
		605, 
		606, 
		607, 
		609, 
		610, 
		610, 
		610, 
		610, 
		610, 
		610, 
		610, 
		609, 
		609, 
		608, 
		608, 
		607, 
		606, 
		606, 
		605, 
		605, 
		605, 
		606, 
		607, 
		609, 
		611, 
		614, 
		616, 
		619, 
		621, 
		623, 
		624, 
		625, 
		625, 
		624, 
		623, 
		622, 
		621, 
		619, 
		618, 
		617, 
		616, 
		616, 
		615, 
		615, 
		615, 
		616, 
		616, 
		618, 
		619, 
		621, 
		623, 
		625, 
		626, 
		628, 
		628, 
		628, 
		627, 
		626, 
		623, 
		620, 
		617, 
		613, 
		609, 
		605, 
		602, 
		599, 
		596, 
		595, 
		594, 
		594, 
		595, 
		596, 
		598, 
		601, 
		603, 
		606, 
		608, 
		610, 
		612, 
		613, 
		613, 
		612, 
		610, 
		607, 
		604, 
		601, 
		598, 
		594, 
		591, 
		589, 
		587, 
		586, 
		585, 
		585, 
		584, 
		584, 
		584, 
		584, 
		583, 
		582, 
		581, 
		580, 
		578, 
		577, 
		576, 
		575, 
		574, 
		574, 
		574, 
		576, 
		578, 
		581, 
		584, 
		589, 
		594, 
		599, 
		605, 
		611, 
		616, 
		621, 
		624, 
		627, 
		628, 
		628, 
		626, 
		624, 
		621, 
		617, 
		612, 
		608, 
		603, 
		599, 
		596, 
		592, 
		590, 
		587, 
		586, 
		585, 
		584, 
		584, 
		584, 
		584, 
		585, 
		586, 
		587, 
		588, 
		590, 
		591, 
		593, 
		595, 
		596, 
		597, 
		598, 
		599, 
		599, 
		600, 
		600, 
		601, 
		602, 
		604, 
		606, 
		609, 
		612, 
		615, 
		618, 
		621, 
		623, 
		624, 
		624, 
		623, 
		621, 
		619, 
		616, 
		613, 
		610, 
		606, 
		603, 
		601, 
		599, 
		598, 
		597, 
		597, 
		598, 
		599, 
		600, 
		601, 
		603, 
		604, 
		604, 
		605, 
		604, 
		604, 
		603, 
		602, 
		600
	],
	"zonesProfile": [
		19.96009, 
		20.44546, 
		20.78456, 
		20.55184, 
		20.09971, 
		19.78057, 
		19.86035, 
		20.25929, 
		20.41221, 
		20.29253, 
		20.24599, 
		20.19945, 
		20.14626, 
		20.27258, 
		20.47205, 
		20.49865, 
		20.44546, 
		20.39891, 
		20.28588, 
		20.29253, 
		20.40556, 
		20.31913, 
		20.28588, 
		20.51195, 
		20.67152, 
		20.63828, 
		20.55849, 
		20.51195, 
		20.53854, 
		20.41886, 
		20.13296, 
		19.99333, 
		20.14626, 
		20.27923, 
		20.25264, 
		20.15955, 
		20.15956, 
		20.48535, 
		20.75131, 
		20.63163, 
		20.47205, 
		20.5053, 
		20.76461, 
		20.82445, 
		20.37232, 
		19.8537, 
		19.84041, 
		20.2061, 
		20.31248, 
		19.867, 
		19.49466, 
		19.40822, 
		19.2686, 
		19.10238, 
		19.33509, 
		20.11301, 
		20.79785, 
		20.61168, 
		19.93349, 
		19.49466, 
		19.43482, 
		19.60769, 
		19.84706, 
		19.96009, 
		20.25264, 
		20.67817, 
		20.55849, 
		20.07312, 
		19.87365, 
		20.02658, 
		20.06647, 
		19.88695
	],
	"actuators": {
	"values": [
		42.39425, 
		37.09488, 
		23.9803, 
		19.54323, 
		18.05249, 
		28.13947, 
		28.20969, 
		22.22148, 
		11.78004, 
		11.5667, 
		17.22377, 
		17.93864, 
		19.65823, 
		25.16009, 
		19.21189, 
		16.97464, 
		21.19261, 
		25.49901, 
		26.2604, 
		27.6143, 
		17.60599, 
		16.69959, 
		19.81732, 
		22.12858, 
		21.88896, 
		27.09537, 
		38.44819, 
		44.7913, 
		43.43718, 
		39.59145, 
		41.55627, 
		40.93098, 
		45.89108, 
		40.15546, 
		39.63048, 
		39.06485, 
		39.96789, 
		37.00599, 
		28.62835, 
		20.17675, 
		20.12304, 
		18.14847, 
		19.8922, 
		19.8645, 
		28.89285, 
		43.74326, 
		58.14237, 
		53.76205, 
		37.70272, 
		20.50705, 
		27.45375, 
		37.38089, 
		46.85717, 
		55.35773, 
		60.01717, 
		50.85335, 
		34.0842, 
		21.02408, 
		22.29183, 
		24.83627, 
		27.59354, 
		29.71578, 
		33.06543, 
		29.34668, 
		38.71716, 
		29.0945, 
		20.9142, 
		15.24461, 
		20.71573, 
		22.49139, 
		32.0745, 
		38.03988
	],
	"forced": [
		false, 
		false, 
		false, 
		false, 
		false, 
		false, 
		false, 
		false, 
		false, 
		false, 
		false, 
		false, 
		false, 
		false, 
		false, 
		false, 
		false, 
		false, 
		false, 
		false, 
		false, 
		false, 
		false, 
		false, 
		false, 
		false, 
		false, 
		false, 
		false, 
		false, 
		false, 
		false, 
		false, 
		false, 
		false, 
		false, 
		false, 
		false, 
		false, 
		false, 
		false, 
		false, 
		false, 
		false, 
		false, 
		false, 
		false, 
		false, 
		false, 
		false, 
		false, 
		false, 
		false, 
		false, 
		false, 
		false, 
		false, 
		false, 
		false, 
		false, 
		false, 
		false, 
		false, 
		false, 
		false, 
		false, 
		false, 
		false, 
		false, 
		false, 
		false, 
		false
	]
	}
}

