{
	"parameters": {
		"profiles_for_regulation": 2, 
		"large_gain": 65.0, 
		"small_gain": 25.0, 
		"dead_band": 1, 
		"valves_max": 100, 
		"valves_min": 2, 
		"integral_band": 0, 
		"disturbation_type": 0, 
		"disturbation_amount": 0.0, 
		"disturbation_amplitude": 0.0, 
		"disturbation_cycles": 0, 
		"disturbation_frequency": 0, 
		"phase_shift_misDx_haulDx": 5, 
		"phase_shift_misSx_haulDx": 5, 
		"phase_shift_misDx_haulSx": 0, 
		"phase_shift_misSx_haulSx": 0, 
		"matrix_major": 1, 
		"matrix_minor": 0
	},
	"production": {
		"code_customer": "MONO", 
		"code_product": "2", 
		"thickness": 20.2, 
		"tolerance": 2.0, 
		"layflat": 1440.0, 
		"line_speed": 36.0, 
		"flow": 160.0, 
		"melt_d": 1.3
	},
	"status": {
	"application": {
		"measurer_active": true, 
		"actuation_active": true
	},
	"measurer": {
		"direction": 1
	},
	"hauloff": {
		"direction": -1, 
		"last_period": 465000, 
		"position": 0, 
		"speed": 0
	}
	},
	"stats": {
		"mean_thickness": 20.2, 
		"max_thickness": 20.82757, 
		"min_thickness": 19.45813, 
		"stdDev": 0.3267372, 
		"sigma_abs": 0.6534743, 
		"sigma_perc": 3.235021
	},
	"rawProfile": [
		605, 
		604, 
		603, 
		603, 
		603, 
		603, 
		604, 
		606, 
		608, 
		611, 
		614, 
		616, 
		619, 
		621, 
		622, 
		622, 
		622, 
		621, 
		619, 
		617, 
		615, 
		612, 
		609, 
		607, 
		605, 
		603, 
		601, 
		600, 
		599, 
		598, 
		597, 
		596, 
		596, 
		596, 
		596, 
		597, 
		599, 
		601, 
		603, 
		606, 
		608, 
		610, 
		612, 
		614, 
		614, 
		614, 
		614, 
		612, 
		611, 
		609, 
		607, 
		606, 
		604, 
		603, 
		602, 
		601, 
		601, 
		601, 
		601, 
		601, 
		601, 
		601, 
		601, 
		601, 
		601, 
		601, 
		601, 
		601, 
		602, 
		603, 
		604, 
		605, 
		606, 
		607, 
		609, 
		610, 
		611, 
		611, 
		611, 
		611, 
		610, 
		609, 
		608, 
		608, 
		607, 
		606, 
		606, 
		606, 
		606, 
		606, 
		606, 
		606, 
		606, 
		606, 
		606, 
		606, 
		605, 
		605, 
		605, 
		605, 
		605, 
		605, 
		605, 
		606, 
		607, 
		607, 
		608, 
		608, 
		608, 
		607, 
		606, 
		606, 
		604, 
		603, 
		602, 
		601, 
		601, 
		601, 
		601, 
		602, 
		603, 
		605, 
		606, 
		608, 
		609, 
		610, 
		610, 
		610, 
		610, 
		610, 
		610, 
		610, 
		610, 
		610, 
		610, 
		611, 
		611, 
		612, 
		613, 
		614, 
		615, 
		616, 
		617, 
		619, 
		620, 
		622, 
		623, 
		625, 
		626, 
		627, 
		627, 
		628, 
		627, 
		626, 
		625, 
		623, 
		621, 
		618, 
		616, 
		613, 
		609, 
		606, 
		603, 
		600, 
		597, 
		594, 
		592, 
		590, 
		588, 
		587, 
		587, 
		586, 
		587, 
		588, 
		589, 
		591, 
		594, 
		596, 
		599, 
		602, 
		605, 
		607, 
		609, 
		610, 
		611, 
		612, 
		613, 
		614, 
		615, 
		616, 
		617, 
		618, 
		619, 
		620, 
		620, 
		619, 
		618, 
		616, 
		613, 
		610, 
		607, 
		604, 
		601, 
		599, 
		597, 
		595, 
		594, 
		594, 
		595, 
		595, 
		597, 
		598, 
		600, 
		602, 
		605, 
		608, 
		611, 
		614, 
		617, 
		619, 
		622, 
		623, 
		625, 
		625, 
		625, 
		624, 
		623, 
		621, 
		619, 
		616, 
		614, 
		612, 
		610, 
		608, 
		607, 
		607, 
		607, 
		608, 
		609, 
		610, 
		612, 
		614, 
		615, 
		617, 
		618, 
		618, 
		618, 
		617, 
		616, 
		614, 
		612, 
		609, 
		607, 
		605, 
		603, 
		602, 
		602, 
		602, 
		602, 
		602, 
		602, 
		602, 
		601, 
		601, 
		599, 
		598, 
		596, 
		594, 
		592, 
		590, 
		588, 
		586, 
		585, 
		584, 
		584, 
		585, 
		586, 
		588, 
		591, 
		595, 
		599, 
		604, 
		609, 
		614, 
		618, 
		622, 
		625, 
		626, 
		626, 
		625, 
		623, 
		619, 
		615, 
		611, 
		607, 
		603, 
		599, 
		597, 
		595, 
		594, 
		595, 
		595, 
		597, 
		599, 
		601, 
		603, 
		605, 
		607, 
		610, 
		612, 
		614, 
		617, 
		619, 
		621, 
		623, 
		625, 
		626, 
		626, 
		626, 
		626, 
		625, 
		624, 
		623, 
		622, 
		621, 
		621, 
		621, 
		622, 
		623, 
		623, 
		624, 
		624, 
		623, 
		621, 
		619, 
		616, 
		612, 
		607, 
		603, 
		599, 
		595, 
		592, 
		589, 
		588, 
		587, 
		588, 
		589, 
		591, 
		594, 
		597, 
		600, 
		602, 
		605, 
		607, 
		608, 
		609, 
		609, 
		608, 
		608, 
		607
	],
	"zonesProfile": [
		20.06308, 
		20.15615, 
		20.55501, 
		20.61484, 
		20.26251, 
		19.95006, 
		19.81711, 
		19.9833, 
		20.32899, 
		20.34228, 
		20.08967, 
		19.97665, 
		19.97665, 
		19.9966, 
		20.1495, 
		20.3024, 
		20.22262, 
		20.14285, 
		20.14285, 
		20.11626, 
		20.12955, 
		20.19603, 
		20.08302, 
		19.9833, 
		20.1495, 
		20.27581, 
		20.27581, 
		20.34893, 
		20.52177, 
		20.7611, 
		20.82757, 
		20.54837, 
		20.04313, 
		19.61767, 
		19.5246, 
		19.82376, 
		20.22262, 
		20.40876, 
		20.56831, 
		20.44865, 
		19.9966, 
		19.76393, 
		19.95671, 
		20.40211, 
		20.74115, 
		20.62814, 
		20.28245, 
		20.21598, 
		20.44865, 
		20.49518, 
		20.18274, 
		20.00989, 
		19.97666, 
		19.74398, 
		19.45813, 
		19.57779, 
		20.23592, 
		20.76774, 
		20.442, 
		19.86364, 
		19.85699, 
		20.18938, 
		20.56831, 
		20.80098, 
		20.70791, 
		20.67467, 
		20.68132, 
		20.18938, 
		19.61767, 
		19.67085, 
		20.08967, 
		20.21598
	],
	"actuators": {
	"values": [
		42.73174, 
		35.65215, 
		18.96857, 
		14.18449, 
		20.80934, 
		30.41193, 
		32.26688, 
		21.06206, 
		11.37308, 
		12.33445, 
		18.8262, 
		21.19864, 
		22.37189, 
		29.27122, 
		18.5071, 
		17.90364, 
		21.86551, 
		24.92668, 
		27.35542, 
		28.66072, 
		17.23096, 
		18.86162, 
		22.86423, 
		24.02929, 
		22.14651, 
		24.18329, 
		37.38535, 
		43.38024, 
		37.71445, 
		33.74179, 
		37.29129, 
		41.88723, 
		47.27016, 
		41.33467, 
		41.71632, 
		37.82447, 
		39.86005, 
		35.05988, 
		25.10198, 
		13.15309, 
		21.09334, 
		17.14641, 
		20.25488, 
		16.59921, 
		26.61499, 
		43.72299, 
		61.84735, 
		54.614, 
		35.91052, 
		17.82082, 
		31.35422, 
		41.20044, 
		53.06863, 
		63.31418, 
		68.59109, 
		53.02803, 
		27.52353, 
		13.82266, 
		23.91307, 
		31.57286, 
		31.30516, 
		32.15996, 
		29.60405, 
		27.58711, 
		36.39603, 
		23.40357, 
		15.15439, 
		15.75557, 
		23.95039, 
		24.86063, 
		30.21515, 
		38.63195
	],
	"forced": [
		false, 
		false, 
		false, 
		false, 
		false, 
		false, 
		false, 
		false, 
		false, 
		false, 
		false, 
		false, 
		false, 
		false, 
		false, 
		false, 
		false, 
		false, 
		false, 
		false, 
		false, 
		false, 
		false, 
		false, 
		false, 
		false, 
		false, 
		false, 
		false, 
		false, 
		false, 
		false, 
		false, 
		false, 
		false, 
		false, 
		false, 
		false, 
		false, 
		false, 
		false, 
		false, 
		false, 
		false, 
		false, 
		false, 
		false, 
		false, 
		false, 
		false, 
		false, 
		false, 
		false, 
		false, 
		false, 
		false, 
		false, 
		false, 
		false, 
		false, 
		false, 
		false, 
		false, 
		false, 
		false, 
		false, 
		false, 
		false, 
		false, 
		false, 
		false, 
		false
	]
	}
}

