{
	"parameters": {
		"profiles_for_regulation": 2, 
		"large_gain": 65.0, 
		"small_gain": 25.0, 
		"dead_band": 1, 
		"valves_max": 100, 
		"valves_min": 2, 
		"integral_band": 0, 
		"disturbation_type": 0, 
		"disturbation_amount": 0.0, 
		"disturbation_amplitude": 0.0, 
		"disturbation_cycles": 0, 
		"disturbation_frequency": 0, 
		"phase_shift_misDx_haulDx": 5, 
		"phase_shift_misSx_haulDx": 5, 
		"phase_shift_misDx_haulSx": 0, 
		"phase_shift_misSx_haulSx": 0, 
		"matrix_major": 1, 
		"matrix_minor": 0
	},
	"production": {
		"code_customer": "MONO", 
		"code_product": "2", 
		"thickness": 20.2, 
		"tolerance": 2.0, 
		"layflat": 1440.0, 
		"line_speed": 36.0, 
		"flow": 160.0, 
		"melt_d": 1.3
	},
	"status": {
	"application": {
		"measurer_active": true, 
		"actuation_active": true
	},
	"measurer": {
		"direction": 1
	},
	"hauloff": {
		"direction": 1, 
		"last_period": 1014000, 
		"position": 0, 
		"speed": 0
	}
	},
	"stats": {
		"mean_thickness": 20.2, 
		"max_thickness": 20.79701, 
		"min_thickness": 19.76051, 
		"stdDev": 0.2446176, 
		"sigma_abs": 0.4892351, 
		"sigma_perc": 2.421956
	},
	"rawProfile": [
		606, 
		604, 
		603, 
		602, 
		602, 
		602, 
		603, 
		604, 
		606, 
		607, 
		608, 
		609, 
		609, 
		608, 
		607, 
		606, 
		604, 
		602, 
		600, 
		599, 
		598, 
		598, 
		598, 
		599, 
		600, 
		601, 
		602, 
		603, 
		603, 
		604, 
		605, 
		606, 
		606, 
		608, 
		609, 
		610, 
		611, 
		613, 
		614, 
		614, 
		614, 
		614, 
		613, 
		612, 
		610, 
		608, 
		606, 
		605, 
		604, 
		603, 
		603, 
		603, 
		604, 
		605, 
		606, 
		608, 
		609, 
		610, 
		611, 
		611, 
		612, 
		612, 
		611, 
		611, 
		610, 
		610, 
		609, 
		609, 
		609, 
		609, 
		609, 
		609, 
		609, 
		609, 
		609, 
		608, 
		607, 
		606, 
		605, 
		603, 
		602, 
		601, 
		600, 
		600, 
		599, 
		600, 
		600, 
		600, 
		601, 
		601, 
		601, 
		602, 
		602, 
		601, 
		601, 
		601, 
		601, 
		601, 
		601, 
		601, 
		602, 
		603, 
		604, 
		605, 
		606, 
		606, 
		606, 
		606, 
		605, 
		604, 
		602, 
		600, 
		598, 
		596, 
		594, 
		592, 
		590, 
		590, 
		589, 
		589, 
		590, 
		591, 
		592, 
		593, 
		594, 
		595, 
		595, 
		596, 
		595, 
		595, 
		595, 
		594, 
		594, 
		593, 
		592, 
		592, 
		592, 
		592, 
		591, 
		591, 
		591, 
		592, 
		592, 
		592, 
		593, 
		593, 
		594, 
		595, 
		595, 
		596, 
		597, 
		598, 
		599, 
		601, 
		602, 
		603, 
		604, 
		604, 
		605, 
		606, 
		607, 
		607, 
		608, 
		609, 
		610, 
		612, 
		613, 
		615, 
		616, 
		617, 
		618, 
		618, 
		618, 
		618, 
		618, 
		617, 
		617, 
		616, 
		615, 
		614, 
		613, 
		612, 
		611, 
		610, 
		608, 
		607, 
		606, 
		605, 
		605, 
		605, 
		606, 
		606, 
		607, 
		607, 
		607, 
		607, 
		606, 
		604, 
		602, 
		600, 
		598, 
		596, 
		595, 
		594, 
		593, 
		593, 
		594, 
		594, 
		595, 
		595, 
		596, 
		596, 
		596, 
		595, 
		595, 
		594, 
		594, 
		594, 
		595, 
		595, 
		596, 
		597, 
		598, 
		599, 
		601, 
		601, 
		602, 
		603, 
		603, 
		603, 
		603, 
		602, 
		602, 
		602, 
		602, 
		602, 
		603, 
		604, 
		605, 
		606, 
		607, 
		608, 
		609, 
		610, 
		610, 
		610, 
		609, 
		608, 
		607, 
		605, 
		604, 
		604, 
		604, 
		604, 
		605, 
		606, 
		607, 
		608, 
		609, 
		609, 
		609, 
		609, 
		608, 
		606, 
		604, 
		602, 
		599, 
		597, 
		595, 
		593, 
		591, 
		591, 
		590, 
		591, 
		592, 
		594, 
		597, 
		600, 
		604, 
		608, 
		611, 
		615, 
		617, 
		618, 
		619, 
		618, 
		616, 
		612, 
		609, 
		604, 
		600, 
		597, 
		594, 
		592, 
		591, 
		591, 
		593, 
		595, 
		597, 
		601, 
		604, 
		607, 
		610, 
		612, 
		614, 
		615, 
		616, 
		616, 
		616, 
		616, 
		616, 
		615, 
		615, 
		614, 
		613, 
		611, 
		610, 
		608, 
		607, 
		605, 
		604, 
		603, 
		602, 
		602, 
		603, 
		603, 
		604, 
		605, 
		605, 
		605, 
		605, 
		604, 
		603, 
		602, 
		600, 
		599, 
		599, 
		599, 
		599, 
		600, 
		602, 
		604, 
		607, 
		609, 
		612, 
		615, 
		617, 
		619, 
		621, 
		622, 
		622, 
		623, 
		622, 
		621, 
		620, 
		618, 
		615, 
		613, 
		610, 
		608
	],
	"zonesProfile": [
		20.17511, 
		20.3356, 
		20.18849, 
		20.00793, 
		20.12161, 
		20.25536, 
		20.44259, 
		20.50947, 
		20.2821, 
		20.1818, 
		20.35566, 
		20.44259, 
		20.37572, 
		20.36235, 
		20.29548, 
		20.10155, 
		20.06143, 
		20.10824, 
		20.09486, 
		20.16174, 
		20.25536, 
		20.06143, 
		19.76051, 
		19.76051, 
		19.89425, 
		19.8675, 
		19.78725, 
		19.78057, 
		19.86081, 
		20.00124, 
		20.1818, 
		20.30885, 
		20.50278, 
		20.65658, 
		20.61646, 
		20.46266, 
		20.26873, 
		20.26873, 
		20.23529, 
		19.94774, 
		19.85413, 
		19.91431, 
		19.87419, 
		19.96112, 
		20.1283, 
		20.14167, 
		20.16842, 
		20.32891, 
		20.35566, 
		20.20186, 
		20.29548, 
		20.3356, 
		20.04137, 
		19.76719, 
		19.9745, 
		20.52284, 
		20.55628, 
		19.9745, 
		19.84075, 
		20.28879, 
		20.57634, 
		20.56965, 
		20.3891, 
		20.16842, 
		20.19517, 
		20.18848, 
		20.03468, 
		20.20855, 
		20.62315, 
		20.79701, 
		20.56965, 
		20.21523
	],
	"actuators": {
	"values": [
		44.16933, 
		32.8326, 
		14.24903, 
		15.85231, 
		22.68782, 
		33.34567, 
		32.16379, 
		15.30995, 
		9.196721, 
		9.92903, 
		24.53735, 
		20.33698, 
		25.20434, 
		28.10927, 
		20.43539, 
		17.61105, 
		26.13711, 
		27.18366, 
		30.39791, 
		29.53186, 
		20.72058, 
		15.31558, 
		28.39967, 
		27.42345, 
		23.68174, 
		23.67147, 
		39.84304, 
		44.75819, 
		38.74305, 
		28.83982, 
		33.58734, 
		40.6484, 
		48.59451, 
		43.07085, 
		42.90215, 
		35.56594, 
		36.637, 
		32.13257, 
		21.17999, 
		10.42392, 
		25.56934, 
		16.17884, 
		22.03975, 
		14.48957, 
		23.34794, 
		40.77056, 
		63.60078, 
		55.1046, 
		35.37035, 
		15.75093, 
		34.52423, 
		42.28542, 
		53.21254, 
		68.99767, 
		76.30913, 
		51.17111, 
		18.43238, 
		5.846723, 
		30.9696, 
		40.64965, 
		33.04258, 
		28.57943, 
		24.68909, 
		24.3192, 
		35.71959, 
		19.82447, 
		17.44571, 
		20.82936, 
		29.65115, 
		21.72412, 
		23.34263, 
		34.63184
	],
	"forced": [
		false, 
		false, 
		false, 
		false, 
		false, 
		false, 
		false, 
		false, 
		false, 
		false, 
		false, 
		false, 
		false, 
		false, 
		false, 
		false, 
		false, 
		false, 
		false, 
		false, 
		false, 
		false, 
		false, 
		false, 
		false, 
		false, 
		false, 
		false, 
		false, 
		false, 
		false, 
		false, 
		false, 
		false, 
		false, 
		false, 
		false, 
		false, 
		false, 
		false, 
		false, 
		false, 
		false, 
		false, 
		false, 
		false, 
		false, 
		false, 
		false, 
		false, 
		false, 
		false, 
		false, 
		false, 
		false, 
		false, 
		false, 
		false, 
		false, 
		false, 
		false, 
		false, 
		false, 
		false, 
		false, 
		false, 
		false, 
		false, 
		false, 
		false, 
		false, 
		false
	]
	}
}

