{
	"parameters": {
		"profiles_for_regulation": 2, 
		"large_gain": 65.0, 
		"small_gain": 25.0, 
		"dead_band": 1, 
		"valves_max": 100, 
		"valves_min": 2, 
		"integral_band": 0, 
		"disturbation_type": 0, 
		"disturbation_amount": 0.0, 
		"disturbation_amplitude": 0.0, 
		"disturbation_cycles": 0, 
		"disturbation_frequency": 0, 
		"phase_shift_misDx_haulDx": 5, 
		"phase_shift_misSx_haulDx": 5, 
		"phase_shift_misDx_haulSx": 0, 
		"phase_shift_misSx_haulSx": 0, 
		"matrix_major": 1, 
		"matrix_minor": 0
	},
	"production": {
		"code_customer": "MONO", 
		"code_product": "2", 
		"thickness": 20.2, 
		"tolerance": 2.0, 
		"layflat": 1440.0, 
		"line_speed": 39.0, 
		"flow": 173.0, 
		"melt_d": 1.3
	},
	"status": {
	"application": {
		"measurer_active": true, 
		"actuation_active": true
	},
	"measurer": {
		"direction": -1
	},
	"hauloff": {
		"direction": -1, 
		"last_period": 656000, 
		"position": 0, 
		"speed": 0
	}
	},
	"stats": {
		"mean_thickness": 20.2, 
		"max_thickness": 21.03025, 
		"min_thickness": 19.51047, 
		"stdDev": 0.3208984, 
		"sigma_abs": 0.6417968, 
		"sigma_perc": 3.177211
	},
	"rawProfile": [
		596, 
		596, 
		597, 
		598, 
		599, 
		600, 
		601, 
		602, 
		603, 
		603, 
		604, 
		603, 
		603, 
		601, 
		600, 
		598, 
		596, 
		594, 
		593, 
		592, 
		592, 
		592, 
		594, 
		595, 
		598, 
		600, 
		602, 
		604, 
		606, 
		607, 
		607, 
		607, 
		606, 
		605, 
		604, 
		603, 
		602, 
		602, 
		601, 
		601, 
		601, 
		601, 
		601, 
		600, 
		600, 
		600, 
		600, 
		600, 
		600, 
		600, 
		600, 
		600, 
		601, 
		601, 
		601, 
		602, 
		602, 
		602, 
		601, 
		601, 
		600, 
		600, 
		599, 
		598, 
		597, 
		597, 
		596, 
		596, 
		596, 
		596, 
		597, 
		598, 
		599, 
		600, 
		601, 
		602, 
		603, 
		605, 
		606, 
		607, 
		609, 
		610, 
		611, 
		612, 
		614, 
		615, 
		615, 
		616, 
		617, 
		617, 
		617, 
		616, 
		616, 
		615, 
		614, 
		613, 
		613, 
		612, 
		611, 
		610, 
		610, 
		610, 
		611, 
		611, 
		612, 
		613, 
		614, 
		615, 
		616, 
		616, 
		616, 
		616, 
		616, 
		615, 
		615, 
		615, 
		614, 
		615, 
		615, 
		615, 
		616, 
		617, 
		617, 
		618, 
		619, 
		619, 
		619, 
		619, 
		618, 
		617, 
		616, 
		615, 
		614, 
		612, 
		611, 
		610, 
		610, 
		609, 
		609, 
		609, 
		610, 
		610, 
		611, 
		612, 
		613, 
		614, 
		614, 
		615, 
		615, 
		614, 
		614, 
		613, 
		612, 
		611, 
		609, 
		608, 
		607, 
		606, 
		605, 
		604, 
		603, 
		603, 
		602, 
		601, 
		600, 
		599, 
		599, 
		598, 
		597, 
		597, 
		596, 
		596, 
		595, 
		595, 
		595, 
		594, 
		594, 
		595, 
		595, 
		595, 
		596, 
		596, 
		596, 
		596, 
		596, 
		597, 
		597, 
		597, 
		598, 
		600, 
		601, 
		603, 
		605, 
		607, 
		609, 
		611, 
		612, 
		613, 
		614, 
		615, 
		615, 
		615, 
		615, 
		615, 
		615, 
		615, 
		614, 
		614, 
		614, 
		613, 
		613, 
		612, 
		610, 
		609, 
		607, 
		606, 
		604, 
		603, 
		603, 
		602, 
		602, 
		603, 
		603, 
		603, 
		604, 
		603, 
		603, 
		602, 
		601, 
		600, 
		598, 
		596, 
		595, 
		593, 
		592, 
		591, 
		590, 
		590, 
		591, 
		592, 
		593, 
		594, 
		596, 
		599, 
		601, 
		603, 
		605, 
		607, 
		609, 
		611, 
		612, 
		614, 
		616, 
		617, 
		619, 
		620, 
		622, 
		624, 
		625, 
		627, 
		628, 
		629, 
		629, 
		629, 
		628, 
		626, 
		625, 
		623, 
		620, 
		618, 
		616, 
		615, 
		614, 
		613, 
		614, 
		615, 
		617, 
		619, 
		622, 
		625, 
		628, 
		630, 
		632, 
		633, 
		632, 
		630, 
		627, 
		623, 
		618, 
		613, 
		607, 
		603, 
		599, 
		596, 
		595, 
		596, 
		598, 
		601, 
		604, 
		608, 
		611, 
		615, 
		617, 
		618, 
		619, 
		618, 
		616, 
		613, 
		610, 
		606, 
		603, 
		599, 
		596, 
		593, 
		590, 
		588, 
		587, 
		586, 
		586, 
		585, 
		585, 
		585, 
		585, 
		586, 
		586, 
		587, 
		589, 
		591, 
		593, 
		596, 
		598, 
		600, 
		602, 
		604, 
		605, 
		605, 
		605, 
		605, 
		605, 
		605, 
		605, 
		605, 
		606, 
		606, 
		607, 
		607, 
		607, 
		607, 
		606, 
		606, 
		605, 
		603, 
		602, 
		601, 
		599, 
		598, 
		597, 
		596, 
		596, 
		596
	],
	"zonesProfile": [
		19.90375, 
		20.05706, 
		20.07039, 
		19.81709, 
		19.80376, 
		20.12372, 
		20.19037, 
		20.05706, 
		20.01707, 
		19.99707, 
		20.01707, 
		20.05039, 
		19.95707, 
		19.87042, 
		19.96374, 
		20.15038, 
		20.37035, 
		20.53032, 
		20.51699, 
		20.39034, 
		20.35702, 
		20.49033, 
		20.51699, 
		20.49033, 
		20.57698, 
		20.61031, 
		20.45034, 
		20.31035, 
		20.37035, 
		20.477, 
		20.39034, 
		20.19704, 
		20.05706, 
		19.93041, 
		19.84376, 
		19.8171, 
		19.86375, 
		19.92375, 
		20.16371, 
		20.43034, 
		20.497, 
		20.46367, 
		20.33702, 
		20.11705, 
		20.09706, 
		20.05706, 
		19.82376, 
		19.69045, 
		19.88375, 
		20.23037, 
		20.51699, 
		20.78362, 
		20.95026, 
		20.74363, 
		20.477, 
		20.6503, 
		21.03025, 
		20.73696, 
		19.99707, 
		20.04373, 
		20.53032, 
		20.41701, 
		19.87042, 
		19.5438, 
		19.51047, 
		19.70378, 
		20.05706, 
		20.16371, 
		20.19037, 
		20.21704, 
		20.06372, 
		19.88375
	],
	"actuators": {
	"values": [
		47.03236, 
		32.21531, 
		15.36952, 
		23.96658, 
		24.47791, 
		26.8345, 
		29.11048, 
		7.945681, 
		13.17515, 
		11.67696, 
		16.5529, 
		10.31883, 
		19.6053, 
		19.003, 
		17.5322, 
		14.63379, 
		23.26905, 
		22.24361, 
		35.53484, 
		30.70674, 
		14.53457, 
		15.30901, 
		26.19626, 
		28.71977, 
		16.34932, 
		23.76357, 
		45.43252, 
		56.7669, 
		42.85706, 
		37.66046, 
		32.46932, 
		48.23365, 
		47.10713, 
		51.31694, 
		38.4092, 
		40.18642, 
		32.05482, 
		44.41615, 
		16.43859, 
		25.45838, 
		15.9486, 
		22.93921, 
		19.4337, 
		11.38015, 
		24.55977, 
		43.73235, 
		73.122, 
		51.88903, 
		34.54914, 
		17.46393, 
		40.96563, 
		34.57449, 
		42.00321, 
		59.35913, 
		75.26627, 
		40.19681, 
		6.037394, 
		15.9337, 
		41.39445, 
		34.09029, 
		21.01534, 
		23.39462, 
		19.46193, 
		33.37426, 
		36.6048, 
		22.82954, 
		15.75754, 
		27.68014, 
		28.1581, 
		18.49767, 
		20.91379, 
		42.44191
	],
	"forced": [
		false, 
		false, 
		false, 
		false, 
		false, 
		false, 
		false, 
		false, 
		false, 
		false, 
		false, 
		false, 
		false, 
		false, 
		false, 
		false, 
		false, 
		false, 
		false, 
		false, 
		false, 
		false, 
		false, 
		false, 
		false, 
		false, 
		false, 
		false, 
		false, 
		false, 
		false, 
		false, 
		false, 
		false, 
		false, 
		false, 
		false, 
		false, 
		false, 
		false, 
		false, 
		false, 
		false, 
		false, 
		false, 
		false, 
		false, 
		false, 
		false, 
		false, 
		false, 
		false, 
		false, 
		false, 
		false, 
		false, 
		false, 
		false, 
		false, 
		false, 
		false, 
		false, 
		false, 
		false, 
		false, 
		false, 
		false, 
		false, 
		false, 
		false, 
		false, 
		false
	]
	}
}

