{
	"parameters": {
		"profiles_for_regulation": 2, 
		"large_gain": 65.0, 
		"small_gain": 25.0, 
		"dead_band": 1, 
		"valves_max": 100, 
		"valves_min": 2, 
		"integral_band": 0, 
		"disturbation_type": 0, 
		"disturbation_amount": 0.0, 
		"disturbation_amplitude": 0.0, 
		"disturbation_cycles": 0, 
		"disturbation_frequency": 0, 
		"phase_shift_misDx_haulDx": 5, 
		"phase_shift_misSx_haulDx": 5, 
		"phase_shift_misDx_haulSx": 0, 
		"phase_shift_misSx_haulSx": 0, 
		"matrix_major": 1, 
		"matrix_minor": 0
	},
	"production": {
		"code_customer": "MONO", 
		"code_product": "2", 
		"thickness": 20.2, 
		"tolerance": 2.0, 
		"layflat": 1440.0, 
		"line_speed": 36.0, 
		"flow": 160.0, 
		"melt_d": 1.3
	},
	"status": {
	"application": {
		"measurer_active": true, 
		"actuation_active": true
	},
	"measurer": {
		"direction": 1
	},
	"hauloff": {
		"direction": 1, 
		"last_period": 960000, 
		"position": 0, 
		"speed": 0
	}
	},
	"stats": {
		"mean_thickness": 20.2, 
		"max_thickness": 21.4268, 
		"min_thickness": 18.97171, 
		"stdDev": 0.5769969, 
		"sigma_abs": 1.153994, 
		"sigma_perc": 5.712841
	},
	"rawProfile": [
		576, 
		576, 
		576, 
		577, 
		578, 
		579, 
		582, 
		585, 
		589, 
		593, 
		598, 
		603, 
		608, 
		613, 
		618, 
		622, 
		625, 
		627, 
		629, 
		629, 
		629, 
		628, 
		626, 
		624, 
		621, 
		619, 
		616, 
		612, 
		610, 
		607, 
		605, 
		603, 
		603, 
		603, 
		604, 
		605, 
		608, 
		611, 
		614, 
		618, 
		621, 
		623, 
		626, 
		627, 
		628, 
		628, 
		627, 
		625, 
		624, 
		622, 
		620, 
		619, 
		617, 
		616, 
		614, 
		613, 
		612, 
		611, 
		610, 
		609, 
		608, 
		607, 
		606, 
		605, 
		604, 
		603, 
		603, 
		603, 
		603, 
		604, 
		605, 
		607, 
		609, 
		612, 
		614, 
		616, 
		618, 
		620, 
		621, 
		622, 
		623, 
		623, 
		623, 
		623, 
		623, 
		622, 
		622, 
		621, 
		620, 
		619, 
		619, 
		618, 
		617, 
		616, 
		615, 
		615, 
		615, 
		616, 
		616, 
		617, 
		619, 
		621, 
		622, 
		624, 
		625, 
		626, 
		627, 
		627, 
		626, 
		625, 
		624, 
		622, 
		621, 
		619, 
		618, 
		617, 
		616, 
		616, 
		616, 
		617, 
		617, 
		618, 
		618, 
		619, 
		618, 
		617, 
		616, 
		614, 
		611, 
		608, 
		605, 
		602, 
		599, 
		596, 
		593, 
		591, 
		589, 
		587, 
		586, 
		585, 
		585, 
		586, 
		587, 
		588, 
		590, 
		591, 
		593, 
		595, 
		596, 
		597, 
		598, 
		598, 
		598, 
		597, 
		596, 
		594, 
		593, 
		592, 
		590, 
		589, 
		588, 
		588, 
		587, 
		588, 
		588, 
		589, 
		590, 
		591, 
		592, 
		593, 
		594, 
		594, 
		594, 
		594, 
		594, 
		593, 
		593, 
		593, 
		592, 
		592, 
		592, 
		591, 
		590, 
		590, 
		590, 
		589, 
		590, 
		591, 
		592, 
		595, 
		597, 
		601, 
		604, 
		608, 
		611, 
		614, 
		617, 
		619, 
		621, 
		622, 
		622, 
		621, 
		620, 
		619, 
		617, 
		615, 
		613, 
		611, 
		608, 
		606, 
		604, 
		602, 
		600, 
		599, 
		599, 
		598, 
		598, 
		599, 
		599, 
		599, 
		599, 
		598, 
		596, 
		594, 
		592, 
		588, 
		585, 
		581, 
		577, 
		573, 
		569, 
		566, 
		564, 
		564, 
		564, 
		566, 
		569, 
		573, 
		579, 
		586, 
		594, 
		602, 
		610, 
		619, 
		627, 
		633, 
		639, 
		643, 
		645, 
		645, 
		644, 
		642, 
		638, 
		634, 
		629, 
		624, 
		618, 
		613, 
		608, 
		604, 
		600, 
		596, 
		592, 
		588, 
		585, 
		582, 
		579, 
		576, 
		573, 
		571, 
		570, 
		569, 
		569, 
		569, 
		571, 
		573, 
		576, 
		580, 
		584, 
		589, 
		595, 
		601, 
		606, 
		612, 
		617, 
		622, 
		626, 
		629, 
		631, 
		632, 
		633, 
		633, 
		633, 
		632, 
		631, 
		629, 
		628, 
		626, 
		624, 
		622, 
		619, 
		617, 
		614, 
		611, 
		608, 
		605, 
		602, 
		599, 
		597, 
		595, 
		593, 
		591, 
		590, 
		589, 
		588, 
		586, 
		585, 
		584, 
		582, 
		580, 
		578, 
		577, 
		576, 
		576, 
		576, 
		577, 
		579, 
		582, 
		585, 
		589, 
		593, 
		597, 
		600, 
		603, 
		606, 
		608, 
		610, 
		611, 
		612, 
		612, 
		612, 
		611, 
		610, 
		609, 
		607, 
		605, 
		603, 
		600, 
		598, 
		596, 
		594, 
		591, 
		589, 
		587, 
		585, 
		583, 
		582, 
		580, 
		579, 
		577
	],
	"zonesProfile": [
		19.48681, 
		20.16915, 
		20.87825, 
		20.97859, 
		20.5906, 
		20.20929, 
		20.34977, 
		20.83811, 
		20.95184, 
		20.69763, 
		20.47018, 
		20.30294, 
		20.17584, 
		20.31632, 
		20.66418, 
		20.83142, 
		20.79129, 
		20.66418, 
		20.58391, 
		20.75784, 
		20.94515, 
		20.81135, 
		20.62404, 
		20.66418, 
		20.57722, 
		20.13571, 
		19.70757, 
		19.60723, 
		19.83467, 
		19.98853, 
		19.83467, 
		19.66743, 
		19.73433, 
		19.86143, 
		19.83467, 
		19.76778, 
		19.74771, 
		20.10226, 
		20.61736, 
		20.76453, 
		20.49694, 
		20.1424, 
		20.02198, 
		19.97515, 
		19.55371, 
		18.97171, 
		19.07206, 
		20.1424, 
		21.31977, 
		21.4268, 
		20.68425, 
		19.93502, 
		19.3664, 
		19.05199, 
		19.29281, 
		20.08888, 
		20.90501, 
		21.15921, 
		20.99198, 
		20.62405, 
		20.1424, 
		19.78785, 
		19.56709, 
		19.31289, 
		19.39316, 
		19.9484, 
		20.38322, 
		20.43005, 
		20.15577, 
		19.78115, 
		19.46006, 
		19.27944
	],
	"actuators": {
	"values": [
		38.4793, 
		37.71603, 
		32.14885, 
		28.8793, 
		24.67811, 
		28.1469, 
		27.3239, 
		23.42165, 
		15.91841, 
		14.16054, 
		15.35441, 
		17.36979, 
		20.37369, 
		23.98003, 
		22.55587, 
		22.01482, 
		23.62995, 
		28.98359, 
		28.63202, 
		28.90767, 
		22.56791, 
		20.77861, 
		22.41275, 
		26.71225, 
		27.89065, 
		31.38888, 
		38.41976, 
		42.4759, 
		44.88713, 
		40.5176, 
		40.69095, 
		40.68484, 
		41.36943, 
		38.37143, 
		36.68628, 
		34.87695, 
		35.71016, 
		34.48328, 
		31.36518, 
		24.51634, 
		20.50238, 
		18.57976, 
		18.77112, 
		20.44525, 
		27.77004, 
		36.04574, 
		47.74203, 
		47.21419, 
		39.54316, 
		24.745, 
		24.27837, 
		29.9224, 
		36.43009, 
		42.55656, 
		47.2015, 
		44.92316, 
		37.26385, 
		28.30563, 
		26.1414, 
		25.52959, 
		25.47399, 
		28.30286, 
		30.20541, 
		30.68875, 
		34.17794, 
		31.27113, 
		26.01455, 
		20.63772, 
		22.69118, 
		23.01715, 
		30.57468, 
		33.70207
	],
	"forced": [
		false, 
		false, 
		false, 
		false, 
		false, 
		false, 
		false, 
		false, 
		false, 
		false, 
		false, 
		false, 
		false, 
		false, 
		false, 
		false, 
		false, 
		false, 
		false, 
		false, 
		false, 
		false, 
		false, 
		false, 
		false, 
		false, 
		false, 
		false, 
		false, 
		false, 
		false, 
		false, 
		false, 
		false, 
		false, 
		false, 
		false, 
		false, 
		false, 
		false, 
		false, 
		false, 
		false, 
		false, 
		false, 
		false, 
		false, 
		false, 
		false, 
		false, 
		false, 
		false, 
		false, 
		false, 
		false, 
		false, 
		false, 
		false, 
		false, 
		false, 
		false, 
		false, 
		false, 
		false, 
		false, 
		false, 
		false, 
		false, 
		false, 
		false, 
		false, 
		false
	]
	}
}

