{
	"parameters": {
		"profiles_for_regulation": 2, 
		"large_gain": 65.0, 
		"small_gain": 25.0, 
		"dead_band": 1, 
		"valves_max": 100, 
		"valves_min": 2, 
		"integral_band": 0, 
		"disturbation_type": 0, 
		"disturbation_amount": 0.0, 
		"disturbation_amplitude": 0.0, 
		"disturbation_cycles": 0, 
		"disturbation_frequency": 0, 
		"phase_shift_misDx_haulDx": 5, 
		"phase_shift_misSx_haulDx": 5, 
		"phase_shift_misDx_haulSx": 0, 
		"phase_shift_misSx_haulSx": 0, 
		"matrix_major": 1, 
		"matrix_minor": 0
	},
	"production": {
		"code_customer": "MONO", 
		"code_product": "2", 
		"thickness": 20.2, 
		"tolerance": 2.0, 
		"layflat": 1440.0, 
		"line_speed": 36.0, 
		"flow": 160.0, 
		"melt_d": 1.3
	},
	"status": {
	"application": {
		"measurer_active": true, 
		"actuation_active": true
	},
	"measurer": {
		"direction": 1
	},
	"hauloff": {
		"direction": -1, 
		"last_period": 1646000, 
		"position": 0, 
		"speed": 0
	}
	},
	"stats": {
		"mean_thickness": 20.2, 
		"max_thickness": 21.78994, 
		"min_thickness": 18.55858, 
		"stdDev": 0.7552451, 
		"sigma_abs": 1.51049, 
		"sigma_perc": 7.477673
	},
	"rawProfile": [
		584, 
		583, 
		581, 
		580, 
		580, 
		579, 
		580, 
		581, 
		582, 
		584, 
		587, 
		590, 
		593, 
		597, 
		601, 
		604, 
		607, 
		610, 
		612, 
		614, 
		615, 
		616, 
		616, 
		616, 
		615, 
		614, 
		613, 
		612, 
		611, 
		610, 
		610, 
		610, 
		610, 
		612, 
		614, 
		617, 
		620, 
		624, 
		628, 
		633, 
		637, 
		641, 
		644, 
		646, 
		648, 
		648, 
		648, 
		646, 
		644, 
		641, 
		638, 
		635, 
		631, 
		628, 
		625, 
		622, 
		619, 
		617, 
		615, 
		613, 
		612, 
		610, 
		609, 
		608, 
		607, 
		607, 
		606, 
		606, 
		607, 
		607, 
		608, 
		609, 
		611, 
		613, 
		614, 
		615, 
		616, 
		617, 
		617, 
		617, 
		616, 
		615, 
		613, 
		611, 
		610, 
		608, 
		607, 
		605, 
		604, 
		603, 
		602, 
		602, 
		602, 
		602, 
		603, 
		603, 
		605, 
		606, 
		608, 
		611, 
		613, 
		615, 
		618, 
		620, 
		622, 
		623, 
		624, 
		624, 
		623, 
		622, 
		620, 
		618, 
		616, 
		613, 
		611, 
		609, 
		607, 
		606, 
		605, 
		604, 
		604, 
		603, 
		603, 
		602, 
		601, 
		600, 
		598, 
		595, 
		592, 
		588, 
		584, 
		581, 
		577, 
		573, 
		570, 
		568, 
		565, 
		564, 
		563, 
		562, 
		562, 
		563, 
		565, 
		566, 
		569, 
		571, 
		574, 
		576, 
		579, 
		581, 
		582, 
		583, 
		584, 
		585, 
		585, 
		585, 
		585, 
		584, 
		584, 
		584, 
		583, 
		583, 
		584, 
		584, 
		585, 
		586, 
		587, 
		588, 
		589, 
		590, 
		591, 
		591, 
		591, 
		591, 
		591, 
		591, 
		590, 
		590, 
		590, 
		590, 
		589, 
		589, 
		589, 
		589, 
		589, 
		589, 
		589, 
		590, 
		592, 
		595, 
		598, 
		603, 
		607, 
		613, 
		618, 
		624, 
		629, 
		635, 
		639, 
		643, 
		647, 
		649, 
		651, 
		653, 
		654, 
		654, 
		653, 
		652, 
		650, 
		648, 
		645, 
		642, 
		639, 
		636, 
		632, 
		629, 
		626, 
		623, 
		620, 
		617, 
		614, 
		610, 
		607, 
		603, 
		598, 
		594, 
		589, 
		583, 
		578, 
		572, 
		567, 
		562, 
		558, 
		555, 
		553, 
		552, 
		553, 
		555, 
		559, 
		564, 
		570, 
		577, 
		586, 
		595, 
		604, 
		612, 
		620, 
		626, 
		631, 
		634, 
		636, 
		635, 
		634, 
		630, 
		626, 
		622, 
		617, 
		612, 
		607, 
		602, 
		597, 
		592, 
		587, 
		583, 
		579, 
		575, 
		571, 
		567, 
		564, 
		560, 
		558, 
		556, 
		554, 
		553, 
		553, 
		554, 
		556, 
		559, 
		563, 
		568, 
		574, 
		580, 
		586, 
		593, 
		600, 
		607, 
		613, 
		619, 
		623, 
		627, 
		630, 
		631, 
		632, 
		632, 
		631, 
		630, 
		629, 
		628, 
		626, 
		624, 
		623, 
		621, 
		619, 
		617, 
		615, 
		612, 
		610, 
		608, 
		607, 
		605, 
		604, 
		603, 
		602, 
		602, 
		601, 
		601, 
		601, 
		601, 
		600, 
		599, 
		598, 
		597, 
		596, 
		595, 
		594, 
		594, 
		595, 
		596, 
		599, 
		602, 
		605, 
		609, 
		613, 
		616, 
		620, 
		622, 
		625, 
		626, 
		627, 
		628, 
		628, 
		628, 
		628, 
		626, 
		625, 
		623, 
		620, 
		618, 
		615, 
		612, 
		609, 
		606, 
		603, 
		600, 
		597, 
		595, 
		592, 
		590, 
		588, 
		586
	],
	"zonesProfile": [
		19.45507, 
		19.44168, 
		19.85648, 
		20.385, 
		20.5924, 
		20.47198, 
		20.44522, 
		20.88677, 
		21.51564, 
		21.58924, 
		21.12092, 
		20.64592, 
		20.37831, 
		20.29134, 
		20.43852, 
		20.61916, 
		20.50543, 
		20.2512, 
		20.14415, 
		20.29134, 
		20.6593, 
		20.84662, 
		20.5924, 
		20.27796, 
		20.15754, 
		19.88993, 
		19.30119, 
		18.87971, 
		18.89978, 
		19.27443, 
		19.52866, 
		19.54873, 
		19.52866, 
		19.66915, 
		19.7695, 
		19.74274, 
		19.7026, 
		19.7695, 
		20.33148, 
		21.2079, 
		21.76987, 
		21.78994, 
		21.36846, 
		20.83993, 
		20.28465, 
		19.50859, 
		18.69907, 
		18.61879, 
		19.61563, 
		20.89346, 
		21.14768, 
		20.47197, 
		19.65577, 
		18.98006, 
		18.55858, 
		18.73252, 
		19.62232, 
		20.66599, 
		21.11423, 
		20.98712, 
		20.70613, 
		20.35155, 
		20.15084, 
		20.08394, 
		19.93676, 
		19.9769, 
		20.49204, 
		20.92691, 
		20.97374, 
		20.6593, 
		20.17092, 
		19.74274
	],
	"actuators": {
	"values": [
		35.27634, 
		37.32606, 
		33.45599, 
		30.79978, 
		25.84386, 
		27.93625, 
		28.41441, 
		26.38786, 
		18.87386, 
		16.14753, 
		16.72629, 
		18.53348, 
		20.10998, 
		24.81719, 
		24.00919, 
		23.5239, 
		24.38736, 
		29.52203, 
		28.3865, 
		30.30175, 
		24.46237, 
		22.12364, 
		22.74577, 
		27.77368, 
		28.86361, 
		30.72994, 
		36.60531, 
		40.49033, 
		44.0156, 
		40.08629, 
		39.70352, 
		39.3124, 
		40.4468, 
		38.40446, 
		35.92036, 
		34.99811, 
		34.13122, 
		34.6647, 
		32.50064, 
		26.3771, 
		21.93099, 
		18.77689, 
		18.63767, 
		20.57434, 
		25.39943, 
		32.1139, 
		42.96577, 
		46.76162, 
		41.87931, 
		27.48179, 
		24.10963, 
		28.43073, 
		33.49356, 
		38.59824, 
		43.54977, 
		43.71124, 
		38.9081, 
		30.90304, 
		28.38148, 
		27.67073, 
		25.89987, 
		27.98193, 
		29.41372, 
		28.90977, 
		31.85075, 
		32.29953, 
		26.96385, 
		22.56362, 
		22.5295, 
		23.08138, 
		28.40251, 
		31.18603
	],
	"forced": [
		false, 
		false, 
		false, 
		false, 
		false, 
		false, 
		false, 
		false, 
		false, 
		false, 
		false, 
		false, 
		false, 
		false, 
		false, 
		false, 
		false, 
		false, 
		false, 
		false, 
		false, 
		false, 
		false, 
		false, 
		false, 
		false, 
		false, 
		false, 
		false, 
		false, 
		false, 
		false, 
		false, 
		false, 
		false, 
		false, 
		false, 
		false, 
		false, 
		false, 
		false, 
		false, 
		false, 
		false, 
		false, 
		false, 
		false, 
		false, 
		false, 
		false, 
		false, 
		false, 
		false, 
		false, 
		false, 
		false, 
		false, 
		false, 
		false, 
		false, 
		false, 
		false, 
		false, 
		false, 
		false, 
		false, 
		false, 
		false, 
		false, 
		false, 
		false, 
		false
	]
	}
}

