{
	"parameters": {
		"profiles_for_regulation": 2, 
		"large_gain": 65.0, 
		"small_gain": 25.0, 
		"dead_band": 1, 
		"valves_max": 100, 
		"valves_min": 2, 
		"integral_band": 0, 
		"disturbation_type": 0, 
		"disturbation_amount": 0.0, 
		"disturbation_amplitude": 0.0, 
		"disturbation_cycles": 0, 
		"disturbation_frequency": 0, 
		"phase_shift_misDx_haulDx": 5, 
		"phase_shift_misSx_haulDx": 5, 
		"phase_shift_misDx_haulSx": 0, 
		"phase_shift_misSx_haulSx": 0, 
		"matrix_major": 1, 
		"matrix_minor": 0
	},
	"production": {
		"code_customer": "MONO", 
		"code_product": "2", 
		"thickness": 20.2, 
		"tolerance": 2.0, 
		"layflat": 1440.0, 
		"line_speed": 39.0, 
		"flow": 173.0, 
		"melt_d": 1.3
	},
	"status": {
	"application": {
		"measurer_active": true, 
		"actuation_active": true
	},
	"measurer": {
		"direction": -1
	},
	"hauloff": {
		"direction": -1, 
		"last_period": 237000, 
		"position": 0, 
		"speed": 0
	}
	},
	"stats": {
		"mean_thickness": 20.2, 
		"max_thickness": 20.89002, 
		"min_thickness": 19.77651, 
		"stdDev": 0.2329206, 
		"sigma_abs": 0.4658412, 
		"sigma_perc": 2.306145
	},
	"rawProfile": [
		597, 
		597, 
		596, 
		596, 
		597, 
		598, 
		599, 
		600, 
		602, 
		603, 
		605, 
		606, 
		607, 
		608, 
		608, 
		608, 
		607, 
		606, 
		605, 
		604, 
		604, 
		604, 
		604, 
		605, 
		606, 
		608, 
		609, 
		610, 
		611, 
		612, 
		612, 
		613, 
		613, 
		613, 
		613, 
		613, 
		614, 
		614, 
		614, 
		614, 
		614, 
		613, 
		612, 
		610, 
		609, 
		607, 
		605, 
		604, 
		603, 
		602, 
		602, 
		602, 
		603, 
		604, 
		605, 
		606, 
		607, 
		608, 
		609, 
		610, 
		610, 
		609, 
		609, 
		608, 
		607, 
		606, 
		605, 
		604, 
		603, 
		603, 
		603, 
		602, 
		602, 
		602, 
		602, 
		603, 
		603, 
		602, 
		602, 
		602, 
		602, 
		602, 
		602, 
		602, 
		603, 
		603, 
		603, 
		604, 
		604, 
		603, 
		603, 
		602, 
		601, 
		600, 
		599, 
		597, 
		596, 
		595, 
		594, 
		594, 
		594, 
		595, 
		596, 
		598, 
		600, 
		601, 
		603, 
		605, 
		606, 
		607, 
		607, 
		607, 
		607, 
		607, 
		606, 
		606, 
		605, 
		605, 
		606, 
		606, 
		607, 
		608, 
		609, 
		610, 
		611, 
		611, 
		611, 
		611, 
		610, 
		609, 
		607, 
		605, 
		604, 
		602, 
		601, 
		599, 
		598, 
		598, 
		597, 
		597, 
		598, 
		598, 
		599, 
		600, 
		601, 
		602, 
		603, 
		604, 
		604, 
		604, 
		604, 
		604, 
		604, 
		604, 
		604, 
		603, 
		603, 
		603, 
		603, 
		603, 
		604, 
		604, 
		605, 
		607, 
		608, 
		610, 
		612, 
		614, 
		616, 
		617, 
		618, 
		618, 
		618, 
		618, 
		617, 
		616, 
		614, 
		613, 
		611, 
		609, 
		607, 
		605, 
		603, 
		602, 
		600, 
		599, 
		597, 
		597, 
		597, 
		597, 
		598, 
		599, 
		601, 
		602, 
		603, 
		604, 
		605, 
		606, 
		606, 
		605, 
		605, 
		604, 
		604, 
		604, 
		604, 
		605, 
		605, 
		607, 
		608, 
		609, 
		610, 
		611, 
		612, 
		612, 
		613, 
		613, 
		613, 
		613, 
		613, 
		613, 
		613, 
		612, 
		611, 
		610, 
		609, 
		607, 
		606, 
		604, 
		602, 
		599, 
		597, 
		596, 
		594, 
		593, 
		592, 
		592, 
		592, 
		593, 
		594, 
		595, 
		596, 
		597, 
		598, 
		598, 
		599, 
		599, 
		599, 
		599, 
		599, 
		598, 
		598, 
		599, 
		599, 
		600, 
		602, 
		604, 
		606, 
		608, 
		610, 
		611, 
		613, 
		613, 
		614, 
		613, 
		613, 
		611, 
		610, 
		607, 
		605, 
		603, 
		601, 
		599, 
		598, 
		598, 
		598, 
		598, 
		600, 
		602, 
		605, 
		608, 
		611, 
		614, 
		617, 
		619, 
		620, 
		620, 
		618, 
		616, 
		613, 
		610, 
		606, 
		603, 
		600, 
		598, 
		598, 
		598, 
		600, 
		602, 
		605, 
		609, 
		613, 
		617, 
		620, 
		623, 
		625, 
		626, 
		627, 
		627, 
		627, 
		626, 
		625, 
		625, 
		624, 
		623, 
		622, 
		621, 
		621, 
		620, 
		619, 
		618, 
		617, 
		616, 
		615, 
		615, 
		614, 
		614, 
		613, 
		613, 
		613, 
		612, 
		611, 
		610, 
		608, 
		606, 
		603, 
		600, 
		598, 
		596, 
		594, 
		593, 
		593, 
		594, 
		596, 
		598, 
		600, 
		602, 
		604, 
		605, 
		606, 
		607, 
		607, 
		607, 
		606, 
		605, 
		603, 
		602, 
		601, 
		600, 
		599, 
		598
	],
	"zonesProfile": [
		19.88986, 
		20.01655, 
		20.22991, 
		20.20324, 
		20.15657, 
		20.3366, 
		20.42995, 
		20.46328, 
		20.38994, 
		20.14323, 
		20.1099, 
		20.26992, 
		20.28992, 
		20.14323, 
		20.07656, 
		20.08323, 
		20.07656, 
		20.11656, 
		20.03655, 
		19.84318, 
		19.88986, 
		20.1499, 
		20.22991, 
		20.18991, 
		20.30326, 
		20.34993, 
		20.1299, 
		19.92986, 
		19.97654, 
		20.11656, 
		20.13657, 
		20.10323, 
		20.18991, 
		20.46328, 
		20.59664, 
		20.42328, 
		20.11656, 
		19.91653, 
		20.02321, 
		20.17657, 
		20.14323, 
		20.22992, 
		20.38994, 
		20.43661, 
		20.36994, 
		20.12323, 
		19.81651, 
		19.77651, 
		19.9232, 
		19.9632, 
		19.98987, 
		20.26325, 
		20.44328, 
		20.24325, 
		19.9632, 
		20.08989, 
		20.5433, 
		20.51663, 
		20.03655, 
		20.09656, 
		20.65665, 
		20.89002, 
		20.79667, 
		20.66332, 
		20.51663, 
		20.43661, 
		20.25659, 
		19.87652, 
		19.87652, 
		20.16324, 
		20.18991, 
		20.00321
	],
	"actuators": {
	"values": [
		42.18869, 
		31.62756, 
		16.73158, 
		19.80436, 
		28.27723, 
		30.53027, 
		32.08096, 
		9.753212, 
		14.41155, 
		12.31828, 
		18.86827, 
		15.73771, 
		21.42916, 
		23.29613, 
		18.24011, 
		17.54465, 
		25.45811, 
		25.45121, 
		34.24675, 
		29.74987, 
		12.94406, 
		19.00454, 
		29.07555, 
		32.38284, 
		23.97213, 
		29.14025, 
		44.83123, 
		53.44615, 
		41.9718, 
		37.05601, 
		30.17917, 
		44.90369, 
		45.76683, 
		51.063, 
		39.25505, 
		35.69905, 
		30.75268, 
		38.5959, 
		18.9165, 
		25.48637, 
		17.18389, 
		26.59457, 
		18.94601, 
		16.13273, 
		24.3848, 
		44.24875, 
		63.9027, 
		47.17373, 
		31.59799, 
		17.69139, 
		37.64589, 
		35.88005, 
		44.86163, 
		58.78308, 
		68.79768, 
		45.65769, 
		14.90613, 
		15.0338, 
		35.23223, 
		34.11792, 
		31.75954, 
		25.69607, 
		19.8105, 
		29.81853, 
		34.46462, 
		22.39422, 
		13.95002, 
		23.74237, 
		24.83705, 
		19.44226, 
		15.77965, 
		35.22455
	],
	"forced": [
		false, 
		false, 
		false, 
		false, 
		false, 
		false, 
		false, 
		false, 
		false, 
		false, 
		false, 
		false, 
		false, 
		false, 
		false, 
		false, 
		false, 
		false, 
		false, 
		false, 
		false, 
		false, 
		false, 
		false, 
		false, 
		false, 
		false, 
		false, 
		false, 
		false, 
		false, 
		false, 
		false, 
		false, 
		false, 
		false, 
		false, 
		false, 
		false, 
		false, 
		false, 
		false, 
		false, 
		false, 
		false, 
		false, 
		false, 
		false, 
		false, 
		false, 
		false, 
		false, 
		false, 
		false, 
		false, 
		false, 
		false, 
		false, 
		false, 
		false, 
		false, 
		false, 
		false, 
		false, 
		false, 
		false, 
		false, 
		false, 
		false, 
		false, 
		false, 
		false
	]
	}
}

