{
	"parameters": {
		"profiles_for_regulation": 2, 
		"large_gain": 65.0, 
		"small_gain": 25.0, 
		"dead_band": 1, 
		"valves_max": 100, 
		"valves_min": 2, 
		"integral_band": 0, 
		"disturbation_type": 0, 
		"disturbation_amount": 0.0, 
		"disturbation_amplitude": 0.0, 
		"disturbation_cycles": 0, 
		"disturbation_frequency": 0, 
		"phase_shift_misDx_haulDx": 5, 
		"phase_shift_misSx_haulDx": 5, 
		"phase_shift_misDx_haulSx": 0, 
		"phase_shift_misSx_haulSx": 0, 
		"matrix_major": 1, 
		"matrix_minor": 0
	},
	"production": {
		"code_customer": "MONO", 
		"code_product": "2", 
		"thickness": 20.2, 
		"tolerance": 2.0, 
		"layflat": 1440.0, 
		"line_speed": 36.0, 
		"flow": 160.0, 
		"melt_d": 1.3
	},
	"status": {
	"application": {
		"measurer_active": true, 
		"actuation_active": true
	},
	"measurer": {
		"direction": 1
	},
	"hauloff": {
		"direction": -1, 
		"last_period": 606000, 
		"position": 0, 
		"speed": 0
	}
	},
	"stats": {
		"mean_thickness": 20.2, 
		"max_thickness": 20.76209, 
		"min_thickness": 19.46027, 
		"stdDev": 0.2660947, 
		"sigma_abs": 0.5321893, 
		"sigma_perc": 2.6346
	},
	"rawProfile": [
		610, 
		608, 
		606, 
		605, 
		604, 
		604, 
		604, 
		605, 
		606, 
		608, 
		609, 
		610, 
		611, 
		611, 
		611, 
		610, 
		609, 
		607, 
		604, 
		602, 
		600, 
		598, 
		596, 
		596, 
		595, 
		596, 
		596, 
		597, 
		598, 
		599, 
		600, 
		601, 
		602, 
		604, 
		605, 
		607, 
		608, 
		610, 
		611, 
		612, 
		613, 
		613, 
		613, 
		612, 
		610, 
		608, 
		605, 
		603, 
		600, 
		598, 
		596, 
		595, 
		594, 
		594, 
		594, 
		595, 
		595, 
		596, 
		597, 
		598, 
		599, 
		599, 
		600, 
		600, 
		600, 
		600, 
		600, 
		600, 
		601, 
		601, 
		601, 
		602, 
		602, 
		603, 
		603, 
		602, 
		602, 
		601, 
		600, 
		598, 
		596, 
		594, 
		593, 
		591, 
		590, 
		589, 
		589, 
		588, 
		589, 
		589, 
		589, 
		590, 
		590, 
		590, 
		590, 
		591, 
		591, 
		591, 
		591, 
		591, 
		591, 
		592, 
		593, 
		594, 
		595, 
		596, 
		597, 
		597, 
		598, 
		598, 
		597, 
		596, 
		595, 
		594, 
		593, 
		592, 
		592, 
		592, 
		592, 
		593, 
		594, 
		596, 
		597, 
		598, 
		600, 
		600, 
		601, 
		601, 
		600, 
		600, 
		599, 
		598, 
		597, 
		596, 
		595, 
		595, 
		595, 
		595, 
		595, 
		595, 
		595, 
		595, 
		596, 
		596, 
		597, 
		598, 
		598, 
		599, 
		600, 
		601, 
		602, 
		602, 
		603, 
		603, 
		604, 
		604, 
		604, 
		604, 
		603, 
		603, 
		602, 
		602, 
		601, 
		601, 
		601, 
		601, 
		601, 
		601, 
		602, 
		603, 
		603, 
		604, 
		605, 
		606, 
		607, 
		608, 
		609, 
		610, 
		611, 
		612, 
		613, 
		613, 
		613, 
		613, 
		613, 
		612, 
		612, 
		611, 
		611, 
		611, 
		611, 
		611, 
		612, 
		612, 
		612, 
		612, 
		611, 
		610, 
		608, 
		606, 
		604, 
		602, 
		600, 
		599, 
		599, 
		599, 
		599, 
		600, 
		601, 
		602, 
		603, 
		604, 
		604, 
		605, 
		605, 
		605, 
		606, 
		606, 
		607, 
		608, 
		609, 
		609, 
		610, 
		611, 
		611, 
		612, 
		612, 
		612, 
		611, 
		610, 
		610, 
		609, 
		608, 
		608, 
		608, 
		608, 
		608, 
		608, 
		609, 
		610, 
		611, 
		611, 
		612, 
		613, 
		613, 
		613, 
		612, 
		611, 
		610, 
		608, 
		607, 
		605, 
		604, 
		604, 
		604, 
		604, 
		605, 
		606, 
		607, 
		608, 
		609, 
		609, 
		609, 
		608, 
		607, 
		606, 
		604, 
		602, 
		600, 
		598, 
		596, 
		595, 
		594, 
		594, 
		595, 
		596, 
		598, 
		601, 
		604, 
		608, 
		611, 
		615, 
		618, 
		621, 
		623, 
		623, 
		622, 
		620, 
		617, 
		612, 
		607, 
		601, 
		595, 
		590, 
		585, 
		582, 
		579, 
		579, 
		579, 
		581, 
		583, 
		586, 
		590, 
		593, 
		597, 
		600, 
		602, 
		605, 
		606, 
		608, 
		609, 
		610, 
		610, 
		611, 
		611, 
		610, 
		610, 
		608, 
		607, 
		605, 
		603, 
		601, 
		598, 
		597, 
		595, 
		594, 
		594, 
		594, 
		594, 
		594, 
		594, 
		594, 
		594, 
		593, 
		591, 
		590, 
		588, 
		587, 
		586, 
		586, 
		586, 
		587, 
		588, 
		591, 
		593, 
		596, 
		600, 
		603, 
		606, 
		610, 
		612, 
		614, 
		616, 
		617, 
		617, 
		617, 
		616, 
		615, 
		613, 
		612
	],
	"zonesProfile": [
		20.35276, 
		20.31249, 
		20.48026, 
		20.34605, 
		20.03065, 
		20.03736, 
		20.21184, 
		20.45341, 
		20.54065, 
		20.22526, 
		19.95013, 
		20.00381, 
		20.11789, 
		20.14473, 
		20.20513, 
		20.15144, 
		19.88974, 
		19.75553, 
		19.78908, 
		19.82934, 
		19.89645, 
		20.03736, 
		19.96355, 
		19.8696, 
		20.03065, 
		20.14473, 
		20.03065, 
		19.96355, 
		19.99039, 
		20.10447, 
		20.22526, 
		20.2521, 
		20.17829, 
		20.18499, 
		20.29907, 
		20.46683, 
		20.56749, 
		20.51381, 
		20.52052, 
		20.4467, 
		20.15815, 
		20.13802, 
		20.27223, 
		20.34605, 
		20.46683, 
		20.51381, 
		20.41986, 
		20.41986, 
		20.53394, 
		20.49367, 
		20.29236, 
		20.33262, 
		20.41315, 
		20.19842, 
		19.95684, 
		20.17828, 
		20.72183, 
		20.76209, 
		19.98368, 
		19.46027, 
		19.78908, 
		20.27223, 
		20.47355, 
		20.39973, 
		20.09105, 
		19.93, 
		19.90316, 
		19.70855, 
		19.76224, 
		20.23197, 
		20.6413, 
		20.62117
	],
	"actuators": {
	"values": [
		42.39055, 
		34.3927, 
		15.12363, 
		14.69545, 
		21.36518, 
		32.53656, 
		31.58709, 
		16.37458, 
		8.315074, 
		11.01954, 
		20.98121, 
		21.12217, 
		23.23029, 
		28.51672, 
		19.49304, 
		16.24806, 
		24.78102, 
		25.04043, 
		29.28435, 
		28.43939, 
		18.89833, 
		16.46275, 
		25.72386, 
		25.45668, 
		22.47775, 
		23.10472, 
		38.042, 
		42.85366, 
		38.34499, 
		28.96691, 
		34.7941, 
		40.88901, 
		47.6581, 
		43.57631, 
		44.06762, 
		35.90592, 
		38.28366, 
		32.87371, 
		22.67997, 
		11.88839, 
		24.34405, 
		16.28016, 
		21.82064, 
		14.92386, 
		23.8094, 
		42.35363, 
		62.69745, 
		55.72966, 
		34.74575, 
		16.65267, 
		34.21312, 
		42.14417, 
		53.86891, 
		67.53445, 
		73.79556, 
		52.66474, 
		22.4582, 
		7.258431, 
		29.1676, 
		37.27131, 
		34.10739, 
		30.55396, 
		26.73213, 
		25.84546, 
		35.68782, 
		20.50649, 
		17.2727, 
		19.73911, 
		29.92221, 
		26.52019, 
		26.58276, 
		37.41986
	],
	"forced": [
		false, 
		false, 
		false, 
		false, 
		false, 
		false, 
		false, 
		false, 
		false, 
		false, 
		false, 
		false, 
		false, 
		false, 
		false, 
		false, 
		false, 
		false, 
		false, 
		false, 
		false, 
		false, 
		false, 
		false, 
		false, 
		false, 
		false, 
		false, 
		false, 
		false, 
		false, 
		false, 
		false, 
		false, 
		false, 
		false, 
		false, 
		false, 
		false, 
		false, 
		false, 
		false, 
		false, 
		false, 
		false, 
		false, 
		false, 
		false, 
		false, 
		false, 
		false, 
		false, 
		false, 
		false, 
		false, 
		false, 
		false, 
		false, 
		false, 
		false, 
		false, 
		false, 
		false, 
		false, 
		false, 
		false, 
		false, 
		false, 
		false, 
		false, 
		false, 
		false
	]
	}
}

