{
	"parameters": {
		"profiles_for_regulation": 2, 
		"large_gain": 65.0, 
		"small_gain": 25.0, 
		"dead_band": 1, 
		"valves_max": 100, 
		"valves_min": 2, 
		"integral_band": 0, 
		"disturbation_type": 0, 
		"disturbation_amount": 0.0, 
		"disturbation_amplitude": 0.0, 
		"disturbation_cycles": 0, 
		"disturbation_frequency": 0, 
		"phase_shift_misDx_haulDx": 5, 
		"phase_shift_misSx_haulDx": 5, 
		"phase_shift_misDx_haulSx": 0, 
		"phase_shift_misSx_haulSx": 0, 
		"matrix_major": 1, 
		"matrix_minor": 0
	},
	"production": {
		"code_customer": "MONO", 
		"code_product": "2", 
		"thickness": 20.2, 
		"tolerance": 2.0, 
		"layflat": 1440.0, 
		"line_speed": 36.0, 
		"flow": 160.0, 
		"melt_d": 1.3
	},
	"status": {
	"application": {
		"measurer_active": true, 
		"actuation_active": true
	},
	"measurer": {
		"direction": 1
	},
	"hauloff": {
		"direction": -1, 
		"last_period": 1360000, 
		"position": 0, 
		"speed": 0
	}
	},
	"stats": {
		"mean_thickness": 20.2, 
		"max_thickness": 21.12399, 
		"min_thickness": 19.57354, 
		"stdDev": 0.3338057, 
		"sigma_abs": 0.6676115, 
		"sigma_perc": 3.305007
	},
	"rawProfile": [
		606, 
		603, 
		600, 
		598, 
		596, 
		594, 
		594, 
		593, 
		593, 
		593, 
		594, 
		594, 
		594, 
		593, 
		592, 
		590, 
		588, 
		586, 
		583, 
		581, 
		579, 
		578, 
		578, 
		578, 
		578, 
		579, 
		580, 
		582, 
		583, 
		584, 
		586, 
		587, 
		589, 
		591, 
		593, 
		596, 
		598, 
		600, 
		602, 
		603, 
		604, 
		604, 
		604, 
		603, 
		601, 
		599, 
		597, 
		594, 
		592, 
		590, 
		589, 
		588, 
		588, 
		587, 
		587, 
		588, 
		588, 
		588, 
		588, 
		588, 
		587, 
		587, 
		586, 
		585, 
		584, 
		584, 
		583, 
		583, 
		583, 
		583, 
		583, 
		584, 
		584, 
		585, 
		585, 
		586, 
		586, 
		586, 
		585, 
		585, 
		584, 
		583, 
		582, 
		582, 
		581, 
		581, 
		581, 
		582, 
		582, 
		583, 
		583, 
		584, 
		584, 
		585, 
		585, 
		585, 
		586, 
		586, 
		586, 
		587, 
		587, 
		588, 
		589, 
		590, 
		591, 
		592, 
		592, 
		593, 
		592, 
		592, 
		591, 
		590, 
		588, 
		586, 
		585, 
		583, 
		582, 
		582, 
		582, 
		582, 
		583, 
		584, 
		585, 
		587, 
		588, 
		589, 
		590, 
		590, 
		590, 
		590, 
		589, 
		589, 
		588, 
		588, 
		588, 
		588, 
		588, 
		589, 
		589, 
		591, 
		592, 
		593, 
		595, 
		596, 
		598, 
		599, 
		601, 
		602, 
		604, 
		605, 
		606, 
		607, 
		607, 
		608, 
		608, 
		608, 
		607, 
		607, 
		606, 
		605, 
		603, 
		602, 
		601, 
		599, 
		598, 
		597, 
		597, 
		596, 
		595, 
		595, 
		595, 
		594, 
		594, 
		595, 
		595, 
		595, 
		596, 
		597, 
		598, 
		600, 
		601, 
		602, 
		603, 
		604, 
		605, 
		605, 
		605, 
		605, 
		606, 
		606, 
		607, 
		608, 
		609, 
		610, 
		610, 
		611, 
		611, 
		610, 
		609, 
		607, 
		604, 
		602, 
		600, 
		598, 
		596, 
		595, 
		594, 
		594, 
		594, 
		594, 
		595, 
		595, 
		596, 
		596, 
		597, 
		598, 
		599, 
		599, 
		601, 
		602, 
		603, 
		605, 
		606, 
		607, 
		608, 
		609, 
		609, 
		608, 
		607, 
		606, 
		605, 
		603, 
		601, 
		599, 
		598, 
		597, 
		596, 
		596, 
		596, 
		597, 
		598, 
		599, 
		600, 
		601, 
		602, 
		603, 
		603, 
		603, 
		602, 
		601, 
		599, 
		598, 
		596, 
		595, 
		594, 
		594, 
		594, 
		594, 
		595, 
		596, 
		597, 
		598, 
		598, 
		598, 
		598, 
		597, 
		595, 
		594, 
		592, 
		591, 
		589, 
		588, 
		587, 
		587, 
		588, 
		589, 
		591, 
		593, 
		596, 
		600, 
		604, 
		608, 
		611, 
		614, 
		616, 
		617, 
		617, 
		616, 
		613, 
		609, 
		605, 
		600, 
		595, 
		590, 
		586, 
		583, 
		582, 
		582, 
		583, 
		585, 
		588, 
		592, 
		595, 
		599, 
		603, 
		606, 
		608, 
		610, 
		611, 
		612, 
		613, 
		613, 
		613, 
		613, 
		612, 
		612, 
		611, 
		610, 
		608, 
		607, 
		605, 
		604, 
		603, 
		602, 
		601, 
		601, 
		601, 
		602, 
		602, 
		603, 
		603, 
		603, 
		603, 
		602, 
		601, 
		600, 
		599, 
		598, 
		598, 
		598, 
		599, 
		601, 
		603, 
		606, 
		609, 
		612, 
		615, 
		618, 
		620, 
		622, 
		624, 
		624, 
		625, 
		624, 
		623, 
		621, 
		619, 
		616, 
		613, 
		609
	],
	"zonesProfile": [
		20.33184, 
		20.0881, 
		20.0881, 
		19.82405, 
		19.57354, 
		19.68864, 
		19.94592, 
		20.30475, 
		20.41986, 
		20.12195, 
		19.89853, 
		19.9053, 
		19.83082, 
		19.7428, 
		19.77666, 
		19.82405, 
		19.71572, 
		19.69541, 
		19.77666, 
		19.83759, 
		19.93915, 
		20.04748, 
		19.90529, 
		19.70895, 
		19.81728, 
		19.96623, 
		19.91884, 
		19.93915, 
		20.13549, 
		20.386, 
		20.55526, 
		20.53495, 
		20.33184, 
		20.17612, 
		20.12872, 
		20.21674, 
		20.41308, 
		20.49433, 
		20.60943, 
		20.63651, 
		20.31153, 
		20.11518, 
		20.16935, 
		20.30475, 
		20.50787, 
		20.57557, 
		20.35215, 
		20.18966, 
		20.31152, 
		20.39277, 
		20.18966, 
		20.12872, 
		20.23705, 
		20.10164, 
		19.89853, 
		20.10164, 
		20.67036, 
		20.799, 
		20.14903, 
		19.73603, 
		20.1558, 
		20.62974, 
		20.74484, 
		20.63651, 
		20.41309, 
		20.37246, 
		20.39277, 
		20.26413, 
		20.4334, 
		20.90056, 
		21.12399, 
		20.83963
	],
	"actuators": {
	"values": [
		43.26099, 
		34.29406, 
		14.49432, 
		15.15062, 
		22.94947, 
		33.40779, 
		31.75029, 
		16.25861, 
		8.435358, 
		10.84148, 
		23.06827, 
		21.84144, 
		24.415, 
		28.72326, 
		20.01992, 
		16.54118, 
		25.15757, 
		26.24835, 
		30.03722, 
		29.23026, 
		20.06877, 
		15.86688, 
		26.00998, 
		26.71509, 
		23.64046, 
		22.74787, 
		39.20595, 
		43.47473, 
		38.80871, 
		28.40492, 
		34.58479, 
		39.87417, 
		48.31551, 
		42.98415, 
		43.65652, 
		35.54073, 
		37.17993, 
		32.40905, 
		21.92859, 
		10.47153, 
		24.74687, 
		16.71233, 
		21.55813, 
		15.13338, 
		23.55976, 
		41.59826, 
		63.19013, 
		55.28071, 
		35.35052, 
		15.6233, 
		34.85605, 
		41.60194, 
		54.55145, 
		66.40827, 
		75.86591, 
		52.15969, 
		21.62242, 
		5.739112, 
		29.6672, 
		40.34442, 
		33.91372, 
		30.02236, 
		25.25303, 
		24.19355, 
		35.4628, 
		20.57783, 
		15.86096, 
		20.59288, 
		29.24697, 
		24.77252, 
		24.27873, 
		35.39076
	],
	"forced": [
		false, 
		false, 
		false, 
		false, 
		false, 
		false, 
		false, 
		false, 
		false, 
		false, 
		false, 
		false, 
		false, 
		false, 
		false, 
		false, 
		false, 
		false, 
		false, 
		false, 
		false, 
		false, 
		false, 
		false, 
		false, 
		false, 
		false, 
		false, 
		false, 
		false, 
		false, 
		false, 
		false, 
		false, 
		false, 
		false, 
		false, 
		false, 
		false, 
		false, 
		false, 
		false, 
		false, 
		false, 
		false, 
		false, 
		false, 
		false, 
		false, 
		false, 
		false, 
		false, 
		false, 
		false, 
		false, 
		false, 
		false, 
		false, 
		false, 
		false, 
		false, 
		false, 
		false, 
		false, 
		false, 
		false, 
		false, 
		false, 
		false, 
		false, 
		false, 
		false
	]
	}
}

