{
	"parameters": {
		"profiles_for_regulation": 2, 
		"large_gain": 65.0, 
		"small_gain": 25.0, 
		"dead_band": 1, 
		"valves_max": 100, 
		"valves_min": 2, 
		"integral_band": 0, 
		"disturbation_type": 0, 
		"disturbation_amount": 0.0, 
		"disturbation_amplitude": 0.0, 
		"disturbation_cycles": 0, 
		"disturbation_frequency": 0, 
		"phase_shift_misDx_haulDx": 5, 
		"phase_shift_misSx_haulDx": 5, 
		"phase_shift_misDx_haulSx": 0, 
		"phase_shift_misSx_haulSx": 0, 
		"matrix_major": 1, 
		"matrix_minor": 0
	},
	"production": {
		"code_customer": "MONO", 
		"code_product": "2", 
		"thickness": 20.2, 
		"tolerance": 2.0, 
		"layflat": 1440.0, 
		"line_speed": 39.0, 
		"flow": 173.0, 
		"melt_d": 1.3
	},
	"status": {
	"application": {
		"measurer_active": true, 
		"actuation_active": true
	},
	"measurer": {
		"direction": -1
	},
	"hauloff": {
		"direction": -1, 
		"last_period": 1413000, 
		"position": 0, 
		"speed": 0
	}
	},
	"stats": {
		"mean_thickness": 20.2, 
		"max_thickness": 20.78774, 
		"min_thickness": 19.68521, 
		"stdDev": 0.2211451, 
		"sigma_abs": 0.4422902, 
		"sigma_perc": 2.189555
	},
	"rawProfile": [
		591, 
		592, 
		594, 
		595, 
		596, 
		598, 
		599, 
		600, 
		601, 
		602, 
		602, 
		602, 
		601, 
		601, 
		599, 
		598, 
		597, 
		596, 
		595, 
		595, 
		595, 
		596, 
		598, 
		600, 
		602, 
		604, 
		605, 
		607, 
		608, 
		608, 
		609, 
		609, 
		608, 
		608, 
		608, 
		608, 
		608, 
		608, 
		608, 
		608, 
		608, 
		608, 
		607, 
		607, 
		606, 
		606, 
		605, 
		605, 
		604, 
		604, 
		604, 
		604, 
		604, 
		605, 
		605, 
		605, 
		605, 
		604, 
		604, 
		604, 
		603, 
		602, 
		602, 
		601, 
		601, 
		601, 
		601, 
		601, 
		602, 
		602, 
		603, 
		604, 
		605, 
		606, 
		607, 
		607, 
		608, 
		609, 
		610, 
		610, 
		611, 
		611, 
		612, 
		612, 
		613, 
		613, 
		614, 
		614, 
		614, 
		614, 
		613, 
		613, 
		612, 
		611, 
		610, 
		609, 
		608, 
		606, 
		606, 
		605, 
		605, 
		605, 
		605, 
		606, 
		606, 
		607, 
		608, 
		608, 
		608, 
		608, 
		608, 
		607, 
		607, 
		606, 
		605, 
		604, 
		604, 
		604, 
		604, 
		604, 
		604, 
		605, 
		605, 
		605, 
		605, 
		605, 
		605, 
		604, 
		603, 
		602, 
		601, 
		599, 
		598, 
		597, 
		597, 
		596, 
		596, 
		596, 
		596, 
		596, 
		596, 
		597, 
		597, 
		598, 
		598, 
		598, 
		598, 
		598, 
		598, 
		597, 
		596, 
		596, 
		595, 
		594, 
		593, 
		593, 
		592, 
		592, 
		592, 
		593, 
		593, 
		594, 
		595, 
		596, 
		597, 
		599, 
		600, 
		602, 
		604, 
		605, 
		606, 
		606, 
		606, 
		606, 
		606, 
		605, 
		605, 
		604, 
		603, 
		603, 
		602, 
		602, 
		601, 
		600, 
		600, 
		599, 
		598, 
		598, 
		598, 
		598, 
		598, 
		599, 
		600, 
		601, 
		602, 
		604, 
		605, 
		606, 
		607, 
		607, 
		607, 
		608, 
		608, 
		608, 
		608, 
		608, 
		609, 
		609, 
		609, 
		609, 
		609, 
		609, 
		608, 
		607, 
		606, 
		605, 
		604, 
		603, 
		603, 
		603, 
		603, 
		604, 
		605, 
		606, 
		607, 
		608, 
		609, 
		609, 
		609, 
		608, 
		608, 
		607, 
		605, 
		604, 
		602, 
		601, 
		600, 
		599, 
		599, 
		598, 
		598, 
		599, 
		600, 
		601, 
		603, 
		604, 
		606, 
		608, 
		610, 
		612, 
		613, 
		615, 
		616, 
		617, 
		618, 
		620, 
		621, 
		622, 
		623, 
		623, 
		623, 
		623, 
		623, 
		622, 
		620, 
		619, 
		616, 
		614, 
		612, 
		609, 
		607, 
		605, 
		603, 
		602, 
		602, 
		602, 
		603, 
		605, 
		607, 
		609, 
		612, 
		615, 
		617, 
		619, 
		619, 
		619, 
		617, 
		615, 
		611, 
		607, 
		603, 
		600, 
		598, 
		596, 
		596, 
		597, 
		600, 
		603, 
		606, 
		610, 
		613, 
		616, 
		618, 
		619, 
		620, 
		619, 
		617, 
		615, 
		613, 
		610, 
		608, 
		605, 
		603, 
		602, 
		601, 
		600, 
		600, 
		600, 
		600, 
		601, 
		601, 
		602, 
		603, 
		603, 
		604, 
		605, 
		606, 
		608, 
		609, 
		610, 
		611, 
		612, 
		612, 
		611, 
		611, 
		609, 
		608, 
		607, 
		606, 
		605, 
		604, 
		603, 
		603, 
		603, 
		602, 
		601, 
		600, 
		599, 
		598, 
		596, 
		595, 
		593, 
		592, 
		591, 
		590, 
		589, 
		589, 
		589, 
		589, 
		590
	],
	"zonesProfile": [
		19.83221, 
		20.04604, 
		20.07945, 
		19.91908, 
		19.9859, 
		20.25986, 
		20.32668, 
		20.31332, 
		20.28659, 
		20.2064, 
		20.19304, 
		20.19304, 
		20.10617, 
		20.09281, 
		20.21309, 
		20.34004, 
		20.44028, 
		20.5071, 
		20.44028, 
		20.27323, 
		20.22645, 
		20.30663, 
		20.26654, 
		20.17968, 
		20.20641, 
		20.17299, 
		19.99258, 
		19.9124, 
		19.95249, 
		19.97253, 
		19.8723, 
		19.79212, 
		19.87899, 
		20.11286, 
		20.2465, 
		20.17968, 
		20.07945, 
		19.9859, 
		20.04604, 
		20.23981, 
		20.30663, 
		20.34004, 
		20.30664, 
		20.16631, 
		20.21309, 
		20.33336, 
		20.21977, 
		20.02599, 
		20.05272, 
		20.31331, 
		20.57392, 
		20.77438, 
		20.78774, 
		20.51377, 
		20.17299, 
		20.21977, 
		20.59396, 
		20.5071, 
		19.99926, 
		20.15295, 
		20.62069, 
		20.54051, 
		20.17299, 
		20.05272, 
		20.1329, 
		20.29995, 
		20.42691, 
		20.27991, 
		20.14627, 
		20.00595, 
		19.78544, 
		19.68521
	],
	"actuators": {
	"values": [
		47.71937, 
		32.02116, 
		15.15708, 
		24.68, 
		24.10556, 
		27.03125, 
		29.00187, 
		8.014416, 
		13.11574, 
		11.75345, 
		16.42534, 
		10.55415, 
		19.15762, 
		19.86201, 
		17.02372, 
		15.01773, 
		22.839, 
		21.55559, 
		34.21955, 
		31.33018, 
		14.32588, 
		15.19569, 
		25.39474, 
		29.26728, 
		15.81247, 
		23.40391, 
		45.61563, 
		56.67897, 
		42.88892, 
		37.67053, 
		32.41284, 
		48.36164, 
		48.46899, 
		50.61833, 
		38.75507, 
		40.03959, 
		32.06787, 
		45.74604, 
		15.78482, 
		25.7266, 
		15.94672, 
		22.67557, 
		18.85206, 
		11.6377, 
		24.51184, 
		43.59195, 
		73.51312, 
		52.85106, 
		35.38087, 
		16.87381, 
		41.5764, 
		33.67163, 
		40.38225, 
		60.2581, 
		74.68975, 
		40.70712, 
		3.710705, 
		15.50535, 
		43.20289, 
		34.31105, 
		19.87945, 
		23.06761, 
		19.96773, 
		33.69782, 
		36.94495, 
		23.0758, 
		14.81543, 
		28.14342, 
		27.96774, 
		18.49971, 
		21.09916, 
		43.71497
	],
	"forced": [
		false, 
		false, 
		false, 
		false, 
		false, 
		false, 
		false, 
		false, 
		false, 
		false, 
		false, 
		false, 
		false, 
		false, 
		false, 
		false, 
		false, 
		false, 
		false, 
		false, 
		false, 
		false, 
		false, 
		false, 
		false, 
		false, 
		false, 
		false, 
		false, 
		false, 
		false, 
		false, 
		false, 
		false, 
		false, 
		false, 
		false, 
		false, 
		false, 
		false, 
		false, 
		false, 
		false, 
		false, 
		false, 
		false, 
		false, 
		false, 
		false, 
		false, 
		false, 
		false, 
		false, 
		false, 
		false, 
		false, 
		false, 
		false, 
		false, 
		false, 
		false, 
		false, 
		false, 
		false, 
		false, 
		false, 
		false, 
		false, 
		false, 
		false, 
		false, 
		false
	]
	}
}

