{
	"parameters": {
		"profiles_for_regulation": 2, 
		"large_gain": 65.0, 
		"small_gain": 25.0, 
		"dead_band": 1, 
		"valves_max": 100, 
		"valves_min": 2, 
		"integral_band": 0, 
		"disturbation_type": 0, 
		"disturbation_amount": 0.0, 
		"disturbation_amplitude": 0.0, 
		"disturbation_cycles": 0, 
		"disturbation_frequency": 0, 
		"phase_shift_misDx_haulDx": 5, 
		"phase_shift_misSx_haulDx": 5, 
		"phase_shift_misDx_haulSx": 0, 
		"phase_shift_misSx_haulSx": 0, 
		"matrix_major": 1, 
		"matrix_minor": 0
	},
	"production": {
		"code_customer": "MONO", 
		"code_product": "2", 
		"thickness": 20.2, 
		"tolerance": 2.0, 
		"layflat": 1440.0, 
		"line_speed": 39.0, 
		"flow": 173.0, 
		"melt_d": 1.3
	},
	"status": {
	"application": {
		"measurer_active": true, 
		"actuation_active": true
	},
	"measurer": {
		"direction": -1
	},
	"hauloff": {
		"direction": 1, 
		"last_period": 698000, 
		"position": 0, 
		"speed": 0
	}
	},
	"stats": {
		"mean_thickness": 20.2, 
		"max_thickness": 20.8208, 
		"min_thickness": 19.47385, 
		"stdDev": 0.2959431, 
		"sigma_abs": 0.5918861, 
		"sigma_perc": 2.930129
	},
	"rawProfile": [
		602, 
		602, 
		603, 
		603, 
		604, 
		605, 
		605, 
		606, 
		606, 
		607, 
		607, 
		606, 
		606, 
		605, 
		605, 
		604, 
		604, 
		604, 
		605, 
		607, 
		609, 
		611, 
		613, 
		616, 
		618, 
		621, 
		622, 
		623, 
		623, 
		623, 
		622, 
		621, 
		619, 
		618, 
		616, 
		615, 
		613, 
		612, 
		611, 
		610, 
		609, 
		608, 
		607, 
		606, 
		606, 
		605, 
		604, 
		604, 
		604, 
		604, 
		604, 
		604, 
		604, 
		604, 
		604, 
		604, 
		603, 
		603, 
		602, 
		601, 
		601, 
		600, 
		600, 
		600, 
		599, 
		600, 
		600, 
		601, 
		602, 
		603, 
		604, 
		606, 
		607, 
		608, 
		609, 
		610, 
		611, 
		611, 
		612, 
		613, 
		614, 
		614, 
		615, 
		616, 
		617, 
		618, 
		619, 
		620, 
		620, 
		620, 
		619, 
		619, 
		618, 
		616, 
		615, 
		613, 
		612, 
		611, 
		610, 
		609, 
		609, 
		609, 
		609, 
		610, 
		610, 
		610, 
		611, 
		610, 
		610, 
		609, 
		608, 
		607, 
		605, 
		604, 
		603, 
		603, 
		602, 
		603, 
		603, 
		604, 
		604, 
		605, 
		606, 
		606, 
		607, 
		607, 
		606, 
		606, 
		605, 
		604, 
		603, 
		602, 
		601, 
		600, 
		599, 
		599, 
		599, 
		599, 
		599, 
		599, 
		599, 
		600, 
		600, 
		601, 
		601, 
		601, 
		601, 
		601, 
		601, 
		600, 
		599, 
		599, 
		598, 
		598, 
		598, 
		598, 
		598, 
		598, 
		598, 
		598, 
		599, 
		599, 
		600, 
		600, 
		601, 
		601, 
		602, 
		602, 
		603, 
		603, 
		603, 
		603, 
		603, 
		603, 
		602, 
		602, 
		602, 
		602, 
		601, 
		601, 
		601, 
		600, 
		599, 
		598, 
		597, 
		596, 
		596, 
		595, 
		595, 
		594, 
		594, 
		594, 
		595, 
		595, 
		594, 
		594, 
		593, 
		592, 
		591, 
		590, 
		589, 
		588, 
		587, 
		586, 
		585, 
		585, 
		585, 
		585, 
		584, 
		584, 
		584, 
		583, 
		582, 
		582, 
		581, 
		581, 
		581, 
		581, 
		582, 
		583, 
		585, 
		587, 
		589, 
		591, 
		593, 
		595, 
		596, 
		596, 
		596, 
		596, 
		595, 
		594, 
		593, 
		592, 
		590, 
		589, 
		588, 
		588, 
		587, 
		588, 
		588, 
		589, 
		591, 
		593, 
		595, 
		597, 
		599, 
		601, 
		603, 
		604, 
		606, 
		608, 
		609, 
		611, 
		612, 
		614, 
		615, 
		617, 
		618, 
		619, 
		619, 
		619, 
		619, 
		617, 
		616, 
		613, 
		611, 
		608, 
		605, 
		602, 
		599, 
		597, 
		595, 
		594, 
		594, 
		594, 
		596, 
		598, 
		600, 
		602, 
		605, 
		606, 
		608, 
		608, 
		607, 
		604, 
		602, 
		598, 
		594, 
		591, 
		588, 
		586, 
		585, 
		586, 
		588, 
		591, 
		595, 
		600, 
		604, 
		608, 
		612, 
		615, 
		617, 
		617, 
		617, 
		616, 
		614, 
		611, 
		609, 
		606, 
		603, 
		601, 
		600, 
		599, 
		598, 
		598, 
		598, 
		598, 
		598, 
		599, 
		599, 
		600, 
		600, 
		601, 
		603, 
		605, 
		606, 
		609, 
		610, 
		612, 
		613, 
		614, 
		614, 
		613, 
		612, 
		610, 
		609, 
		607, 
		606, 
		606, 
		605, 
		605, 
		605, 
		605, 
		605, 
		605, 
		605, 
		605, 
		604, 
		603, 
		603, 
		602, 
		602, 
		601, 
		601, 
		601, 
		601, 
		601, 
		601, 
		601
	],
	"zonesProfile": [
		20.278, 
		20.3115, 
		20.25119, 
		20.47903, 
		20.8208, 
		20.79399, 
		20.55275, 
		20.37181, 
		20.25789, 
		20.23779, 
		20.21099, 
		20.11717, 
		20.11717, 
		20.2914, 
		20.45893, 
		20.58625, 
		20.73368, 
		20.72028, 
		20.51254, 
		20.41202, 
		20.44553, 
		20.32491, 
		20.19758, 
		20.2713, 
		20.3115, 
		20.17078, 
		20.07026, 
		20.09706, 
		20.13727, 
		20.06356, 
		20.03675, 
		20.07696, 
		20.16407, 
		20.20428, 
		20.16407, 
		20.09706, 
		19.96304, 
		19.91613, 
		19.86252, 
		19.70169, 
		19.59447, 
		19.53416, 
		19.47385, 
		19.66818, 
		19.94294, 
		19.90273, 
		19.71509, 
		19.762, 
		20.07026, 
		20.35841, 
		20.61306, 
		20.72698, 
		20.45893, 
		20.01665, 
		19.98314, 
		20.2981, 
		20.13727, 
		19.67488, 
		19.95634, 
		20.56615, 
		20.55275, 
		20.16408, 
		20.03675, 
		20.09706, 
		20.32491, 
		20.54605, 
		20.39862, 
		20.278, 
		20.26459, 
		20.17748, 
		20.13727, 
		20.17748
	],
	"actuators": {
	"values": [
		48.53189, 
		32.26831, 
		15.59097, 
		25.26032, 
		22.83414, 
		26.50492, 
		28.56126, 
		7.558617, 
		13.38492, 
		11.55124, 
		16.65042, 
		10.20614, 
		19.78323, 
		19.94532, 
		16.19445, 
		14.958, 
		21.09266, 
		20.52422, 
		33.13131, 
		31.59704, 
		13.43921, 
		15.64473, 
		25.18377, 
		29.33394, 
		15.86048, 
		23.21988, 
		46.01746, 
		57.18256, 
		42.62903, 
		37.80222, 
		32.35081, 
		48.38156, 
		48.48232, 
		50.56583, 
		38.87007, 
		39.81097, 
		32.51172, 
		46.34728, 
		15.40269, 
		26.07659, 
		15.90069, 
		23.78561, 
		19.66805, 
		12.43984, 
		24.61069, 
		44.15303, 
		74.12614, 
		53.90607, 
		34.93534, 
		16.90788, 
		40.42912, 
		32.52974, 
		39.6942, 
		61.10192, 
		74.84605, 
		40.92033, 
		2, 
		17.57255, 
		42.10073, 
		34.93802, 
		17.48176, 
		24.255, 
		19.46292, 
		33.74441, 
		37.33587, 
		22.07362, 
		15.34865, 
		27.84217, 
		28.17091, 
		18.30431, 
		22.73525, 
		43.97216
	],
	"forced": [
		false, 
		false, 
		false, 
		false, 
		false, 
		false, 
		false, 
		false, 
		false, 
		false, 
		false, 
		false, 
		false, 
		false, 
		false, 
		false, 
		false, 
		false, 
		false, 
		false, 
		false, 
		false, 
		false, 
		false, 
		false, 
		false, 
		false, 
		false, 
		false, 
		false, 
		false, 
		false, 
		false, 
		false, 
		false, 
		false, 
		false, 
		false, 
		false, 
		false, 
		false, 
		false, 
		false, 
		false, 
		false, 
		false, 
		false, 
		false, 
		false, 
		false, 
		false, 
		false, 
		false, 
		false, 
		false, 
		false, 
		false, 
		false, 
		false, 
		false, 
		false, 
		false, 
		false, 
		false, 
		false, 
		false, 
		false, 
		false, 
		false, 
		false, 
		false, 
		false
	]
	}
}

