{
	"parameters": {
		"profiles_for_regulation": 2, 
		"large_gain": 65.0, 
		"small_gain": 25.0, 
		"dead_band": 1, 
		"valves_max": 100, 
		"valves_min": 2, 
		"integral_band": 0, 
		"disturbation_type": 0, 
		"disturbation_amount": 0.0, 
		"disturbation_amplitude": 0.0, 
		"disturbation_cycles": 0, 
		"disturbation_frequency": 0, 
		"phase_shift_misDx_haulDx": 5, 
		"phase_shift_misSx_haulDx": 5, 
		"phase_shift_misDx_haulSx": 0, 
		"phase_shift_misSx_haulSx": 0, 
		"matrix_major": 1, 
		"matrix_minor": 0
	},
	"production": {
		"code_customer": "MONO", 
		"code_product": "2", 
		"thickness": 20.2, 
		"tolerance": 2.0, 
		"layflat": 1440.0, 
		"line_speed": 36.0, 
		"flow": 160.0, 
		"melt_d": 1.3
	},
	"status": {
	"application": {
		"measurer_active": true, 
		"actuation_active": true
	},
	"measurer": {
		"direction": 1
	},
	"hauloff": {
		"direction": 1, 
		"last_period": 347000, 
		"position": 0, 
		"speed": 0
	}
	},
	"stats": {
		"mean_thickness": 20.2, 
		"max_thickness": 20.88067, 
		"min_thickness": 19.6473, 
		"stdDev": 0.2658828, 
		"sigma_abs": 0.5317656, 
		"sigma_perc": 2.632503
	},
	"rawProfile": [
		608, 
		607, 
		605, 
		604, 
		603, 
		603, 
		604, 
		605, 
		606, 
		607, 
		609, 
		610, 
		611, 
		611, 
		611, 
		610, 
		608, 
		607, 
		605, 
		603, 
		601, 
		600, 
		600, 
		600, 
		600, 
		601, 
		602, 
		603, 
		605, 
		607, 
		609, 
		611, 
		614, 
		616, 
		619, 
		622, 
		624, 
		626, 
		628, 
		629, 
		628, 
		627, 
		625, 
		623, 
		619, 
		615, 
		611, 
		608, 
		604, 
		601, 
		599, 
		597, 
		596, 
		595, 
		595, 
		595, 
		596, 
		596, 
		597, 
		597, 
		598, 
		599, 
		599, 
		600, 
		600, 
		601, 
		601, 
		602, 
		603, 
		604, 
		605, 
		606, 
		607, 
		607, 
		607, 
		607, 
		606, 
		605, 
		604, 
		603, 
		601, 
		600, 
		599, 
		599, 
		598, 
		598, 
		598, 
		598, 
		599, 
		599, 
		599, 
		600, 
		600, 
		600, 
		600, 
		601, 
		601, 
		602, 
		602, 
		604, 
		605, 
		606, 
		608, 
		609, 
		610, 
		611, 
		612, 
		612, 
		611, 
		610, 
		609, 
		608, 
		607, 
		606, 
		605, 
		605, 
		605, 
		605, 
		606, 
		607, 
		608, 
		609, 
		610, 
		610, 
		610, 
		609, 
		608, 
		607, 
		606, 
		604, 
		603, 
		602, 
		602, 
		602, 
		602, 
		602, 
		603, 
		604, 
		605, 
		606, 
		608, 
		609, 
		611, 
		613, 
		614, 
		616, 
		617, 
		618, 
		619, 
		619, 
		620, 
		619, 
		619, 
		617, 
		616, 
		614, 
		612, 
		610, 
		607, 
		604, 
		602, 
		599, 
		597, 
		595, 
		593, 
		592, 
		591, 
		591, 
		591, 
		591, 
		592, 
		594, 
		595, 
		598, 
		600, 
		602, 
		605, 
		608, 
		610, 
		612, 
		614, 
		615, 
		616, 
		616, 
		616, 
		616, 
		616, 
		616, 
		616, 
		616, 
		616, 
		616, 
		616, 
		615, 
		614, 
		612, 
		610, 
		607, 
		604, 
		601, 
		598, 
		596, 
		594, 
		593, 
		592, 
		592, 
		593, 
		594, 
		596, 
		597, 
		599, 
		601, 
		603, 
		605, 
		607, 
		609, 
		611, 
		613, 
		615, 
		616, 
		618, 
		619, 
		619, 
		619, 
		619, 
		618, 
		616, 
		615, 
		613, 
		611, 
		609, 
		607, 
		606, 
		605, 
		604, 
		604, 
		605, 
		606, 
		607, 
		609, 
		610, 
		612, 
		613, 
		614, 
		614, 
		614, 
		613, 
		612, 
		610, 
		608, 
		605, 
		603, 
		602, 
		601, 
		600, 
		600, 
		600, 
		601, 
		602, 
		603, 
		603, 
		604, 
		604, 
		603, 
		602, 
		600, 
		599, 
		597, 
		595, 
		592, 
		591, 
		589, 
		588, 
		587, 
		587, 
		588, 
		589, 
		592, 
		595, 
		598, 
		603, 
		607, 
		611, 
		615, 
		618, 
		621, 
		622, 
		622, 
		621, 
		618, 
		615, 
		611, 
		607, 
		603, 
		599, 
		596, 
		593, 
		592, 
		592, 
		592, 
		593, 
		595, 
		597, 
		599, 
		601, 
		602, 
		604, 
		606, 
		608, 
		609, 
		611, 
		612, 
		613, 
		614, 
		615, 
		615, 
		615, 
		615, 
		614, 
		612, 
		611, 
		609, 
		608, 
		607, 
		606, 
		606, 
		607, 
		607, 
		608, 
		609, 
		609, 
		609, 
		608, 
		606, 
		604, 
		602, 
		599, 
		597, 
		595, 
		593, 
		592, 
		592, 
		593, 
		594, 
		596, 
		599, 
		602, 
		605, 
		608, 
		610, 
		613, 
		614, 
		616, 
		617, 
		617, 
		616, 
		615, 
		614, 
		612, 
		610
	],
	"zonesProfile": [
		20.14065, 
		20.32065, 
		20.27398, 
		20.02731, 
		20.07398, 
		20.38066, 
		20.794, 
		20.88067, 
		20.38066, 
		19.92064, 
		19.86064, 
		19.95397, 
		20.04731, 
		20.19398, 
		20.19398, 
		20.01398, 
		19.94064, 
		19.98731, 
		20.04065, 
		20.21398, 
		20.37399, 
		20.26732, 
		20.17398, 
		20.29399, 
		20.26732, 
		20.08731, 
		20.10731, 
		20.31399, 
		20.56066, 
		20.62733, 
		20.39399, 
		19.98064, 
		19.72063, 
		19.80064, 
		20.16731, 
		20.48733, 
		20.53399, 
		20.52732, 
		20.31399, 
		19.88064, 
		19.78064, 
		20.03398, 
		20.36732, 
		20.60733, 
		20.54066, 
		20.25398, 
		20.17398, 
		20.38732, 
		20.42066, 
		20.12731, 
		20.02064, 
		20.11398, 
		19.95397, 
		19.6473, 
		19.67397, 
		20.22732, 
		20.694, 
		20.36065, 
		19.81397, 
		19.84064, 
		20.14065, 
		20.39399, 
		20.49399, 
		20.31399, 
		20.22732, 
		20.27398, 
		19.98064, 
		19.76063, 
		20.06731, 
		20.46732, 
		20.49399, 
		20.22732
	],
	"actuators": {
	"values": [
		42.07104, 
		36.19451, 
		16.91646, 
		13.92858, 
		21.51389, 
		31.60781, 
		33.70867, 
		20.58457, 
		8.832419, 
		11.15539, 
		18.87515, 
		22.25805, 
		22.55976, 
		29.0199, 
		18.93358, 
		17.11246, 
		21.96268, 
		25.48034, 
		27.66779, 
		29.01484, 
		17.43131, 
		18.01775, 
		23.38977, 
		25.07667, 
		22.65785, 
		23.04449, 
		38.00914, 
		42.99422, 
		38.03425, 
		31.70265, 
		35.11366, 
		41.12103, 
		46.77139, 
		43.32011, 
		43.77391, 
		38.32291, 
		39.70488, 
		34.94077, 
		23.92466, 
		11.4153, 
		21.36305, 
		18.2249, 
		20.04783, 
		17.31266, 
		25.07805, 
		43.07612, 
		62.58012, 
		56.46157, 
		34.97704, 
		18.25508, 
		31.22619, 
		42.27431, 
		52.64587, 
		64.74362, 
		71.48813, 
		53.99298, 
		27.35608, 
		8.895086, 
		24.52719, 
		33.21014, 
		33.8453, 
		31.19584, 
		29.42065, 
		24.7427, 
		35.69494, 
		21.59185, 
		14.61249, 
		15.05435, 
		27.98703, 
		26.54295, 
		29.6855, 
		38.24434
	],
	"forced": [
		false, 
		false, 
		false, 
		false, 
		false, 
		false, 
		false, 
		false, 
		false, 
		false, 
		false, 
		false, 
		false, 
		false, 
		false, 
		false, 
		false, 
		false, 
		false, 
		false, 
		false, 
		false, 
		false, 
		false, 
		false, 
		false, 
		false, 
		false, 
		false, 
		false, 
		false, 
		false, 
		false, 
		false, 
		false, 
		false, 
		false, 
		false, 
		false, 
		false, 
		false, 
		false, 
		false, 
		false, 
		false, 
		false, 
		false, 
		false, 
		false, 
		false, 
		false, 
		false, 
		false, 
		false, 
		false, 
		false, 
		false, 
		false, 
		false, 
		false, 
		false, 
		false, 
		false, 
		false, 
		false, 
		false, 
		false, 
		false, 
		false, 
		false, 
		false, 
		false
	]
	}
}

