{
	"parameters": {
		"profiles_for_regulation": 2, 
		"large_gain": 65.0, 
		"small_gain": 25.0, 
		"dead_band": 1, 
		"valves_max": 100, 
		"valves_min": 2, 
		"integral_band": 0, 
		"disturbation_type": 0, 
		"disturbation_amount": 0.0, 
		"disturbation_amplitude": 0.0, 
		"disturbation_cycles": 0, 
		"disturbation_frequency": 0, 
		"phase_shift_misDx_haulDx": 5, 
		"phase_shift_misSx_haulDx": 5, 
		"phase_shift_misDx_haulSx": 0, 
		"phase_shift_misSx_haulSx": 0, 
		"matrix_major": 1, 
		"matrix_minor": 0
	},
	"production": {
		"code_customer": "MONO", 
		"code_product": "2", 
		"thickness": 20.2, 
		"tolerance": 2.0, 
		"layflat": 1440.0, 
		"line_speed": 39.0, 
		"flow": 173.0, 
		"melt_d": 1.3
	},
	"status": {
	"application": {
		"measurer_active": true, 
		"actuation_active": true
	},
	"measurer": {
		"direction": -1
	},
	"hauloff": {
		"direction": 1, 
		"last_period": 1224000, 
		"position": 0, 
		"speed": 0
	}
	},
	"stats": {
		"mean_thickness": 20.2, 
		"max_thickness": 21.19486, 
		"min_thickness": 19.63377, 
		"stdDev": 0.3236939, 
		"sigma_abs": 0.6473877, 
		"sigma_perc": 3.20489
	},
	"rawProfile": [
		617, 
		615, 
		613, 
		612, 
		611, 
		611, 
		611, 
		612, 
		613, 
		613, 
		613, 
		613, 
		612, 
		611, 
		609, 
		607, 
		604, 
		601, 
		599, 
		597, 
		596, 
		595, 
		595, 
		595, 
		596, 
		597, 
		598, 
		599, 
		600, 
		601, 
		602, 
		603, 
		604, 
		606, 
		607, 
		608, 
		609, 
		610, 
		610, 
		611, 
		610, 
		610, 
		608, 
		607, 
		605, 
		603, 
		602, 
		600, 
		600, 
		599, 
		600, 
		601, 
		602, 
		604, 
		606, 
		608, 
		610, 
		611, 
		613, 
		614, 
		614, 
		614, 
		614, 
		613, 
		613, 
		612, 
		611, 
		610, 
		609, 
		608, 
		608, 
		608, 
		608, 
		607, 
		607, 
		607, 
		607, 
		607, 
		606, 
		606, 
		606, 
		606, 
		607, 
		607, 
		608, 
		608, 
		609, 
		609, 
		609, 
		609, 
		608, 
		608, 
		607, 
		606, 
		605, 
		605, 
		604, 
		604, 
		604, 
		605, 
		606, 
		607, 
		609, 
		610, 
		612, 
		614, 
		615, 
		615, 
		616, 
		615, 
		615, 
		613, 
		612, 
		611, 
		609, 
		608, 
		607, 
		607, 
		607, 
		607, 
		607, 
		608, 
		608, 
		609, 
		609, 
		609, 
		608, 
		607, 
		606, 
		604, 
		602, 
		600, 
		598, 
		596, 
		595, 
		593, 
		592, 
		592, 
		591, 
		591, 
		592, 
		592, 
		593, 
		594, 
		595, 
		596, 
		598, 
		599, 
		599, 
		600, 
		600, 
		601, 
		601, 
		600, 
		600, 
		600, 
		599, 
		599, 
		599, 
		598, 
		598, 
		598, 
		597, 
		597, 
		598, 
		598, 
		598, 
		598, 
		598, 
		598, 
		598, 
		598, 
		597, 
		597, 
		597, 
		597, 
		596, 
		596, 
		596, 
		596, 
		596, 
		596, 
		596, 
		595, 
		595, 
		594, 
		594, 
		594, 
		594, 
		595, 
		596, 
		597, 
		597, 
		598, 
		598, 
		598, 
		597, 
		596, 
		595, 
		594, 
		592, 
		591, 
		589, 
		588, 
		588, 
		588, 
		588, 
		589, 
		590, 
		591, 
		592, 
		593, 
		594, 
		595, 
		595, 
		596, 
		597, 
		597, 
		598, 
		598, 
		599, 
		599, 
		598, 
		598, 
		597, 
		596, 
		596, 
		595, 
		594, 
		594, 
		594, 
		594, 
		594, 
		595, 
		597, 
		599, 
		601, 
		604, 
		606, 
		609, 
		611, 
		613, 
		615, 
		615, 
		615, 
		615, 
		613, 
		611, 
		609, 
		606, 
		604, 
		602, 
		600, 
		599, 
		598, 
		598, 
		598, 
		599, 
		600, 
		600, 
		601, 
		602, 
		602, 
		602, 
		601, 
		600, 
		600, 
		599, 
		597, 
		597, 
		596, 
		595, 
		596, 
		596, 
		597, 
		599, 
		602, 
		605, 
		609, 
		613, 
		617, 
		620, 
		624, 
		626, 
		628, 
		628, 
		628, 
		626, 
		623, 
		619, 
		615, 
		611, 
		607, 
		604, 
		602, 
		601, 
		600, 
		601, 
		603, 
		605, 
		607, 
		610, 
		613, 
		615, 
		618, 
		620, 
		621, 
		623, 
		623, 
		624, 
		624, 
		625, 
		625, 
		624, 
		624, 
		623, 
		621, 
		620, 
		618, 
		616, 
		614, 
		613, 
		611, 
		610, 
		609, 
		608, 
		608, 
		608, 
		608, 
		607, 
		607, 
		606, 
		605, 
		604, 
		602, 
		601, 
		601, 
		601, 
		602, 
		604, 
		607, 
		611, 
		615, 
		619, 
		623, 
		627, 
		630, 
		633, 
		635, 
		636, 
		636, 
		636, 
		635, 
		634, 
		632, 
		629, 
		627, 
		624, 
		622, 
		619
	],
	"zonesProfile": [
		20.40097, 
		20.42766, 
		20.14746, 
		19.86727, 
		19.94732, 
		20.12078, 
		20.30758, 
		20.32092, 
		20.08075, 
		20.05406, 
		20.33426, 
		20.47436, 
		20.38096, 
		20.27422, 
		20.24086, 
		20.22752, 
		20.30091, 
		20.26755, 
		20.1608, 
		20.26088, 
		20.49437, 
		20.45434, 
		20.26755, 
		20.27422, 
		20.27422, 
		20.01404, 
		19.7672, 
		19.76052, 
		19.92731, 
		20.02738, 
		19.99402, 
		19.93398, 
		19.94732, 
		19.93398, 
		19.89395, 
		19.87394, 
		19.82057, 
		19.90062, 
		19.90729, 
		19.70715, 
		19.63377, 
		19.78054, 
		19.90062, 
		19.96067, 
		19.86727, 
		19.82057, 
		20.06074, 
		20.43433, 
		20.43433, 
		20.08742, 
		19.96734, 
		20.06074, 
		19.99402, 
		19.88061, 
		20.09409, 
		20.68117, 
		20.90133, 
		20.38763, 
		20.06074, 
		20.3476, 
		20.71453, 
		20.82794, 
		20.7212, 
		20.441, 
		20.28756, 
		20.2075, 
		20.06074, 
		20.38763, 
		21.00139, 
		21.19486, 
		20.908, 
		20.52106
	],
	"actuators": {
	"values": [
		41.5377, 
		31.91901, 
		18.19849, 
		17.14121, 
		29.36972, 
		30.07429, 
		34.33141, 
		13.07551, 
		12.34883, 
		14.03821, 
		17.18987, 
		18.66408, 
		21.13114, 
		21.99659, 
		17.26403, 
		14.55181, 
		24.76448, 
		22.44885, 
		32.1651, 
		26.81078, 
		15.37853, 
		19.56861, 
		29.73376, 
		32.71317, 
		25.72507, 
		28.49384, 
		41.85354, 
		47.51693, 
		40.64098, 
		34.87082, 
		29.61835, 
		42.85958, 
		45.33891, 
		51.01453, 
		38.58583, 
		34.68457, 
		30.82853, 
		37.66246, 
		19.74458, 
		24.50984, 
		15.37654, 
		26.27822, 
		20.62352, 
		17.47782, 
		26.93475, 
		43.08998, 
		61.34529, 
		49.86184, 
		32.50581, 
		21.09394, 
		36.02715, 
		36.8857, 
		45.42415, 
		57.02235, 
		66.31389, 
		47.48695, 
		22.09394, 
		15.53018, 
		30.07553, 
		31.87141, 
		33.92175, 
		27.64026, 
		24.66118, 
		32.13879, 
		34.80247, 
		25.05855, 
		10.3372, 
		22.47736, 
		26.8034, 
		24.96234, 
		18.53654, 
		33.87442
	],
	"forced": [
		false, 
		false, 
		false, 
		false, 
		false, 
		false, 
		false, 
		false, 
		false, 
		false, 
		false, 
		false, 
		false, 
		false, 
		false, 
		false, 
		false, 
		false, 
		false, 
		false, 
		false, 
		false, 
		false, 
		false, 
		false, 
		false, 
		false, 
		false, 
		false, 
		false, 
		false, 
		false, 
		false, 
		false, 
		false, 
		false, 
		false, 
		false, 
		false, 
		false, 
		false, 
		false, 
		false, 
		false, 
		false, 
		false, 
		false, 
		false, 
		false, 
		false, 
		false, 
		false, 
		false, 
		false, 
		false, 
		false, 
		false, 
		false, 
		false, 
		false, 
		false, 
		false, 
		false, 
		false, 
		false, 
		false, 
		false, 
		false, 
		false, 
		false, 
		false, 
		false
	]
	}
}

