{
	"parameters": {
		"profiles_for_regulation": 2, 
		"large_gain": 65.0, 
		"small_gain": 25.0, 
		"dead_band": 1, 
		"valves_max": 100, 
		"valves_min": 2, 
		"integral_band": 0, 
		"disturbation_type": 0, 
		"disturbation_amount": 0.0, 
		"disturbation_amplitude": 0.0, 
		"disturbation_cycles": 0, 
		"disturbation_frequency": 0, 
		"phase_shift_misDx_haulDx": 5, 
		"phase_shift_misSx_haulDx": 5, 
		"phase_shift_misDx_haulSx": 0, 
		"phase_shift_misSx_haulSx": 0, 
		"matrix_major": 1, 
		"matrix_minor": 0
	},
	"production": {
		"code_customer": "MONO", 
		"code_product": "2", 
		"thickness": 20.2, 
		"tolerance": 2.0, 
		"layflat": 1440.0, 
		"line_speed": 36.0, 
		"flow": 160.0, 
		"melt_d": 1.3
	},
	"status": {
	"application": {
		"measurer_active": true, 
		"actuation_active": false
	},
	"measurer": {
		"direction": 1
	},
	"hauloff": {
		"direction": -1, 
		"last_period": 224000, 
		"position": 0, 
		"speed": 0
	}
	},
	"stats": {
		"mean_thickness": 20.2, 
		"max_thickness": 22.44923, 
		"min_thickness": 17.93761, 
		"stdDev": 1.30078, 
		"sigma_abs": 2.601559, 
		"sigma_perc": 12.879
	},
	"rawProfile": [
		1405, 
		1414, 
		1422, 
		1431, 
		1439, 
		1447, 
		1454, 
		1462, 
		1468, 
		1475, 
		1481, 
		1486, 
		1491, 
		1496, 
		1499, 
		1502, 
		1504, 
		1506, 
		1507, 
		1508, 
		1508, 
		1507, 
		1506, 
		1505, 
		1503, 
		1500, 
		1498, 
		1495, 
		1491, 
		1488, 
		1485, 
		1483, 
		1482, 
		1481, 
		1481, 
		1483, 
		1486, 
		1489, 
		1494, 
		1498, 
		1503, 
		1508, 
		1513, 
		1517, 
		1520, 
		1523, 
		1525, 
		1526, 
		1527, 
		1527, 
		1526, 
		1526, 
		1525, 
		1523, 
		1522, 
		1520, 
		1518, 
		1515, 
		1513, 
		1510, 
		1506, 
		1503, 
		1499, 
		1495, 
		1492, 
		1488, 
		1485, 
		1483, 
		1481, 
		1480, 
		1479, 
		1479, 
		1479, 
		1480, 
		1481, 
		1482, 
		1483, 
		1484, 
		1485, 
		1486, 
		1486, 
		1486, 
		1487, 
		1487, 
		1487, 
		1487, 
		1487, 
		1487, 
		1487, 
		1487, 
		1487, 
		1486, 
		1486, 
		1486, 
		1485, 
		1484, 
		1483, 
		1482, 
		1481, 
		1480, 
		1478, 
		1476, 
		1474, 
		1471, 
		1469, 
		1466, 
		1463, 
		1460, 
		1457, 
		1453, 
		1450, 
		1446, 
		1443, 
		1440, 
		1437, 
		1434, 
		1431, 
		1428, 
		1425, 
		1423, 
		1420, 
		1418, 
		1414, 
		1411, 
		1407, 
		1402, 
		1397, 
		1392, 
		1386, 
		1381, 
		1375, 
		1369, 
		1364, 
		1360, 
		1356, 
		1352, 
		1350, 
		1348, 
		1346, 
		1345, 
		1344, 
		1343, 
		1342, 
		1340, 
		1338, 
		1336, 
		1332, 
		1328, 
		1324, 
		1318, 
		1313, 
		1308, 
		1302, 
		1297, 
		1293, 
		1289, 
		1286, 
		1284, 
		1283, 
		1282, 
		1281, 
		1281, 
		1281, 
		1282, 
		1283, 
		1284, 
		1285, 
		1285, 
		1286, 
		1286, 
		1286, 
		1286, 
		1286, 
		1285, 
		1285, 
		1285, 
		1285, 
		1285, 
		1284, 
		1284, 
		1284, 
		1283, 
		1283, 
		1282, 
		1281, 
		1280, 
		1279, 
		1280, 
		1280, 
		1282, 
		1285, 
		1289, 
		1293, 
		1298, 
		1304, 
		1309, 
		1315, 
		1320, 
		1325, 
		1329, 
		1332, 
		1335, 
		1337, 
		1339, 
		1340, 
		1341, 
		1342, 
		1342, 
		1342, 
		1341, 
		1341, 
		1340, 
		1340, 
		1340, 
		1340, 
		1341, 
		1342, 
		1344, 
		1346, 
		1349, 
		1352, 
		1354, 
		1356, 
		1358, 
		1358, 
		1358, 
		1357, 
		1355, 
		1353, 
		1350, 
		1346, 
		1342, 
		1339, 
		1336, 
		1333, 
		1332, 
		1331, 
		1332, 
		1334, 
		1336, 
		1340, 
		1344, 
		1349, 
		1355, 
		1360, 
		1365, 
		1370, 
		1374, 
		1377, 
		1379, 
		1380, 
		1381, 
		1381, 
		1381, 
		1381, 
		1381, 
		1380, 
		1380, 
		1379, 
		1378, 
		1376, 
		1373, 
		1370, 
		1367, 
		1362, 
		1357, 
		1351, 
		1345, 
		1339, 
		1333, 
		1327, 
		1321, 
		1316, 
		1313, 
		1310, 
		1308, 
		1308, 
		1309, 
		1312, 
		1315, 
		1319, 
		1323, 
		1328, 
		1332, 
		1335, 
		1337, 
		1337, 
		1336, 
		1334, 
		1331, 
		1326, 
		1322, 
		1317, 
		1313, 
		1310, 
		1307, 
		1306, 
		1305, 
		1305, 
		1305, 
		1305, 
		1304, 
		1303, 
		1300, 
		1296, 
		1290, 
		1283, 
		1275, 
		1267, 
		1258, 
		1250, 
		1242, 
		1235, 
		1229, 
		1224, 
		1221, 
		1219, 
		1218, 
		1218, 
		1219, 
		1220, 
		1221, 
		1223, 
		1224, 
		1226, 
		1228, 
		1230, 
		1233, 
		1236, 
		1239, 
		1242, 
		1245, 
		1248, 
		1251, 
		1254, 
		1256, 
		1257, 
		1259, 
		1260, 
		1262, 
		1264, 
		1266, 
		1269, 
		1273, 
		1277, 
		1283, 
		1289, 
		1295, 
		1302, 
		1310, 
		1317, 
		1326, 
		1334, 
		1342, 
		1351, 
		1360, 
		1369, 
		1378, 
		1387, 
		1396
	],
	"zonesProfile": [
		20.9277, 
		21.50159, 
		21.93421, 
		22.15199, 
		22.15788, 
		21.99012, 
		21.81354, 
		21.92538, 
		22.25205, 
		22.44923, 
		22.43157, 
		22.2962, 
		22.05781, 
		21.82826, 
		21.77234, 
		21.83709, 
		21.87535, 
		21.88123, 
		21.86652, 
		21.80766, 
		21.68405, 
		21.48098, 
		21.23672, 
		21.01599, 
		20.80704, 
		20.47742, 
		20.08306, 
		19.83879, 
		19.73873, 
		19.53566, 
		19.16778, 
		18.90586, 
		18.85877, 
		18.91174, 
		18.91763, 
		18.90291, 
		18.87348, 
		18.83817, 
		19.03829, 
		19.41794, 
		19.66809, 
		19.74167, 
		19.72107, 
		19.78287, 
		19.94768, 
		19.93296, 
		19.70635, 
		19.61512, 
		19.85939, 
		20.20372, 
		20.3185, 
		20.30084, 
		20.15369, 
		19.7917, 
		19.38556, 
		19.28256, 
		19.53271, 
		19.64455, 
		19.38851, 
		19.21193, 
		19.15307, 
		18.75576, 
		18.18776, 
		17.93761, 
		17.99352, 
		18.14656, 
		18.36434, 
		18.52327, 
		18.68513, 
		19.06772, 
		19.62983, 
		20.2773
	],
	"actuators": {
	"values": [
		49.64031, 
		31.69353, 
		15.88758, 
		25.11005, 
		22.90484, 
		25.0141, 
		29.79776, 
		9.320853, 
		15.7804, 
		13.64355, 
		20.04908, 
		13.51007, 
		26.00393, 
		23.14411, 
		20.11521, 
		13.10616, 
		22.84365, 
		18.09585, 
		31.31424, 
		30.12674, 
		11.67987, 
		12.85998, 
		24.76182, 
		28.55997, 
		14.6968, 
		23.30604, 
		45.77328, 
		57.69327, 
		41.6248, 
		36.80527, 
		32.63278, 
		48.36976, 
		47.96257, 
		49.28065, 
		36.57353, 
		39.03623, 
		32.68212, 
		46.70548, 
		14.35668, 
		26.70972, 
		15.76296, 
		22.93407, 
		21.47917, 
		11.92697, 
		24.05324, 
		42.04123, 
		75.71446, 
		56.50191, 
		37.10702, 
		15.43702, 
		40.50903, 
		29.52422, 
		38.55368, 
		62.46091, 
		78.53073, 
		37.15177, 
		2.599375, 
		18.25413, 
		48.63462, 
		30.55266, 
		12.95686, 
		25.38793, 
		20.28064, 
		36.85233, 
		38.03749, 
		19.262, 
		14.75776, 
		26.41913, 
		27.90035, 
		17.1258, 
		24.89922, 
		44.19529
	],
	"forced": [
		false, 
		false, 
		false, 
		false, 
		false, 
		false, 
		false, 
		false, 
		false, 
		false, 
		false, 
		false, 
		false, 
		false, 
		false, 
		false, 
		false, 
		false, 
		false, 
		false, 
		false, 
		false, 
		false, 
		false, 
		false, 
		false, 
		false, 
		false, 
		false, 
		false, 
		false, 
		false, 
		false, 
		false, 
		false, 
		false, 
		false, 
		false, 
		false, 
		false, 
		false, 
		false, 
		false, 
		false, 
		false, 
		false, 
		false, 
		false, 
		false, 
		false, 
		false, 
		false, 
		false, 
		false, 
		false, 
		false, 
		false, 
		false, 
		false, 
		false, 
		false, 
		false, 
		false, 
		false, 
		false, 
		false, 
		false, 
		false, 
		false, 
		false, 
		false, 
		false
	]
	}
}

