{
	"parameters": {
		"profiles_for_regulation": 2, 
		"large_gain": 65.0, 
		"small_gain": 25.0, 
		"dead_band": 1, 
		"valves_max": 100, 
		"valves_min": 2, 
		"integral_band": 0, 
		"disturbation_type": 0, 
		"disturbation_amount": 0.0, 
		"disturbation_amplitude": 0.0, 
		"disturbation_cycles": 0, 
		"disturbation_frequency": 0, 
		"phase_shift_misDx_haulDx": 5, 
		"phase_shift_misSx_haulDx": 5, 
		"phase_shift_misDx_haulSx": 0, 
		"phase_shift_misSx_haulSx": 0, 
		"matrix_major": 1, 
		"matrix_minor": 0
	},
	"production": {
		"code_customer": "MONO", 
		"code_product": "2", 
		"thickness": 20.2, 
		"tolerance": 2.0, 
		"layflat": 1440.0, 
		"line_speed": 36.0, 
		"flow": 160.0, 
		"melt_d": 1.3
	},
	"status": {
	"application": {
		"measurer_active": true, 
		"actuation_active": true
	},
	"measurer": {
		"direction": 1
	},
	"hauloff": {
		"direction": -1, 
		"last_period": 1441000, 
		"position": 0, 
		"speed": 0
	}
	},
	"stats": {
		"mean_thickness": 20.2, 
		"max_thickness": 20.81918, 
		"min_thickness": 19.60079, 
		"stdDev": 0.2834272, 
		"sigma_abs": 0.5668544, 
		"sigma_perc": 2.806209
	},
	"rawProfile": [
		616, 
		614, 
		613, 
		612, 
		611, 
		611, 
		611, 
		612, 
		613, 
		614, 
		615, 
		616, 
		617, 
		618, 
		618, 
		617, 
		615, 
		613, 
		611, 
		608, 
		606, 
		603, 
		601, 
		600, 
		599, 
		598, 
		598, 
		598, 
		599, 
		600, 
		601, 
		602, 
		604, 
		606, 
		609, 
		612, 
		615, 
		618, 
		620, 
		623, 
		625, 
		626, 
		626, 
		626, 
		624, 
		622, 
		619, 
		617, 
		614, 
		611, 
		608, 
		606, 
		604, 
		602, 
		601, 
		601, 
		600, 
		600, 
		600, 
		600, 
		601, 
		601, 
		602, 
		602, 
		603, 
		603, 
		604, 
		605, 
		606, 
		607, 
		608, 
		609, 
		610, 
		611, 
		612, 
		612, 
		611, 
		610, 
		609, 
		608, 
		606, 
		604, 
		602, 
		601, 
		600, 
		599, 
		599, 
		599, 
		599, 
		599, 
		599, 
		599, 
		600, 
		600, 
		601, 
		601, 
		601, 
		602, 
		602, 
		603, 
		604, 
		604, 
		605, 
		606, 
		607, 
		607, 
		607, 
		606, 
		605, 
		604, 
		602, 
		600, 
		598, 
		597, 
		595, 
		594, 
		593, 
		593, 
		593, 
		594, 
		595, 
		597, 
		599, 
		601, 
		602, 
		604, 
		605, 
		606, 
		606, 
		606, 
		607, 
		607, 
		607, 
		607, 
		608, 
		608, 
		609, 
		610, 
		611, 
		612, 
		613, 
		614, 
		615, 
		616, 
		618, 
		619, 
		621, 
		622, 
		623, 
		624, 
		625, 
		625, 
		625, 
		624, 
		624, 
		623, 
		621, 
		620, 
		618, 
		616, 
		613, 
		611, 
		609, 
		607, 
		606, 
		604, 
		603, 
		602, 
		601, 
		600, 
		599, 
		599, 
		598, 
		598, 
		599, 
		599, 
		600, 
		601, 
		602, 
		603, 
		605, 
		606, 
		606, 
		607, 
		607, 
		607, 
		607, 
		608, 
		608, 
		609, 
		610, 
		612, 
		613, 
		614, 
		616, 
		616, 
		616, 
		616, 
		614, 
		612, 
		610, 
		608, 
		605, 
		603, 
		601, 
		599, 
		598, 
		598, 
		597, 
		598, 
		598, 
		599, 
		600, 
		601, 
		602, 
		603, 
		605, 
		607, 
		609, 
		611, 
		612, 
		614, 
		615, 
		616, 
		616, 
		616, 
		616, 
		615, 
		614, 
		612, 
		611, 
		609, 
		607, 
		606, 
		605, 
		604, 
		604, 
		604, 
		604, 
		605, 
		606, 
		607, 
		608, 
		609, 
		610, 
		611, 
		611, 
		610, 
		609, 
		607, 
		605, 
		602, 
		600, 
		598, 
		597, 
		596, 
		596, 
		596, 
		597, 
		598, 
		599, 
		600, 
		600, 
		601, 
		600, 
		600, 
		599, 
		598, 
		596, 
		595, 
		594, 
		593, 
		592, 
		592, 
		592, 
		593, 
		595, 
		597, 
		600, 
		604, 
		608, 
		612, 
		616, 
		620, 
		623, 
		625, 
		626, 
		626, 
		624, 
		622, 
		618, 
		613, 
		608, 
		603, 
		598, 
		593, 
		590, 
		588, 
		587, 
		586, 
		587, 
		588, 
		590, 
		592, 
		595, 
		597, 
		599, 
		601, 
		603, 
		605, 
		607, 
		609, 
		611, 
		613, 
		614, 
		616, 
		616, 
		617, 
		617, 
		617, 
		616, 
		615, 
		615, 
		614, 
		614, 
		614, 
		615, 
		616, 
		617, 
		618, 
		618, 
		618, 
		618, 
		616, 
		614, 
		611, 
		607, 
		603, 
		599, 
		596, 
		593, 
		590, 
		589, 
		589, 
		589, 
		591, 
		593, 
		596, 
		600, 
		603, 
		607, 
		610, 
		613, 
		615, 
		617, 
		618, 
		619, 
		618, 
		618, 
		617
	],
	"zonesProfile": [
		20.41305, 
		20.37976, 
		20.53289, 
		20.39974, 
		20.03355, 
		19.92703, 
		20.12011, 
		20.55952, 
		20.81918, 
		20.52624, 
		20.11345, 
		19.98029, 
		20.03355, 
		20.14008, 
		20.30653, 
		20.30653, 
		20.06018, 
		19.94034, 
		19.96698, 
		20.03355, 
		20.14674, 
		20.16671, 
		19.92037, 
		19.75392, 
		19.93369, 
		20.1534, 
		20.21332, 
		20.30653, 
		20.47963, 
		20.69934, 
		20.79255, 
		20.6261, 
		20.2799, 
		20.04021, 
		19.92703, 
		20.00692, 
		20.18003, 
		20.23329, 
		20.40639, 
		20.46632, 
		20.15339, 
		19.90705, 
		19.97363, 
		20.20666, 
		20.45966, 
		20.45966, 
		20.22663, 
		20.11345, 
		20.23995, 
		20.29321, 
		19.98695, 
		19.86045, 
		19.97363, 
		19.89374, 
		19.72729, 
		19.90039, 
		20.49961, 
		20.79255, 
		20.23995, 
		19.60079, 
		19.65406, 
		20.00692, 
		20.33316, 
		20.52624, 
		20.46631, 
		20.50626, 
		20.53289, 
		20.08016, 
		19.64074, 
		19.86045, 
		20.38642, 
		20.57284
	],
	"actuators": {
	"values": [
		42.12559, 
		36.51715, 
		17.46027, 
		14.70752, 
		21.03911, 
		31.98942, 
		33.25061, 
		21.32267, 
		9.752293, 
		11.68004, 
		18.60919, 
		22.38351, 
		22.51904, 
		28.99399, 
		19.03763, 
		16.88402, 
		22.41703, 
		24.59813, 
		27.60702, 
		28.37424, 
		17.67964, 
		18.05133, 
		23.05936, 
		24.36259, 
		22.45816, 
		23.08818, 
		38.10202, 
		42.7235, 
		38.60315, 
		32.22615, 
		35.84244, 
		41.48491, 
		46.70483, 
		43.11891, 
		43.13706, 
		38.59268, 
		39.6823, 
		34.72619, 
		24.47176, 
		11.58797, 
		21.7259, 
		17.16526, 
		20.7321, 
		16.69964, 
		25.89226, 
		43.30561, 
		62.44541, 
		56.56139, 
		34.86777, 
		18.42237, 
		30.92651, 
		41.64439, 
		52.41113, 
		64.47747, 
		70.50068, 
		53.70131, 
		26.81741, 
		10.50351, 
		24.15099, 
		32.52131, 
		32.75066, 
		31.6805, 
		29.33055, 
		25.59062, 
		35.77696, 
		22.09525, 
		14.87005, 
		15.56472, 
		26.4819, 
		26.4472, 
		29.31381, 
		39.24865
	],
	"forced": [
		false, 
		false, 
		false, 
		false, 
		false, 
		false, 
		false, 
		false, 
		false, 
		false, 
		false, 
		false, 
		false, 
		false, 
		false, 
		false, 
		false, 
		false, 
		false, 
		false, 
		false, 
		false, 
		false, 
		false, 
		false, 
		false, 
		false, 
		false, 
		false, 
		false, 
		false, 
		false, 
		false, 
		false, 
		false, 
		false, 
		false, 
		false, 
		false, 
		false, 
		false, 
		false, 
		false, 
		false, 
		false, 
		false, 
		false, 
		false, 
		false, 
		false, 
		false, 
		false, 
		false, 
		false, 
		false, 
		false, 
		false, 
		false, 
		false, 
		false, 
		false, 
		false, 
		false, 
		false, 
		false, 
		false, 
		false, 
		false, 
		false, 
		false, 
		false, 
		false
	]
	}
}

