{
	"parameters": {
		"profiles_for_regulation": 2, 
		"large_gain": 65.0, 
		"small_gain": 25.0, 
		"dead_band": 1, 
		"valves_max": 100, 
		"valves_min": 2, 
		"integral_band": 0, 
		"disturbation_type": 0, 
		"disturbation_amount": 0.0, 
		"disturbation_amplitude": 0.0, 
		"disturbation_cycles": 0, 
		"disturbation_frequency": 0, 
		"phase_shift_misDx_haulDx": 5, 
		"phase_shift_misSx_haulDx": 5, 
		"phase_shift_misDx_haulSx": 0, 
		"phase_shift_misSx_haulSx": 0, 
		"matrix_major": 1, 
		"matrix_minor": 0
	},
	"production": {
		"code_customer": "MONO", 
		"code_product": "2", 
		"thickness": 20.2, 
		"tolerance": 2.0, 
		"layflat": 1440.0, 
		"line_speed": 39.0, 
		"flow": 173.0, 
		"melt_d": 1.3
	},
	"status": {
	"application": {
		"measurer_active": true, 
		"actuation_active": true
	},
	"measurer": {
		"direction": 1
	},
	"hauloff": {
		"direction": 1, 
		"last_period": 1322000, 
		"position": 0, 
		"speed": 0
	}
	},
	"stats": {
		"mean_thickness": 20.2, 
		"max_thickness": 22.13016, 
		"min_thickness": 18.32716, 
		"stdDev": 0.9469815, 
		"sigma_abs": 1.893963, 
		"sigma_perc": 9.376053
	},
	"rawProfile": [
		597, 
		596, 
		595, 
		595, 
		595, 
		596, 
		597, 
		599, 
		601, 
		604, 
		606, 
		610, 
		613, 
		617, 
		620, 
		623, 
		626, 
		628, 
		629, 
		630, 
		631, 
		631, 
		630, 
		629, 
		627, 
		625, 
		623, 
		620, 
		617, 
		615, 
		613, 
		612, 
		611, 
		612, 
		613, 
		616, 
		619, 
		623, 
		628, 
		633, 
		639, 
		644, 
		649, 
		654, 
		658, 
		662, 
		664, 
		666, 
		668, 
		669, 
		669, 
		670, 
		669, 
		669, 
		669, 
		668, 
		668, 
		667, 
		666, 
		665, 
		663, 
		662, 
		661, 
		659, 
		657, 
		656, 
		655, 
		654, 
		654, 
		653, 
		653, 
		654, 
		654, 
		654, 
		654, 
		654, 
		653, 
		653, 
		651, 
		650, 
		648, 
		646, 
		644, 
		641, 
		639, 
		638, 
		636, 
		635, 
		634, 
		633, 
		632, 
		632, 
		633, 
		634, 
		635, 
		637, 
		639, 
		641, 
		644, 
		647, 
		650, 
		653, 
		656, 
		659, 
		660, 
		661, 
		662, 
		661, 
		660, 
		657, 
		654, 
		651, 
		647, 
		644, 
		640, 
		636, 
		633, 
		630, 
		628, 
		626, 
		624, 
		622, 
		620, 
		619, 
		617, 
		614, 
		612, 
		609, 
		606, 
		602, 
		599, 
		595, 
		591, 
		588, 
		585, 
		583, 
		580, 
		579, 
		578, 
		577, 
		578, 
		579, 
		580, 
		582, 
		584, 
		586, 
		588, 
		590, 
		591, 
		592, 
		592, 
		592, 
		591, 
		590, 
		588, 
		586, 
		584, 
		581, 
		578, 
		575, 
		572, 
		569, 
		566, 
		563, 
		560, 
		558, 
		556, 
		555, 
		554, 
		554, 
		555, 
		556, 
		559, 
		561, 
		565, 
		568, 
		572, 
		576, 
		579, 
		583, 
		586, 
		589, 
		591, 
		594, 
		596, 
		598, 
		600, 
		602, 
		604, 
		606, 
		608, 
		610, 
		612, 
		614, 
		616, 
		618, 
		620, 
		622, 
		624, 
		625, 
		627, 
		628, 
		630, 
		631, 
		632, 
		633, 
		633, 
		633, 
		632, 
		631, 
		630, 
		628, 
		626, 
		623, 
		621, 
		618, 
		615, 
		611, 
		608, 
		605, 
		602, 
		598, 
		595, 
		591, 
		587, 
		584, 
		580, 
		576, 
		572, 
		568, 
		564, 
		561, 
		558, 
		555, 
		554, 
		553, 
		553, 
		554, 
		557, 
		560, 
		565, 
		570, 
		576, 
		582, 
		589, 
		595, 
		600, 
		605, 
		609, 
		611, 
		613, 
		614, 
		614, 
		613, 
		612, 
		611, 
		609, 
		608, 
		606, 
		604, 
		602, 
		600, 
		598, 
		595, 
		592, 
		589, 
		586, 
		583, 
		580, 
		577, 
		575, 
		573, 
		571, 
		570, 
		570, 
		570, 
		571, 
		573, 
		575, 
		577, 
		580, 
		583, 
		587, 
		590, 
		593, 
		597, 
		599, 
		602, 
		604, 
		605, 
		607, 
		607, 
		608, 
		608, 
		609, 
		609, 
		609, 
		610, 
		610, 
		609, 
		609, 
		609, 
		608, 
		607, 
		606, 
		605, 
		603, 
		602, 
		600, 
		599, 
		598, 
		598, 
		597, 
		597, 
		597, 
		597, 
		597, 
		597, 
		596, 
		595, 
		595, 
		594, 
		593, 
		593, 
		593, 
		593, 
		595, 
		597, 
		600, 
		603, 
		607, 
		611, 
		614, 
		618, 
		621, 
		623, 
		626, 
		627, 
		628, 
		629, 
		629, 
		629, 
		629, 
		628, 
		627, 
		626, 
		624, 
		622, 
		620, 
		619, 
		617, 
		615, 
		613, 
		610, 
		608, 
		606, 
		604, 
		602, 
		600, 
		598
	],
	"zonesProfile": [
		19.76238, 
		20.17244, 
		20.6751, 
		20.84045, 
		20.58251, 
		20.25843, 
		20.49653, 
		21.2902, 
		21.94497, 
		22.13016, 
		22.07725, 
		21.89206, 
		21.66719, 
		21.61428, 
		21.59444, 
		21.35633, 
		21.04548, 
		20.92643, 
		21.13808, 
		21.59444, 
		21.85238, 
		21.51507, 
		20.94627, 
		20.57589, 
		20.22536, 
		19.6764, 
		19.21343, 
		19.1539, 
		19.4383, 
		19.55735, 
		19.29279, 
		18.81659, 
		18.40653, 
		18.41976, 
		18.9158, 
		19.46476, 
		19.84175, 
		20.17244, 
		20.50314, 
		20.77431, 
		20.91982, 
		20.75447, 
		20.32456, 
		19.78222, 
		19.17374, 
		18.55865, 
		18.32716, 
		18.8695, 
		19.82852, 
		20.27165, 
		20.14599, 
		19.83513, 
		19.37877, 
		18.95548, 
		18.90919, 
		19.29279, 
		19.80868, 
		20.07324, 
		20.1526, 
		20.11953, 
		19.94757, 
		19.769, 
		19.73593, 
		19.64333, 
		19.69624, 
		20.19229, 
		20.66849, 
		20.79415, 
		20.62881, 
		20.33118, 
		19.97403, 
		19.71608
	],
	"actuators": {
	"values": [
		32.63504, 
		31.96461, 
		29.45506, 
		29.36746, 
		30.61078, 
		31.92155, 
		30.49211, 
		26.15199, 
		22.38286, 
		21.173, 
		21.32624, 
		22.12755, 
		23.73927, 
		23.80555, 
		23.21161, 
		24.81948, 
		26.62717, 
		27.29967, 
		25.93439, 
		23.41588, 
		23.22393, 
		25.21803, 
		29.87286, 
		30.60391, 
		32.81727, 
		34.46433, 
		36.89042, 
		36.77102, 
		34.36411, 
		33.46141, 
		34.92201, 
		37.14184, 
		38.88225, 
		38.84194, 
		35.59463, 
		33.18971, 
		30.42727, 
		29.22776, 
		25.86529, 
		24.14977, 
		22.76747, 
		23.72083, 
		27.14777, 
		29.44549, 
		34.2077, 
		37.99623, 
		41.97451, 
		40.96989, 
		34.35544, 
		30.24543, 
		29.90772, 
		31.92832, 
		33.67446, 
		35.97896, 
		36.07408, 
		34.69071, 
		32.53592, 
		30.52269, 
		30.19265, 
		29.00638, 
		28.53963, 
		30.13747, 
		27.56512, 
		30.91529, 
		30.14948, 
		28.4158, 
		24.56174, 
		24.15848, 
		24.52851, 
		27.03055, 
		28.87733, 
		32.14866
	],
	"forced": [
		false, 
		false, 
		false, 
		false, 
		false, 
		false, 
		false, 
		false, 
		false, 
		false, 
		false, 
		false, 
		false, 
		false, 
		false, 
		false, 
		false, 
		false, 
		false, 
		false, 
		false, 
		false, 
		false, 
		false, 
		false, 
		false, 
		false, 
		false, 
		false, 
		false, 
		false, 
		false, 
		false, 
		false, 
		false, 
		false, 
		false, 
		false, 
		false, 
		false, 
		false, 
		false, 
		false, 
		false, 
		false, 
		false, 
		false, 
		false, 
		false, 
		false, 
		false, 
		false, 
		false, 
		false, 
		false, 
		false, 
		false, 
		false, 
		false, 
		false, 
		false, 
		false, 
		false, 
		false, 
		false, 
		false, 
		false, 
		false, 
		false, 
		false, 
		false, 
		false
	]
	}
}

