{
	"parameters": {
		"profiles_for_regulation": 2, 
		"large_gain": 65.0, 
		"small_gain": 25.0, 
		"dead_band": 1, 
		"valves_max": 100, 
		"valves_min": 2, 
		"integral_band": 0, 
		"disturbation_type": 0, 
		"disturbation_amount": 0.0, 
		"disturbation_amplitude": 0.0, 
		"disturbation_cycles": 0, 
		"disturbation_frequency": 0, 
		"phase_shift_misDx_haulDx": 5, 
		"phase_shift_misSx_haulDx": 5, 
		"phase_shift_misDx_haulSx": 0, 
		"phase_shift_misSx_haulSx": 0, 
		"matrix_major": 1, 
		"matrix_minor": 0
	},
	"production": {
		"code_customer": "MONO", 
		"code_product": "2", 
		"thickness": 20.2, 
		"tolerance": 2.0, 
		"layflat": 1440.0, 
		"line_speed": 39.0, 
		"flow": 173.0, 
		"melt_d": 1.3
	},
	"status": {
	"application": {
		"measurer_active": true, 
		"actuation_active": true
	},
	"measurer": {
		"direction": -1
	},
	"hauloff": {
		"direction": -1, 
		"last_period": 863000, 
		"position": 0, 
		"speed": 0
	}
	},
	"stats": {
		"mean_thickness": 20.2, 
		"max_thickness": 20.90889, 
		"min_thickness": 19.51629, 
		"stdDev": 0.354807, 
		"sigma_abs": 0.709614, 
		"sigma_perc": 3.512941
	},
	"rawProfile": [
		615, 
		615, 
		614, 
		614, 
		615, 
		616, 
		617, 
		619, 
		621, 
		623, 
		624, 
		626, 
		626, 
		626, 
		626, 
		624, 
		621, 
		618, 
		615, 
		611, 
		607, 
		603, 
		600, 
		598, 
		596, 
		594, 
		593, 
		593, 
		592, 
		592, 
		592, 
		592, 
		592, 
		593, 
		593, 
		594, 
		596, 
		597, 
		599, 
		600, 
		602, 
		603, 
		604, 
		605, 
		605, 
		605, 
		604, 
		603, 
		602, 
		601, 
		601, 
		600, 
		599, 
		599, 
		599, 
		599, 
		599, 
		599, 
		599, 
		599, 
		598, 
		598, 
		598, 
		598, 
		597, 
		597, 
		597, 
		597, 
		598, 
		598, 
		599, 
		600, 
		601, 
		603, 
		604, 
		604, 
		605, 
		605, 
		605, 
		604, 
		603, 
		602, 
		601, 
		600, 
		599, 
		598, 
		597, 
		596, 
		596, 
		595, 
		595, 
		594, 
		594, 
		594, 
		594, 
		594, 
		594, 
		594, 
		594, 
		594, 
		595, 
		596, 
		598, 
		599, 
		600, 
		602, 
		603, 
		603, 
		603, 
		602, 
		601, 
		600, 
		598, 
		595, 
		593, 
		591, 
		589, 
		587, 
		587, 
		586, 
		586, 
		587, 
		588, 
		589, 
		590, 
		591, 
		592, 
		593, 
		594, 
		595, 
		596, 
		597, 
		598, 
		599, 
		600, 
		601, 
		603, 
		604, 
		606, 
		607, 
		608, 
		609, 
		610, 
		611, 
		612, 
		613, 
		613, 
		613, 
		614, 
		614, 
		614, 
		614, 
		613, 
		613, 
		612, 
		612, 
		611, 
		610, 
		610, 
		609, 
		609, 
		609, 
		609, 
		610, 
		611, 
		612, 
		614, 
		616, 
		617, 
		619, 
		620, 
		621, 
		622, 
		623, 
		623, 
		623, 
		622, 
		622, 
		621, 
		620, 
		620, 
		619, 
		618, 
		617, 
		616, 
		615, 
		614, 
		613, 
		613, 
		614, 
		615, 
		617, 
		619, 
		621, 
		623, 
		625, 
		627, 
		628, 
		629, 
		629, 
		629, 
		629, 
		628, 
		626, 
		624, 
		622, 
		620, 
		618, 
		615, 
		613, 
		610, 
		608, 
		607, 
		606, 
		605, 
		604, 
		605, 
		605, 
		606, 
		607, 
		608, 
		609, 
		610, 
		610, 
		610, 
		609, 
		609, 
		607, 
		606, 
		605, 
		604, 
		603, 
		602, 
		601, 
		601, 
		601, 
		602, 
		603, 
		605, 
		607, 
		609, 
		612, 
		614, 
		616, 
		618, 
		620, 
		621, 
		622, 
		622, 
		621, 
		620, 
		618, 
		616, 
		614, 
		612, 
		610, 
		608, 
		606, 
		604, 
		602, 
		600, 
		599, 
		597, 
		595, 
		593, 
		591, 
		589, 
		588, 
		586, 
		585, 
		585, 
		585, 
		585, 
		586, 
		588, 
		590, 
		593, 
		596, 
		600, 
		604, 
		609, 
		613, 
		617, 
		621, 
		624, 
		626, 
		627, 
		627, 
		627, 
		625, 
		622, 
		619, 
		615, 
		611, 
		608, 
		604, 
		600, 
		598, 
		595, 
		593, 
		592, 
		591, 
		591, 
		591, 
		591, 
		591, 
		592, 
		593, 
		594, 
		595, 
		596, 
		597, 
		599, 
		600, 
		602, 
		603, 
		604, 
		605, 
		605, 
		606, 
		606, 
		606, 
		606, 
		607, 
		608, 
		609, 
		611, 
		614, 
		616, 
		619, 
		621, 
		623, 
		624, 
		624, 
		624, 
		622, 
		620, 
		618, 
		615, 
		612, 
		609, 
		606, 
		604, 
		602, 
		601, 
		601, 
		601, 
		601, 
		602, 
		604, 
		606, 
		608, 
		610, 
		612, 
		613, 
		614, 
		615, 
		616, 
		616, 
		615
	],
	"zonesProfile": [
		20.47578, 
		20.62903, 
		20.84225, 
		20.58239, 
		20.01603, 
		19.7495, 
		19.73617, 
		19.89609, 
		20.11597, 
		20.08932, 
		19.97605, 
		19.95606, 
		19.91608, 
		19.90275, 
		20.03601, 
		20.14263, 
		20.02269, 
		19.86943, 
		19.79614, 
		19.78948, 
		19.90941, 
		20.07599, 
		19.90275, 
		19.58959, 
		19.58958, 
		19.75616, 
		19.92274, 
		20.1293, 
		20.32253, 
		20.4358, 
		20.42914, 
		20.33586, 
		20.3092, 
		20.5091, 
		20.71565, 
		20.70899, 
		20.58905, 
		20.44913, 
		20.62237, 
		20.90889, 
		20.89556, 
		20.57573, 
		20.22925, 
		20.16928, 
		20.30254, 
		20.22925, 
		20.06267, 
		20.10931, 
		20.44913, 
		20.69567, 
		20.52242, 
		20.18927, 
		19.88276, 
		19.58292, 
		19.51629, 
		19.8761, 
		20.54908, 
		20.86891, 
		20.48911, 
		19.92274, 
		19.69619, 
		19.75616, 
		19.94939, 
		20.14262, 
		20.20926, 
		20.44913, 
		20.76229, 
		20.56907, 
		20.13596, 
		20.04934, 
		20.31587, 
		20.49577
	],
	"actuators": {
	"values": [
		40.61603, 
		35.9114, 
		19.42582, 
		15.12428, 
		22.24115, 
		28.87979, 
		32.74694, 
		17.71269, 
		13.98627, 
		13.72272, 
		17.29812, 
		18.87815, 
		20.84469, 
		23.19207, 
		17.38494, 
		15.56266, 
		21.74976, 
		21.4275, 
		29.0832, 
		23.17623, 
		18.28753, 
		18.1241, 
		27.29341, 
		25.82431, 
		21.85101, 
		23.32284, 
		38.30162, 
		43.43808, 
		40.4469, 
		36.45803, 
		35.13696, 
		41.89625, 
		46.81329, 
		47.65471, 
		41.46922, 
		36.68398, 
		35.27813, 
		38.82483, 
		26.08264, 
		22.06861, 
		14.97034, 
		19.15806, 
		18.74141, 
		18.80483, 
		28.9964, 
		43.53796, 
		56.69381, 
		51.84254, 
		32.68596, 
		27.66649, 
		33.17316, 
		38.47033, 
		42.82571, 
		53.89196, 
		58.12365, 
		49.30082, 
		30.78485, 
		21.81283, 
		25.9027, 
		25.07303, 
		32.15562, 
		30.58624, 
		32.46283, 
		39.57402, 
		40.95069, 
		31.52444, 
		14.23585, 
		19.64743, 
		21.45955, 
		28.39988, 
		23.211, 
		36.48256
	],
	"forced": [
		false, 
		false, 
		false, 
		false, 
		false, 
		false, 
		false, 
		false, 
		false, 
		false, 
		false, 
		false, 
		false, 
		false, 
		false, 
		false, 
		false, 
		false, 
		false, 
		false, 
		false, 
		false, 
		false, 
		false, 
		false, 
		false, 
		false, 
		false, 
		false, 
		false, 
		false, 
		false, 
		false, 
		false, 
		false, 
		false, 
		false, 
		false, 
		false, 
		false, 
		false, 
		false, 
		false, 
		false, 
		false, 
		false, 
		false, 
		false, 
		false, 
		false, 
		false, 
		false, 
		false, 
		false, 
		false, 
		false, 
		false, 
		false, 
		false, 
		false, 
		false, 
		false, 
		false, 
		false, 
		false, 
		false, 
		false, 
		false, 
		false, 
		false, 
		false, 
		false
	]
	}
}

