{
	"parameters": {
		"profiles_for_regulation": 2, 
		"large_gain": 65.0, 
		"small_gain": 25.0, 
		"dead_band": 1, 
		"valves_max": 100, 
		"valves_min": 2, 
		"integral_band": 0, 
		"disturbation_type": 0, 
		"disturbation_amount": 0.0, 
		"disturbation_amplitude": 0.0, 
		"disturbation_cycles": 0, 
		"disturbation_frequency": 0, 
		"phase_shift_misDx_haulDx": 5, 
		"phase_shift_misSx_haulDx": 5, 
		"phase_shift_misDx_haulSx": 0, 
		"phase_shift_misSx_haulSx": 0, 
		"matrix_major": 1, 
		"matrix_minor": 0
	},
	"production": {
		"code_customer": "MONO", 
		"code_product": "2", 
		"thickness": 20.2, 
		"tolerance": 2.0, 
		"layflat": 1440.0, 
		"line_speed": 36.0, 
		"flow": 160.0, 
		"melt_d": 1.3
	},
	"status": {
	"application": {
		"measurer_active": true, 
		"actuation_active": true
	},
	"measurer": {
		"direction": 1
	},
	"hauloff": {
		"direction": -1, 
		"last_period": 1084000, 
		"position": 0, 
		"speed": 0
	}
	},
	"stats": {
		"mean_thickness": 20.2, 
		"max_thickness": 22.32525, 
		"min_thickness": 17.96927, 
		"stdDev": 1.08787, 
		"sigma_abs": 2.17574, 
		"sigma_perc": 10.77099
	},
	"rawProfile": [
		573, 
		571, 
		568, 
		567, 
		565, 
		565, 
		565, 
		566, 
		567, 
		570, 
		573, 
		576, 
		580, 
		585, 
		589, 
		594, 
		598, 
		602, 
		605, 
		608, 
		610, 
		612, 
		613, 
		613, 
		613, 
		612, 
		611, 
		610, 
		609, 
		608, 
		607, 
		607, 
		607, 
		609, 
		611, 
		614, 
		617, 
		622, 
		627, 
		632, 
		637, 
		643, 
		647, 
		651, 
		655, 
		657, 
		659, 
		660, 
		660, 
		660, 
		660, 
		659, 
		658, 
		657, 
		656, 
		655, 
		654, 
		652, 
		651, 
		649, 
		648, 
		646, 
		643, 
		641, 
		638, 
		636, 
		634, 
		632, 
		631, 
		630, 
		629, 
		629, 
		630, 
		630, 
		631, 
		631, 
		632, 
		631, 
		631, 
		629, 
		627, 
		625, 
		621, 
		618, 
		614, 
		610, 
		607, 
		603, 
		599, 
		596, 
		593, 
		591, 
		589, 
		588, 
		587, 
		587, 
		588, 
		590, 
		593, 
		596, 
		599, 
		603, 
		607, 
		611, 
		614, 
		618, 
		620, 
		622, 
		623, 
		623, 
		622, 
		621, 
		619, 
		616, 
		613, 
		610, 
		607, 
		604, 
		601, 
		599, 
		597, 
		595, 
		593, 
		591, 
		590, 
		588, 
		586, 
		584, 
		581, 
		577, 
		573, 
		569, 
		565, 
		560, 
		555, 
		551, 
		546, 
		543, 
		539, 
		537, 
		535, 
		534, 
		533, 
		534, 
		535, 
		537, 
		539, 
		542, 
		544, 
		547, 
		549, 
		552, 
		554, 
		555, 
		557, 
		558, 
		558, 
		559, 
		559, 
		559, 
		560, 
		560, 
		560, 
		561, 
		563, 
		564, 
		566, 
		569, 
		571, 
		574, 
		576, 
		579, 
		581, 
		583, 
		585, 
		586, 
		588, 
		589, 
		590, 
		590, 
		591, 
		591, 
		591, 
		591, 
		590, 
		589, 
		589, 
		589, 
		589, 
		590, 
		591, 
		593, 
		596, 
		600, 
		603, 
		608, 
		613, 
		617, 
		622, 
		627, 
		632, 
		636, 
		640, 
		644, 
		648, 
		652, 
		655, 
		658, 
		661, 
		662, 
		664, 
		664, 
		664, 
		663, 
		661, 
		658, 
		655, 
		652, 
		647, 
		643, 
		637, 
		631, 
		625, 
		618, 
		611, 
		603, 
		595, 
		587, 
		579, 
		571, 
		563, 
		556, 
		549, 
		544, 
		539, 
		535, 
		533, 
		532, 
		533, 
		536, 
		540, 
		546, 
		554, 
		563, 
		573, 
		583, 
		593, 
		602, 
		609, 
		616, 
		620, 
		623, 
		624, 
		623, 
		621, 
		618, 
		614, 
		610, 
		605, 
		600, 
		595, 
		589, 
		584, 
		579, 
		574, 
		570, 
		565, 
		561, 
		557, 
		553, 
		550, 
		548, 
		546, 
		545, 
		545, 
		545, 
		546, 
		548, 
		551, 
		555, 
		559, 
		564, 
		570, 
		576, 
		581, 
		587, 
		593, 
		598, 
		603, 
		607, 
		611, 
		614, 
		616, 
		618, 
		620, 
		621, 
		622, 
		623, 
		623, 
		624, 
		624, 
		624, 
		623, 
		623, 
		622, 
		620, 
		619, 
		617, 
		616, 
		614, 
		613, 
		611, 
		610, 
		609, 
		608, 
		608, 
		606, 
		605, 
		604, 
		602, 
		600, 
		598, 
		596, 
		595, 
		594, 
		594, 
		595, 
		597, 
		599, 
		602, 
		606, 
		610, 
		613, 
		617, 
		620, 
		623, 
		625, 
		627, 
		629, 
		630, 
		630, 
		630, 
		630, 
		629, 
		627, 
		624, 
		622, 
		619, 
		615, 
		612, 
		608, 
		604, 
		601, 
		597, 
		593, 
		590, 
		586, 
		583, 
		579, 
		576
	],
	"zonesProfile": [
		19.14747, 
		19.07342, 
		19.5447, 
		20.24489, 
		20.60845, 
		20.53439, 
		20.47379, 
		20.95181, 
		21.76645, 
		22.1906, 
		22.15021, 
		21.95496, 
		21.652, 
		21.29517, 
		21.20091, 
		21.23458, 
		20.90468, 
		20.29875, 
		19.84766, 
		19.88806, 
		20.42667, 
		20.91141, 
		20.81042, 
		20.33914, 
		19.96885, 
		19.63222, 
		18.99936, 
		18.2857, 
		17.98274, 
		18.23857, 
		18.62907, 
		18.80411, 
		18.87817, 
		19.14748, 
		19.55143, 
		19.814, 
		19.88806, 
		19.8342, 
		20.0833, 
		20.78349, 
		21.54428, 
		22.13674, 
		22.32525, 
		21.91457, 
		21.01913, 
		19.76014, 
		18.52134, 
		17.96927, 
		18.68966, 
		20.21796, 
		20.94508, 
		20.51419, 
		19.66588, 
		18.89164, 
		18.40689, 
		18.48095, 
		19.18787, 
		20.11697, 
		20.72963, 
		20.95854, 
		20.97874, 
		20.77676, 
		20.54112, 
		20.36607, 
		20.0833, 
		20.11023, 
		20.64211, 
		21.09992, 
		21.18072, 
		20.81716, 
		20.21796, 
		19.61876
	],
	"actuators": {
	"values": [
		33.32028, 
		34.43564, 
		32.97245, 
		30.06724, 
		28.11803, 
		28.75648, 
		29.30319, 
		28.30492, 
		23.42513, 
		21.04691, 
		20.42699, 
		21.3149, 
		22.35634, 
		26.21252, 
		25.77052, 
		25.4992, 
		26.10004, 
		29.04506, 
		28.97206, 
		29.34735, 
		26.20979, 
		23.86387, 
		24.1801, 
		27.71469, 
		28.7246, 
		31.12871, 
		34.22114, 
		37.18973, 
		40.17093, 
		37.63931, 
		37.73823, 
		37.03933, 
		37.61513, 
		36.19542, 
		34.42545, 
		33.34739, 
		32.94046, 
		32.7268, 
		32.46341, 
		28.40602, 
		25.84305, 
		23.02421, 
		21.99014, 
		22.5734, 
		25.88833, 
		30.51522, 
		38.50368, 
		41.43214, 
		39.04374, 
		29.5539, 
		27.13799, 
		29.15523, 
		32.11115, 
		35.30653, 
		38.71894, 
		38.78249, 
		36.12589, 
		31.22836, 
		30.18878, 
		29.16273, 
		27.69555, 
		28.15347, 
		29.89885, 
		29.12775, 
		30.83279, 
		31.05672, 
		27.10087, 
		24.61243, 
		24.41368, 
		23.86143, 
		28.28587, 
		29.55578
	],
	"forced": [
		false, 
		false, 
		false, 
		false, 
		false, 
		false, 
		false, 
		false, 
		false, 
		false, 
		false, 
		false, 
		false, 
		false, 
		false, 
		false, 
		false, 
		false, 
		false, 
		false, 
		false, 
		false, 
		false, 
		false, 
		false, 
		false, 
		false, 
		false, 
		false, 
		false, 
		false, 
		false, 
		false, 
		false, 
		false, 
		false, 
		false, 
		false, 
		false, 
		false, 
		false, 
		false, 
		false, 
		false, 
		false, 
		false, 
		false, 
		false, 
		false, 
		false, 
		false, 
		false, 
		false, 
		false, 
		false, 
		false, 
		false, 
		false, 
		false, 
		false, 
		false, 
		false, 
		false, 
		false, 
		false, 
		false, 
		false, 
		false, 
		false, 
		false, 
		false, 
		false
	]
	}
}

