{
  "parameters": {
    "integral_band": 0,
    "dead_band": 1,
    "small_gain": 100.0,
    "large_gain": 150.0,
    "valves_min": 1,
    "valves_max": 75,
    "matrix_minor": 0,
    "matrix_major": 90,
    "profiles_for_regulation": 10,
    "phase_shift_misDx_haulDx": 2,
    "phase_shift_misDx_haulSx": 6,
    "phase_shift_misSx_haulDx": 2,
    "phase_shift_misSx_haulSx": 6,
    "disturbation_type": 0,
    "disturbation_amount": 0.0,
    "disturbation_amplitude": 1.0,
    "disturbation_cycles": 1,
    "disturbation_frequency": 1
  },
  "production": {
    "line_speed": 30.0,
    "layflat": 30.0,
    "thickness": 30.0
  },
  "status": {
    "application": {
      "measurer_active": true,
      "actuation_active": true
    },
    "measurer": {
      "direction": 1
    },
    "hauloff": {
      "direction": false,
      "position": 5,
      "speed": 40,
      "last_period": 0
    }
  },
  "stats": {
    "min_thickness": 28.566275924256093,
    "max_thickness": 31.552750225428323,
    "mean_thickness": 30.00000000000002,
    "sigma_perc": 4.328974987383162,
    "sigma_abs": 1.2986924962149489,
    "stdDev": 0.6493462481074744
  },
  "rawProfile": [
    22.3,
    22.4,
    22.9,
    23.4,
    23.3,
    23.0,
    22.8,
    22.7,
    22.4,
    22.0,
    22.3,
    22.9,
    23.0,
    22.7,
    22.9,
    23.1,
    23.3,
    23.0,
    23.0,
    23.5,
    23.7,
    23.0,
    22.5,
    22.7,
    22.9,
    22.8,
    22.2,
    22.4,
    23.2,
    23.8,
    23.4,
    22.9,
    23.3,
    23.2,
    22.3,
    21.9,
    22.6,
    23.2,
    22.7,
    22.3,
    22.2,
    22.5,
    22.8,
    22.9,
    22.8,
    23.0,
    23.2,
    22.4,
    21.9,
    22.4,
    22.8,
    23.4,
    23.4,
    22.6,
    22.3,
    22.9,
    23.3,
    22.6,
    22.4,
    22.9,
    23.0,
    22.9,
    23.0,
    22.8,
    22.3,
    22.3,
    22.3,
    22.6,
    22.4,
    22.5,
    22.5,
    22.9,
    23.3,
    23.3,
    22.8,
    22.6,
    22.9,
    23.1,
    23.0,
    22.3,
    22.5,
    22.9,
    22.7,
    22.9,
    22.9,
    23.5,
    23.5,
    22.9,
    22.5,
    22.9,
    23.2,
    23.0,
    22.7,
    22.5,
    22.1,
    22.0,
    22.1,
    23.1,
    23.5,
    23.3,
    23.1,
    23.3,
    23.7,
    23.6,
    23.1,
    23.3,
    23.7,
    23.5,
    23.7,
    23.6,
    23.3,
    22.7,
    22.3,
    22.7,
    22.9,
    23.0,
    22.9,
    23.0,
    23.5,
    23.8,
    23.4,
    22.4,
    22.5,
    23.6,
    24.0,
    23.9,
    23.6,
    23.5,
    23.9,
    23.4,
    22.7,
    22.2,
    22.3,
    22.6,
    23.0,
    23.4,
    23.9,
    23.9,
    23.7,
    23.2,
    22.7,
    22.6,
    22.3,
    21.9,
    21.9,
    22.2,
    22.6,
    23.0,
    23.2,
    23.4,
    23.6,
    23.6,
    23.8,
    23.5,
    23.6,
    23.7,
    23.1,
    22.8,
    23.2,
    23.2,
    22.6,
    22.9,
    23.3,
    23.8,
    23.9,
    24.0,
    24.2,
    23.8,
    23.4,
    23.1,
    23.0,
    23.2,
    23.3,
    23.2,
    23.6,
    24.2,
    24.1,
    23.8,
    23.7,
    23.6,
    23.3,
    23.1,
    23.4,
    23.4,
    23.7,
    23.9,
    24.2,
    23.7,
    23.4,
    23.8,
    23.6,
    23.1,
    23.6,
    23.9,
    23.6,
    23.2,
    23.4,
    23.2,
    23.0,
    23.4,
    23.5,
    23.2,
    23.7,
    24.1,
    23.8,
    23.4,
    23.0,
    22.9,
    22.8,
    23.1,
    23.4,
    23.3,
    22.9,
    22.6,
    22.9,
    22.5,
    22.5,
    23.0,
    23.8,
    23.6,
    23.4,
    23.6,
    23.6,
    23.1,
    22.9,
    23.0,
    23.0,
    23.0,
    23.0,
    23.2,
    23.0,
    22.6,
    22.7,
    22.9,
    23.0,
    23.0,
    23.0,
    22.8,
    22.3,
    22.1,
    21.7,
    21.6,
    22.1,
    22.6,
    22.8,
    23.0,
    22.9,
    23.0,
    23.2,
    23.2,
    23.6,
    23.5,
    23.8,
    24.3,
    24.2,
    24.1,
    23.9,
    24.0,
    24.2,
    24.4,
    24.2,
    23.8,
    23.7,
    23.5,
    23.6,
    24.0,
    24.0,
    23.7,
    23.7,
    23.9,
    23.7,
    23.2,
    23.3,
    23.5,
    23.7,
    23.6,
    23.2,
    23.7,
    24.0,
    23.5,
    23.0,
    22.9,
    22.7,
    22.6,
    22.7,
    23.0,
    23.2,
    22.8,
    22.5,
    22.6,
    22.6,
    22.5,
    22.3,
    21.9,
    21.9,
    22.0,
    21.9,
    22.1,
    22.4,
    22.3,
    22.3,
    22.4,
    22.3,
    22.4,
    22.5,
    22.5,
    22.7,
    22.7,
    22.8,
    22.9,
    23.2,
    23.6,
    24.0,
    23.9,
    23.9,
    24.4,
    24.6,
    24.7,
    24.2,
    23.7,
    23.3,
    23.1,
    22.9,
    22.8,
    22.8,
    22.9,
    22.8,
    22.5,
    23.0,
    23.7,
    24.3,
    24.5,
    24.1,
    23.7,
    23.4,
    23.1,
    22.9,
    23.2,
    23.4,
    23.3,
    23.7,
    24.0,
    24.1,
    23.2,
    22.1,
    22.4,
    22.9,
    22.6,
    22.4,
    23.4,
    24.1,
    23.7,
    22.7,
    23.0,
    23.6,
    23.6,
    23.2,
    22.9,
    22.9,
    22.5
  ],
  "zonesProfile": [
    29.540126239855734,
    29.79981965734897,
    29.085662759242567,
    29.767357980162313,
    30.124436429215518,
    29.83228133453563,
    29.312894499549156,
    30.286744815148793,
    29.442741208295768,
    29.475202885482425,
    29.34535617673581,
    29.669972948602354,
    29.377817853922462,
    29.60504959422904,
    29.605049594229047,
    29.767357980162316,
    29.053201082055914,
    29.312894499549156,
    29.86474301172228,
    29.637511271415697,
    29.540126239855734,
    30.12443642921552,
    29.73489630297566,
    28.988277727682608,
    29.86474301172228,
    30.416591523895416,
    30.384129846708756,
    30.28674481514879,
    29.50766456266908,
    30.254283137962137,
    29.83228133453563,
    30.83859332732192,
    29.929666366095592,
    29.6375112714157,
    30.741208295761957,
    29.053201082055914,
    29.11812443642922,
    30.44905320108206,
    30.708746618575304,
    29.96212804328225,
    30.059513074842208,
    31.13074842200181,
    30.091974752028865,
    30.611361587015338,
    30.903516681695233,
    30.25428313796214,
    31.000901713255193,
    30.481514878268722,
    30.611361587015338,
    30.189359783588827,
    30.676284941388648,
    30.22182146077548,
    30.05951307484221,
    29.50766456266908,
    30.156898106402174,
    30.416591523895406,
    29.83228133453563,
    29.799819657348976,
    29.73489630297566,
    29.280432822362492,
    28.566275924256093,
    29.767357980162313,
    30.3516681695221,
    31.293056807935088,
    31.32551848512174,
    30.90351668169523,
    30.935978358881883,
    30.676284941388648,
    30.546438232642025,
    30.643823264201995,
    29.60504959422904,
    29.767357980162316,
    29.2804328223625,
    28.598737601442746,
    28.79350766456268,
    29.02073940486926,
    29.34535617673581,
    30.027051397655555,
    31.22813345356177,
    31.552750225428323,
    29.89720468890894,
    29.540126239855734,
    31.000901713255193,
    30.61136158701533,
    30.124436429215518,
    30.838593327321924,
    29.215509467989186,
    30.384129846708756,
    30.156898106402174,
    29.702434625789007
  ],
  "actuators": {
    "values": [
      57,
      64,
      56,
      43,
      50,
      57,
      47,
      39,
      55,
      60,
      53,
      54,
      46,
      40,
      37,
      54,
      55,
      42,
      38,
      44,
      41,
      43,
      38,
      38,
      9,
      3,
      6,
      24,
      26,
      21,
      12,
      6,
      14,
      2,
      15,
      41,
      22,
      2,
      15,
      23,
      11,
      15,
      20,
      18,
      22,
      21,
      18,
      20,
      28,
      27,
      14,
      31,
      38,
      34,
      23,
      14,
      17,
      22,
      21,
      29,
      29,
      4,
      1,
      1,
      1,
      1,
      1,
      1,
      1,
      1,
      1,
      21,
      28,
      39,
      39,
      24,
      8,
      7,
      7,
      1,
      1,
      36,
      38,
      8,
      42,
      42,
      34,
      37,
      27,
      43
    ],
    "forced": [
      false,
      false,
      false,
      false,
      false,
      false,
      false,
      false,
      false,
      false,
      false,
      false,
      false,
      false,
      false,
      false,
      false,
      false,
      false,
      false,
      false,
      false,
      false,
      false,
      false,
      false,
      false,
      false,
      false,
      false,
      false,
      false,
      false,
      false,
      false,
      false,
      false,
      false,
      false,
      false,
      false,
      false,
      false,
      false,
      false,
      false,
      false,
      false,
      false,
      false,
      false,
      false,
      false,
      false,
      false,
      false,
      false,
      false,
      false,
      false,
      false,
      false,
      false,
      false,
      false,
      false,
      false,
      false,
      false,
      false,
      false,
      false,
      false,
      false,
      false,
      false,
      false,
      false,
      false,
      false,
      false,
      false,
      false,
      false,
      false,
      false,
      false,
      false,
      false,
      false
    ]
  }
}