{
  "parameters": {
    "integral_band": 0,
    "dead_band": 1,
    "small_gain": 100.0,
    "large_gain": 150.0,
    "valves_min": 1,
    "valves_max": 75,
    "matrix_minor": 0,
    "matrix_major": 90,
    "profiles_for_regulation": 10,
    "phase_shift_misDx_haulDx": 2,
    "phase_shift_misDx_haulSx": 6,
    "phase_shift_misSx_haulDx": 2,
    "phase_shift_misSx_haulSx": 6,
    "disturbation_type": 0,
    "disturbation_amount": 0.0,
    "disturbation_amplitude": 1.0,
    "disturbation_cycles": 1,
    "disturbation_frequency": 1
  },
  "production": {
    "line_speed": 30.0,
    "layflat": 30.0,
    "thickness": 30.0
  },
  "status": {
    "application": {
      "measurer_active": true,
      "actuation_active": true
    },
    "measurer": {
      "direction": 1
    },
    "hauloff": {
      "direction": false,
      "position": 5,
      "speed": 40,
      "last_period": 0
    }
  },
  "stats": {
    "min_thickness": 28.325762491888387,
    "max_thickness": 31.73264114211551,
    "mean_thickness": 30.0,
    "sigma_perc": 3.7644250859349038,
    "sigma_abs": 1.1293275257804707,
    "stdDev": 0.5646637628902353
  },
  "rawProfile": [
    23.2,
    23.1,
    22.5,
    22.6,
    22.7,
    23.0,
    22.5,
    22.3,
    22.3,
    22.4,
    22.6,
    22.6,
    23.1,
    23.2,
    23.2,
    22.9,
    22.9,
    23.0,
    23.2,
    22.8,
    22.6,
    22.7,
    23.0,
    22.2,
    22.0,
    22.7,
    23.5,
    23.9,
    23.5,
    23.8,
    23.9,
    23.0,
    22.6,
    22.9,
    23.4,
    23.2,
    22.5,
    22.6,
    23.0,
    23.3,
    23.3,
    22.8,
    23.1,
    23.0,
    22.5,
    22.3,
    22.6,
    22.9,
    23.5,
    23.1,
    22.7,
    22.9,
    23.5,
    23.4,
    22.9,
    22.9,
    22.7,
    23.2,
    23.4,
    23.2,
    22.9,
    22.6,
    22.6,
    22.5,
    22.6,
    22.6,
    22.9,
    22.9,
    23.0,
    22.9,
    23.1,
    22.8,
    23.0,
    23.2,
    22.9,
    22.5,
    22.2,
    22.5,
    22.7,
    22.7,
    22.9,
    22.9,
    22.7,
    22.3,
    21.9,
    22.3,
    22.7,
    22.9,
    22.7,
    22.6,
    22.5,
    22.4,
    22.3,
    22.6,
    23.3,
    23.4,
    23.3,
    22.9,
    23.3,
    23.4,
    23.3,
    23.4,
    23.5,
    23.6,
    23.5,
    23.7,
    23.7,
    23.3,
    22.9,
    22.7,
    22.5,
    22.5,
    22.7,
    23.0,
    23.6,
    23.7,
    23.3,
    22.3,
    21.8,
    22.8,
    23.5,
    23.5,
    23.4,
    23.2,
    23.4,
    23.5,
    23.1,
    22.5,
    22.2,
    22.6,
    23.3,
    23.7,
    23.8,
    23.9,
    23.9,
    23.7,
    23.3,
    23.0,
    22.7,
    22.6,
    22.6,
    22.9,
    23.2,
    23.2,
    23.4,
    23.6,
    23.5,
    23.4,
    23.3,
    23.4,
    23.5,
    24.0,
    24.0,
    23.6,
    23.4,
    23.1,
    22.7,
    22.8,
    23.0,
    23.3,
    23.4,
    23.3,
    23.7,
    23.5,
    23.2,
    23.2,
    23.3,
    23.3,
    23.3,
    23.2,
    23.4,
    23.5,
    23.5,
    23.3,
    23.6,
    23.4,
    23.0,
    22.7,
    22.7,
    22.9,
    23.2,
    23.7,
    23.9,
    24.0,
    23.4,
    23.0,
    23.3,
    23.0,
    22.8,
    23.5,
    23.7,
    23.5,
    23.2,
    23.1,
    22.9,
    23.1,
    23.2,
    23.5,
    23.5,
    23.1,
    23.2,
    23.9,
    23.8,
    23.2,
    23.0,
    23.0,
    22.7,
    22.9,
    23.5,
    23.5,
    22.8,
    22.4,
    22.9,
    22.7,
    22.8,
    23.0,
    23.4,
    23.3,
    22.9,
    23.2,
    23.9,
    23.4,
    23.0,
    22.9,
    22.6,
    22.8,
    23.3,
    23.3,
    22.9,
    22.7,
    22.9,
    23.1,
    23.4,
    23.4,
    23.5,
    23.6,
    23.3,
    23.1,
    22.7,
    22.2,
    21.8,
    22.2,
    22.8,
    22.9,
    22.9,
    22.9,
    22.9,
    23.2,
    23.4,
    23.4,
    23.5,
    23.3,
    23.4,
    23.7,
    23.7,
    23.9,
    24.0,
    23.8,
    23.6,
    23.6,
    23.7,
    23.6,
    23.2,
    23.3,
    23.6,
    23.7,
    23.7,
    23.6,
    23.7,
    23.7,
    23.3,
    23.2,
    23.2,
    23.3,
    23.3,
    23.3,
    23.2,
    23.5,
    23.6,
    23.4,
    23.5,
    23.3,
    22.8,
    22.4,
    22.2,
    22.5,
    22.8,
    23.0,
    23.0,
    23.4,
    23.9,
    23.7,
    23.9,
    23.9,
    24.1,
    24.3,
    24.4,
    24.7,
    24.5,
    24.2,
    24.0,
    23.4,
    22.5,
    21.8,
    21.8,
    21.9,
    21.9,
    21.7,
    22.2,
    22.5,
    22.4,
    22.4,
    22.9,
    23.2,
    23.4,
    23.8,
    24.1,
    24.3,
    24.0,
    23.6,
    23.5,
    23.3,
    23.1,
    22.7,
    22.5,
    22.4,
    22.3,
    22.0,
    21.9,
    22.6,
    23.4,
    24.0,
    24.5,
    24.5,
    23.8,
    23.1,
    22.3,
    22.5,
    22.8,
    23.1,
    22.9,
    23.4,
    23.7,
    23.5,
    22.9,
    22.6,
    23.0,
    23.2,
    23.0,
    23.4,
    24.0,
    24.0,
    23.2,
    23.1,
    23.5,
    23.2,
    22.9,
    22.8,
    22.4,
    22.8
  ],
  "zonesProfile": [
    29.656067488643743,
    29.36404931862427,
    29.169370538611297,
    29.980532121998706,
    29.81829980532122,
    29.36404931862427,
    29.883192731992214,
    30.564568462037638,
    29.883192731992217,
    29.65606748864374,
    29.915639195327714,
    29.299156391953282,
    29.915639195327707,
    30.077871512005192,
    30.012978585334203,
    29.396495781959768,
    29.526281635301753,
    29.785853341985725,
    29.72096041531473,
    29.23426346528229,
    29.46138870863076,
    29.1369240752758,
    29.26670992861778,
    29.72096041531473,
    30.14276443867619,
    30.43478260869566,
    30.56456846203764,
    29.396495781959768,
    30.17521090201169,
    29.266709928617786,
    30.369889682024663,
    30.012978585334203,
    29.785853341985725,
    30.9214795587281,
    29.72096041531473,
    29.818299805321224,
    30.467229072031152,
    30.56456846203764,
    30.53212199870214,
    29.785853341985725,
    30.467229072031152,
    30.175210902011685,
    30.30499675535367,
    30.43478260869566,
    29.623621025308246,
    30.75924724205062,
    30.077871512005196,
    30.337443218689167,
    29.948085658663203,
    30.272550292018177,
    30.53212199870214,
    29.72096041531473,
    29.915639195327707,
    29.65606748864374,
    30.11031797534069,
    30.240103828682674,
    29.85074626865672,
    29.72096041531473,
    30.467229072031152,
    29.623621025308246,
    29.104477611940297,
    29.81829980532122,
    30.36988968202466,
    30.72680077871512,
    30.824140168721613,
    30.434782608695652,
    30.694354315379623,
    30.467229072031152,
    30.207657365347178,
    30.402336145360163,
    29.85074626865672,
    29.36404931862427,
    30.49967553536665,
    31.21349772874757,
    31.73264114211551,
    29.75340687865023,
    28.325762491888387,
    29.039584685269308,
    30.27255029201817,
    31.148604802076576,
    30.0454250486697,
    28.94224529526282,
    29.818299805321224,
    31.116158338741084,
    29.42894224529526,
    30.337443218689167,
    29.75340687865023,
    30.629461388708634,
    30.175210902011685,
    29.493835171966257
  ],
  "actuators": {
    "values": [
      75,
      75,
      75,
      75,
      66,
      75,
      75,
      43,
      75,
      75,
      70,
      75,
      58,
      42,
      41,
      75,
      75,
      48,
      39,
      74,
      56,
      64,
      57,
      65,
      1,
      1,
      1,
      31,
      28,
      12,
      1,
      1,
      32,
      1,
      8,
      75,
      40,
      1,
      1,
      30,
      1,
      1,
      10,
      2,
      9,
      6,
      1,
      8,
      18,
      27,
      1,
      37,
      48,
      62,
      28,
      3,
      30,
      39,
      31,
      58,
      75,
      13,
      2,
      1,
      1,
      1,
      1,
      1,
      1,
      1,
      1,
      9,
      1,
      1,
      1,
      53,
      75,
      73,
      15,
      1,
      1,
      75,
      65,
      1,
      75,
      67,
      57,
      44,
      16,
      57
    ],
    "forced": [
      false,
      false,
      false,
      false,
      false,
      false,
      false,
      false,
      false,
      false,
      false,
      false,
      false,
      false,
      false,
      false,
      false,
      false,
      false,
      false,
      false,
      false,
      false,
      false,
      false,
      false,
      false,
      false,
      false,
      false,
      false,
      false,
      false,
      false,
      false,
      false,
      false,
      false,
      false,
      false,
      false,
      false,
      false,
      false,
      false,
      false,
      false,
      false,
      false,
      false,
      false,
      false,
      false,
      false,
      false,
      false,
      false,
      false,
      false,
      false,
      false,
      false,
      false,
      false,
      false,
      false,
      false,
      false,
      false,
      false,
      false,
      false,
      false,
      false,
      false,
      false,
      false,
      false,
      false,
      false,
      false,
      false,
      false,
      false,
      false,
      false,
      false,
      false,
      false,
      false
    ]
  }
}