{
  "parameters": {
    "integral_band": 0,
    "dead_band": 1,
    "small_gain": 100.0,
    "large_gain": 150.0,
    "valves_min": 1,
    "valves_max": 75,
    "matrix_minor": 0,
    "matrix_major": 90,
    "profiles_for_regulation": 10,
    "phase_shift_misDx_haulDx": 2,
    "phase_shift_misDx_haulSx": 6,
    "phase_shift_misSx_haulDx": 2,
    "phase_shift_misSx_haulSx": 6,
    "disturbation_type": 0,
    "disturbation_amount": 0.0,
    "disturbation_amplitude": 1.0,
    "disturbation_cycles": 1,
    "disturbation_frequency": 1
  },
  "production": {
    "line_speed": 30.0,
    "layflat": 30.0,
    "thickness": 30.0
  },
  "status": {
    "application": {
      "measurer_active": true,
      "actuation_active": true
    },
    "measurer": {
      "direction": 1
    },
    "hauloff": {
      "direction": false,
      "position": 5,
      "speed": 40,
      "last_period": 0
    }
  },
  "stats": {
    "min_thickness": 27.92334486432136,
    "max_thickness": 32.73882910596938,
    "mean_thickness": 29.99999999999999,
    "sigma_perc": 5.8862533585554075,
    "sigma_abs": 1.765876007566622,
    "stdDev": 0.882938003783311
  },
  "rawProfile": [
    22.2,
    22.2,
    22.6,
    22.7,
    22.4,
    22.4,
    22.5,
    22.5,
    22.2,
    22.1,
    22.1,
    22.3,
    23.0,
    22.6,
    22.5,
    22.6,
    22.5,
    22.3,
    22.5,
    23.2,
    23.1,
    22.8,
    22.5,
    22.0,
    22.2,
    22.1,
    22.1,
    22.6,
    23.3,
    23.7,
    23.6,
    22.9,
    23.1,
    23.6,
    23.5,
    23.0,
    23.0,
    23.4,
    23.3,
    22.9,
    22.5,
    22.5,
    23.4,
    23.4,
    22.8,
    22.5,
    22.3,
    22.2,
    21.9,
    22.1,
    22.8,
    23.5,
    23.2,
    22.9,
    22.9,
    23.2,
    23.3,
    22.8,
    23.0,
    23.2,
    23.3,
    23.1,
    23.0,
    23.2,
    23.1,
    22.8,
    22.8,
    22.7,
    22.9,
    22.8,
    22.7,
    22.9,
    23.1,
    23.1,
    22.7,
    22.5,
    22.9,
    23.1,
    22.8,
    22.5,
    22.6,
    22.8,
    22.6,
    22.7,
    23.1,
    23.3,
    23.1,
    22.9,
    22.9,
    23.1,
    23.0,
    22.9,
    22.5,
    22.5,
    22.2,
    21.9,
    22.4,
    23.2,
    23.3,
    23.2,
    23.3,
    23.4,
    23.8,
    23.6,
    23.4,
    23.6,
    23.6,
    23.7,
    23.9,
    23.7,
    23.3,
    23.0,
    22.9,
    23.2,
    23.1,
    23.2,
    23.2,
    23.8,
    24.0,
    23.4,
    22.7,
    22.7,
    23.6,
    24.3,
    24.1,
    24.0,
    23.5,
    23.8,
    23.6,
    23.1,
    22.7,
    22.4,
    23.0,
    23.5,
    23.8,
    23.8,
    24.2,
    24.4,
    23.9,
    23.3,
    23.1,
    22.7,
    22.4,
    22.4,
    22.6,
    22.7,
    22.9,
    23.2,
    23.5,
    23.8,
    23.9,
    23.9,
    23.6,
    24.1,
    24.4,
    23.9,
    23.4,
    23.4,
    23.3,
    22.7,
    23.0,
    23.5,
    23.6,
    23.6,
    23.4,
    23.9,
    23.7,
    23.3,
    22.9,
    23.3,
    23.8,
    23.9,
    23.5,
    23.5,
    23.8,
    23.5,
    23.1,
    23.4,
    24.0,
    24.1,
    23.6,
    23.4,
    23.2,
    23.1,
    23.0,
    23.3,
    23.5,
    23.5,
    22.8,
    23.1,
    23.3,
    22.9,
    23.0,
    23.4,
    23.3,
    22.5,
    22.4,
    22.7,
    22.8,
    22.5,
    22.5,
    22.9,
    22.9,
    23.3,
    23.7,
    23.7,
    23.4,
    22.8,
    23.0,
    22.9,
    23.1,
    23.4,
    23.3,
    23.0,
    22.9,
    22.8,
    22.7,
    22.5,
    22.8,
    23.3,
    23.3,
    23.1,
    23.1,
    23.5,
    23.6,
    23.5,
    23.2,
    22.9,
    22.7,
    22.8,
    23.2,
    23.5,
    23.1,
    22.7,
    22.8,
    22.9,
    23.0,
    22.9,
    22.7,
    22.8,
    22.9,
    22.4,
    22.1,
    22.2,
    22.3,
    22.9,
    23.0,
    23.1,
    23.1,
    23.2,
    23.9,
    23.9,
    24.0,
    24.2,
    24.1,
    24.5,
    24.6,
    24.7,
    24.6,
    24.3,
    24.1,
    24.2,
    24.5,
    24.5,
    24.5,
    24.3,
    24.3,
    24.6,
    24.7,
    24.7,
    24.5,
    24.3,
    24.0,
    23.9,
    24.3,
    24.6,
    24.6,
    24.4,
    24.1,
    24.2,
    24.5,
    24.5,
    24.3,
    24.2,
    24.1,
    24.3,
    24.8,
    25.3,
    25.6,
    25.6,
    25.1,
    25.0,
    25.1,
    25.2,
    24.6,
    24.0,
    23.9,
    23.5,
    22.9,
    22.5,
    22.1,
    21.8,
    21.5,
    21.6,
    21.6,
    21.4,
    21.6,
    21.8,
    22.0,
    22.2,
    22.3,
    22.3,
    22.3,
    22.3,
    22.7,
    23.0,
    23.2,
    24.1,
    24.8,
    24.8,
    24.2,
    24.0,
    23.8,
    23.4,
    23.1,
    22.7,
    22.4,
    22.5,
    22.7,
    22.4,
    22.0,
    22.1,
    22.6,
    23.0,
    23.6,
    24.7,
    23.9,
    23.0,
    22.6,
    21.9,
    22.6,
    23.0,
    22.8,
    22.2,
    22.5,
    23.5,
    23.8,
    22.9,
    22.4,
    23.0,
    23.5,
    23.1,
    23.1,
    23.7,
    23.8,
    23.2,
    22.8,
    22.9,
    22.5,
    22.3
  ],
  "zonesProfile": [
    28.98986150844475,
    29.022180194630305,
    28.66667464658918,
    29.313048370300315,
    29.248410997929206,
    29.21609231174365,
    28.763630705145847,
    30.21797158349592,
    30.12101552493925,
    29.927103407825904,
    29.668553918341452,
    29.022180194630305,
    29.18377362555809,
    29.797828663083678,
    29.830147349269232,
    29.927103407825907,
    29.539279173599223,
    29.506960487413664,
    29.539279173599223,
    29.50696048741366,
    29.31304837030032,
    29.862466035454794,
    29.700872604527007,
    28.795949391331405,
    29.765509976898116,
    30.41188370060926,
    30.476521072980375,
    30.347246328238146,
    29.862466035454787,
    30.508839759165934,
    30.153334211124804,
    30.8320266210215,
    29.668553918341452,
    30.41188370060926,
    30.96130136576373,
    29.28072968411476,
    29.539279173599216,
    30.73507056246483,
    31.025938738134847,
    29.99174078019702,
    30.28260895586703,
    30.476521072980375,
    30.34724632823815,
    30.476521072980375,
    30.573477131537047,
    30.153334211124807,
    30.153334211124804,
    29.765509976898116,
    29.797828663083678,
    29.216092311743644,
    29.603916545970332,
    30.250290269681475,
    29.862466035454794,
    29.733191290712558,
    29.50696048741366,
    30.056378152568133,
    30.121015524939246,
    29.797828663083678,
    29.571597859784777,
    29.539279173599216,
    28.957542822259192,
    29.506960487413664,
    30.41188370060926,
    31.28448822761931,
    31.736949834217107,
    31.44608165854709,
    31.575356403289316,
    31.736949834217107,
    31.28448822761931,
    31.44608165854709,
    31.510719030918203,
    31.833905892773775,
    32.73882910596938,
    31.963180637516007,
    29.99174078019702,
    28.117256981434707,
    27.92334486432136,
    28.698993332774734,
    29.18377362555809,
    31.316806913804857,
    30.832026621021505,
    29.313048370300315,
    28.82826807751696,
    30.34724632823815,
    29.539279173599223,
    29.280729684114764,
    29.959422094011458,
    29.73319129071256,
    30.314927642052588,
    29.248410997929206
  ],
  "actuators": {
    "values": [
      68,
      75,
      70,
      50,
      56,
      75,
      52,
      44,
      71,
      74,
      60,
      71,
      50,
      43,
      37,
      63,
      66,
      41,
      38,
      58,
      47,
      52,
      47,
      50,
      3,
      1,
      1,
      28,
      25,
      23,
      4,
      1,
      16,
      1,
      16,
      55,
      24,
      1,
      7,
      26,
      3,
      7,
      16,
      12,
      14,
      11,
      10,
      10,
      23,
      17,
      1,
      31,
      38,
      40,
      18,
      5,
      18,
      25,
      20,
      42,
      45,
      4,
      1,
      1,
      1,
      1,
      1,
      1,
      1,
      1,
      1,
      4,
      19,
      56,
      64,
      54,
      28,
      16,
      3,
      1,
      1,
      49,
      32,
      1,
      53,
      38,
      41,
      31,
      23,
      47
    ],
    "forced": [
      false,
      false,
      false,
      false,
      false,
      false,
      false,
      false,
      false,
      false,
      false,
      false,
      false,
      false,
      false,
      false,
      false,
      false,
      false,
      false,
      false,
      false,
      false,
      false,
      false,
      false,
      false,
      false,
      false,
      false,
      false,
      false,
      false,
      false,
      false,
      false,
      false,
      false,
      false,
      false,
      false,
      false,
      false,
      false,
      false,
      false,
      false,
      false,
      false,
      false,
      false,
      false,
      false,
      false,
      false,
      false,
      false,
      false,
      false,
      false,
      false,
      false,
      false,
      false,
      false,
      false,
      false,
      false,
      false,
      false,
      false,
      false,
      false,
      false,
      false,
      false,
      false,
      false,
      false,
      false,
      false,
      false,
      false,
      false,
      false,
      false,
      false,
      false,
      false,
      false
    ]
  }
}