{
  "parameters": {
    "integral_band": 0,
    "dead_band": 1,
    "small_gain": 100.0,
    "large_gain": 150.0,
    "valves_min": 1,
    "valves_max": 75,
    "matrix_minor": 0,
    "matrix_major": 90,
    "profiles_for_regulation": 10,
    "phase_shift_misDx_haulDx": 2,
    "phase_shift_misDx_haulSx": 6,
    "phase_shift_misSx_haulDx": 2,
    "phase_shift_misSx_haulSx": 6,
    "disturbation_type": 0,
    "disturbation_amount": 0.0,
    "disturbation_amplitude": 1.0,
    "disturbation_cycles": 1,
    "disturbation_frequency": 1
  },
  "production": {
    "line_speed": 30.0,
    "layflat": 30.0,
    "thickness": 30.0
  },
  "status": {
    "application": {
      "measurer_active": true,
      "actuation_active": true
    },
    "measurer": {
      "direction": 1
    },
    "hauloff": {
      "direction": false,
      "position": 5,
      "speed": 40,
      "last_period": 0
    }
  },
  "stats": {
    "min_thickness": 28.526491457660505,
    "max_thickness": 31.962637019605975,
    "mean_thickness": 30.0,
    "sigma_perc": 4.6459036625195855,
    "sigma_abs": 1.393771098755876,
    "stdDev": 0.696885549377938
  },
  "rawProfile": [
    22.3,
    22.4,
    22.7,
    22.8,
    22.8,
    22.4,
    22.3,
    22.4,
    22.6,
    22.6,
    22.1,
    22.1,
    22.5,
    22.5,
    21.9,
    22.1,
    22.8,
    23.1,
    23.2,
    23.2,
    23.7,
    23.7,
    23.2,
    22.8,
    22.8,
    22.9,
    22.4,
    22.1,
    22.6,
    23.1,
    23.7,
    23.4,
    23.3,
    23.6,
    23.1,
    22.2,
    22.4,
    23.0,
    22.9,
    22.3,
    22.5,
    22.6,
    22.8,
    23.4,
    23.1,
    22.9,
    23.0,
    22.6,
    22.0,
    22.2,
    23.0,
    23.4,
    23.0,
    22.6,
    22.7,
    22.8,
    22.9,
    22.7,
    22.6,
    22.8,
    23.4,
    23.7,
    23.2,
    22.7,
    22.4,
    22.2,
    22.2,
    22.8,
    23.1,
    22.9,
    22.5,
    22.7,
    23.0,
    23.2,
    22.9,
    22.6,
    23.1,
    23.4,
    23.0,
    22.6,
    22.8,
    23.1,
    23.0,
    22.8,
    22.6,
    22.9,
    22.8,
    22.4,
    22.7,
    23.0,
    23.0,
    22.9,
    23.0,
    23.2,
    23.1,
    22.6,
    22.5,
    23.0,
    23.7,
    23.8,
    23.5,
    23.5,
    23.3,
    23.4,
    23.3,
    23.4,
    23.7,
    23.7,
    23.9,
    23.6,
    23.4,
    23.3,
    23.2,
    23.1,
    22.8,
    23.0,
    23.2,
    23.6,
    23.8,
    23.6,
    23.0,
    22.4,
    22.5,
    23.4,
    23.5,
    23.6,
    23.3,
    23.2,
    23.3,
    23.1,
    22.5,
    22.2,
    22.3,
    23.0,
    23.2,
    23.2,
    23.6,
    23.6,
    23.3,
    22.8,
    22.8,
    22.7,
    22.4,
    22.1,
    22.3,
    22.6,
    22.5,
    22.7,
    23.1,
    23.4,
    23.5,
    23.7,
    23.6,
    23.4,
    23.8,
    23.9,
    23.5,
    23.1,
    23.0,
    22.5,
    22.3,
    23.0,
    23.1,
    23.3,
    23.6,
    23.6,
    24.1,
    23.8,
    23.3,
    23.0,
    23.4,
    23.8,
    23.7,
    23.5,
    23.4,
    23.5,
    23.6,
    23.3,
    22.9,
    23.0,
    23.2,
    23.2,
    23.3,
    23.3,
    23.4,
    23.6,
    23.7,
    23.8,
    23.0,
    23.0,
    23.4,
    23.5,
    23.6,
    23.8,
    23.7,
    23.0,
    22.8,
    23.2,
    23.3,
    23.1,
    22.9,
    23.0,
    23.3,
    23.9,
    24.0,
    23.7,
    23.1,
    22.7,
    22.7,
    22.8,
    23.0,
    23.4,
    23.2,
    22.9,
    22.6,
    22.5,
    22.3,
    22.6,
    22.8,
    22.9,
    22.7,
    22.9,
    23.3,
    23.8,
    23.9,
    23.4,
    23.2,
    22.8,
    22.5,
    22.9,
    23.2,
    23.1,
    23.0,
    23.0,
    23.2,
    23.6,
    23.7,
    23.3,
    23.2,
    23.2,
    23.1,
    22.8,
    22.2,
    22.0,
    22.5,
    22.9,
    23.1,
    23.6,
    23.4,
    23.4,
    23.6,
    23.6,
    23.6,
    23.3,
    23.8,
    24.5,
    24.5,
    24.0,
    24.0,
    24.2,
    24.4,
    24.3,
    24.3,
    24.2,
    24.2,
    23.7,
    23.5,
    23.7,
    23.8,
    23.9,
    23.7,
    23.7,
    23.5,
    23.5,
    23.4,
    23.7,
    23.8,
    23.7,
    23.6,
    23.9,
    24.0,
    23.9,
    23.8,
    23.7,
    23.3,
    22.8,
    22.4,
    22.4,
    22.9,
    23.3,
    23.6,
    23.9,
    24.4,
    24.6,
    24.7,
    24.8,
    24.7,
    24.6,
    24.6,
    24.7,
    24.9,
    24.6,
    24.1,
    23.3,
    22.7,
    21.7,
    21.8,
    21.8,
    22.1,
    22.1,
    22.6,
    22.9,
    22.5,
    22.4,
    22.5,
    23.0,
    23.5,
    24.0,
    24.4,
    24.5,
    24.5,
    24.3,
    24.0,
    23.8,
    23.4,
    23.3,
    22.8,
    22.2,
    22.6,
    22.6,
    21.8,
    21.7,
    22.3,
    23.0,
    23.7,
    24.0,
    23.9,
    23.1,
    22.3,
    21.6,
    22.3,
    22.7,
    22.5,
    22.3,
    22.7,
    23.6,
    23.3,
    22.5,
    21.8,
    22.2,
    22.7,
    22.7,
    22.3,
    23.2,
    23.8,
    23.2,
    22.8,
    23.4,
    22.6,
    22.2
  ],
  "zonesProfile": [
    29.239653744102018,
    29.14240434140545,
    28.980322003577832,
    28.850656133315738,
    29.92039956297801,
    30.27698070619876,
    29.23965374410201,
    30.082481900805625,
    29.887983095412483,
    29.36931961436411,
    29.596234887322776,
    29.69348429001934,
    29.36931961436411,
    29.531401952191725,
    29.498985484626196,
    30.14731483593667,
    29.045154938708873,
    29.56381841975725,
    29.72590075758486,
    29.855566627846958,
    29.725900757584867,
    29.401736081929627,
    29.69348429001934,
    29.790733692715914,
    30.14731483593667,
    30.37423010889533,
    30.503895979157427,
    30.53631244672295,
    29.855566627846958,
    30.536312446722945,
    29.596234887322776,
    30.34181364132981,
    29.53140195219173,
    29.725900757584867,
    30.244564238633238,
    29.17482080897097,
    29.207237276536496,
    30.374230108895333,
    30.698394784550562,
    29.855566627846958,
    29.725900757584867,
    30.82806065481266,
    30.30939717376428,
    30.503895979157424,
    30.082481900805625,
    30.14731483593667,
    30.633561849419518,
    30.114898368371147,
    30.503895979157427,
    29.95281603054353,
    30.17973130350219,
    30.30939717376429,
    29.790733692715914,
    29.563818419757244,
    29.36931961436411,
    30.050065433240096,
    30.244564238633238,
    29.72590075758486,
    30.082481900805625,
    30.276980706198763,
    29.207237276536496,
    29.855566627846958,
    30.4714795115919,
    30.86047712237818,
    31.34672413586103,
    31.508806473688647,
    30.82806065481266,
    30.82806065481266,
    30.503895979157427,
    30.795644187247134,
    30.92531005750923,
    29.46656901706068,
    30.374230108895336,
    31.93022055204045,
    31.962637019605975,
    31.411557070992075,
    28.526491457660505,
    29.077571406274405,
    29.304486679233065,
    31.249474733164462,
    31.314307668295505,
    29.725900757584867,
    28.75340673061917,
    30.14731483593667,
    29.46656901706068,
    29.109987873839923,
    29.855566627846958,
    28.980322003577832,
    29.985232498109053,
    29.498985484626207
  ],
  "actuators": {
    "values": [
      75,
      75,
      75,
      71,
      66,
      75,
      75,
      45,
      75,
      75,
      67,
      75,
      53,
      39,
      39,
      74,
      75,
      46,
      42,
      73,
      58,
      63,
      54,
      63,
      1,
      1,
      1,
      34,
      28,
      18,
      1,
      1,
      29,
      1,
      11,
      75,
      36,
      1,
      1,
      29,
      2,
      1,
      12,
      7,
      11,
      7,
      3,
      9,
      22,
      27,
      1,
      35,
      45,
      55,
      26,
      3,
      27,
      35,
      30,
      58,
      75,
      12,
      1,
      1,
      1,
      1,
      1,
      1,
      1,
      1,
      1,
      3,
      1,
      1,
      18,
      57,
      75,
      60,
      15,
      1,
      1,
      75,
      60,
      1,
      74,
      60,
      49,
      39,
      13,
      52
    ],
    "forced": [
      false,
      false,
      false,
      false,
      false,
      false,
      false,
      false,
      false,
      false,
      false,
      false,
      false,
      false,
      false,
      false,
      false,
      false,
      false,
      false,
      false,
      false,
      false,
      false,
      false,
      false,
      false,
      false,
      false,
      false,
      false,
      false,
      false,
      false,
      false,
      false,
      false,
      false,
      false,
      false,
      false,
      false,
      false,
      false,
      false,
      false,
      false,
      false,
      false,
      false,
      false,
      false,
      false,
      false,
      false,
      false,
      false,
      false,
      false,
      false,
      false,
      false,
      false,
      false,
      false,
      false,
      false,
      false,
      false,
      false,
      false,
      false,
      false,
      false,
      false,
      false,
      false,
      false,
      false,
      false,
      false,
      false,
      false,
      false,
      false,
      false,
      false,
      false,
      false,
      false
    ]
  }
}