{
  "parameters": {
    "integral_band": 0,
    "dead_band": 1,
    "small_gain": 100.0,
    "large_gain": 150.0,
    "valves_min": 1,
    "valves_max": 75,
    "matrix_minor": 0,
    "matrix_major": 90,
    "profiles_for_regulation": 10,
    "phase_shift_misDx_haulDx": 2,
    "phase_shift_misDx_haulSx": 6,
    "phase_shift_misSx_haulDx": 2,
    "phase_shift_misSx_haulSx": 6,
    "disturbation_type": 0,
    "disturbation_amount": 0.0,
    "disturbation_amplitude": 1.0,
    "disturbation_cycles": 1,
    "disturbation_frequency": 1
  },
  "production": {
    "line_speed": 30.0,
    "layflat": 30.0,
    "thickness": 30.0
  },
  "status": {
    "application": {
      "measurer_active": true,
      "actuation_active": true
    },
    "measurer": {
      "direction": 1
    },
    "hauloff": {
      "direction": false,
      "position": 5,
      "speed": 40,
      "last_period": 0
    }
  },
  "stats": {
    "min_thickness": 28.15956967786689,
    "max_thickness": 32.69401613708,
    "mean_thickness": 29.999999999999986,
    "sigma_perc": 5.306638423718693,
    "sigma_abs": 1.5919915271156087,
    "stdDev": 0.7959957635578043
  },
  "rawProfile": [
    22.4,
    22.4,
    22.4,
    22.1,
    22.0,
    22.1,
    21.5,
    21.1,
    21.8,
    22.3,
    22.1,
    21.4,
    22.1,
    22.6,
    22.6,
    22.2,
    22.5,
    22.9,
    22.9,
    22.2,
    21.9,
    21.7,
    21.7,
    21.5,
    21.9,
    22.7,
    23.3,
    23.0,
    22.8,
    23.2,
    23.3,
    22.6,
    21.8,
    22.3,
    23.3,
    22.8,
    22.3,
    22.2,
    22.7,
    23.0,
    22.8,
    22.7,
    23.2,
    23.1,
    22.5,
    22.1,
    22.7,
    23.1,
    23.2,
    22.8,
    22.6,
    22.7,
    23.0,
    22.8,
    22.5,
    22.9,
    22.7,
    22.4,
    22.5,
    22.6,
    22.4,
    22.4,
    22.4,
    22.3,
    22.2,
    22.3,
    22.6,
    22.8,
    22.9,
    22.8,
    22.8,
    22.7,
    22.7,
    23.0,
    23.1,
    22.5,
    22.4,
    22.5,
    22.7,
    22.6,
    22.7,
    23.1,
    23.4,
    23.2,
    22.7,
    22.3,
    22.4,
    22.6,
    22.9,
    23.1,
    23.4,
    23.2,
    22.7,
    22.9,
    23.4,
    23.6,
    23.4,
    23.3,
    23.6,
    23.6,
    23.1,
    23.0,
    23.4,
    23.3,
    23.3,
    23.1,
    23.2,
    23.1,
    22.9,
    22.8,
    22.8,
    23.0,
    23.2,
    23.1,
    23.7,
    23.7,
    23.3,
    22.7,
    22.4,
    23.1,
    23.6,
    23.6,
    23.5,
    23.1,
    23.2,
    23.4,
    22.7,
    22.0,
    22.1,
    22.5,
    23.0,
    23.2,
    23.4,
    23.9,
    23.7,
    23.2,
    23.2,
    22.7,
    22.3,
    22.1,
    21.7,
    21.8,
    22.0,
    22.2,
    22.5,
    22.7,
    23.0,
    23.0,
    23.2,
    23.4,
    23.5,
    23.4,
    23.1,
    22.7,
    22.6,
    22.5,
    22.2,
    22.5,
    22.8,
    23.3,
    23.1,
    23.0,
    23.5,
    23.6,
    22.9,
    22.8,
    23.1,
    23.5,
    23.2,
    22.7,
    22.8,
    23.0,
    23.0,
    22.9,
    22.7,
    22.9,
    23.1,
    22.8,
    22.3,
    22.5,
    22.4,
    22.8,
    23.1,
    23.6,
    23.3,
    22.6,
    22.7,
    22.9,
    22.8,
    22.9,
    23.0,
    23.0,
    22.5,
    22.5,
    23.0,
    23.2,
    22.7,
    22.8,
    22.9,
    23.1,
    23.7,
    23.6,
    23.2,
    22.5,
    21.9,
    22.2,
    22.1,
    22.4,
    23.2,
    23.2,
    22.2,
    22.0,
    22.3,
    22.2,
    22.2,
    22.5,
    22.6,
    22.6,
    22.2,
    22.7,
    23.3,
    23.0,
    22.6,
    22.5,
    22.8,
    22.3,
    22.4,
    22.6,
    22.4,
    22.1,
    22.2,
    22.2,
    22.5,
    22.6,
    22.7,
    22.7,
    22.4,
    22.1,
    21.4,
    21.4,
    21.3,
    21.5,
    22.0,
    22.7,
    23.2,
    22.9,
    22.6,
    22.9,
    23.2,
    23.3,
    23.5,
    23.3,
    23.5,
    24.1,
    23.9,
    23.7,
    23.8,
    23.8,
    23.9,
    24.1,
    24.1,
    23.8,
    23.6,
    23.6,
    23.7,
    23.4,
    23.5,
    23.5,
    23.6,
    23.4,
    23.4,
    23.1,
    23.0,
    23.3,
    23.7,
    23.7,
    23.6,
    23.8,
    23.8,
    23.5,
    23.6,
    23.2,
    23.0,
    22.9,
    23.1,
    23.3,
    23.4,
    23.6,
    24.1,
    24.8,
    25.3,
    25.3,
    25.1,
    24.7,
    24.4,
    24.0,
    23.8,
    24.1,
    24.0,
    23.5,
    23.0,
    22.1,
    21.3,
    21.3,
    21.5,
    21.5,
    21.2,
    21.5,
    22.2,
    22.3,
    22.1,
    22.6,
    22.7,
    22.6,
    22.9,
    23.8,
    24.4,
    24.2,
    23.7,
    23.3,
    23.0,
    23.0,
    22.3,
    21.5,
    21.5,
    22.0,
    21.9,
    21.5,
    21.8,
    22.6,
    22.9,
    23.4,
    23.3,
    23.3,
    22.8,
    22.3,
    21.7,
    21.9,
    22.3,
    22.0,
    21.6,
    22.4,
    23.1,
    22.9,
    22.2,
    21.8,
    22.0,
    22.4,
    22.4,
    22.6,
    23.6,
    23.4,
    22.7,
    22.6,
    22.6,
    22.9,
    23.0,
    22.8,
    21.7,
    22.0
  ],
  "zonesProfile": [
    29.342468754183347,
    28.48815275462146,
    28.78387752370058,
    29.408185369534273,
    29.736768446288842,
    28.52101106229692,
    29.868201676990665,
    30.196784753745245,
    29.63819352326247,
    29.63819352326247,
    30.163926446069787,
    29.703910138613384,
    29.9996349076925,
    29.966776600017038,
    29.638193523262466,
    29.408185369534262,
    29.539618600236093,
    29.96677660001704,
    29.999634907692503,
    29.638193523262466,
    30.361076292122526,
    29.572476907911554,
    30.426792907473445,
    30.42679290747344,
    30.85395090725439,
    30.492509522824356,
    30.459651215148906,
    30.065351523043415,
    30.788234291903475,
    30.065351523043415,
    30.821092599578936,
    29.9996349076925,
    29.83534336931521,
    30.95252583028076,
    29.67105183093793,
    28.816735831376036,
    29.96677660001704,
    30.72251767655256,
    29.868201676990672,
    29.83534336931521,
    30.623942753526183,
    30.328217984447075,
    30.13106813839433,
    30.065351523043415,
    29.802485061639757,
    30.196784753745245,
    30.065351523043415,
    30.13106813839433,
    29.96677660001704,
    30.065351523043415,
    30.55822613817527,
    29.11246060045515,
    29.769626753964296,
    29.309610446507897,
    29.605335215587015,
    30.032493215367957,
    29.605335215587008,
    29.211035523481527,
    29.736768446288842,
    28.685302600674213,
    28.75101921602512,
    30.09820983071887,
    30.656801061201644,
    31.281108907035335,
    31.41254213773716,
    31.248250599359874,
    30.9196675226053,
    30.72251767655256,
    30.788234291903475,
    31.116817368658047,
    30.459651215148895,
    30.689659368877102,
    32.69401613708,
    32.266858137299046,
    31.34682552238625,
    28.816735831376036,
    28.15956967786689,
    29.309610446507893,
    30.229643061420695,
    31.41254213773716,
    29.50676029256064,
    28.55386936997238,
    29.80248506163976,
    30.13106813839433,
    28.882452446726948,
    29.572476907911554,
    29.04674398510424,
    30.2296430614207,
    29.835343369315215,
    29.408185369534266
  ],
  "actuators": {
    "values": [
      75,
      75,
      75,
      62,
      63,
      75,
      71,
      43,
      75,
      75,
      64,
      75,
      52,
      39,
      38,
      67,
      75,
      46,
      40,
      67,
      58,
      60,
      56,
      62,
      1,
      1,
      1,
      30,
      25,
      19,
      3,
      1,
      23,
      1,
      9,
      71,
      32,
      1,
      1,
      27,
      1,
      1,
      11,
      7,
      11,
      8,
      6,
      6,
      24,
      25,
      1,
      34,
      42,
      50,
      22,
      4,
      22,
      32,
      27,
      55,
      68,
      8,
      1,
      1,
      1,
      1,
      1,
      1,
      1,
      1,
      1,
      1,
      1,
      9,
      42,
      75,
      74,
      42,
      8,
      1,
      5,
      75,
      48,
      1,
      70,
      53,
      46,
      35,
      15,
      49
    ],
    "forced": [
      false,
      false,
      false,
      false,
      false,
      false,
      false,
      false,
      false,
      false,
      false,
      false,
      false,
      false,
      false,
      false,
      false,
      false,
      false,
      false,
      false,
      false,
      false,
      false,
      false,
      false,
      false,
      false,
      false,
      false,
      false,
      false,
      false,
      false,
      false,
      false,
      false,
      false,
      false,
      false,
      false,
      false,
      false,
      false,
      false,
      false,
      false,
      false,
      false,
      false,
      false,
      false,
      false,
      false,
      false,
      false,
      false,
      false,
      false,
      false,
      false,
      false,
      false,
      false,
      false,
      false,
      false,
      false,
      false,
      false,
      false,
      false,
      false,
      false,
      false,
      false,
      false,
      false,
      false,
      false,
      false,
      false,
      false,
      false,
      false,
      false,
      false,
      false,
      false,
      false
    ]
  }
}