{
  "parameters": {
    "integral_band": 0,
    "dead_band": 1,
    "small_gain": 100.0,
    "large_gain": 150.0,
    "valves_min": 1,
    "valves_max": 75,
    "matrix_minor": 0,
    "matrix_major": 90,
    "profiles_for_regulation": 10,
    "phase_shift_misDx_haulDx": 2,
    "phase_shift_misDx_haulSx": 6,
    "phase_shift_misSx_haulDx": 2,
    "phase_shift_misSx_haulSx": 6,
    "disturbation_type": 0,
    "disturbation_amount": 0.0,
    "disturbation_amplitude": 1.0,
    "disturbation_cycles": 1,
    "disturbation_frequency": 1
  },
  "production": {
    "line_speed": 30.0,
    "layflat": 30.0,
    "thickness": 30.0
  },
  "status": {
    "application": {
      "measurer_active": true,
      "actuation_active": true
    },
    "measurer": {
      "direction": 1
    },
    "hauloff": {
      "direction": false,
      "position": 5,
      "speed": 40,
      "last_period": 0
    }
  },
  "stats": {
    "min_thickness": 28.018346635848154,
    "max_thickness": 32.24385134891111,
    "mean_thickness": 29.999999999999996,
    "sigma_perc": 5.573718224657564,
    "sigma_abs": 1.6721154673972691,
    "stdDev": 0.8360577336986346
  },
  "rawProfile": [
    23.0,
    22.8,
    23.0,
    23.3,
    23.1,
    22.5,
    22.3,
    22.3,
    22.1,
    21.8,
    21.9,
    22.4,
    22.5,
    22.2,
    22.2,
    22.5,
    22.7,
    22.5,
    22.2,
    22.9,
    23.2,
    23.0,
    22.5,
    22.5,
    22.5,
    22.0,
    21.7,
    21.9,
    22.7,
    23.4,
    23.2,
    22.3,
    22.6,
    22.8,
    22.8,
    22.1,
    22.6,
    23.0,
    22.5,
    22.3,
    22.2,
    22.3,
    22.9,
    23.2,
    23.0,
    22.9,
    22.7,
    21.9,
    22.0,
    22.6,
    23.5,
    23.9,
    23.3,
    23.3,
    23.6,
    23.6,
    23.2,
    22.9,
    23.1,
    23.2,
    23.6,
    23.2,
    22.9,
    22.8,
    22.3,
    22.1,
    22.3,
    22.6,
    22.5,
    22.3,
    22.5,
    22.9,
    22.9,
    23.1,
    22.8,
    22.9,
    23.2,
    23.5,
    22.7,
    22.3,
    22.6,
    22.6,
    22.4,
    22.0,
    22.4,
    22.9,
    22.7,
    21.9,
    22.0,
    22.3,
    22.7,
    22.7,
    22.6,
    23.0,
    22.8,
    22.5,
    23.1,
    23.7,
    23.7,
    23.4,
    23.2,
    23.6,
    23.9,
    23.6,
    23.4,
    23.7,
    23.8,
    23.7,
    23.7,
    23.8,
    23.3,
    22.7,
    22.7,
    23.0,
    23.3,
    23.4,
    23.5,
    23.7,
    23.8,
    23.5,
    22.7,
    22.4,
    23.2,
    24.0,
    23.9,
    23.6,
    23.4,
    23.6,
    23.6,
    23.2,
    22.6,
    22.4,
    22.5,
    22.7,
    23.1,
    23.7,
    24.2,
    24.1,
    23.5,
    23.2,
    22.8,
    22.8,
    22.7,
    22.3,
    22.5,
    22.6,
    22.6,
    22.6,
    23.2,
    23.8,
    23.8,
    23.8,
    23.2,
    23.5,
    24.0,
    23.8,
    23.4,
    23.4,
    23.3,
    23.0,
    22.8,
    22.7,
    23.0,
    23.4,
    23.6,
    24.0,
    23.8,
    23.2,
    23.1,
    23.6,
    23.8,
    23.5,
    22.9,
    22.9,
    23.2,
    23.3,
    23.0,
    23.2,
    23.6,
    23.3,
    22.6,
    22.6,
    22.6,
    22.8,
    23.0,
    23.5,
    23.8,
    23.3,
    22.6,
    23.0,
    23.2,
    22.7,
    23.0,
    23.2,
    23.2,
    22.7,
    22.5,
    22.7,
    22.8,
    22.5,
    22.7,
    22.9,
    22.9,
    23.1,
    23.5,
    23.4,
    22.9,
    22.5,
    22.6,
    22.3,
    22.7,
    23.2,
    23.6,
    23.2,
    22.8,
    22.7,
    22.5,
    22.4,
    22.6,
    23.0,
    23.3,
    23.2,
    23.1,
    23.6,
    23.6,
    23.3,
    22.8,
    22.8,
    22.4,
    22.4,
    22.7,
    23.1,
    22.6,
    22.3,
    22.2,
    22.9,
    23.0,
    22.9,
    23.4,
    23.2,
    22.7,
    22.4,
    22.7,
    22.7,
    22.6,
    22.9,
    23.2,
    23.2,
    23.5,
    23.7,
    23.8,
    23.6,
    23.6,
    23.9,
    24.0,
    24.1,
    24.5,
    24.4,
    24.4,
    24.5,
    24.5,
    24.3,
    24.4,
    24.3,
    23.9,
    23.7,
    23.7,
    23.9,
    24.0,
    24.1,
    24.0,
    24.0,
    23.9,
    23.6,
    23.6,
    24.1,
    24.1,
    24.0,
    23.8,
    24.0,
    24.3,
    24.6,
    24.4,
    23.9,
    23.6,
    23.7,
    24.1,
    24.6,
    25.0,
    25.1,
    24.4,
    24.7,
    24.9,
    24.9,
    24.4,
    23.9,
    24.1,
    23.9,
    23.4,
    22.7,
    22.3,
    21.6,
    21.3,
    21.4,
    21.7,
    21.6,
    21.4,
    21.5,
    21.6,
    21.8,
    21.8,
    22.1,
    22.4,
    22.3,
    22.2,
    22.7,
    22.7,
    23.1,
    23.8,
    24.3,
    24.5,
    24.3,
    23.7,
    23.3,
    22.9,
    22.5,
    22.0,
    22.0,
    22.7,
    22.4,
    21.9,
    22.3,
    22.7,
    23.2,
    23.7,
    24.3,
    23.8,
    22.8,
    22.2,
    21.5,
    21.7,
    22.1,
    22.4,
    22.1,
    22.6,
    23.4,
    23.7,
    23.2,
    22.4,
    22.7,
    23.1,
    22.9,
    23.2,
    23.9,
    24.1,
    23.7,
    23.3,
    23.6,
    23.2,
    23.2
  ],
  "zonesProfile": [
    29.93607569793057,
    29.318501932175216,
    28.668424284011692,
    29.05847087290981,
    29.3510058145834,
    29.643540756256982,
    28.635920401603506,
    29.773556285889686,
    29.3510058145834,
    29.383509696991567,
    29.448517461807924,
    29.416013579399745,
    29.903571815522394,
    30.488641698869575,
    30.033587345155098,
    30.066091227563273,
    29.025966990501633,
    29.318501932175213,
    29.80606016829786,
    29.806060168297865,
    29.123478637726155,
    29.220990284950688,
    29.155982520134334,
    29.546029109032453,
    30.52114558127775,
    30.651161110910447,
    30.748672758134983,
    30.391130051645042,
    30.0335873451551,
    30.716168875726808,
    30.001083462746923,
    30.716168875726808,
    29.838564050706044,
    29.903571815522398,
    30.87868828776769,
    29.44851746180792,
    29.3510058145834,
    30.748672758134983,
    30.716168875726808,
    30.261114522012335,
    29.87106793311422,
    30.748672758134987,
    30.553649463685925,
    30.001083462746923,
    30.26111452201234,
    29.448517461807924,
    30.423633934053218,
    29.74105240348151,
    29.936075697930573,
    29.416013579399745,
    29.773556285889686,
    30.001083462746923,
    29.513525226624278,
    30.001083462746923,
    29.416013579399745,
    30.29361840442051,
    30.066091227563277,
    29.44851746180792,
    29.253494167358863,
    30.066091227563277,
    29.416013579399745,
    29.87106793311422,
    30.748672758134983,
    31.073711582216745,
    31.78879699519663,
    31.691285347972098,
    30.943696052584038,
    31.236230994257628,
    30.943696052584038,
    31.17122322944128,
    31.59377370074758,
    31.203727111849453,
    32.24385134891111,
    31.88630864242116,
    30.586153346094104,
    28.14836216548086,
    28.018346635848154,
    28.375889342338102,
    29.123478637726162,
    30.521145581277747,
    31.1387193470331,
    29.05847087290981,
    29.025966990501626,
    30.521145581277747,
    29.35100581458339,
    28.700928166419857,
    30.196106757195984,
    29.611036873848803,
    30.84618440535951,
    30.326122286828692
  ],
  "actuators": {
    "values": [
      71,
      75,
      74,
      52,
      58,
      75,
      56,
      44,
      71,
      74,
      61,
      73,
      52,
      43,
      37,
      63,
      68,
      43,
      40,
      59,
      49,
      52,
      47,
      53,
      3,
      1,
      1,
      27,
      25,
      21,
      4,
      1,
      17,
      1,
      13,
      57,
      26,
      1,
      4,
      26,
      3,
      5,
      15,
      10,
      13,
      11,
      10,
      10,
      23,
      19,
      2,
      31,
      38,
      40,
      19,
      5,
      18,
      25,
      21,
      43,
      48,
      5,
      1,
      1,
      1,
      1,
      1,
      1,
      1,
      1,
      1,
      1,
      11,
      50,
      64,
      60,
      34,
      20,
      5,
      1,
      1,
      51,
      35,
      1,
      54,
      40,
      41,
      31,
      23,
      49
    ],
    "forced": [
      false,
      false,
      false,
      false,
      false,
      false,
      false,
      false,
      false,
      false,
      false,
      false,
      false,
      false,
      false,
      false,
      false,
      false,
      false,
      false,
      false,
      false,
      false,
      false,
      false,
      false,
      false,
      false,
      false,
      false,
      false,
      false,
      false,
      false,
      false,
      false,
      false,
      false,
      false,
      false,
      false,
      false,
      false,
      false,
      false,
      false,
      false,
      false,
      false,
      false,
      false,
      false,
      false,
      false,
      false,
      false,
      false,
      false,
      false,
      false,
      false,
      false,
      false,
      false,
      false,
      false,
      false,
      false,
      false,
      false,
      false,
      false,
      false,
      false,
      false,
      false,
      false,
      false,
      false,
      false,
      false,
      false,
      false,
      false,
      false,
      false,
      false,
      false,
      false,
      false
    ]
  }
}