{
  "parameters": {
    "integral_band": 0,
    "dead_band": 1,
    "small_gain": 100.0,
    "large_gain": 150.0,
    "valves_min": 1,
    "valves_max": 75,
    "matrix_minor": 0,
    "matrix_major": 90,
    "profiles_for_regulation": 10,
    "phase_shift_misDx_haulDx": 2,
    "phase_shift_misDx_haulSx": 6,
    "phase_shift_misSx_haulDx": 2,
    "phase_shift_misSx_haulSx": 6,
    "disturbation_type": 0,
    "disturbation_amount": 0.0,
    "disturbation_amplitude": 1.0,
    "disturbation_cycles": 1,
    "disturbation_frequency": 1
  },
  "production": {
    "line_speed": 30.0,
    "layflat": 30.0,
    "thickness": 30.0
  },
  "status": {
    "application": {
      "measurer_active": true,
      "actuation_active": true
    },
    "measurer": {
      "direction": 1
    },
    "hauloff": {
      "direction": false,
      "position": 5,
      "speed": 40,
      "last_period": 0
    }
  },
  "stats": {
    "min_thickness": 28.32863929214664,
    "max_thickness": 32.3755877624533,
    "mean_thickness": 29.99999999999999,
    "sigma_perc": 4.600398132659922,
    "sigma_abs": 1.380119439797977,
    "stdDev": 0.6900597198989885
  },
  "rawProfile": [
    22.6,
    23.1,
    23.3,
    23.2,
    22.8,
    22.8,
    22.7,
    22.5,
    22.2,
    22.0,
    22.2,
    22.5,
    22.9,
    22.4,
    22.5,
    22.7,
    22.6,
    22.2,
    22.7,
    23.3,
    23.3,
    22.7,
    22.4,
    22.7,
    22.6,
    22.5,
    22.3,
    22.6,
    22.7,
    23.3,
    23.3,
    23.0,
    22.9,
    22.6,
    22.6,
    22.4,
    22.6,
    22.5,
    22.0,
    21.8,
    22.0,
    22.5,
    22.8,
    23.2,
    23.0,
    23.2,
    22.6,
    22.3,
    22.3,
    22.7,
    23.1,
    23.4,
    22.9,
    22.7,
    22.9,
    22.9,
    22.9,
    22.5,
    22.8,
    23.0,
    23.1,
    22.8,
    22.8,
    22.7,
    22.3,
    22.2,
    22.5,
    22.8,
    23.0,
    23.1,
    23.0,
    23.4,
    23.4,
    23.6,
    23.0,
    22.8,
    23.2,
    23.3,
    22.6,
    22.3,
    22.6,
    23.2,
    23.1,
    23.0,
    23.2,
    23.4,
    23.3,
    22.9,
    23.0,
    23.0,
    22.9,
    22.8,
    22.6,
    22.7,
    22.5,
    22.6,
    22.9,
    23.4,
    23.3,
    23.2,
    23.2,
    23.4,
    23.3,
    23.3,
    23.1,
    23.3,
    23.2,
    23.6,
    23.6,
    23.3,
    23.0,
    22.4,
    22.3,
    22.6,
    22.6,
    22.6,
    23.1,
    23.6,
    23.7,
    22.9,
    22.1,
    22.1,
    23.2,
    24.1,
    24.1,
    23.9,
    23.5,
    23.5,
    23.2,
    22.9,
    22.5,
    22.2,
    22.5,
    23.0,
    23.3,
    23.5,
    23.8,
    23.7,
    23.3,
    22.7,
    22.5,
    22.3,
    22.4,
    22.3,
    22.8,
    22.7,
    22.7,
    23.2,
    23.4,
    23.3,
    23.4,
    23.2,
    23.1,
    23.2,
    23.4,
    23.3,
    23.0,
    23.0,
    23.2,
    22.9,
    23.0,
    23.2,
    23.2,
    23.4,
    23.4,
    23.9,
    23.7,
    22.9,
    22.7,
    23.1,
    23.3,
    23.3,
    23.0,
    22.9,
    23.1,
    23.3,
    23.3,
    23.1,
    23.2,
    23.4,
    23.0,
    22.7,
    22.9,
    22.9,
    22.9,
    23.1,
    23.3,
    23.3,
    22.6,
    22.5,
    22.9,
    22.7,
    22.8,
    23.4,
    23.1,
    22.6,
    22.3,
    22.5,
    22.7,
    22.7,
    22.5,
    22.5,
    22.8,
    23.5,
    23.5,
    23.2,
    22.8,
    22.3,
    22.4,
    22.6,
    22.6,
    22.7,
    22.8,
    22.6,
    22.5,
    22.3,
    22.3,
    22.1,
    22.2,
    22.3,
    22.7,
    22.8,
    22.9,
    22.9,
    22.8,
    22.8,
    22.6,
    22.4,
    22.4,
    22.8,
    23.1,
    23.1,
    22.5,
    22.4,
    22.5,
    22.8,
    22.9,
    23.3,
    23.6,
    23.7,
    23.3,
    22.8,
    22.3,
    21.7,
    21.6,
    22.2,
    22.7,
    23.2,
    23.2,
    23.1,
    23.1,
    23.4,
    23.4,
    23.2,
    23.0,
    23.2,
    23.7,
    23.6,
    23.9,
    24.0,
    24.0,
    23.7,
    23.9,
    23.8,
    23.4,
    23.2,
    23.3,
    23.4,
    23.6,
    23.9,
    23.9,
    23.8,
    23.7,
    23.5,
    23.4,
    23.5,
    23.7,
    23.5,
    23.9,
    23.5,
    23.6,
    24.0,
    23.9,
    23.5,
    23.1,
    22.7,
    22.4,
    22.5,
    22.6,
    23.1,
    23.4,
    23.9,
    24.5,
    24.8,
    25.0,
    24.9,
    24.6,
    24.1,
    24.1,
    24.3,
    24.9,
    25.1,
    24.6,
    23.9,
    23.1,
    22.2,
    21.8,
    21.9,
    22.0,
    22.0,
    22.0,
    22.0,
    21.8,
    21.5,
    22.1,
    22.7,
    22.9,
    23.4,
    24.0,
    24.5,
    24.4,
    24.0,
    23.6,
    23.5,
    23.4,
    22.9,
    22.1,
    21.9,
    22.2,
    21.8,
    21.3,
    21.5,
    22.3,
    22.9,
    23.3,
    23.9,
    24.0,
    23.2,
    22.5,
    21.9,
    21.7,
    22.2,
    22.8,
    22.7,
    22.6,
    23.2,
    23.6,
    23.0,
    22.1,
    22.2,
    22.5,
    22.8,
    22.4,
    23.0,
    23.7,
    23.2,
    22.7,
    23.1,
    23.0,
    22.7
  ],
  "zonesProfile": [
    30.09102007760277,
    29.63410654063266,
    29.014009597601806,
    29.53619649699621,
    29.63410654063266,
    29.732016584269118,
    29.37301309093546,
    30.123656758814917,
    29.53619649699621,
    29.0140095976018,
    29.53619649699621,
    29.732016584269118,
    29.862563309117714,
    29.829926627905568,
    29.764653265481265,
    29.829926627905568,
    29.307739728511155,
    30.18893012123922,
    30.28684016487567,
    29.82992662790556,
    29.99311003396632,
    30.286840164875667,
    29.927836671542018,
    29.50355981578406,
    30.28684016487567,
    30.41738688972427,
    30.41738688972428,
    30.123656758814924,
    29.40564977214761,
    30.450023570936427,
    29.862563309117714,
    31.004847151542982,
    29.63410654063266,
    30.123656758814917,
    30.515296933360727,
    29.209829684874702,
    29.829926627905568,
    30.450023570936423,
    30.35211352729997,
    30.058383396390617,
    30.286840164875677,
    30.64584365820933,
    30.156293440027067,
    30.123656758814917,
    30.352113527299974,
    29.862563309117714,
    30.22156680245137,
    29.60146985942051,
    29.99311003396632,
    29.43828645335976,
    29.797289946693414,
    29.960473352754168,
    29.47092313457191,
    29.43828645335976,
    29.014009597601806,
    29.797289946693418,
    29.568833178208358,
    29.829926627905568,
    29.43828645335976,
    30.51529693336073,
    29.405649772147612,
    29.27510304729901,
    30.286840164875677,
    30.28684016487567,
    31.070120513967282,
    31.135393876391582,
    30.45002357093642,
    31.070120513967286,
    30.711117020633626,
    30.87430042669438,
    31.004847151542982,
    29.601469859420508,
    30.352113527299974,
    32.3755877624533,
    31.69021745699815,
    32.147130993968254,
    29.046646278813952,
    28.720279466692446,
    28.7529161479046,
    30.939573789118683,
    31.168030557603736,
    29.470923134571912,
    28.32863929214664,
    30.15629344002707,
    29.895199990329864,
    29.177193003662556,
    30.15629344002707,
    29.242466366086855,
    30.123656758814917,
    29.862563309117714
  ],
  "actuators": {
    "values": [
      75,
      75,
      75,
      67,
      63,
      75,
      71,
      45,
      75,
      75,
      65,
      75,
      52,
      39,
      39,
      72,
      75,
      45,
      42,
      70,
      57,
      62,
      54,
      60,
      1,
      1,
      1,
      34,
      25,
      21,
      1,
      1,
      26,
      1,
      12,
      75,
      34,
      1,
      1,
      28,
      1,
      1,
      12,
      7,
      12,
      8,
      6,
      6,
      24,
      25,
      1,
      36,
      44,
      53,
      23,
      4,
      25,
      35,
      28,
      61,
      75,
      9,
      1,
      1,
      1,
      1,
      1,
      1,
      1,
      1,
      1,
      1,
      1,
      1,
      27,
      70,
      75,
      53,
      10,
      1,
      1,
      75,
      51,
      1,
      74,
      55,
      49,
      34,
      13,
      51
    ],
    "forced": [
      false,
      false,
      false,
      false,
      false,
      false,
      false,
      false,
      false,
      false,
      false,
      false,
      false,
      false,
      false,
      false,
      false,
      false,
      false,
      false,
      false,
      false,
      false,
      false,
      false,
      false,
      false,
      false,
      false,
      false,
      false,
      false,
      false,
      false,
      false,
      false,
      false,
      false,
      false,
      false,
      false,
      false,
      false,
      false,
      false,
      false,
      false,
      false,
      false,
      false,
      false,
      false,
      false,
      false,
      false,
      false,
      false,
      false,
      false,
      false,
      false,
      false,
      false,
      false,
      false,
      false,
      false,
      false,
      false,
      false,
      false,
      false,
      false,
      false,
      false,
      false,
      false,
      false,
      false,
      false,
      false,
      false,
      false,
      false,
      false,
      false,
      false,
      false,
      false,
      false
    ]
  }
}