{
  "parameters": {
    "integral_band": 0,
    "dead_band": 1,
    "small_gain": 100.0,
    "large_gain": 150.0,
    "valves_min": 1,
    "valves_max": 75,
    "matrix_minor": 75,
    "matrix_major": 90,
    "profiles_for_regulation": 10,
    "phase_shift_misDx_haulDx": 2,
    "phase_shift_misDx_haulSx": 6,
    "phase_shift_misSx_haulDx": 2,
    "phase_shift_misSx_haulSx": 6,
    "disturbation_type": 0,
    "disturbation_amount": 0.0,
    "disturbation_amplitude": 1.0,
    "disturbation_cycles": 1,
    "disturbation_frequency": 1
  },
  "production": {
    "line_speed": 30.0,
    "layflat": 30.0,
    "thickness": 30.0
  },
  "status": {
    "application": {
      "measurer_active": true,
      "actuation_active": true
    },
    "measurer": {
      "direction": 1
    },
    "hauloff": {
      "direction": false,
      "position": 63,
      "speed": 40,
      "last_period": 1360
    }
  },
  "stats": {
    "min_thickness": 26.781546600280063,
    "max_thickness": 33.13559981328768,
    "mean_thickness": 29.99999999999998,
    "sigma_perc": 6.187760653801865,
    "sigma_abs": 1.8563281961405595,
    "stdDev": 0.9281640980702798
  },
  "rawProfile": [
    14.3,
    14.0,
    13.7,
    13.8,
    13.9,
    14.1,
    13.9,
    13.9,
    14.1,
    13.8,
    13.5,
    13.7,
    14.3,
    14.0,
    13.6,
    14.1,
    14.5,
    14.4,
    14.1,
    14.0,
    14.0,
    14.1,
    13.9,
    13.9,
    13.8,
    14.2,
    14.2,
    14.1,
    14.1,
    13.9,
    13.9,
    13.6,
    13.6,
    14.1,
    14.0,
    13.8,
    14.0,
    14.3,
    14.1,
    13.9,
    13.8,
    14.0,
    13.8,
    13.5,
    13.5,
    13.6,
    13.8,
    13.9,
    13.9,
    14.1,
    14.1,
    14.1,
    14.0,
    13.9,
    13.7,
    13.8,
    14.2,
    14.4,
    14.8,
    14.7,
    14.4,
    14.2,
    14.3,
    14.4,
    14.3,
    14.1,
    14.0,
    14.4,
    14.5,
    14.2,
    14.0,
    13.9,
    14.1,
    14.5,
    14.3,
    13.8,
    14.1,
    14.4,
    14.4,
    14.2,
    14.3,
    14.6,
    14.5,
    14.2,
    14.1,
    14.5,
    14.5,
    14.1,
    13.9,
    13.9,
    13.7,
    13.6,
    13.7,
    14.2,
    14.4,
    14.0,
    13.9,
    13.8,
    14.0,
    14.0,
    14.3,
    14.4,
    14.4,
    14.5,
    14.5,
    14.3,
    14.1,
    14.0,
    14.0,
    14.3,
    14.1,
    14.0,
    14.2,
    14.5,
    14.5,
    14.1,
    13.7,
    13.7,
    14.6,
    15.0,
    14.8,
    14.4,
    14.1,
    14.0,
    14.1,
    14.3,
    14.6,
    14.4,
    14.3,
    14.5,
    14.9,
    14.7,
    14.8,
    14.9,
    14.6,
    14.1,
    14.0,
    13.8,
    14.0,
    14.0,
    13.8,
    14.0,
    14.1,
    14.1,
    14.1,
    14.3,
    14.4,
    14.4,
    14.4,
    14.5,
    14.3,
    14.2,
    14.1,
    14.1,
    14.0,
    14.0,
    14.1,
    14.2,
    14.2,
    14.5,
    14.3,
    14.1,
    14.1,
    13.9,
    13.9,
    14.1,
    14.2,
    14.3,
    14.1,
    14.2,
    14.1,
    14.2,
    14.2,
    13.7,
    13.4,
    13.6,
    13.7,
    13.7,
    13.7,
    14.0,
    14.1,
    14.1,
    14.1,
    14.1,
    14.1,
    14.1,
    14.1,
    13.8,
    13.9,
    14.1,
    14.5,
    14.7,
    14.1,
    13.8,
    13.8,
    14.1,
    14.0,
    13.4,
    13.5,
    14.1,
    14.4,
    14.5,
    14.1,
    13.7,
    14.1,
    14.5,
    14.8,
    14.6,
    14.7,
    14.6,
    14.5,
    14.3,
    14.6,
    14.5,
    14.1,
    13.9,
    14.2,
    14.2,
    14.1,
    14.3,
    14.5,
    14.4,
    14.4,
    14.4,
    14.4,
    14.2,
    14.3,
    14.3,
    14.5,
    14.3,
    13.9,
    14.4,
    14.6,
    14.4,
    14.5,
    14.7,
    14.6,
    14.5,
    14.5,
    14.4,
    14.2,
    14.2,
    14.2,
    14.2,
    14.4,
    14.3,
    14.0,
    14.0,
    14.0,
    14.2,
    14.4,
    14.4,
    14.4,
    14.6,
    14.7,
    14.6,
    14.8,
    14.7,
    14.9,
    14.9,
    14.6,
    14.8,
    14.8,
    14.7,
    14.5,
    14.7,
    14.7,
    14.7,
    14.7,
    14.6,
    14.6,
    14.5,
    14.5,
    14.5,
    14.6,
    14.7,
    14.8,
    14.8,
    14.9,
    14.8,
    14.8,
    15.1,
    15.1,
    15.1,
    15.6,
    15.9,
    15.9,
    15.7,
    15.6,
    15.3,
    15.9,
    16.1,
    15.8,
    14.7,
    13.8,
    13.2,
    12.8,
    12.7,
    12.7,
    12.8,
    12.8,
    13.0,
    13.6,
    13.9,
    14.2,
    14.5,
    14.8,
    15.3,
    15.8,
    15.2,
    14.5,
    14.2,
    14.5,
    14.9,
    14.8,
    14.7,
    14.8,
    14.8,
    15.0,
    15.0,
    14.7,
    14.7,
    14.6,
    14.3,
    14.7,
    15.2,
    14.9,
    14.3,
    14.2,
    14.1,
    14.2,
    14.6,
    15.0,
    15.4,
    15.5,
    14.8,
    14.1,
    14.4,
    14.5,
    14.4,
    14.3,
    14.4,
    14.3,
    13.8,
    13.2,
    13.2,
    13.4,
    13.6,
    14.1,
    15.1,
    15.7,
    15.4,
    14.5,
    14.4,
    14.6,
    14.6,
    14.6,
    14.6,
    14.1,
    14.2
  ],
  "zonesProfile": [
    29.302162750894656,
    29.302162750894656,
    28.934572895596695,
    29.407188423836935,
    29.932316788548306,
    29.354675587365794,
    29.56472693325035,
    29.144624241481246,
    29.144624241481246,
    29.564726933250345,
    28.9345728955967,
    28.77703438618329,
    29.51221409677921,
    29.092111405010105,
    30.50995798973082,
    30.089855297961723,
    29.82729111560603,
    29.72226544266376,
    29.774778279134896,
    29.98482962501944,
    30.24739380737513,
    30.03734246149058,
    28.9345728955967,
    29.564726933250345,
    29.24964991442352,
    30.247393807375133,
    29.879803952077168,
    29.617239769721483,
    30.089855297961723,
    29.932316788548306,
    30.089855297961723,
    30.142368134432857,
    30.66749649914423,
    30.66749649914423,
    29.302162750894656,
    29.407188423836935,
    30.037342461490578,
    30.14236813443286,
    29.51221409677921,
    29.932316788548306,
    29.617239769721483,
    29.66975260619262,
    29.722265442663755,
    28.829547222654423,
    28.934572895596695,
    29.617239769721483,
    29.45970126030807,
    30.03734246149058,
    29.30216275089466,
    28.88206005912556,
    29.774778279134896,
    30.457445153259684,
    30.509957989730815,
    29.984829625019444,
    29.82729111560603,
    30.299906643846267,
    30.03734246149058,
    29.984829625019444,
    30.562470826201956,
    30.45744515325968,
    29.82729111560603,
    29.774778279134896,
    29.932316788548306,
    30.614983662673094,
    31.140112027384465,
    30.93006068149992,
    30.772522172086504,
    30.667496499144228,
    30.61498366267309,
    31.140112027384465,
    31.560214719153567,
    33.13559981328768,
    33.030574140345415,
    30.194880970903995,
    26.781546600280063,
    27.98934183911622,
    30.87754784502878,
    31.35016337326902,
    30.93006068149992,
    31.297650536797878,
    30.61498366267309,
    31.03508635444219,
    29.984829625019444,
    31.87529173798039,
    30.142368134432857,
    29.82729111560603,
    28.04185467558736,
    31.66524039209584,
    30.509957989730818,
    30.194880970903995
  ],
  "actuators": {
    "values": [
      57,
      58,
      54,
      48,
      52,
      53,
      49,
      44,
      44,
      46,
      47,
      45,
      40,
      38,
      35,
      37,
      38,
      34,
      31,
      31,
      25,
      23,
      27,
      22,
      17,
      11,
      15,
      25,
      27,
      23,
      21,
      17,
      7,
      4,
      13,
      6,
      1,
      2,
      21,
      25,
      21,
      22,
      24,
      23,
      21,
      19,
      21,
      25,
      26,
      16,
      16,
      20,
      27,
      32,
      25,
      23,
      26,
      23,
      20,
      26,
      27,
      19,
      6,
      1,
      1,
      1,
      1,
      1,
      1,
      1,
      1,
      1,
      42,
      73,
      49,
      20,
      5,
      5,
      20,
      44,
      60,
      51,
      48,
      65,
      70,
      60,
      46,
      26,
      31,
      47
    ],
    "forced": [
      false,
      false,
      false,
      false,
      false,
      false,
      false,
      false,
      false,
      false,
      false,
      false,
      false,
      false,
      false,
      false,
      false,
      false,
      false,
      false,
      false,
      false,
      false,
      false,
      false,
      false,
      false,
      false,
      false,
      false,
      false,
      false,
      false,
      false,
      false,
      false,
      false,
      false,
      false,
      false,
      false,
      false,
      false,
      false,
      false,
      false,
      false,
      false,
      false,
      false,
      false,
      false,
      false,
      false,
      false,
      false,
      false,
      false,
      false,
      false,
      false,
      false,
      false,
      false,
      false,
      false,
      false,
      false,
      false,
      false,
      false,
      false,
      false,
      false,
      false,
      false,
      false,
      false,
      false,
      false,
      false,
      false,
      false,
      false,
      false,
      false,
      false,
      false,
      false,
      false
    ]
  }
}