{
  "parameters": {
    "integral_band": 0,
    "dead_band": 1,
    "small_gain": 100.0,
    "large_gain": 150.0,
    "valves_min": 1,
    "valves_max": 75,
    "matrix_minor": 75,
    "matrix_major": 90,
    "profiles_for_regulation": 10,
    "phase_shift_misDx_haulDx": 2,
    "phase_shift_misDx_haulSx": 6,
    "phase_shift_misSx_haulDx": 2,
    "phase_shift_misSx_haulSx": 6,
    "disturbation_type": 0,
    "disturbation_amount": 0.0,
    "disturbation_amplitude": 1.0,
    "disturbation_cycles": 1,
    "disturbation_frequency": 1
  },
  "production": {
    "line_speed": 30.0,
    "layflat": 30.0,
    "thickness": 30.0
  },
  "status": {
    "application": {
      "measurer_active": true,
      "actuation_active": true
    },
    "measurer": {
      "direction": 1
    },
    "hauloff": {
      "direction": false,
      "position": 5,
      "speed": 40,
      "last_period": 0
    }
  },
  "stats": {
    "min_thickness": 28.851407963280028,
    "max_thickness": 33.04797639430257,
    "mean_thickness": 29.999999999999996,
    "sigma_perc": 4.866008319982528,
    "sigma_abs": 1.4598024959947584,
    "stdDev": 0.7299012479973792
  },
  "rawProfile": [
    22.9,
    22.3,
    21.9,
    22.5,
    22.8,
    22.5,
    22.2,
    22.2,
    22.8,
    22.9,
    21.8,
    21.6,
    22.2,
    22.4,
    22.4,
    22.3,
    22.8,
    23.3,
    23.0,
    22.5,
    22.3,
    22.2,
    22.1,
    22.0,
    22.3,
    22.9,
    23.4,
    22.9,
    22.8,
    22.9,
    22.8,
    22.4,
    22.2,
    22.8,
    22.6,
    22.0,
    22.3,
    22.8,
    23.2,
    23.1,
    22.3,
    22.3,
    22.5,
    22.2,
    21.6,
    21.6,
    22.1,
    22.7,
    22.8,
    22.2,
    22.4,
    22.4,
    22.6,
    22.3,
    21.9,
    22.1,
    22.8,
    23.0,
    22.4,
    22.1,
    22.3,
    22.5,
    22.1,
    22.0,
    22.0,
    22.1,
    22.0,
    22.6,
    22.8,
    22.7,
    22.7,
    22.0,
    22.1,
    22.3,
    22.3,
    21.9,
    21.9,
    22.2,
    22.9,
    23.0,
    22.8,
    22.9,
    23.0,
    23.0,
    22.6,
    22.4,
    22.7,
    22.8,
    22.8,
    22.6,
    22.7,
    22.4,
    21.9,
    22.5,
    23.4,
    23.4,
    22.9,
    22.9,
    23.2,
    23.4,
    23.2,
    22.9,
    22.9,
    22.9,
    23.2,
    23.3,
    23.2,
    22.7,
    22.4,
    22.8,
    22.8,
    22.7,
    22.7,
    23.1,
    23.6,
    23.5,
    22.9,
    22.0,
    22.0,
    22.9,
    23.7,
    24.0,
    23.6,
    23.1,
    23.5,
    23.5,
    22.9,
    22.5,
    22.2,
    22.6,
    23.2,
    23.5,
    23.6,
    23.6,
    23.2,
    22.6,
    22.4,
    22.2,
    22.0,
    21.9,
    21.8,
    22.4,
    23.0,
    23.1,
    23.4,
    23.1,
    23.3,
    23.4,
    23.2,
    22.8,
    23.1,
    23.1,
    22.9,
    22.9,
    22.9,
    22.3,
    22.2,
    22.8,
    22.8,
    22.7,
    22.7,
    22.7,
    23.0,
    23.2,
    22.9,
    22.7,
    23.1,
    23.3,
    23.1,
    22.9,
    22.9,
    23.0,
    23.3,
    23.0,
    23.0,
    23.0,
    22.8,
    22.4,
    22.2,
    22.4,
    22.8,
    22.8,
    23.0,
    23.4,
    23.1,
    22.1,
    22.1,
    22.5,
    22.6,
    22.8,
    23.0,
    23.1,
    22.7,
    22.4,
    22.3,
    22.2,
    22.2,
    22.5,
    22.9,
    22.6,
    22.6,
    23.1,
    23.2,
    22.7,
    22.3,
    22.5,
    22.3,
    22.0,
    22.5,
    22.8,
    22.4,
    21.9,
    21.8,
    21.9,
    22.3,
    22.5,
    22.6,
    22.7,
    22.6,
    22.6,
    22.8,
    22.7,
    22.7,
    22.5,
    22.4,
    22.1,
    22.1,
    22.5,
    22.8,
    22.5,
    22.5,
    22.7,
    22.8,
    23.1,
    23.5,
    24.0,
    23.8,
    23.2,
    22.9,
    23.0,
    22.5,
    21.8,
    22.0,
    22.2,
    22.4,
    22.6,
    22.6,
    23.0,
    23.1,
    23.0,
    23.1,
    23.4,
    23.6,
    23.9,
    24.1,
    24.3,
    23.9,
    23.6,
    23.6,
    23.8,
    23.9,
    23.6,
    23.3,
    23.0,
    23.4,
    23.6,
    23.5,
    23.4,
    23.4,
    23.4,
    23.5,
    23.6,
    23.7,
    23.8,
    23.6,
    24.0,
    24.0,
    23.6,
    23.9,
    23.8,
    23.5,
    23.1,
    23.0,
    22.9,
    23.0,
    23.0,
    23.2,
    23.0,
    23.1,
    23.3,
    23.4,
    23.7,
    24.0,
    24.0,
    23.7,
    23.9,
    24.9,
    25.4,
    25.3,
    25.2,
    25.0,
    24.1,
    23.1,
    22.3,
    22.3,
    22.2,
    22.0,
    22.0,
    22.4,
    22.2,
    22.1,
    22.6,
    23.4,
    23.4,
    23.4,
    24.2,
    24.3,
    24.7,
    24.3,
    24.0,
    23.6,
    23.5,
    23.3,
    22.8,
    22.5,
    23.0,
    22.6,
    22.0,
    22.3,
    22.9,
    23.7,
    24.4,
    24.4,
    23.4,
    22.7,
    22.5,
    22.5,
    22.6,
    22.8,
    23.0,
    22.8,
    23.2,
    23.6,
    23.1,
    22.0,
    21.9,
    22.9,
    23.2,
    22.8,
    23.2,
    24.1,
    23.7,
    22.9,
    23.0,
    23.3,
    23.2,
    23.2,
    23.0,
    22.5,
    22.5
  ],
  "zonesProfile": [
    29.375979017157842,
    29.40876470802521,
    29.212050562821023,
    29.27762194455575,
    30.031692834505115,
    29.048122108484204,
    29.998907143637755,
    29.802192998433572,
    29.375979017157842,
    29.96612145277039,
    29.27762194455575,
    28.851407963280028,
    29.441550398892574,
    29.1464791810863,
    29.605478853229386,
    29.1464791810863,
    29.080907799351568,
    29.572693162362025,
    29.048122108484204,
    29.507121780627298,
    30.064478525372483,
    29.671050234964117,
    29.671050234964117,
    29.90055007103566,
    30.29397836144403,
    30.13004990710721,
    30.29397836144403,
    29.736621616698844,
    30.457906815780845,
    29.441550398892574,
    30.949692178791302,
    30.29397836144403,
    29.998907143637755,
    30.49069250664821,
    29.015336417616844,
    29.605478853229393,
    30.556263888382933,
    30.228406979709295,
    29.83497868930093,
    29.671050234964117,
    30.03169283450512,
    30.162835597974567,
    30.13004990710721,
    30.261192670576662,
    29.441550398892574,
    30.16283559797457,
    29.441550398892574,
    29.998907143637755,
    29.375979017157842,
    29.57269316236202,
    30.03169283450512,
    29.212050562821023,
    29.375979017157842,
    29.015336417616844,
    29.671050234964117,
    29.736621616698844,
    29.212050562821023,
    29.671050234964117,
    30.621835270117664,
    30.457906815780845,
    29.015336417616844,
    29.703835925831477,
    30.359549743178754,
    31.441477541801753,
    31.113620633128114,
    30.752978033587116,
    30.785763724454483,
    30.785763724454483,
    31.179192014862842,
    31.244763396597573,
    30.32676405231139,
    30.2284069797093,
    30.65462096098503,
    31.34312046919966,
    33.04797639430257,
    30.982477869658663,
    29.015336417616844,
    29.277621944555747,
    30.949692178791295,
    31.900477213944846,
    30.556263888382936,
    29.53990747149466,
    30.589049579250304,
    30.49069250664821,
    29.802192998433572,
    30.392335434046114,
    29.507121780627298,
    30.752978033587116,
    30.29397836144403,
    29.900550071035664
  ],
  "actuators": {
    "values": [
      51,
      62,
      66,
      56,
      49,
      59,
      58,
      55,
      58,
      54,
      47,
      46,
      45,
      39,
      38,
      48,
      51,
      42,
      42,
      41,
      32,
      32,
      29,
      25,
      16,
      14,
      21,
      33,
      35,
      28,
      15,
      14,
      15,
      9,
      17,
      27,
      14,
      2,
      10,
      17,
      14,
      17,
      21,
      23,
      25,
      26,
      24,
      22,
      26,
      27,
      23,
      30,
      33,
      34,
      28,
      19,
      19,
      16,
      2,
      1,
      2,
      4,
      1,
      1,
      1,
      1,
      1,
      1,
      1,
      1,
      13,
      25,
      12,
      1,
      1,
      1,
      43,
      42,
      9,
      1,
      10,
      38,
      30,
      23,
      43,
      45,
      40,
      27,
      27,
      38
    ],
    "forced": [
      false,
      false,
      false,
      false,
      false,
      false,
      false,
      false,
      false,
      false,
      false,
      false,
      false,
      false,
      false,
      false,
      false,
      false,
      false,
      false,
      false,
      false,
      false,
      false,
      false,
      false,
      false,
      false,
      false,
      false,
      false,
      false,
      false,
      false,
      false,
      false,
      false,
      false,
      false,
      false,
      false,
      false,
      false,
      false,
      false,
      false,
      false,
      false,
      false,
      false,
      false,
      false,
      false,
      false,
      false,
      false,
      false,
      false,
      false,
      false,
      false,
      false,
      false,
      false,
      false,
      false,
      false,
      false,
      false,
      false,
      false,
      false,
      false,
      false,
      false,
      false,
      false,
      false,
      false,
      false,
      false,
      false,
      false,
      false,
      false,
      false,
      false,
      false,
      false,
      false
    ]
  }
}