{
  "parameters": {
    "integral_band": 0,
    "dead_band": 1,
    "small_gain": 50.0,
    "large_gain": 80.0,
    "large_gain_regulations": 3,
    "valves_min": 0,
    "valves_max": 100,
    "matrix_minor": 10,
    "matrix_major": 55,
    "profiles_directions_used_for_regulation": 0,
    "profiles_to_average": 2,
    "profiles_for_first_regulation": 1,
    "profiles_for_regulation": 10,
    "phase_shift_misDx_haulDx": 0,
    "phase_shift_misDx_haulSx": 0,
    "phase_shift_misSx_haulDx": 0,
    "phase_shift_misSx_haulSx": 0,
    "revert_regulation": 0,
    "disturbation_type": 0,
    "disturbation_amount": 0.0,
    "disturbation_amplitude": 1.0,
    "disturbation_cycles": 1,
    "disturbation_frequency": 1,
    "measurer_speed_default": 2,
    "measurer_speed_control": 0,
    "measurer_speed_min": 3,
    "measurer_speed_max": 7,
    "measurer_twoSigma_for_speed_min": 2.0,
    "measurer_twoSigma_for_speed_max": 10.0
  },
  "production": {
    "line_speed": 45.0,
    "layflat": 1640.0,
    "thickness": 22.0
  },
  "status": {
    "application": {
      "measurer_active": true,
      "actuation_active": true
    },
    "measurer": {
      "is_valid": true,
      "reason_is_valid": "none",
      "direction": -1,
      "speed": 0
    },
    "hauloff": {
      "direction": 0,
      "position": 0,
      "speed": 0,
      "last_period": 0
    }
  },
  "stats": {
    "min_thickness": 20.45710051341768,
    "max_thickness": 23.60112210871752,
    "mean_thickness": 22.000000000000007,
    "sigma_perc": 5.663008235462912,
    "sigma_abs": 1.245861811801841,
    "stdDev": 0.6229309059009205
  },
  "rawProfile": [
    21.2,
    21.1,
    21.4,
    20.5,
    19.3,
    21.4,
    21.4,
    20.1,
    21.3,
    20.0,
    21.2,
    21.2,
    21.5,
    20.6,
    20.7,
    20.8,
    20.1,
    19.8,
    20.8,
    19.5,
    18.9,
    19.7,
    19.1,
    20.4,
    20.9,
    19.8,
    20.6,
    20.5,
    19.7,
    18.9,
    19.7,
    20.5,
    21.6,
    21.4,
    21.8,
    22.5,
    20.9,
    21.7,
    22.3,
    21.9,
    22.5,
    22.6,
    19.9,
    21.3,
    21.5,
    22.5,
    22.1,
    21.0,
    21.1,
    20.9,
    21.4,
    22.7,
    22.6,
    22.8,
    22.1,
    22.5,
    21.0,
    21.3,
    21.1,
    20.0,
    20.0,
    20.4,
    19.4,
    20.4,
    20.7,
    20.6,
    20.3,
    21.3,
    18.6,
    19.9,
    20.0,
    20.2,
    20.9,
    20.0,
    21.1,
    21.4,
    22.6,
    21.4,
    20.9,
    21.2,
    21.8,
    20.4,
    21.4,
    21.8,
    21.9,
    20.4,
    21.6,
    22.0,
    20.3,
    20.9,
    21.3,
    21.7,
    21.3,
    20.5,
    20.9,
    21.4,
    22.1,
    22.0,
    22.3,
    22.1,
    22.1,
    23.0,
    23.0,
    23.1,
    22.5,
    22.5,
    20.9,
    20.7,
    19.5,
    20.8,
    19.7,
    21.2,
    21.5,
    21.5,
    22.2,
    22.0,
    22.1,
    21.5,
    20.4,
    19.9,
    20.4,
    19.3,
    20.6,
    22.2,
    23.4,
    22.3,
    21.0,
    20.4,
    19.5,
    19.6,
    21.9,
    22.2,
    21.9,
    21.8,
    21.6,
    20.5,
    19.5,
    20.7,
    21.8,
    21.3,
    21.6,
    21.9,
    22.9,
    21.2,
    20.9,
    21.3,
    20.4,
    20.9,
    21.1,
    17.5,
    21.9,
    21.4,
    19.9,
    21.2,
    23.3,
    21.5,
    20.7,
    20.1,
    20.5,
    21.1,
    22.3,
    22.7,
    21.1,
    22.1,
    20.7,
    19.5,
    19.7,
    21.3,
    20.1,
    21.8,
    21.4,
    20.3,
    20.7,
    21.6,
    20.9,
    20.4,
    21.7,
    21.3,
    21.4,
    21.0,
    20.7,
    21.4,
    20.2,
    19.3,
    18.5,
    18.1,
    18.3,
    20.4,
    19.6,
    19.8,
    21.2,
    21.4,
    21.0,
    23.5,
    24.2,
    22.5,
    22.0,
    20.9,
    20.5,
    21.8,
    22.3,
    22.5,
    22.1,
    21.6,
    21.6,
    21.7,
    21.1,
    21.2,
    21.1,
    20.9,
    20.1,
    20.6,
    20.2,
    18.9,
    20.4,
    21.4,
    22.3,
    22.2,
    22.3,
    22.2,
    22.9,
    20.9,
    19.5,
    20.3,
    21.1,
    20.5,
    20.8,
    20.8,
    21.7,
    21.0,
    19.3,
    19.8,
    21.0,
    20.2,
    22.0,
    22.1,
    21.3,
    20.2,
    19.3,
    20.5,
    19.5,
    21.2,
    21.3,
    21.3,
    21.2,
    20.2,
    21.2,
    20.5,
    20.3,
    20.8,
    21.1,
    20.4,
    22.5,
    21.7,
    22.5,
    22.2,
    21.9,
    21.5,
    19.9,
    19.3,
    19.8,
    19.3,
    19.5,
    20.7,
    22.3,
    21.1,
    21.7,
    22.2,
    21.6,
    21.9,
    21.9,
    20.9,
    20.4,
    20.2,
    20.7,
    20.7,
    20.2,
    20.3,
    22.0,
    20.8,
    21.4,
    21.2,
    21.4,
    22.0,
    22.6,
    20.5,
    20.1,
    20.6,
    20.5,
    19.3,
    20.8,
    21.4,
    22.3,
    20.6,
    20.7,
    20.9,
    20.5,
    21.4,
    20.7,
    21.4,
    21.4,
    20.7,
    20.4,
    21.6,
    21.8,
    20.4,
    20.9,
    20.4,
    20.4,
    21.4,
    20.6,
    20.3,
    19.8,
    21.5,
    19.7,
    19.9,
    18.8,
    19.5,
    20.8,
    19.9,
    22.0,
    21.2,
    21.4,
    20.4,
    20.5,
    21.9,
    20.1,
    21.3,
    20.5,
    21.6,
    20.6,
    21.9,
    21.5,
    21.5,
    19.9,
    20.2,
    20.3,
    18.5,
    18.6,
    18.3,
    18.7,
    19.5,
    21.4,
    20.6,
    21.9,
    22.5,
    22.8,
    22.5,
    22.3,
    20.4,
    20.3,
    20.2,
    21.1,
    20.7,
    21.0,
    22.5,
    23.0,
    22.0,
    20.0,
    20.9
  ],
  "zonesProfile": [
    23.1976393373207,
    21.588948287725614,
    20.49902080135501,
    22.18107235484042,
    21.90859048324777,
    22.249192822738582,
    22.21775260678559,
    21.468427459905783,
    22.5426348382999,
    21.9976710951146,
    21.971470915153763,
    22.353993542581907,
    22.390673794527068,
    21.620388503678615,
    23.60112210871752,
    22.710315990049235,
    22.249192822738586,
    22.338273434605412,
    22.312073254644574,
    21.11734504843064,
    21.22738580426614,
    22.51119462234691,
    22.74175620600223,
    22.79939660191606,
    22.85179696183772,
    21.206425660297473,
    20.834383104853657,
    21.290266236172137,
    21.898110411263435,
    21.877150267294763,
    22.511194622346903,
    22.212512570793425,
    21.97671095114593,
    20.45710051341768,
    22.20727253480125,
    22.13391203091092,
    20.897263536759652,
    21.54178796379612,
    22.044831419044087,
    21.903350447255598,
    21.767109511459278,
    22.401153866511418,
    21.719949187529778,
    22.458794262425233,
    21.562748107764786,
    22.285873074683746,
    21.992431059122428,
    21.824749907373103,
    21.829989943365273,
    21.57846821574129,
    21.861430159318278,
    22.542634838299907,
    21.60466839570212,
    22.930397501720222
  ],
  "actuators": {
    "values": [
      9,
      45,
      100,
      0,
      38,
      47,
      13,
      3,
      51,
      3,
      0,
      0,
      44,
      43,
      0,
      0,
      83,
      64,
      0,
      49,
      87,
      46,
      51,
      55,
      85,
      90,
      48,
      62,
      38,
      54,
      56,
      62,
      38,
      100,
      33,
      41,
      98,
      100,
      40,
      50,
      71,
      97,
      99,
      37,
      13,
      48,
      61,
      25,
      38,
      88,
      16,
      28,
      82,
      35
    ],
    "forced": [
      false,
      false,
      false,
      false,
      false,
      false,
      false,
      false,
      false,
      false,
      false,
      false,
      false,
      false,
      false,
      false,
      false,
      false,
      false,
      false,
      false,
      false,
      false,
      false,
      false,
      false,
      false,
      false,
      false,
      false,
      false,
      false,
      false,
      false,
      false,
      false,
      false,
      false,
      false,
      false,
      false,
      false,
      false,
      false,
      false,
      false,
      false,
      false,
      false,
      false,
      false,
      false,
      false,
      false
    ]
  },
  "old_actuators": {
    "values": [
      11,
      45,
      100,
      0,
      38,
      47,
      13,
      3,
      52,
      3,
      0,
      0,
      44,
      42,
      1,
      0,
      82,
      65,
      1,
      48,
      86,
      47,
      52,
      56,
      89,
      90,
      48,
      62,
      38,
      54,
      56,
      62,
      38,
      100,
      33,
      41,
      96,
      100,
      40,
      50,
      70,
      97,
      98,
      37,
      12,
      48,
      61,
      25,
      37,
      88,
      16,
      29,
      81,
      36
    ],
    "forced": [
      false,
      false,
      false,
      false,
      false,
      false,
      false,
      false,
      false,
      false,
      false,
      false,
      false,
      false,
      false,
      false,
      false,
      false,
      false,
      false,
      false,
      false,
      false,
      false,
      false,
      false,
      false,
      false,
      false,
      false,
      false,
      false,
      false,
      false,
      false,
      false,
      false,
      false,
      false,
      false,
      false,
      false,
      false,
      false,
      false,
      false,
      false,
      false,
      false,
      false,
      false,
      false,
      false,
      false
    ]
  },
  "average_zones_profile": [
    23.45880039753141,
    21.635196943192277,
    21.027509635112107,
    22.333735184825077,
    22.09034149233336,
    22.325979708844244,
    21.920850802145452,
    21.687316249718997,
    22.538037763390392,
    22.059090824018803,
    21.9675862779198,
    22.31565650387104,
    21.850502483779024,
    21.24060039748153,
    22.453113159003628,
    21.965894389739574,
    21.541935147658414,
    22.498580626438013,
    22.36787385227972,
    21.362806577356118,
    21.59815720434661,
    22.655605230815485,
    22.663733265947748,
    22.420751349360245,
    24.61614148193521,
    21.360304209618384,
    21.979235348047272,
    21.8569703430435,
    22.359517052756228,
    22.11643709428676,
    22.59288166592062,
    22.085493623869013,
    22.040770306422612,
    20.813151832717608,
    22.090714051484785,
    21.915519260396792,
    20.97573674323496,
    21.31890681171815,
    22.06176313101859,
    21.716607048709303,
    21.658940508293625,
    21.947214385242876,
    21.606612045752065,
    22.200794024073062,
    21.40517785795045,
    22.137854767037894,
    21.844778774502544,
    21.75571123488664,
    21.763558216623963,
    21.742336627636746,
    21.635536821716393,
    22.45179286165995,
    21.201378561045843,
    22.76850784128922
  ],
  "thickness_difference ": [
    6.630910897870041,
    -1.658195712762378,
    -4.420410749490422,
    1.5169781128412587,
    0.0,
    1.481725949292018,
    0.0,
    -1.421289774004561,
    2.445626197229054,
    0.0,
    0.0,
    1.4348022903229078,
    0.0,
    -3.451816375083958,
    2.0596052681983097,
    0.0,
    -2.0821129651890273,
    2.266275574718241,
    1.6721538739987194,
    -2.8963337392903745,
    -1.8265581620608662,
    2.9800237764340243,
    3.0169693906715813,
    1.9125061334556583,
    11.891552190614586,
    -2.9077081380982537,
    0.0,
    0.0,
    1.6341684216192187,
    0.0,
    2.694916663275538,
    0.0,
    0.0,
    -5.394764396738145,
    0.0,
    0.0,
    -4.655742076204723,
    -3.095878128553861,
    0.0,
    -1.2881497785940772,
    -1.5502704168471577,
    0.0,
    -1.7881270647633392,
    0.0,
    -2.703737009316143,
    0.0,
    0.0,
    -1.1104034777880012,
    -1.0747353789819865,
    -1.1711971471056999,
    -1.6566508103800326,
    2.0536039166361353,
    -3.630097449791624,
    3.49321746040555
  ],
  "dynamic_gain": [
    0.5,
    0.5,
    0.5,
    0.5,
    0.5,
    0.5,
    0.5,
    0.5,
    0.5,
    0.5,
    0.5,
    0.5,
    0.5,
    0.5,
    0.5,
    0.5,
    0.5,
    0.5,
    0.5,
    0.5,
    0.5,
    0.5,
    0.5,
    0.5,
    0.5,
    0.5,
    0.5,
    0.5,
    0.5,
    0.5,
    0.5,
    0.5,
    0.5,
    0.5,
    0.5,
    0.5,
    0.5,
    0.5,
    0.5,
    0.5,
    0.5,
    0.5,
    0.5,
    0.5,
    0.5,
    0.5,
    0.5,
    0.5,
    0.5,
    0.5,
    0.5,
    0.5,
    0.5,
    0.5
  ],
  "value_map": {
    "next": "-0.05",
    "prev": "-0.05",
    "default": "-0.05"
  },
  "actuation_variation": [
    1.8693760406053408,
    -0.40074131730016355,
    -1.2191433961078941,
    0.30665871229408564,
    0.07496760155333193,
    0.407474636055305,
    0.0015109043821864288,
    -0.3297140329205279,
    0.6370149598878758,
    0.061140654930726346,
    0.0358700572580727,
    0.3945706298387997,
    -0.050425352119026254,
    -0.8977593714431308,
    0.4800960393774362,
    -5.626924247679396E-4,
    -0.5159241760590266,
    0.6129768057677586,
    0.4440908612353445,
    -0.8003518855064068,
    -0.500211243638147,
    0.8492668192346245,
    0.951979830181927,
    0.8986522262324602,
    3.245296802302947,
    -0.5023309332116551,
    -0.07269270345245635,
    0.04085421054048047,
    0.4493963159452852,
    0.10822712712236893,
    0.741102082400773,
    0.06737291658188846,
    -0.13486910991845363,
    -1.48356020910299,
    -0.13486910991845363,
    -0.11639355190511808,
    -1.3577260241701454,
    -0.9677600372574298,
    -0.10960069767869846,
    -0.3929979495345502,
    -0.4585281090978203,
    -0.08345993704026243,
    -0.4917349428099183,
    -0.11229660185198706,
    -0.7435276775619394,
    -0.06759342523290357,
    -0.02776008694470003,
    -0.33222934086625,
    -0.3525922448423888,
    -0.3903638701881179,
    -0.4335188036162481,
    0.43257237057064585,
    -0.8596062642666545,
    1.0356551378134868
  ]
}