{
  "parameters": {
    "integral_band": 0,
    "dead_band": 1,
    "small_gain": 50.0,
    "large_gain": 80.0,
    "large_gain_regulations": 3,
    "valves_min": 0,
    "valves_max": 100,
    "matrix_minor": 10,
    "matrix_major": 55,
    "profiles_directions_used_for_regulation": 0,
    "profiles_to_average": 2,
    "profiles_for_first_regulation": 1,
    "profiles_for_regulation": 10,
    "phase_shift_misDx_haulDx": 0,
    "phase_shift_misDx_haulSx": 0,
    "phase_shift_misSx_haulDx": 0,
    "phase_shift_misSx_haulSx": 0,
    "revert_regulation": 0,
    "disturbation_type": 0,
    "disturbation_amount": 0.0,
    "disturbation_amplitude": 1.0,
    "disturbation_cycles": 1,
    "disturbation_frequency": 1,
    "measurer_speed_default": 2,
    "measurer_speed_control": 0,
    "measurer_speed_min": 3,
    "measurer_speed_max": 7,
    "measurer_twoSigma_for_speed_min": 2.0,
    "measurer_twoSigma_for_speed_max": 10.0
  },
  "production": {
    "line_speed": 45.0,
    "layflat": 1640.0,
    "thickness": 22.0
  },
  "status": {
    "application": {
      "measurer_active": true,
      "actuation_active": true
    },
    "measurer": {
      "is_valid": true,
      "reason_is_valid": "none",
      "direction": 1,
      "speed": 0
    },
    "hauloff": {
      "direction": 0,
      "position": 0,
      "speed": 0,
      "last_period": 0
    }
  },
  "stats": {
    "min_thickness": 20.29976717112922,
    "max_thickness": 23.631548311990684,
    "mean_thickness": 22.000000000000004,
    "sigma_perc": 6.581567082542537,
    "sigma_abs": 1.4479447581593579,
    "stdDev": 0.7239723790796789
  },
  "rawProfile": [
    19.4,
    22.2,
    21.4,
    21.8,
    20.6,
    21.2,
    20.7,
    21.2,
    20.0,
    21.0,
    20.5,
    20.2,
    19.9,
    23.2,
    21.8,
    21.6,
    22.6,
    21.2,
    20.2,
    20.5,
    20.2,
    21.1,
    21.2,
    20.2,
    20.9,
    20.3,
    21.1,
    20.0,
    19.3,
    19.6,
    19.3,
    18.9,
    18.5,
    19.6,
    18.5,
    19.3,
    19.9,
    19.5,
    19.7,
    20.6,
    19.9,
    20.1,
    20.9,
    19.8,
    20.5,
    20.8,
    21.4,
    20.6,
    21.6,
    20.1,
    20.4,
    20.1,
    20.9,
    20.7,
    21.2,
    20.9,
    20.4,
    20.9,
    19.9,
    19.9,
    20.4,
    20.3,
    20.7,
    20.1,
    20.3,
    19.5,
    18.8,
    19.6,
    20.3,
    20.3,
    20.1,
    20.7,
    20.9,
    21.2,
    21.3,
    22.5,
    21.5,
    20.4,
    20.0,
    20.7,
    20.9,
    20.3,
    20.4,
    20.6,
    19.5,
    19.3,
    21.4,
    20.2,
    20.3,
    19.6,
    20.7,
    21.1,
    19.8,
    21.4,
    21.3,
    20.2,
    22.5,
    22.7,
    21.4,
    21.5,
    21.9,
    21.6,
    21.4,
    20.5,
    20.6,
    20.0,
    22.2,
    22.0,
    21.9,
    21.9,
    22.1,
    22.3,
    21.3,
    20.4,
    20.9,
    21.5,
    21.9,
    20.7,
    19.9,
    21.5,
    21.4,
    21.7,
    23.3,
    24.2,
    22.3,
    22.0,
    20.7,
    20.7,
    22.6,
    22.5,
    21.1,
    20.5,
    21.1,
    21.4,
    21.8,
    22.1,
    21.4,
    22.3,
    22.5,
    23.0,
    21.8,
    21.6,
    20.6,
    22.7,
    18.6,
    21.2,
    22.1,
    20.8,
    19.5,
    20.4,
    21.3,
    20.8,
    21.8,
    19.8,
    21.0,
    22.0,
    20.2,
    21.6,
    21.6,
    21.0,
    20.7,
    22.0,
    21.2,
    20.9,
    21.9,
    21.4,
    20.2,
    19.9,
    19.6,
    20.8,
    22.1,
    21.9,
    22.3,
    21.4,
    22.1,
    22.9,
    21.9,
    21.6,
    21.0,
    20.2,
    19.6,
    19.4,
    19.2,
    19.5,
    19.8,
    19.0,
    20.6,
    21.8,
    21.0,
    22.5,
    22.0,
    22.8,
    22.9,
    22.9,
    22.3,
    22.8,
    22.6,
    22.2,
    22.7,
    22.5,
    22.1,
    21.4,
    21.4,
    21.4,
    21.0,
    21.6,
    21.1,
    20.9,
    20.5,
    19.8,
    20.7,
    21.7,
    21.3,
    21.2,
    22.0,
    21.5,
    22.1,
    22.0,
    21.4,
    21.3,
    20.4,
    20.4,
    20.3,
    20.2,
    20.3,
    20.7,
    19.9,
    21.7,
    20.9,
    20.3,
    21.8,
    20.3,
    21.4,
    21.2,
    21.7,
    21.2,
    20.3,
    20.9,
    21.8,
    23.2,
    22.7,
    23.5,
    21.6,
    21.6,
    20.5,
    22.5,
    21.6,
    21.3,
    20.3,
    21.7,
    20.8,
    20.1,
    19.8,
    19.6,
    19.6,
    20.4,
    19.9,
    20.0,
    20.6,
    19.7,
    19.6,
    20.4,
    20.3,
    21.2,
    21.5,
    22.5,
    21.3,
    19.5,
    20.7,
    20.9,
    20.3,
    21.4,
    20.9,
    21.7,
    20.6,
    20.9,
    20.3,
    21.7,
    22.3,
    20.0,
    20.4,
    21.8,
    20.2,
    20.3,
    19.1,
    20.6,
    23.3,
    22.8,
    22.5,
    21.5,
    21.9,
    21.4,
    21.5,
    21.2,
    21.2,
    21.6,
    21.0,
    22.5,
    22.5,
    21.7,
    21.8,
    21.6,
    21.9,
    20.6,
    21.1,
    20.9,
    19.8,
    20.4,
    21.3,
    20.6,
    19.9,
    20.0,
    20.6,
    20.0,
    21.4,
    19.6,
    20.6,
    20.6,
    21.4,
    21.0,
    19.7,
    20.4,
    19.9,
    21.5,
    22.5,
    22.5,
    22.9,
    22.7,
    21.7,
    21.1,
    20.6,
    19.7,
    18.5,
    18.7,
    19.8,
    19.3,
    20.2,
    19.2,
    20.7,
    21.3,
    22.5,
    20.7,
    21.2,
    21.9,
    20.4,
    19.9,
    21.3,
    21.1,
    22.5,
    22.3,
    21.8,
    20.9,
    20.5,
    21.2,
    21.2,
    21.0,
    21.4,
    20.6,
    22.9,
    21.6
  ],
  "zonesProfile": [
    23.631548311990684,
    23.181024447031426,
    20.467403958090806,
    22.62572759022119,
    22.07566938300349,
    22.248544819557615,
    22.096623981373693,
    21.777066356228175,
    22.196158323632133,
    23.160069848661234,
    22.40046565774156,
    23.369615832363213,
    22.002328288707794,
    22.898137369033762,
    22.128055878928986,
    22.61001164144353,
    21.368451688009316,
    21.258440046565774,
    22.086146682188584,
    21.25320139697322,
    21.033178114086144,
    21.53084982537834,
    21.646100116414434,
    21.41559953434226,
    20.519790454016302,
    20.29976717112922,
    21.682770663562277,
    22.53143189755529,
    21.598952270081483,
    22.065192083818395,
    22.447613504074507,
    22.51571594877765,
    22.12805587892898,
    20.896973224679858,
    21.714202561117574,
    22.279976717112916,
    21.677532013969724,
    21.384167636786962,
    22.17520372526193,
    22.73050058207217,
    23.013387660069842,
    21.677532013969735,
    22.044237485448196,
    21.693247962747375,
    21.955180442374854,
    20.944121071012805,
    21.646100116414438,
    23.071012805587895,
    22.510477299185098,
    22.018044237485448,
    21.305587892898714,
    22.699068684516877,
    21.845168800931315,
    22.46856810244471
  ],
  "actuators": {
    "values": [
      15,
      47,
      100,
      0,
      38,
      47,
      12,
      2,
      52,
      4,
      0,
      0,
      43,
      42,
      0,
      0,
      81,
      66,
      0,
      47,
      85,
      48,
      53,
      55,
      89,
      88,
      49,
      64,
      39,
      55,
      57,
      62,
      38,
      100,
      31,
      40,
      96,
      100,
      40,
      50,
      70,
      98,
      99,
      37,
      11,
      46,
      61,
      26,
      38,
      88,
      16,
      31,
      80,
      37
    ],
    "forced": [
      false,
      false,
      false,
      false,
      false,
      false,
      false,
      false,
      false,
      false,
      false,
      false,
      false,
      false,
      false,
      false,
      false,
      false,
      false,
      false,
      false,
      false,
      false,
      false,
      false,
      false,
      false,
      false,
      false,
      false,
      false,
      false,
      false,
      false,
      false,
      false,
      false,
      false,
      false,
      false,
      false,
      false,
      false,
      false,
      false,
      false,
      false,
      false,
      false,
      false,
      false,
      false,
      false,
      false
    ]
  },
  "old_actuators": {
    "values": [
      17,
      49,
      100,
      0,
      39,
      47,
      13,
      2,
      52,
      5,
      0,
      0,
      43,
      43,
      0,
      0,
      80,
      65,
      1,
      47,
      84,
      47,
      52,
      55,
      87,
      86,
      48,
      65,
      38,
      55,
      57,
      62,
      38,
      100,
      29,
      41,
      96,
      100,
      40,
      50,
      71,
      98,
      99,
      37,
      12,
      45,
      61,
      26,
      39,
      87,
      15,
      31,
      80,
      37
    ],
    "forced": [
      false,
      false,
      false,
      false,
      false,
      false,
      false,
      false,
      false,
      false,
      false,
      false,
      false,
      false,
      false,
      false,
      false,
      false,
      false,
      false,
      false,
      false,
      false,
      false,
      false,
      false,
      false,
      false,
      false,
      false,
      false,
      false,
      false,
      false,
      false,
      false,
      false,
      false,
      false,
      false,
      false,
      false,
      false,
      false,
      false,
      false,
      false,
      false,
      false,
      false,
      false,
      false,
      false,
      false
    ]
  },
  "average_zones_profile": [
    23.4636036954342,
    23.078495283335727,
    20.390504520072405,
    22.76416077764103,
    22.441963860374166,
    22.041000837518347,
    22.413134648177582,
    22.132815867367665,
    22.15893146462178,
    22.701157211254916,
    22.305632511242408,
    23.222579223751744,
    22.23496509723902,
    22.879402194310423,
    22.19563196275724,
    22.8191932214629,
    21.477793869414924,
    21.629802341970027,
    22.276874293979418,
    21.954737278687773,
    21.475244430256417,
    21.750284626823635,
    21.66116546318339,
    21.60356472217378,
    21.063944988786872,
    20.5399047607896,
    21.737150286783788,
    22.549305149412895,
    21.312657712595005,
    22.25329482433376,
    22.09074693202667,
    22.29250593627342,
    21.78684424438773,
    20.859471260301813,
    21.06631250342803,
    22.342344102336234,
    21.831487023395663,
    20.94060155264441,
    22.01481202673896,
    22.258394811946616,
    22.656640891972458,
    21.734530961987513,
    21.993876286398,
    21.826242827323924,
    22.232354646809448,
    21.155570329047958,
    22.041128406539666,
    22.360519637309565,
    22.405185711530084,
    21.61915975770514,
    21.33630373999091,
    22.386802738235147,
    21.951991494166023,
    22.287275051751735
  ],
  "thickness_difference ": [
    6.652744070155463,
    4.9022512878896665,
    -7.315888545125433,
    3.473458080186505,
    2.008926638064391,
    0.0,
    1.8778847644435552,
    0.0,
    0.0,
    3.187078232976891,
    1.3892386874654894,
    5.557178289780654,
    1.06802316926827,
    3.9972827014110117,
    0.0,
    3.72360555210409,
    -2.373664229932163,
    -1.6827166274089675,
    1.2585195180882636,
    0.0,
    -2.3852525897435584,
    -1.1350698780743846,
    -1.5401569855300419,
    -1.8019785355737319,
    -4.254795505514218,
    -6.636796541865454,
    -1.1947714237100564,
    2.4968415882404313,
    -3.124283124568159,
    1.1513401106080032,
    0.0,
    1.3295724376064622,
    0.0,
    -5.184221544082668,
    -4.244034075327137,
    1.5561095560737925,
    0.0,
    -4.815447487979958,
    0.0,
    1.174521872484617,
    2.984731327147536,
    -1.206677445511304,
    0.0,
    0.0,
    1.0561574854974898,
    -3.8383166861456464,
    0.0,
    1.638725624134387,
    1.841753234227655,
    -1.7310920104311769,
    -3.0168011818594986,
    1.758194264705214,
    0.0,
    1.3057956897806118
  ],
  "dynamic_gain": [
    0.5,
    0.5,
    0.5,
    0.5,
    0.5,
    0.5,
    0.5,
    0.5,
    0.5,
    0.5,
    0.5,
    0.5,
    0.5,
    0.5,
    0.5,
    0.5,
    0.5,
    0.5,
    0.5,
    0.5,
    0.5,
    0.5,
    0.5,
    0.5,
    0.5,
    0.5,
    0.5,
    0.5,
    0.5,
    0.5,
    0.5,
    0.5,
    0.5,
    0.5,
    0.5,
    0.5,
    0.5,
    0.5,
    0.5,
    0.5,
    0.5,
    0.5,
    0.5,
    0.5,
    0.5,
    0.5,
    0.5,
    0.5,
    0.5,
    0.5,
    0.5,
    0.5,
    0.5,
    0.5
  ],
  "value_map": {
    "next": "-0.05",
    "prev": "-0.05",
    "default": "-0.05"
  },
  "actuation_variation": [
    1.9847057937345094,
    1.3315404922954093,
    -1.8024766157075898,
    0.8225269243747629,
    0.6392912774723701,
    0.09717028506269866,
    0.5164183102219777,
    0.046947119111088884,
    0.07967695582442229,
    0.9111774812552824,
    0.6006470521219482,
    1.589655576108024,
    0.5325678963285659,
    1.125953322119735,
    0.19302220633787753,
    0.9646499210803208,
    -0.6017354401139667,
    -0.4906256903335636,
    0.3040249517890483,
    -0.02816832679138237,
    -0.6843212091313382,
    -0.4102794558522958,
    -0.49696938136196445,
    -0.6404179095588829,
    -1.3810381409523895,
    -1.9613582222436068,
    -0.43206101536089114,
    0.5786550730591633,
    -0.767973316785033,
    0.23851145230299692,
    0.06202281370536164,
    0.3656324203417771,
    -0.09636622766190514,
    -1.5317617765059124,
    -1.2578121704151846,
    0.3218292760371146,
    -0.08148344829765414,
    -1.3242480591944885,
    -0.09102314038738353,
    0.39761179811195807,
    0.8199972256399053,
    -0.25721801433692026,
    -0.030166936137782603,
    0.026403937137437244,
    0.19448539135816856,
    -1.0291331515526156,
    -0.05498977655028148,
    0.49669337749264786,
    0.5041729797551854,
    -0.5054265015593697,
    -0.8289427686545113,
    0.4080833932474464,
    0.07659974886214566,
    0.5254124164435549
  ]
}