{
  "parameters": {
    "integral_band": 0,
    "dead_band": 1,
    "small_gain": 50.0,
    "large_gain": 80.0,
    "large_gain_regulations": 3,
    "valves_min": 0,
    "valves_max": 100,
    "matrix_minor": 10,
    "matrix_major": 55,
    "profiles_directions_used_for_regulation": 0,
    "profiles_to_average": 2,
    "profiles_for_first_regulation": 1,
    "profiles_for_regulation": 10,
    "phase_shift_misDx_haulDx": 0,
    "phase_shift_misDx_haulSx": 0,
    "phase_shift_misSx_haulDx": 0,
    "phase_shift_misSx_haulSx": 0,
    "revert_regulation": 0,
    "disturbation_type": 0,
    "disturbation_amount": 0.0,
    "disturbation_amplitude": 1.0,
    "disturbation_cycles": 1,
    "disturbation_frequency": 1,
    "measurer_speed_default": 2,
    "measurer_speed_control": 0,
    "measurer_speed_min": 3,
    "measurer_speed_max": 7,
    "measurer_twoSigma_for_speed_min": 2.0,
    "measurer_twoSigma_for_speed_max": 10.0
  },
  "production": {
    "line_speed": 45.0,
    "layflat": 1640.0,
    "thickness": 22.0
  },
  "status": {
    "application": {
      "measurer_active": true,
      "actuation_active": true
    },
    "measurer": {
      "is_valid": true,
      "reason_is_valid": "none",
      "direction": 1,
      "speed": 0
    },
    "hauloff": {
      "direction": 0,
      "position": 0,
      "speed": 0,
      "last_period": 0
    }
  },
  "stats": {
    "min_thickness": 20.42587095766286,
    "max_thickness": 24.003749414154036,
    "mean_thickness": 22.0,
    "sigma_perc": 6.366622468118701,
    "sigma_abs": 1.400656942986114,
    "stdDev": 0.700328471493057
  },
  "rawProfile": [
    20.6,
    20.8,
    21.6,
    21.4,
    21.3,
    22.5,
    21.1,
    20.6,
    21.5,
    21.4,
    21.7,
    21.2,
    21.2,
    21.8,
    22.5,
    21.4,
    21.4,
    23.2,
    21.7,
    20.9,
    21.6,
    21.0,
    20.4,
    21.6,
    20.8,
    21.2,
    21.4,
    21.4,
    21.2,
    20.8,
    21.9,
    22.5,
    21.2,
    22.5,
    21.0,
    21.2,
    21.9,
    21.1,
    21.4,
    20.4,
    20.4,
    21.3,
    21.2,
    20.0,
    20.4,
    20.6,
    21.2,
    21.4,
    21.0,
    21.3,
    19.9,
    20.0,
    20.8,
    22.2,
    21.1,
    22.8,
    22.5,
    21.8,
    22.6,
    21.6,
    21.5,
    21.3,
    20.8,
    19.1,
    20.2,
    21.8,
    20.9,
    21.2,
    20.4,
    21.3,
    21.8,
    20.0,
    21.2,
    22.1,
    22.8,
    21.9,
    22.5,
    22.5,
    22.3,
    21.0,
    21.3,
    19.8,
    20.7,
    20.5,
    20.2,
    19.4,
    21.0,
    21.4,
    21.5,
    22.7,
    19.9,
    20.0,
    20.1,
    20.3,
    20.1,
    22.2,
    21.8,
    21.7,
    22.6,
    21.3,
    19.8,
    20.1,
    20.2,
    20.9,
    21.0,
    21.2,
    21.5,
    18.9,
    20.2,
    20.4,
    21.0,
    21.9,
    21.8,
    22.5,
    21.9,
    21.1,
    20.8,
    19.6,
    19.6,
    20.3,
    21.1,
    20.7,
    22.3,
    20.0,
    20.8,
    21.7,
    22.5,
    24.3,
    22.6,
    20.8,
    21.0,
    20.7,
    20.2,
    21.0,
    19.4,
    19.9,
    20.9,
    20.0,
    19.8,
    21.1,
    20.5,
    21.1,
    21.0,
    20.7,
    21.4,
    21.7,
    21.2,
    20.4,
    21.0,
    21.0,
    20.5,
    19.2,
    20.9,
    21.6,
    22.2,
    22.1,
    21.8,
    20.4,
    19.4,
    19.5,
    21.3,
    21.6,
    21.0,
    22.0,
    21.0,
    21.9,
    21.2,
    20.2,
    19.5,
    19.6,
    19.6,
    19.9,
    19.7,
    19.5,
    21.6,
    21.9,
    23.5,
    22.1,
    23.0,
    22.9,
    22.8,
    24.3,
    23.2,
    23.0,
    21.6,
    20.9,
    20.9,
    20.2,
    20.7,
    20.2,
    20.9,
    21.4,
    21.4,
    23.1,
    22.3,
    24.0,
    22.5,
    24.2,
    23.7,
    23.1,
    22.5,
    21.0,
    20.0,
    20.4,
    19.5,
    20.9,
    20.0,
    22.6,
    24.0,
    21.9,
    21.6,
    21.9,
    21.6,
    19.9,
    20.1,
    19.4,
    20.9,
    22.5,
    22.1,
    21.5,
    20.5,
    21.4,
    22.2,
    20.6,
    20.9,
    23.6,
    24.1,
    22.2,
    21.3,
    21.3,
    20.8,
    21.9,
    19.4,
    19.3,
    20.8,
    22.0,
    21.8,
    22.1,
    21.6,
    22.3,
    23.3,
    23.1,
    21.4,
    21.5,
    21.9,
    24.4,
    25.0,
    23.9,
    23.0,
    21.4,
    21.1,
    20.3,
    21.0,
    21.8,
    22.5,
    22.6,
    22.3,
    20.8,
    21.6,
    22.8,
    23.5,
    20.8,
    20.5,
    21.1,
    22.7,
    22.2,
    21.8,
    21.9,
    21.6,
    20.9,
    19.9,
    18.7,
    20.6,
    20.5,
    24.2,
    21.1,
    21.2,
    21.7,
    21.6,
    23.4,
    20.5,
    20.8,
    20.0,
    20.7,
    21.7,
    22.1,
    22.8,
    23.3,
    21.7,
    21.3,
    20.4,
    20.8,
    22.3,
    19.9,
    20.5,
    20.3,
    20.6,
    20.4,
    19.8,
    20.2,
    20.4,
    22.7,
    21.7,
    23.6,
    22.6,
    22.5,
    21.4,
    21.7,
    20.5,
    19.6,
    20.1,
    21.1,
    21.0,
    20.7,
    21.8,
    21.2,
    22.2,
    22.3,
    20.1,
    20.9,
    21.2,
    21.2,
    21.2,
    22.7,
    20.4,
    19.9,
    20.4,
    20.4,
    21.8,
    22.2,
    22.1,
    21.6,
    20.0,
    21.8,
    20.7,
    21.0,
    21.3,
    21.1,
    22.5,
    20.6,
    22.1,
    21.8,
    23.0,
    22.5,
    22.2,
    23.8,
    22.3,
    22.1,
    21.6,
    21.0,
    19.9,
    19.8,
    20.6,
    21.1,
    22.0,
    21.8,
    22.2,
    22.0,
    20.6,
    20.5
  ],
  "zonesProfile": [
    24.003749414154036,
    21.570379628183087,
    23.158256522418366,
    22.89017341040462,
    20.42587095766286,
    22.106545852210584,
    21.621934072801118,
    21.230120293704104,
    21.735353850960777,
    20.89501640368693,
    22.28698640837369,
    21.90032807373848,
    21.389939072020006,
    21.47758162787064,
    21.27136384939853,
    22.152944852366822,
    21.554913294797686,
    21.018747070770186,
    22.848929854710203,
    21.688954850804564,
    21.441493516638022,
    22.766442743321363,
    21.477581627870645,
    21.34869551632557,
    21.962193407280104,
    22.214810185908448,
    21.78690829557881,
    22.524136853616614,
    21.9467270738947,
    22.003436962974536,
    22.14263396344321,
    21.5703796281831,
    23.240743633807217,
    21.920949851585693,
    21.987970629589128,
    21.683799406342747,
    22.008592407436335,
    21.348695516325574,
    22.854085299172002,
    20.889860959225118,
    22.276675519450084,
    21.807530073426022,
    22.714888298703322,
    21.297141071707543,
    22.477737853460393,
    22.756131854397754,
    22.62724574285268,
    23.55007030151538,
    22.18903296359944,
    21.864239962505856,
    22.467426964536788,
    21.616778628339322,
    22.72004374316513,
    21.286830182783937
  ],
  "actuators": {
    "values": [
      53,
      45,
      66,
      28,
      57,
      44,
      31,
      46,
      62,
      48,
      43,
      31,
      52,
      36,
      37,
      35,
      64,
      49,
      28,
      50,
      68,
      39,
      42,
      60,
      58,
      53,
      53,
      47,
      34,
      53,
      49,
      45,
      37,
      66,
      59,
      54,
      62,
      62,
      40,
      56,
      65,
      83,
      69,
      52,
      39,
      51,
      55,
      29,
      52,
      67,
      35,
      51,
      61,
      47
    ],
    "forced": [
      false,
      false,
      false,
      false,
      false,
      false,
      false,
      false,
      false,
      false,
      false,
      false,
      false,
      false,
      false,
      false,
      false,
      false,
      false,
      false,
      false,
      false,
      false,
      false,
      false,
      false,
      false,
      false,
      false,
      false,
      false,
      false,
      false,
      false,
      false,
      false,
      false,
      false,
      false,
      false,
      false,
      false,
      false,
      false,
      false,
      false,
      false,
      false,
      false,
      false,
      false,
      false,
      false,
      false
    ]
  },
  "old_actuators": {
    "values": [
      54,
      46,
      66,
      30,
      57,
      44,
      32,
      46,
      62,
      47,
      43,
      32,
      52,
      36,
      36,
      35,
      63,
      48,
      28,
      49,
      67,
      39,
      42,
      59,
      57,
      53,
      53,
      47,
      34,
      53,
      49,
      45,
      38,
      66,
      59,
      54,
      62,
      62,
      41,
      55,
      65,
      83,
      69,
      52,
      39,
      51,
      55,
      30,
      53,
      66,
      35,
      51,
      60,
      46
    ],
    "forced": [
      false,
      false,
      false,
      false,
      false,
      false,
      false,
      false,
      false,
      false,
      false,
      false,
      false,
      false,
      false,
      false,
      false,
      false,
      false,
      false,
      false,
      false,
      false,
      false,
      false,
      false,
      false,
      false,
      false,
      false,
      false,
      false,
      false,
      false,
      false,
      false,
      false,
      false,
      false,
      false,
      false,
      false,
      false,
      false,
      false,
      false,
      false,
      false,
      false,
      false,
      false,
      false,
      false,
      false
    ]
  },
  "average_zones_profile": [
    22.942572065801755,
    22.555270875255875,
    22.158890119798173,
    23.08717645426177,
    21.31490189080831,
    22.129641075661198,
    22.918945161521762,
    21.8526973496601,
    21.85701098280498,
    21.654427489746347,
    21.54662705207111,
    22.415625775223965,
    21.699662550787178,
    21.620612169091814,
    21.479105886224296,
    22.05812700478171,
    21.400735552103487,
    21.503827245193875,
    22.503392903153106,
    21.698140691895702,
    21.57185019857034,
    22.047457496238884,
    21.948269928080297,
    21.530570850898307,
    21.722127615481185,
    22.08905967155252,
    21.823912201545753,
    22.120851345785923,
    22.001094987903404,
    22.067847326074784,
    22.055531386562002,
    21.659331690521753,
    22.561069175628347,
    21.93445002566485,
    21.509751517331118,
    22.08977621094781,
    21.906596168811443,
    21.62528442185592,
    22.78755151201473,
    21.19620069642208,
    22.112312859597047,
    21.992932317479408,
    22.221346720813475,
    21.591827720820604,
    22.08485271449733,
    22.30596415471313,
    22.290157797540445,
    23.13042436070222,
    22.332153684607768,
    21.657791935641473,
    22.353598677939956,
    22.14329991417742,
    21.548130315130642,
    21.589232102600903
  ],
  "thickness_difference ": [
    4.284418480917069,
    2.523958523890341,
    0.0,
    4.941711155735313,
    -3.1140823145076753,
    0.0,
    4.1770234614625545,
    0.0,
    0.0,
    -1.570784137516606,
    -2.060786126949504,
    1.8892080691998425,
    -1.365170223694647,
    -1.7244901404917554,
    -2.3677005171622896,
    0.0,
    -2.723929308620512,
    -2.2553307036642036,
    2.288149559786845,
    -1.3720877641104452,
    -1.9461354610439165,
    0.0,
    0.0,
    -2.133768859553148,
    -1.2630562932673424,
    0.0,
    0.0,
    0.0,
    0.0,
    0.0,
    0.0,
    -1.5484923158102115,
    2.5503144346743056,
    0.0,
    -2.2284021939494636,
    0.0,
    0.0,
    -1.7032526279276377,
    3.579779600066954,
    -3.653633198081462,
    0.0,
    0.0,
    1.0061214582430689,
    -1.8553285417245293,
    0.0,
    1.3907461577869575,
    1.3188990797292954,
    5.1382925486464615,
    1.5097894754898533,
    -1.5554912016296674,
    1.607266717908893,
    0.0,
    -2.053953113042536,
    -1.8671268063595325
  ],
  "dynamic_gain": [
    0.5,
    0.5,
    0.5,
    0.5,
    0.5,
    0.5,
    0.5,
    0.5,
    0.5,
    0.5,
    0.5,
    0.5,
    0.5,
    0.5,
    0.5,
    0.5,
    0.5,
    0.5,
    0.5,
    0.5,
    0.5,
    0.5,
    0.5,
    0.5,
    0.5,
    0.5,
    0.5,
    0.5,
    0.5,
    0.5,
    0.5,
    0.5,
    0.5,
    0.5,
    0.5,
    0.5,
    0.5,
    0.5,
    0.5,
    0.5,
    0.5,
    0.5,
    0.5,
    0.5,
    0.5,
    0.5,
    0.5,
    0.5,
    0.5,
    0.5,
    0.5,
    0.5,
    0.5,
    0.5
  ],
  "value_map": {
    "next": "-0.05",
    "prev": "-0.05",
    "default": "-0.05"
  },
  "actuation_variation": [
    1.1946358751904644,
    0.8011990560927705,
    0.18664174199064137,
    1.2811185099645193,
    -0.732829857596228,
    0.02657352867387197,
    1.1486814519022026,
    0.10442558653656386,
    -0.039269603437915156,
    -0.4834852909908043,
    -0.5587555866190328,
    0.4338833102638529,
    -0.37130386329832576,
    -0.5675565571566562,
    -0.6942298957319235,
    -0.12729074564457005,
    -0.8054638274622459,
    -0.6311104372284977,
    0.5385556672470162,
    -0.3687737826617992,
    -0.5694894458898382,
    -0.048653386526097915,
    -0.053344221488828704,
    -0.6183628437087993,
    -0.4006847021373479,
    -0.03157640733168356,
    0.0,
    0.0,
    0.0,
    0.0,
    -0.03871230789525529,
    -0.36207752598095055,
    0.6626241616401789,
    0.008047806018121051,
    -0.6128106033361025,
    -0.05571005484873659,
    -0.042581315698190944,
    -0.3788999826784265,
    0.8505172443681851,
    -0.9152546394707284,
    -0.09134082995203656,
    0.02515303645607672,
    0.23030018747373074,
    -0.4850623125181689,
    -0.011614559598439295,
    0.4154276703846458,
    0.5259232145863917,
    1.483747664758256,
    0.5047621394351295,
    -0.3498336756131899,
    0.403111067384204,
    -0.011167159878341076,
    -0.6115152762456858,
    -0.4576982375520082
  ]
}