{
  "parameters": {
    "integral_band": 0,
    "dead_band": 1,
    "small_gain": 50.0,
    "large_gain": 80.0,
    "large_gain_regulations": 3,
    "valves_min": 0,
    "valves_max": 100,
    "matrix_minor": 10,
    "matrix_major": 55,
    "profiles_directions_used_for_regulation": 0,
    "profiles_to_average": 2,
    "profiles_for_first_regulation": 1,
    "profiles_for_regulation": 10,
    "phase_shift_misDx_haulDx": 0,
    "phase_shift_misDx_haulSx": 0,
    "phase_shift_misSx_haulDx": 0,
    "phase_shift_misSx_haulSx": 0,
    "revert_regulation": 0,
    "disturbation_type": 0,
    "disturbation_amount": 0.0,
    "disturbation_amplitude": 1.0,
    "disturbation_cycles": 1,
    "disturbation_frequency": 1,
    "measurer_speed_default": 2,
    "measurer_speed_control": 0,
    "measurer_speed_min": 3,
    "measurer_speed_max": 7,
    "measurer_twoSigma_for_speed_min": 2.0,
    "measurer_twoSigma_for_speed_max": 10.0
  },
  "production": {
    "line_speed": 45.0,
    "layflat": 1640.0,
    "thickness": 22.0
  },
  "status": {
    "application": {
      "measurer_active": true,
      "actuation_active": true
    },
    "measurer": {
      "is_valid": true,
      "reason_is_valid": "none",
      "direction": 1,
      "speed": 0
    },
    "hauloff": {
      "direction": 0,
      "position": 0,
      "speed": 0,
      "last_period": 0
    }
  },
  "stats": {
    "min_thickness": 20.90304144782971,
    "max_thickness": 23.852518223551048,
    "mean_thickness": 22.0,
    "sigma_perc": 6.111810855725779,
    "sigma_abs": 1.3445983882596717,
    "stdDev": 0.6722991941298359
  },
  "rawProfile": [
    19.2,
    21.1,
    22.5,
    21.4,
    22.1,
    21.7,
    22.7,
    20.8,
    20.0,
    19.5,
    20.4,
    20.2,
    20.2,
    20.6,
    21.1,
    21.0,
    21.4,
    22.2,
    20.7,
    20.6,
    20.4,
    19.9,
    19.2,
    19.6,
    20.2,
    20.3,
    20.1,
    19.2,
    20.1,
    20.0,
    19.9,
    20.3,
    20.4,
    20.4,
    21.0,
    20.6,
    20.7,
    21.0,
    21.4,
    21.4,
    21.7,
    22.3,
    21.9,
    21.1,
    21.2,
    19.9,
    20.8,
    21.5,
    21.3,
    20.3,
    20.0,
    21.5,
    20.1,
    20.2,
    20.5,
    20.8,
    21.2,
    20.8,
    19.9,
    21.9,
    20.1,
    21.0,
    21.0,
    19.2,
    20.4,
    19.9,
    20.6,
    20.4,
    20.0,
    20.2,
    22.6,
    21.7,
    21.5,
    22.6,
    21.6,
    22.1,
    20.2,
    20.6,
    20.5,
    20.4,
    20.4,
    21.3,
    22.1,
    21.4,
    21.3,
    20.5,
    20.3,
    20.2,
    20.1,
    22.0,
    21.5,
    20.7,
    20.4,
    21.1,
    22.1,
    22.0,
    22.8,
    23.4,
    22.8,
    22.0,
    21.5,
    21.9,
    20.9,
    20.4,
    21.0,
    21.9,
    22.3,
    22.6,
    22.5,
    22.1,
    20.5,
    20.7,
    20.4,
    21.8,
    19.7,
    20.4,
    21.8,
    20.4,
    20.5,
    21.4,
    20.8,
    22.0,
    23.1,
    22.5,
    21.9,
    21.4,
    20.2,
    20.7,
    22.0,
    21.8,
    21.7,
    21.2,
    21.4,
    21.6,
    21.5,
    21.3,
    21.4,
    21.4,
    22.9,
    20.2,
    20.4,
    21.4,
    20.0,
    19.8,
    18.8,
    19.5,
    20.3,
    21.4,
    21.2,
    20.5,
    20.4,
    20.3,
    19.3,
    18.9,
    20.4,
    20.6,
    20.3,
    20.7,
    20.8,
    21.2,
    20.7,
    21.3,
    20.5,
    22.3,
    21.4,
    21.7,
    22.7,
    21.7,
    21.6,
    21.4,
    22.0,
    22.1,
    22.2,
    22.5,
    22.5,
    22.0,
    21.6,
    21.8,
    20.3,
    20.5,
    20.6,
    20.4,
    19.8,
    20.3,
    19.9,
    20.7,
    21.3,
    21.0,
    22.6,
    23.8,
    23.2,
    24.0,
    22.5,
    22.7,
    21.4,
    21.1,
    21.0,
    20.4,
    20.5,
    20.5,
    21.0,
    20.4,
    20.9,
    20.2,
    20.6,
    20.5,
    19.5,
    20.2,
    19.8,
    20.5,
    21.6,
    20.6,
    21.4,
    21.7,
    21.7,
    22.7,
    22.5,
    21.9,
    20.4,
    22.5,
    24.2,
    23.5,
    22.6,
    22.8,
    22.3,
    20.8,
    21.2,
    20.5,
    20.3,
    21.5,
    20.7,
    19.7,
    20.0,
    20.3,
    20.9,
    22.1,
    21.6,
    20.9,
    20.4,
    19.8,
    20.2,
    20.7,
    20.6,
    20.3,
    19.5,
    20.4,
    21.4,
    19.5,
    21.6,
    21.4,
    22.3,
    23.3,
    21.6,
    21.9,
    21.2,
    21.4,
    20.9,
    21.6,
    22.5,
    19.7,
    19.3,
    19.8,
    21.5,
    21.9,
    21.4,
    20.9,
    19.9,
    19.5,
    20.3,
    20.4,
    19.6,
    19.8,
    21.4,
    20.8,
    21.1,
    20.6,
    21.6,
    20.4,
    21.2,
    20.8,
    19.8,
    20.1,
    20.4,
    21.5,
    21.4,
    22.5,
    24.4,
    23.2,
    21.4,
    20.1,
    20.4,
    20.4,
    21.7,
    20.4,
    19.5,
    20.2,
    21.5,
    20.4,
    19.8,
    21.9,
    21.4,
    22.0,
    22.7,
    21.4,
    20.1,
    21.1,
    20.8,
    20.5,
    20.6,
    20.2,
    19.2,
    20.1,
    21.8,
    21.8,
    22.3,
    22.5,
    21.2,
    21.8,
    21.0,
    20.8,
    20.2,
    21.1,
    19.6,
    21.3,
    21.4,
    21.1,
    21.2,
    20.1,
    19.9,
    20.1,
    21.0,
    19.5,
    19.7,
    18.2,
    19.4,
    18.9,
    20.1,
    20.4,
    20.0,
    22.5,
    22.0,
    22.0,
    21.4,
    20.7,
    20.5,
    20.8,
    20.3,
    20.4,
    20.4,
    21.9,
    21.1,
    21.4,
    19.8,
    21.2,
    19.5,
    19.3,
    20.7,
    21.2,
    21.2,
    20.4
  ],
  "zonesProfile": [
    22.008440381536992,
    23.852518223551048,
    21.358822050827502,
    22.584714707166388,
    22.956673590072636,
    22.479937557051947,
    21.468838058447663,
    21.40073291087328,
    20.9711465954041,
    22.490415272063395,
    22.432787839500456,
    22.815224437418134,
    21.804124938813846,
    22.553281562132053,
    22.39087697945468,
    23.44388733810475,
    21.798886081308126,
    22.087023244122825,
    22.076545529111378,
    22.128934104168597,
    21.269761473230226,
    21.777930651285235,
    21.746497506250915,
    22.312294116868852,
    21.95605180647977,
    20.96590773789837,
    20.90304144782971,
    22.118456389157156,
    21.301194618264564,
    22.495654129569118,
    21.442643770919044,
    21.819841511331013,
    22.149889534191487,
    20.971146595404097,
    20.971146595404093,
    21.819841511331013,
    22.652819854740773,
    21.468838058447663,
    22.406593551971856,
    21.51598777599915,
    22.33848840439746,
    22.312294116868852,
    21.935096376456887,
    21.149267750598632,
    21.69934778869941,
    22.30181640185742,
    22.652819854740777,
    21.369299765838942,
    21.882707801399675,
    21.458360343436212,
    23.627247350805018,
    22.972390162589786,
    21.662675786159365,
    21.468838058447663
  ],
  "actuators": {
    "values": [
      39,
      37,
      100,
      14,
      37,
      47,
      6,
      0,
      53,
      18,
      11,
      0,
      41,
      44,
      0,
      0,
      66,
      61,
      14,
      51,
      85,
      48,
      47,
      55,
      81,
      65,
      43,
      66,
      35,
      49,
      48,
      59,
      27,
      100,
      7,
      48,
      89,
      100,
      41,
      46,
      72,
      89,
      92,
      38,
      10,
      40,
      73,
      29,
      11,
      71,
      28,
      46,
      80,
      39
    ],
    "forced": [
      false,
      false,
      false,
      false,
      false,
      false,
      false,
      false,
      false,
      false,
      false,
      false,
      false,
      false,
      false,
      false,
      false,
      false,
      false,
      false,
      false,
      false,
      false,
      false,
      false,
      false,
      false,
      false,
      false,
      false,
      false,
      false,
      false,
      false,
      false,
      false,
      false,
      false,
      false,
      false,
      false,
      false,
      false,
      false,
      false,
      false,
      false,
      false,
      false,
      false,
      false,
      false,
      false,
      false
    ]
  },
  "old_actuators": {
    "values": [
      38,
      37,
      100,
      14,
      38,
      47,
      6,
      0,
      52,
      19,
      12,
      0,
      40,
      45,
      0,
      0,
      66,
      62,
      14,
      51,
      85,
      48,
      47,
      55,
      81,
      64,
      43,
      66,
      35,
      49,
      48,
      60,
      28,
      100,
      5,
      49,
      91,
      100,
      41,
      46,
      73,
      89,
      92,
      38,
      10,
      40,
      74,
      28,
      9,
      70,
      30,
      46,
      80,
      38
    ],
    "forced": [
      false,
      false,
      false,
      false,
      false,
      false,
      false,
      false,
      false,
      false,
      false,
      false,
      false,
      false,
      false,
      false,
      false,
      false,
      false,
      false,
      false,
      false,
      false,
      false,
      false,
      false,
      false,
      false,
      false,
      false,
      false,
      false,
      false,
      false,
      false,
      false,
      false,
      false,
      false,
      false,
      false,
      false,
      false,
      false,
      false,
      false,
      false,
      false,
      false,
      false,
      false,
      false,
      false,
      false
    ]
  },
  "average_zones_profile": [
    21.385377349920493,
    22.146468097917413,
    20.606278986553345,
    21.80590736472738,
    23.009494609728286,
    22.153293283921073,
    21.650339472893286,
    21.982314195790373,
    21.331403407963876,
    22.293520931693337,
    22.28807065988108,
    22.25344232897089,
    21.581752530109927,
    22.584547904163326,
    22.19702489645056,
    23.398474027108314,
    22.13985576861809,
    22.24498527591009,
    22.042455109553266,
    21.977791557479396,
    21.433983957938523,
    21.932086744755544,
    21.55553475210282,
    22.412135416044592,
    22.08344984093737,
    21.320996164387942,
    21.63741874811739,
    22.714991046439664,
    21.37441832049935,
    22.161151570179655,
    21.85789708244929,
    22.55010797788045,
    22.837141088205442,
    21.318423716592093,
    21.045850197784645,
    22.68509676814699,
    23.26253411286198,
    21.717833868026553,
    22.293145084037278,
    21.7414087268023,
    22.651079189677922,
    22.20186441582171,
    22.267667496502675,
    21.765723776050564,
    21.456677683370724,
    21.926647977782906,
    22.37212728475767,
    21.167048634771376,
    21.17454257821351,
    21.395890541049326,
    23.248731773943284,
    22.635749969656437,
    21.435745743826345,
    21.292099991032075
  ],
  "thickness_difference ": [
    -2.793739318543215,
    0.0,
    -6.335095515666612,
    0.0,
    4.588611862401299,
    0.0,
    -1.5893660323032452,
    0.0,
    -3.0390754183460187,
    1.3341860531515304,
    1.3094120903685407,
    1.1520105862313235,
    -1.901124863136694,
    2.657035928015119,
    0.0,
    6.35670012321961,
    0.0,
    1.113569435954951,
    0.0,
    0.0,
    -2.572800191188533,
    0.0,
    -2.020296581350823,
    1.87334280020269,
    0.0,
    -3.086381070963898,
    -1.6480965994664067,
    3.249959301998473,
    -2.8435530886393257,
    0.0,
    0.0,
    2.500490808547504,
    3.8051867645701907,
    -3.098074015490485,
    -4.337044555524339,
    3.1140762188499593,
    5.738791422099916,
    -1.2825733271520339,
    1.332477654714898,
    -1.1754148781713558,
    2.9594508621723747,
    0.0,
    1.216670438648522,
    -1.064891927042892,
    -2.469646893769434,
    0.0,
    1.691487657989412,
    -3.7861425692210173,
    -3.752079189938584,
    -2.745952086139428,
    5.676053517924018,
    2.889772589347443,
    -2.5647920735166125,
    -3.2177273134905704
  ],
  "dynamic_gain": [
    0.5,
    0.5,
    0.5,
    0.5,
    0.5,
    0.5,
    0.5,
    0.5,
    0.5,
    0.5,
    0.5,
    0.5,
    0.5,
    0.5,
    0.5,
    0.5,
    0.5,
    0.5,
    0.5,
    0.5,
    0.5,
    0.5,
    0.5,
    0.5,
    0.5,
    0.5,
    0.5,
    0.5,
    0.5,
    0.5,
    0.5,
    0.5,
    0.5,
    0.5,
    0.5,
    0.5,
    0.5,
    0.5,
    0.5,
    0.5,
    0.5,
    0.5,
    0.5,
    0.5,
    0.5,
    0.5,
    0.5,
    0.5,
    0.5,
    0.5,
    0.5,
    0.5,
    0.5,
    0.5
  ],
  "value_map": {
    "next": "-0.05",
    "prev": "-0.05",
    "default": "-0.05"
  },
  "actuation_variation": [
    -0.8487214954366484,
    -0.22822087085524573,
    -1.7421512668083186,
    -0.043662091331632846,
    1.2618682621603574,
    0.07498114575245135,
    -0.4370756588833925,
    -0.11571103626623161,
    -0.802391088716367,
    0.32365958141723394,
    0.42224324083592013,
    0.30201009189441014,
    -0.42758317450642974,
    0.6831567586257404,
    0.22534340128086822,
    1.7480925338853928,
    0.186756738979364,
    0.3062315948876116,
    0.027839235898873778,
    -0.06432000477971332,
    -0.7075200525768466,
    -0.1148274193134839,
    -0.5087479898664091,
    0.46466185552196915,
    -0.03032595676903021,
    -0.8899572095017323,
    -0.44913710907739757,
    0.7814475658469369,
    -0.7007281168258528,
    -0.07108882721598314,
    0.0625122702136876,
    0.7827646414648185,
    1.031486780083228,
    -0.8652667990337372,
    -1.1922871976852065,
    0.8914146318481283,
    1.623955213369925,
    -0.17592593804643897,
    0.3049816499135122,
    -0.21594087857494104,
    0.7844636151431192,
    0.10440303252052242,
    0.3079620724522713,
    -0.32416969131481815,
    -0.7057751939626667,
    -0.019453980894500546,
    0.3705055417165629,
    -1.0927039948345092,
    -1.1951241436171218,
    -0.7070374654887069,
    1.5645102300093054,
    0.872468998180732,
    -0.7135166883206466,
    -1.0188382960114026
  ]
}