{
  "parameters": {
    "integral_band": 0,
    "dead_band": 1,
    "small_gain": 50.0,
    "large_gain": 80.0,
    "large_gain_regulations": 3,
    "valves_min": 0,
    "valves_max": 100,
    "matrix_minor": 10,
    "matrix_major": 55,
    "profiles_directions_used_for_regulation": 0,
    "profiles_to_average": 2,
    "profiles_for_first_regulation": 1,
    "profiles_for_regulation": 10,
    "phase_shift_misDx_haulDx": 0,
    "phase_shift_misDx_haulSx": 0,
    "phase_shift_misSx_haulDx": 0,
    "phase_shift_misSx_haulSx": 0,
    "revert_regulation": 0,
    "disturbation_type": 0,
    "disturbation_amount": 0.0,
    "disturbation_amplitude": 1.0,
    "disturbation_cycles": 1,
    "disturbation_frequency": 1,
    "measurer_speed_default": 2,
    "measurer_speed_control": 0,
    "measurer_speed_min": 3,
    "measurer_speed_max": 7,
    "measurer_twoSigma_for_speed_min": 2.0,
    "measurer_twoSigma_for_speed_max": 10.0
  },
  "production": {
    "line_speed": 45.0,
    "layflat": 1640.0,
    "thickness": 22.0
  },
  "status": {
    "application": {
      "measurer_active": true,
      "actuation_active": true
    },
    "measurer": {
      "is_valid": true,
      "reason_is_valid": "none",
      "direction": -1,
      "speed": 0
    },
    "hauloff": {
      "direction": 0,
      "position": 0,
      "speed": 0,
      "last_period": 0
    }
  },
  "stats": {
    "min_thickness": 20.704716045885853,
    "max_thickness": 23.830052400509853,
    "mean_thickness": 22.000000000000004,
    "sigma_perc": 6.016305949515481,
    "sigma_abs": 1.3235873088934063,
    "stdDev": 0.6617936544467031
  },
  "rawProfile": [
    19.8,
    20.4,
    21.2,
    21.3,
    22.5,
    22.5,
    21.3,
    21.3,
    23.5,
    22.3,
    21.9,
    21.8,
    21.7,
    20.4,
    21.5,
    21.9,
    21.3,
    19.5,
    21.7,
    21.4,
    21.6,
    22.5,
    22.6,
    21.4,
    21.6,
    21.3,
    20.9,
    22.7,
    22.1,
    22.5,
    21.4,
    20.6,
    21.3,
    21.9,
    20.7,
    21.3,
    20.3,
    22.1,
    21.6,
    20.7,
    21.0,
    20.7,
    21.2,
    21.2,
    21.3,
    21.2,
    22.5,
    21.7,
    22.2,
    21.1,
    20.6,
    22.1,
    21.5,
    22.5,
    22.0,
    22.0,
    21.0,
    21.0,
    20.5,
    20.3,
    21.2,
    20.9,
    20.2,
    21.3,
    22.2,
    21.4,
    21.3,
    21.0,
    20.6,
    21.9,
    22.0,
    22.7,
    23.8,
    24.9,
    22.5,
    23.5,
    21.9,
    22.8,
    21.3,
    20.4,
    20.2,
    20.0,
    20.4,
    20.4,
    19.9,
    21.4,
    21.7,
    20.9,
    20.3,
    20.3,
    19.8,
    22.0,
    22.9,
    22.6,
    21.4,
    21.7,
    22.7,
    21.9,
    21.2,
    21.4,
    22.0,
    23.3,
    23.0,
    21.7,
    22.0,
    21.3,
    21.4,
    21.4,
    21.8,
    22.3,
    22.0,
    20.5,
    20.4,
    21.1,
    20.6,
    21.0,
    21.9,
    22.5,
    21.3,
    22.5,
    24.1,
    23.4,
    21.8,
    22.5,
    20.1,
    20.9,
    20.5,
    21.2,
    21.2,
    21.5,
    22.5,
    21.2,
    21.2,
    21.1,
    21.3,
    21.4,
    21.7,
    20.4,
    20.9,
    22.5,
    21.4,
    21.4,
    22.5,
    21.9,
    21.7,
    18.5,
    23.6,
    24.2,
    23.9,
    23.6,
    21.4,
    22.6,
    22.1,
    22.5,
    23.2,
    23.6,
    24.3,
    24.3,
    22.8,
    22.6,
    22.5,
    23.0,
    21.9,
    20.2,
    21.4,
    20.4,
    21.2,
    22.8,
    21.5,
    21.8,
    22.1,
    23.7,
    22.3,
    22.9,
    24.3,
    24.0,
    22.6,
    23.3,
    22.5,
    21.0,
    21.4,
    19.6,
    20.8,
    20.1,
    20.2,
    21.2,
    22.0,
    21.2,
    22.6,
    23.0,
    23.3,
    22.6,
    22.1,
    21.9,
    21.6,
    20.7,
    19.9,
    20.7,
    20.5,
    22.5,
    22.5,
    23.6,
    23.3,
    23.3,
    22.9,
    21.4,
    21.3,
    21.6,
    21.3,
    20.7,
    21.4,
    20.5,
    19.9,
    22.0,
    22.3,
    21.8,
    21.2,
    22.3,
    20.8,
    21.4,
    20.8,
    20.8,
    21.5,
    21.6,
    21.2,
    21.3,
    21.3,
    20.0,
    20.3,
    20.3,
    21.0,
    19.7,
    20.3,
    20.0,
    21.0,
    21.3,
    21.8,
    22.1,
    22.2,
    24.1,
    24.6,
    24.1,
    22.7,
    21.4,
    21.1,
    20.7,
    21.4,
    21.7,
    20.6,
    21.3,
    21.1,
    21.2,
    20.4,
    21.3,
    21.4,
    21.2,
    20.3,
    20.7,
    22.1,
    20.8,
    20.4,
    21.4,
    21.3,
    20.9,
    20.7,
    21.7,
    21.3,
    20.4,
    21.4,
    21.3,
    21.6,
    22.2,
    21.3,
    21.4,
    20.3,
    19.5,
    21.6,
    22.1,
    21.4,
    20.6,
    18.9,
    19.9,
    20.1,
    20.6,
    21.4,
    21.5,
    21.3,
    22.1,
    22.1,
    21.4,
    21.2,
    21.2,
    21.3,
    21.8,
    21.2,
    21.4,
    23.3,
    23.4,
    22.3,
    24.0,
    21.5,
    23.8,
    23.2,
    23.0,
    21.2,
    20.6,
    21.4,
    20.1,
    22.1,
    22.5,
    22.1,
    19.8,
    20.4,
    21.1,
    22.1,
    21.1,
    20.9,
    22.5,
    22.1,
    19.8,
    20.6,
    19.7,
    21.6,
    21.6,
    21.8,
    22.8,
    22.0,
    21.4,
    21.5,
    20.9,
    20.0,
    20.5,
    20.0,
    20.2,
    20.9,
    20.4,
    21.5,
    20.5,
    21.4,
    20.1,
    20.5,
    21.7,
    21.7,
    21.9,
    21.2,
    21.2,
    20.5,
    21.7,
    21.2,
    22.3,
    23.2,
    22.3,
    22.1,
    21.4,
    21.6,
    21.8,
    22.1,
    22.1,
    23.4,
    21.5
  ],
  "zonesProfile": [
    21.489873955530374,
    22.856252655431252,
    21.102393428692817,
    23.396686021809945,
    22.77467780767597,
    21.953830902138503,
    23.830052400509853,
    23.427276589718172,
    21.892649766322055,
    21.760090638719728,
    21.821271774536186,
    22.40249256479253,
    22.004815181985563,
    21.805976490582072,
    22.570740688287778,
    22.234244441297257,
    21.561251947316247,
    20.918850021243443,
    22.789973091630085,
    22.545248548364256,
    21.627531511117404,
    21.688712646933865,
    22.055799461832606,
    21.658122079025635,
    21.612236227163297,
    22.1577680215267,
    22.16796487749611,
    21.551055091346836,
    22.392295708823116,
    21.704007930887983,
    22.44837841665487,
    22.448378416654872,
    21.698909502903266,
    21.148279280555165,
    21.163574564509275,
    21.8365670584903,
    21.80597649058208,
    21.591842515224474,
    22.570740688287778,
    22.963319643110047,
    21.97422461407733,
    20.893357881319925,
    21.377708539866877,
    21.785582778643256,
    21.505169239484495,
    21.520464523438612,
    21.49497238351508,
    22.76957937969126,
    22.30562243308314,
    20.704716045885853,
    21.627531511117407,
    22.096586885710238,
    21.38790539583628,
    23.12646933862059
  ],
  "actuators": {
    "values": [
      54,
      49,
      64,
      32,
      58,
      45,
      38,
      49,
      62,
      47,
      42,
      33,
      52,
      36,
      37,
      36,
      61,
      47,
      30,
      51,
      68,
      39,
      41,
      58,
      54,
      51,
      53,
      46,
      34,
      53,
      49,
      46,
      38,
      65,
      57,
      55,
      61,
      61,
      42,
      55,
      64,
      82,
      69,
      52,
      39,
      51,
      54,
      31,
      53,
      64,
      35,
      52,
      58,
      47
    ],
    "forced": [
      false,
      false,
      false,
      false,
      false,
      false,
      false,
      false,
      false,
      false,
      false,
      false,
      false,
      false,
      false,
      false,
      false,
      false,
      false,
      false,
      false,
      false,
      false,
      false,
      false,
      false,
      false,
      false,
      false,
      false,
      false,
      false,
      false,
      false,
      false,
      false,
      false,
      false,
      false,
      false,
      false,
      false,
      false,
      false,
      false,
      false,
      false,
      false,
      false,
      false,
      false,
      false,
      false,
      false
    ]
  },
  "old_actuators": {
    "values": [
      54,
      50,
      63,
      33,
      59,
      45,
      39,
      50,
      61,
      46,
      42,
      34,
      52,
      36,
      37,
      36,
      60,
      46,
      30,
      52,
      67,
      38,
      41,
      58,
      53,
      52,
      53,
      46,
      34,
      54,
      50,
      46,
      38,
      64,
      56,
      54,
      60,
      61,
      43,
      56,
      64,
      81,
      69,
      52,
      39,
      50,
      54,
      32,
      52,
      63,
      34,
      52,
      58,
      48
    ],
    "forced": [
      false,
      false,
      false,
      false,
      false,
      false,
      false,
      false,
      false,
      false,
      false,
      false,
      false,
      false,
      false,
      false,
      false,
      false,
      false,
      false,
      false,
      false,
      false,
      false,
      false,
      false,
      false,
      false,
      false,
      false,
      false,
      false,
      false,
      false,
      false,
      false,
      false,
      false,
      false,
      false,
      false,
      false,
      false,
      false,
      false,
      false,
      false,
      false,
      false,
      false,
      false,
      false,
      false,
      false
    ]
  },
  "average_zones_profile": [
    21.45920051557792,
    22.608561504037063,
    20.6302373601253,
    23.042706675493214,
    22.467880157621845,
    21.65531963207362,
    22.588307616000954,
    22.51498884206356,
    21.360906653361024,
    21.740307667035214,
    21.517321354655742,
    22.622451425859563,
    22.25968424618928,
    22.045002682174946,
    22.45812137257782,
    22.566502573032786,
    21.423170797854134,
    21.37859915876795,
    22.206582623536193,
    22.73993430497047,
    21.507538232338085,
    21.632899957525556,
    21.931705583287524,
    21.971075476396727,
    21.32571657157756,
    22.27981024811814,
    22.274663145586167,
    21.799718381615563,
    22.102515089411945,
    21.87875618401531,
    22.63258743864489,
    22.402063002019702,
    22.342378608531657,
    21.544541441007187,
    21.21152519330481,
    22.006508930916517,
    21.939985994379036,
    21.64593807477091,
    22.616927095586284,
    22.98482920915172,
    21.995934847205802,
    21.107153443260152,
    21.99991996034248,
    22.019437530430523,
    22.117439345363834,
    21.64866981831551,
    21.840834358687246,
    23.082624157259147,
    21.831215397545943,
    20.656800340088665,
    21.812342765209166,
    22.203114792884868,
    21.356988583147498,
    23.010053639065276
  ],
  "thickness_difference ": [
    -2.458179474645822,
    2.7661886547139214,
    -6.226193817612275,
    4.7395757976964275,
    2.1267279891902064,
    -1.5667289451199065,
    2.6741255272770625,
    2.340858373016178,
    -2.904969757449891,
    -1.1804196952944808,
    -2.1939938424739,
    2.8293246629980118,
    1.1803829372240024,
    0.0,
    2.082369875353733,
    2.5750116956035707,
    -2.621950918844847,
    -2.824549278327495,
    0.0,
    3.363337749865765,
    -2.2384625802814315,
    -1.668636556702019,
    0.0,
    0.0,
    -3.0649246746474614,
    1.2718647641733583,
    1.2484688435734885,
    0.0,
    0.0,
    0.0,
    2.8753974483858644,
    1.8275591000895537,
    1.5562664024166233,
    -2.0702661772400597,
    -3.5839763940690523,
    0.0,
    0.0,
    -1.6093723874049524,
    2.8042140708467467,
    4.476496405235088,
    0.0,
    -4.05839343972658,
    0.0,
    0.0,
    0.0,
    -1.5969553712931306,
    0.0,
    4.921018896632487,
    0.0,
    -6.105452999596976,
    0.0,
    0.0,
    -2.9227791675113743,
    4.591152904842166
  ],
  "dynamic_gain": [
    0.5,
    0.5,
    0.5,
    0.5,
    0.5,
    0.5,
    0.5,
    0.5,
    0.5,
    0.5,
    0.5,
    0.5,
    0.5,
    0.5,
    0.5,
    0.5,
    0.5,
    0.5,
    0.5,
    0.5,
    0.5,
    0.5,
    0.5,
    0.5,
    0.5,
    0.5,
    0.5,
    0.5,
    0.5,
    0.5,
    0.5,
    0.5,
    0.5,
    0.5,
    0.5,
    0.5,
    0.5,
    0.5,
    0.5,
    0.5,
    0.5,
    0.5,
    0.5,
    0.5,
    0.5,
    0.5,
    0.5,
    0.5,
    0.5,
    0.5,
    0.5,
    0.5,
    0.5,
    0.5
  ],
  "value_map": {
    "next": "-0.05",
    "prev": "-0.05",
    "default": "-0.05"
  },
  "actuation_variation": [
    -0.4920658165386989,
    0.543592547739876,
    -1.5245591885331171,
    1.200896698655966,
    0.6641713683417199,
    -0.3108291219962926,
    0.754737755698599,
    0.6379649468251283,
    -0.7698557163556777,
    -0.452089506204077,
    -0.5621256824877342,
    0.7527240096932059,
    0.395338424311551,
    0.08156882031444339,
    0.6370270081123659,
    0.6946386902037042,
    -0.7272749422504312,
    -0.8422998245111823,
    0.013469711788456754,
    0.8689563167060497,
    -0.5732096797483001,
    -0.514836617600091,
    -0.04171591391755047,
    -0.07662311686618654,
    -0.811057666423718,
    0.30435141437082425,
    0.3751255510870433,
    0.031211721089337216,
    0.0,
    0.07188493620964662,
    0.8364232758083516,
    0.6133703487946895,
    0.4219055837358088,
    -0.6200159485323272,
    -1.037350162799991,
    -0.08959940985172632,
    -0.040234309685123815,
    -0.3724720547651933,
    0.8428369699286089,
    1.301141863210818,
    0.010452574137712708,
    -1.1160581959248097,
    -0.10145983599316451,
    0.0,
    -0.039923884282328265,
    -0.43916272710561094,
    0.08310158813348391,
    1.3532801965739338,
    -0.029610852574112237,
    -1.6789995748891686,
    -0.1526363249899244,
    -0.07306947918778436,
    -0.6889854484445739,
    1.1280430827776657
  ]
}