{
  "parameters": {
    "integral_band": 0,
    "dead_band": 1,
    "small_gain": 50.0,
    "large_gain": 80.0,
    "large_gain_regulations": 3,
    "valves_min": 0,
    "valves_max": 100,
    "matrix_minor": 10,
    "matrix_major": 55,
    "profiles_directions_used_for_regulation": 0,
    "profiles_to_average": 2,
    "profiles_for_first_regulation": 1,
    "profiles_for_regulation": 10,
    "phase_shift_misDx_haulDx": 0,
    "phase_shift_misDx_haulSx": 0,
    "phase_shift_misSx_haulDx": 0,
    "phase_shift_misSx_haulSx": 0,
    "revert_regulation": 0,
    "disturbation_type": 0,
    "disturbation_amount": 0.0,
    "disturbation_amplitude": 1.0,
    "disturbation_cycles": 1,
    "disturbation_frequency": 1,
    "measurer_speed_default": 2,
    "measurer_speed_control": 0,
    "measurer_speed_min": 3,
    "measurer_speed_max": 7,
    "measurer_twoSigma_for_speed_min": 2.0,
    "measurer_twoSigma_for_speed_max": 10.0
  },
  "production": {
    "line_speed": 45.0,
    "layflat": 1640.0,
    "thickness": 22.0
  },
  "status": {
    "application": {
      "measurer_active": true,
      "actuation_active": true
    },
    "measurer": {
      "is_valid": true,
      "reason_is_valid": "none",
      "direction": -1,
      "speed": 0
    },
    "hauloff": {
      "direction": 0,
      "position": 0,
      "speed": 0,
      "last_period": 0
    }
  },
  "stats": {
    "min_thickness": 20.39007564770901,
    "max_thickness": 23.732371732058166,
    "mean_thickness": 21.999999999999996,
    "sigma_perc": 6.532720311709146,
    "sigma_abs": 1.437198468576012,
    "stdDev": 0.718599234288006
  },
  "rawProfile": [
    20.7,
    19.9,
    21.3,
    21.2,
    22.5,
    20.7,
    20.4,
    20.9,
    21.2,
    22.0,
    20.5,
    21.4,
    21.1,
    21.5,
    21.7,
    21.4,
    22.5,
    21.9,
    23.0,
    22.1,
    20.8,
    20.4,
    20.5,
    20.9,
    20.8,
    21.7,
    20.9,
    21.4,
    22.0,
    23.4,
    20.6,
    20.6,
    21.3,
    20.6,
    20.9,
    21.4,
    21.2,
    20.6,
    21.0,
    21.3,
    21.0,
    20.4,
    21.9,
    22.6,
    22.8,
    22.5,
    21.7,
    20.6,
    20.7,
    19.9,
    19.6,
    19.2,
    21.4,
    21.3,
    21.8,
    21.2,
    20.7,
    21.0,
    21.2,
    21.3,
    21.6,
    21.4,
    19.8,
    20.7,
    19.9,
    20.0,
    19.3,
    20.6,
    21.1,
    20.0,
    19.6,
    20.4,
    20.4,
    20.3,
    19.6,
    19.8,
    20.5,
    21.1,
    21.3,
    21.7,
    21.7,
    21.7,
    21.6,
    21.0,
    20.6,
    20.7,
    21.3,
    19.6,
    19.7,
    20.5,
    21.6,
    21.5,
    22.9,
    23.1,
    23.8,
    23.5,
    22.9,
    22.8,
    22.3,
    22.2,
    21.9,
    21.9,
    21.1,
    19.5,
    20.6,
    21.6,
    21.4,
    21.8,
    22.1,
    22.1,
    21.0,
    22.5,
    21.4,
    22.0,
    20.4,
    21.2,
    21.3,
    20.4,
    21.0,
    21.6,
    23.3,
    23.2,
    22.7,
    22.0,
    22.3,
    21.0,
    20.4,
    21.4,
    23.0,
    21.9,
    22.5,
    22.2,
    21.9,
    22.1,
    20.8,
    21.4,
    21.8,
    21.2,
    21.3,
    21.2,
    20.9,
    20.4,
    21.1,
    21.6,
    21.2,
    19.5,
    21.4,
    22.1,
    22.1,
    21.9,
    21.2,
    21.2,
    22.2,
    21.0,
    21.1,
    21.1,
    21.7,
    21.2,
    21.8,
    21.8,
    20.7,
    21.7,
    20.9,
    20.7,
    20.2,
    21.0,
    21.0,
    21.3,
    20.7,
    22.5,
    21.9,
    22.0,
    21.7,
    22.5,
    22.1,
    21.4,
    22.0,
    21.7,
    20.2,
    19.6,
    18.9,
    19.1,
    19.2,
    18.7,
    19.6,
    20.8,
    22.6,
    20.6,
    20.7,
    22.9,
    22.9,
    21.5,
    21.4,
    22.3,
    22.3,
    21.5,
    21.1,
    21.5,
    20.1,
    20.4,
    20.4,
    22.0,
    21.2,
    21.4,
    20.8,
    22.8,
    22.1,
    21.9,
    20.4,
    19.4,
    20.1,
    20.5,
    20.7,
    20.6,
    21.6,
    21.1,
    20.3,
    19.8,
    19.5,
    19.2,
    20.0,
    21.2,
    20.4,
    19.2,
    20.4,
    20.9,
    21.3,
    21.5,
    22.1,
    23.2,
    22.5,
    24.1,
    23.3,
    23.1,
    22.9,
    22.8,
    21.4,
    21.4,
    21.4,
    21.5,
    21.8,
    21.4,
    20.4,
    20.7,
    20.7,
    20.8,
    21.7,
    22.8,
    22.1,
    22.8,
    22.5,
    21.4,
    22.9,
    22.3,
    21.6,
    21.6,
    22.3,
    23.0,
    21.8,
    21.6,
    21.5,
    21.6,
    22.5,
    22.5,
    23.5,
    22.7,
    22.0,
    20.9,
    20.7,
    21.1,
    22.8,
    21.4,
    21.4,
    21.5,
    21.5,
    23.1,
    22.7,
    22.1,
    21.0,
    20.7,
    22.3,
    21.6,
    21.4,
    20.5,
    21.3,
    21.3,
    22.3,
    21.6,
    22.3,
    21.9,
    22.1,
    21.4,
    21.1,
    21.6,
    21.8,
    21.1,
    21.4,
    20.2,
    21.8,
    22.3,
    21.9,
    21.6,
    21.4,
    21.4,
    19.7,
    20.3,
    21.1,
    21.3,
    21.3,
    20.1,
    19.1,
    19.2,
    20.3,
    21.1,
    20.1,
    19.9,
    19.3,
    19.1,
    20.7,
    20.7,
    20.7,
    20.8,
    20.0,
    21.7,
    22.1,
    23.3,
    24.1,
    22.6,
    22.0,
    20.7,
    20.6,
    20.8,
    20.8,
    19.9,
    20.2,
    20.2,
    20.4,
    20.3,
    18.9,
    18.6,
    19.6,
    20.7,
    21.1,
    20.9,
    20.7,
    21.3,
    20.2,
    20.5,
    20.7,
    20.2,
    20.5,
    22.9,
    21.1,
    19.9,
    20.6,
    21.4,
    21.1,
    20.6,
    22.3,
    22.3
  ],
  "zonesProfile": [
    22.004311527456586,
    22.50099949045584,
    20.39007564770901,
    22.04052835809195,
    22.444087328028843,
    21.6059263904676,
    22.149178849998037,
    22.4803041586642,
    21.569709559832233,
    22.10778818641477,
    22.8269509661741,
    22.987339787559275,
    21.81805354133187,
    22.563085485830747,
    21.86461803786305,
    23.732371732058166,
    21.82322737427977,
    21.962920863873318,
    21.34723474307216,
    21.000587935562255,
    21.15062909105162,
    21.947399365029586,
    21.06784776388507,
    22.60964998236193,
    21.750793713009056,
    22.21643867832086,
    21.580057225728055,
    22.806255634382467,
    21.8956610355505,
    21.714576882373684,
    21.97326852976914,
    21.616274056363416,
    21.383451573707518,
    20.467683141927644,
    22.066397522831497,
    22.454434993924668,
    20.778113118802178,
    21.010935601458076,
    21.787010543644413,
    22.19574334652922,
    22.511347156351665,
    22.23713401011249,
    22.573433151726565,
    22.16470034884176,
    23.121859444204908,
    22.78038646964293,
    23.15290244189236,
    21.771489044800685,
    22.785560302590827,
    23.51507074824599,
    21.15580292399952,
    20.99024026966644,
    21.300670246540978,
    22.24748167600831
  ],
  "actuators": {
    "values": [
      44,
      34,
      100,
      1,
      33,
      47,
      0,
      0,
      53,
      28,
      19,
      0,
      41,
      53,
      0,
      0,
      70,
      69,
      21,
      39,
      83,
      54,
      38,
      53,
      76,
      59,
      51,
      70,
      43,
      51,
      56,
      57,
      21,
      100,
      18,
      65,
      100,
      100,
      38,
      52,
      94,
      98,
      97,
      43,
      13,
      54,
      76,
      17,
      21,
      85,
      34,
      26,
      54,
      18
    ],
    "forced": [
      false,
      false,
      false,
      false,
      false,
      false,
      false,
      false,
      false,
      false,
      false,
      false,
      false,
      false,
      false,
      false,
      false,
      false,
      false,
      false,
      false,
      false,
      false,
      false,
      false,
      false,
      false,
      false,
      false,
      false,
      false,
      false,
      false,
      false,
      false,
      false,
      false,
      false,
      false,
      false,
      false,
      false,
      false,
      false,
      false,
      false,
      false,
      false,
      false,
      false,
      false,
      false,
      false,
      false
    ]
  },
  "old_actuators": {
    "values": [
      45,
      35,
      100,
      1,
      33,
      47,
      0,
      0,
      53,
      28,
      19,
      0,
      41,
      54,
      0,
      0,
      70,
      69,
      20,
      37,
      82,
      54,
      37,
      53,
      76,
      59,
      51,
      71,
      42,
      51,
      56,
      57,
      20,
      100,
      18,
      65,
      100,
      100,
      38,
      52,
      95,
      99,
      98,
      43,
      15,
      54,
      78,
      17,
      22,
      88,
      34,
      25,
      54,
      19
    ],
    "forced": [
      false,
      false,
      false,
      false,
      false,
      false,
      false,
      false,
      false,
      false,
      false,
      false,
      false,
      false,
      false,
      false,
      false,
      false,
      false,
      false,
      false,
      false,
      false,
      false,
      false,
      false,
      false,
      false,
      false,
      false,
      false,
      false,
      false,
      false,
      false,
      false,
      false,
      false,
      false,
      false,
      false,
      false,
      false,
      false,
      false,
      false,
      false,
      false,
      false,
      false,
      false,
      false,
      false,
      false
    ]
  },
  "average_zones_profile": [
    22.44318430063717,
    22.980154229317904,
    20.543968182240263,
    21.954247133069117,
    22.135224747970454,
    21.77334942187437,
    22.291997858686493,
    22.20013737093913,
    21.33920360521455,
    22.24790042306936,
    22.42026498234506,
    22.64867271726579,
    22.058829126635306,
    22.537954682978672,
    21.74928145382719,
    23.20320505260242,
    21.736386823310717,
    21.691823282738397,
    21.396981391129763,
    20.97663578032791,
    21.350683240287253,
    21.689263000833307,
    21.12987644737518,
    22.257009581512825,
    21.798978875494115,
    22.164413279827823,
    21.854023254806588,
    22.34751170624793,
    21.608788927167616,
    21.983688693330723,
    21.95702049152515,
    21.88253260515782,
    21.59710616953463,
    20.38255392995367,
    21.9203775077879,
    22.002586191723786,
    20.92260351463242,
    20.79199254891347,
    21.58826672007362,
    22.187868652791053,
    22.670699777500822,
    22.55439507444834,
    22.452120334382986,
    21.857718869182328,
    22.93695241505162,
    22.529594655757286,
    23.204696588459015,
    22.012144774544225,
    22.9196164022311,
    23.72641136398471,
    21.63929587018393,
    21.676125295903255,
    21.657124622528503,
    22.41655605068489
  ],
  "thickness_difference ": [
    2.0144740938053216,
    4.455246496899563,
    -6.618326444362439,
    0.0,
    0.0,
    -1.0302299005710387,
    1.3272629940295129,
    0.0,
    -3.0036199762975,
    1.1268201048607291,
    1.9102953742957272,
    2.9485123512081333,
    0.0,
    2.445248558993963,
    -1.139629755330951,
    5.469113875465548,
    -1.198241712224014,
    -1.4008032602800118,
    -2.7409936766828933,
    -4.651655543964043,
    -2.9514398168761216,
    -1.4124409053031493,
    -3.955107057385538,
    1.1682253705128431,
    0.0,
    0.0,
    0.0,
    1.5795986647633111,
    -1.7782321492381084,
    0.0,
    0.0,
    0.0,
    -1.831335593024409,
    -7.352027591119685,
    0.0,
    0.0,
    -4.897256751670815,
    -5.4909429594842285,
    -1.8715149087562757,
    0.0,
    3.048635352276463,
    2.51997761112882,
    2.055092429013573,
    0.0,
    4.258874613871006,
    2.407248435260392,
    5.475893583904614,
    0.0,
    4.180074555595907,
    7.84732438174868,
    -1.639564226436686,
    -1.472157745894297,
    -1.558524443052259,
    1.893436594022223
  ],
  "dynamic_gain": [
    0.5,
    0.5,
    0.5,
    0.5,
    0.5,
    0.5,
    0.5,
    0.5,
    0.5,
    0.5,
    0.5,
    0.5,
    0.5,
    0.5,
    0.5,
    0.5,
    0.5,
    0.5,
    0.5,
    0.5,
    0.5,
    0.5,
    0.5,
    0.5,
    0.5,
    0.5,
    0.5,
    0.5,
    0.5,
    0.5,
    0.5,
    0.5,
    0.5,
    0.5,
    0.5,
    0.5,
    0.5,
    0.5,
    0.5,
    0.5,
    0.5,
    0.5,
    0.5,
    0.5,
    0.5,
    0.5,
    0.5,
    0.5,
    0.5,
    0.5,
    0.5,
    0.5,
    0.5,
    0.5
  ],
  "value_map": {
    "next": "-0.05",
    "prev": "-0.05",
    "default": "-0.05"
  },
  "actuation_variation": [
    0.7126974530695082,
    1.110096477883452,
    -1.7086586097771819,
    -0.16545816110906097,
    -0.025755747514275968,
    -0.2501316478062979,
    0.3392415758438401,
    -0.04190892455669968,
    -0.7978249908602945,
    0.28254241378665623,
    0.6272145393330466,
    0.8585982809396299,
    0.13484402275505242,
    0.6439526098400661,
    -0.11553912185452367,
    1.4455595290641519,
    -0.22780870548196547,
    -0.4837017812996759,
    -0.9050847311938971,
    -1.4215161119290873,
    -0.9632483608726132,
    -0.5610849208149076,
    -1.0937598291507808,
    0.2223843004563934,
    0.02920563426282108,
    0.0,
    0.03948996661908278,
    0.3899338290789579,
    -0.4495238744213971,
    -0.04445580373095271,
    0.0,
    -0.04578338982561023,
    -0.6874179778597047,
    -2.067590977383524,
    -0.18380068977799213,
    -0.12243141879177039,
    -1.48401918069658,
    -1.67922860536884,
    -0.6519401738950815,
    0.029428011088004684,
    0.9013741621542479,
    0.8205870375926765,
    0.628149858256953,
    0.1578491760721145,
    1.2313717296960367,
    0.9053625246409984,
    1.5660519464552787,
    0.24139920348751304,
    1.3457036123325916,
    2.2215269632098678,
    -0.29150099637372906,
    -0.4847955968581553,
    -0.4180622506361731,
    0.5320938046249379
  ]
}