{
  "parameters": {
    "integral_band": 0,
    "dead_band": 1,
    "small_gain": 50.0,
    "large_gain": 80.0,
    "large_gain_regulations": 3,
    "valves_min": 0,
    "valves_max": 100,
    "matrix_minor": 10,
    "matrix_major": 55,
    "profiles_directions_used_for_regulation": 0,
    "profiles_to_average": 2,
    "profiles_for_first_regulation": 1,
    "profiles_for_regulation": 10,
    "phase_shift_misDx_haulDx": 0,
    "phase_shift_misDx_haulSx": 0,
    "phase_shift_misSx_haulDx": 0,
    "phase_shift_misSx_haulSx": 0,
    "revert_regulation": 0,
    "disturbation_type": 0,
    "disturbation_amount": 0.0,
    "disturbation_amplitude": 1.0,
    "disturbation_cycles": 1,
    "disturbation_frequency": 1,
    "measurer_speed_default": 2,
    "measurer_speed_control": 0,
    "measurer_speed_min": 3,
    "measurer_speed_max": 7,
    "measurer_twoSigma_for_speed_min": 2.0,
    "measurer_twoSigma_for_speed_max": 10.0
  },
  "production": {
    "line_speed": 45.0,
    "layflat": 1640.0,
    "thickness": 22.0
  },
  "status": {
    "application": {
      "measurer_active": true,
      "actuation_active": true
    },
    "measurer": {
      "is_valid": true,
      "reason_is_valid": "none",
      "direction": -1,
      "speed": 0
    },
    "hauloff": {
      "direction": 0,
      "position": 0,
      "speed": 0,
      "last_period": 0
    }
  },
  "stats": {
    "min_thickness": 20.369225057020117,
    "max_thickness": 24.050283774465626,
    "mean_thickness": 22.000000000000014,
    "sigma_perc": 6.872178563535116,
    "sigma_abs": 1.5118792839777262,
    "stdDev": 0.7559396419888631
  },
  "rawProfile": [
    19.6,
    19.4,
    19.1,
    20.7,
    21.1,
    21.6,
    20.7,
    20.9,
    19.9,
    20.4,
    19.3,
    20.0,
    19.9,
    21.7,
    22.5,
    22.2,
    21.5,
    21.4,
    22.3,
    21.8,
    22.5,
    21.3,
    22.3,
    21.7,
    21.4,
    19.4,
    20.6,
    20.4,
    21.2,
    20.9,
    21.7,
    20.9,
    19.1,
    20.2,
    20.5,
    20.8,
    21.7,
    21.3,
    21.4,
    21.3,
    21.4,
    19.2,
    20.4,
    21.4,
    21.0,
    19.8,
    20.7,
    21.4,
    20.6,
    20.6,
    20.8,
    20.9,
    21.2,
    21.6,
    22.6,
    22.1,
    22.5,
    21.4,
    19.9,
    20.9,
    21.5,
    21.2,
    22.0,
    21.4,
    21.2,
    21.4,
    21.3,
    19.7,
    20.0,
    19.5,
    19.9,
    20.4,
    21.4,
    21.7,
    21.6,
    21.2,
    21.6,
    20.7,
    20.2,
    21.2,
    20.7,
    20.4,
    20.7,
    21.4,
    20.5,
    21.1,
    20.6,
    19.7,
    18.9,
    20.9,
    20.5,
    21.4,
    21.5,
    21.6,
    22.5,
    21.5,
    21.4,
    21.5,
    21.7,
    21.5,
    21.4,
    21.6,
    20.4,
    20.6,
    20.4,
    20.8,
    19.8,
    21.6,
    20.0,
    20.6,
    21.5,
    22.6,
    23.0,
    22.5,
    21.4,
    20.5,
    20.8,
    22.5,
    20.8,
    21.9,
    23.3,
    22.3,
    22.9,
    23.9,
    23.3,
    22.1,
    22.3,
    22.7,
    22.2,
    22.7,
    22.0,
    22.8,
    21.9,
    21.3,
    21.7,
    23.6,
    21.9,
    21.6,
    20.1,
    21.0,
    20.7,
    20.7,
    21.7,
    21.1,
    20.4,
    18.0,
    20.3,
    21.4,
    20.3,
    20.4,
    21.3,
    20.3,
    21.4,
    19.5,
    19.5,
    19.1,
    19.6,
    19.8,
    21.2,
    21.4,
    20.9,
    20.1,
    20.4,
    22.0,
    22.5,
    21.1,
    20.4,
    19.5,
    20.6,
    21.6,
    21.6,
    22.6,
    22.7,
    22.7,
    22.5,
    22.7,
    21.7,
    20.9,
    19.9,
    20.7,
    19.1,
    18.9,
    19.2,
    19.4,
    19.7,
    20.4,
    20.2,
    20.2,
    22.6,
    20.0,
    22.0,
    21.7,
    21.5,
    21.5,
    20.6,
    19.7,
    19.9,
    20.4,
    20.7,
    20.0,
    18.3,
    19.5,
    19.3,
    20.4,
    20.0,
    21.4,
    22.0,
    20.4,
    19.9,
    19.7,
    21.7,
    22.2,
    21.7,
    20.9,
    21.7,
    21.2,
    22.3,
    20.3,
    21.5,
    21.7,
    21.1,
    22.0,
    21.0,
    21.3,
    20.8,
    20.5,
    19.9,
    19.4,
    20.6,
    21.9,
    21.6,
    19.1,
    19.5,
    19.8,
    19.4,
    20.8,
    20.6,
    23.1,
    21.9,
    21.8,
    21.0,
    21.1,
    21.7,
    21.9,
    22.2,
    21.1,
    21.8,
    22.6,
    23.8,
    23.8,
    23.0,
    20.9,
    20.4,
    22.5,
    22.8,
    22.6,
    21.6,
    20.8,
    20.0,
    21.4,
    22.5,
    22.2,
    21.5,
    21.4,
    21.8,
    22.0,
    21.8,
    21.6,
    20.2,
    20.5,
    21.2,
    19.3,
    19.4,
    21.9,
    19.7,
    20.4,
    20.2,
    22.5,
    20.7,
    20.6,
    20.1,
    20.5,
    20.5,
    20.4,
    20.4,
    20.4,
    21.4,
    21.9,
    21.7,
    22.1,
    21.4,
    21.3,
    20.4,
    19.4,
    20.0,
    19.5,
    19.4,
    20.1,
    20.4,
    21.9,
    20.4,
    20.4,
    20.9,
    21.1,
    21.1,
    22.2,
    21.7,
    20.6,
    19.2,
    18.5,
    19.8,
    21.2,
    21.1,
    21.6,
    21.4,
    22.5,
    22.1,
    21.1,
    20.2,
    20.2,
    19.7,
    20.7,
    21.0,
    21.6,
    21.7,
    21.5,
    21.3,
    20.5,
    20.4,
    18.5,
    18.5,
    19.4,
    18.9,
    19.5,
    18.8,
    19.2,
    19.2,
    19.2,
    19.8,
    20.1,
    20.0,
    20.8,
    21.1,
    21.1,
    21.2,
    20.7,
    20.3,
    20.3,
    20.7,
    20.4,
    22.6,
    20.9,
    21.2,
    20.8,
    19.8,
    20.0,
    19.0,
    19.9,
    19.3,
    21.2
  ],
  "zonesProfile": [
    21.36694425290406,
    22.35416114146291,
    20.505755052246332,
    22.611467670927706,
    22.52219805866442,
    22.149366148623578,
    21.046623879488685,
    21.797538853232922,
    21.44571155784226,
    22.700737283191025,
    23.4464011032727,
    24.050283774465626,
    22.51169575133932,
    22.59046305627753,
    21.802790006895464,
    22.763751127141578,
    21.57699039940594,
    21.823794621545662,
    22.207128838911583,
    21.303930408953487,
    22.511695751339317,
    22.653476900228082,
    21.991831538747157,
    21.582241553068496,
    22.128361533973386,
    21.708269240969617,
    22.42242613907602,
    23.026308810268937,
    21.193656182040005,
    21.314432716278592,
    20.962605420887936,
    22.02333846072244,
    21.808041160558012,
    20.369225057020117,
    20.447992361958313,
    22.11785922664829,
    22.35416114146291,
    21.24091656500293,
    22.14411499496103,
    21.146395799077077,
    22.432928446401107,
    21.51397655545537,
    21.850050389858392,
    21.545483477430654,
    22.989550734631113,
    22.716490744178653,
    23.514666100885808,
    22.61146767092772,
    22.180873070598853,
    21.31968386994114,
    22.04959422903518,
    22.469686522038945,
    22.039091921710078,
    21.04137272582614
  ],
  "actuators": {
    "values": [
      42,
      43,
      100,
      14,
      46,
      54,
      18,
      6,
      53,
      16,
      2,
      0,
      47,
      50,
      0,
      0,
      70,
      60,
      5,
      44,
      82,
      45,
      45,
      52,
      80,
      71,
      42,
      60,
      34,
      45,
      47,
      54,
      25,
      100,
      8,
      42,
      88,
      100,
      34,
      47,
      67,
      90,
      92,
      29,
      12,
      52,
      79,
      41,
      39,
      84,
      32,
      54,
      87,
      46
    ],
    "forced": [
      false,
      false,
      false,
      false,
      false,
      false,
      false,
      false,
      false,
      false,
      false,
      false,
      false,
      false,
      false,
      false,
      false,
      false,
      false,
      false,
      false,
      false,
      false,
      false,
      false,
      false,
      false,
      false,
      false,
      false,
      false,
      false,
      false,
      false,
      false,
      false,
      false,
      false,
      false,
      false,
      false,
      false,
      false,
      false,
      false,
      false,
      false,
      false,
      false,
      false,
      false,
      false,
      false,
      false
    ]
  },
  "old_actuators": {
    "values": [
      41,
      42,
      100,
      15,
      47,
      54,
      17,
      6,
      53,
      16,
      4,
      0,
      47,
      50,
      0,
      0,
      70,
      59,
      5,
      44,
      82,
      45,
      45,
      51,
      79,
      71,
      42,
      61,
      33,
      45,
      46,
      54,
      25,
      100,
      6,
      42,
      88,
      100,
      34,
      46,
      67,
      89,
      92,
      29,
      13,
      53,
      81,
      42,
      39,
      84,
      33,
      55,
      87,
      45
    ],
    "forced": [
      false,
      false,
      false,
      false,
      false,
      false,
      false,
      false,
      false,
      false,
      false,
      false,
      false,
      false,
      false,
      false,
      false,
      false,
      false,
      false,
      false,
      false,
      false,
      false,
      false,
      false,
      false,
      false,
      false,
      false,
      false,
      false,
      false,
      false,
      false,
      false,
      false,
      false,
      false,
      false,
      false,
      false,
      false,
      false,
      false,
      false,
      false,
      false,
      false,
      false,
      false,
      false,
      false,
      false
    ]
  },
  "average_zones_profile": [
    21.16310725585381,
    21.86672842817736,
    20.38074133605104,
    22.738301718365847,
    22.49415482059229,
    22.131853205834908,
    21.247086865497415,
    22.30246055941239,
    21.96378704748286,
    22.184400249571752,
    22.819748069667746,
    23.620469634369,
    22.336644439097746,
    22.042632885796806,
    21.898186475658168,
    22.853820832981057,
    21.65140355778528,
    21.772180509754584,
    21.793212276901695,
    21.509623244357947,
    22.21851227957292,
    22.173895853593038,
    21.470300580574257,
    21.073868973394664,
    21.633071305807228,
    21.402023886500928,
    21.73810106274972,
    23.02710222015356,
    21.155217993438328,
    21.417743511300092,
    21.556848955670954,
    22.35498170384446,
    22.215831144555626,
    20.40435690695724,
    20.585499150856123,
    22.310361518288083,
    22.347132543578294,
    21.493867276985977,
    22.326114561544998,
    21.409854666615328,
    22.583403128588756,
    21.622521794910543,
    21.895565076134112,
    21.958544666165473,
    23.100603750853956,
    22.523047026735064,
    23.449791684299505,
    22.943064128208874,
    22.40224709957605,
    21.54375156585729,
    23.040150317742032,
    22.499400961486167,
    22.087216728780366,
    21.265462561470557
  ],
  "thickness_difference ": [
    -3.80405792793723,
    0.0,
    -7.360266654313446,
    3.355916901662939,
    2.2461582754194964,
    0.0,
    -3.4223324295572026,
    1.3748207246017652,
    0.0,
    0.0,
    3.726127589398845,
    7.365771065313644,
    1.530201995898847,
    0.0,
    0.0,
    3.881003786277533,
    -1.5845292827941841,
    -1.035543137479164,
    0.0,
    -2.228985252918424,
    0.0,
    0.0,
    -2.4077246337533773,
    -4.209686484569711,
    -1.6678577008762376,
    -2.718073243177602,
    -1.190449714773998,
    4.668646455243448,
    -3.839918211643966,
    -2.646620403181401,
    -2.0143229287683893,
    1.6135531992929941,
    0.0,
    -7.252923150194364,
    -6.429549314290352,
    1.410734174036741,
    1.5778751980831531,
    -2.300603286427377,
    1.4823389161136256,
    -2.6824787881121472,
    2.6518324026761646,
    -1.7158100231338933,
    0.0,
    0.0,
    5.002744322063438,
    2.3774864851593818,
    6.589962201361388,
    4.286655128222156,
    1.82839590716387,
    -2.073856518830507,
    4.72795598973651,
    2.2700043703916672,
    0.0,
    -3.3388065387701977
  ],
  "dynamic_gain": [
    0.5,
    0.5,
    0.5,
    0.5,
    0.5,
    0.5,
    0.5,
    0.5,
    0.5,
    0.5,
    0.5,
    0.5,
    0.5,
    0.5,
    0.5,
    0.5,
    0.5,
    0.5,
    0.5,
    0.5,
    0.5,
    0.5,
    0.5,
    0.5,
    0.5,
    0.5,
    0.5,
    0.5,
    0.5,
    0.5,
    0.5,
    0.5,
    0.5,
    0.5,
    0.5,
    0.5,
    0.5,
    0.5,
    0.5,
    0.5,
    0.5,
    0.5,
    0.5,
    0.5,
    0.5,
    0.5,
    0.5,
    0.5,
    0.5,
    0.5,
    0.5,
    0.5,
    0.5,
    0.5
  ],
  "value_map": {
    "next": "-0.05",
    "prev": "-0.05",
    "default": "-0.05"
  },
  "actuation_variation": [
    -1.1295860936519933,
    -0.27910811455626694,
    -1.9401754073946245,
    0.7950244384849596,
    0.701591448281935,
    -0.029404353853442658,
    -0.9067709000131867,
    0.2925173885265554,
    0.03437051811504413,
    0.09315318973497112,
    1.2088293637175236,
    2.1569952825936944,
    0.6049498255050241,
    0.03825504989747118,
    0.09702509465693833,
    1.027662809156467,
    -0.36460903654844146,
    -0.3243875948766247,
    -0.08161320975993971,
    -0.6129709445525667,
    -0.055724631322960606,
    -0.06019311584383444,
    -0.7673664363964215,
    -1.2595533416224112,
    -0.6318548609346482,
    -0.8189278272650966,
    -0.2786093412612034,
    1.1581185770314992,
    -1.0054268569005396,
    -0.8741766393851942,
    -0.5797654855085173,
    0.3933690565863637,
    -0.14098424877253424,
    -2.155292599160709,
    -1.9141807858337876,
    0.26666004495492385,
    0.41166895166310125,
    -0.5561605509126093,
    0.28306615006775887,
    -0.6343273837610959,
    0.6192966904547944,
    -0.4055519462949166,
    -0.04289525057834734,
    0.12506860805158596,
    1.4351918506964303,
    0.9436264465044507,
    1.9788431457089204,
    1.3892891129742246,
    0.5581288397048555,
    -0.4064017452558801,
    1.3050915934665694,
    0.7424501016011213,
    -0.026720054209463273,
    -1.0132732463602352
  ]
}