{
  "parameters": {
    "integral_band": 0,
    "dead_band": 1,
    "small_gain": 50.0,
    "large_gain": 80.0,
    "large_gain_regulations": 3,
    "valves_min": 0,
    "valves_max": 100,
    "matrix_minor": 10,
    "matrix_major": 55,
    "profiles_directions_used_for_regulation": 0,
    "profiles_to_average": 2,
    "profiles_for_first_regulation": 1,
    "profiles_for_regulation": 10,
    "phase_shift_misDx_haulDx": 0,
    "phase_shift_misDx_haulSx": 0,
    "phase_shift_misSx_haulDx": 0,
    "phase_shift_misSx_haulSx": 0,
    "revert_regulation": 0,
    "disturbation_type": 0,
    "disturbation_amount": 0.0,
    "disturbation_amplitude": 1.0,
    "disturbation_cycles": 1,
    "disturbation_frequency": 1,
    "measurer_speed_default": 2,
    "measurer_speed_control": 0,
    "measurer_speed_min": 3,
    "measurer_speed_max": 7,
    "measurer_twoSigma_for_speed_min": 2.0,
    "measurer_twoSigma_for_speed_max": 10.0
  },
  "production": {
    "line_speed": 45.0,
    "layflat": 1640.0,
    "thickness": 22.0
  },
  "status": {
    "application": {
      "measurer_active": true,
      "actuation_active": true
    },
    "measurer": {
      "is_valid": true,
      "reason_is_valid": "none",
      "direction": -1,
      "speed": 0
    },
    "hauloff": {
      "direction": 0,
      "position": 0,
      "speed": 0,
      "last_period": 0
    }
  },
  "stats": {
    "min_thickness": 20.621316665313746,
    "max_thickness": 24.178748275022322,
    "mean_thickness": 22.000000000000007,
    "sigma_perc": 7.953434934556457,
    "sigma_abs": 1.7497556856024203,
    "stdDev": 0.8748778428012102
  },
  "rawProfile": [
    19.4,
    20.8,
    19.7,
    19.6,
    18.4,
    19.9,
    19.1,
    19.8,
    19.2,
    19.5,
    20.0,
    19.5,
    19.5,
    18.8,
    19.7,
    19.8,
    19.6,
    20.4,
    21.3,
    20.5,
    20.0,
    21.1,
    19.3,
    20.2,
    18.4,
    19.4,
    19.6,
    20.0,
    20.1,
    19.8,
    20.1,
    20.0,
    19.2,
    21.0,
    21.5,
    21.4,
    20.4,
    19.4,
    20.2,
    20.8,
    20.7,
    21.2,
    20.9,
    20.9,
    21.4,
    21.0,
    19.8,
    19.6,
    20.4,
    19.8,
    18.8,
    19.2,
    19.9,
    19.5,
    20.1,
    19.3,
    19.6,
    20.7,
    21.3,
    20.2,
    19.9,
    20.1,
    19.6,
    19.6,
    19.5,
    19.0,
    19.7,
    20.3,
    20.8,
    19.7,
    20.0,
    20.0,
    20.4,
    20.5,
    20.4,
    22.3,
    21.4,
    21.6,
    21.5,
    21.4,
    19.5,
    19.8,
    19.6,
    19.6,
    19.8,
    19.5,
    18.5,
    18.2,
    19.9,
    19.0,
    19.6,
    19.5,
    20.5,
    20.6,
    20.3,
    20.8,
    22.3,
    20.8,
    22.1,
    21.4,
    21.2,
    21.3,
    21.5,
    21.2,
    21.2,
    20.4,
    19.4,
    19.7,
    20.7,
    19.5,
    20.2,
    20.8,
    20.3,
    19.6,
    19.2,
    20.4,
    21.8,
    21.3,
    20.1,
    21.0,
    19.8,
    20.9,
    20.1,
    21.0,
    20.7,
    21.3,
    22.5,
    23.3,
    21.4,
    20.8,
    20.4,
    20.4,
    20.4,
    21.0,
    21.2,
    20.4,
    20.4,
    20.4,
    20.4,
    19.5,
    19.9,
    20.2,
    19.5,
    20.7,
    19.8,
    20.7,
    20.9,
    19.5,
    20.3,
    17.9,
    20.0,
    20.2,
    19.9,
    21.4,
    20.9,
    20.7,
    20.3,
    21.2,
    21.3,
    21.0,
    20.0,
    20.3,
    20.1,
    21.3,
    22.5,
    20.4,
    20.4,
    20.2,
    21.4,
    21.4,
    20.8,
    20.5,
    20.9,
    22.2,
    21.4,
    22.5,
    22.8,
    23.1,
    22.8,
    22.2,
    21.9,
    21.0,
    20.4,
    20.4,
    19.9,
    19.4,
    18.9,
    18.8,
    19.1,
    18.4,
    18.9,
    20.1,
    21.2,
    22.0,
    22.6,
    21.2,
    19.9,
    19.8,
    20.4,
    20.3,
    20.8,
    19.6,
    18.9,
    17.8,
    18.6,
    19.6,
    19.6,
    20.4,
    19.5,
    19.7,
    19.2,
    18.8,
    18.7,
    18.9,
    19.3,
    19.8,
    20.4,
    21.4,
    22.3,
    22.8,
    23.6,
    22.0,
    21.6,
    21.9,
    21.9,
    22.2,
    23.3,
    23.3,
    23.4,
    23.1,
    22.1,
    22.5,
    21.4,
    20.6,
    21.3,
    20.7,
    20.4,
    20.7,
    19.9,
    20.4,
    20.8,
    21.8,
    22.0,
    22.1,
    22.7,
    21.9,
    22.0,
    19.7,
    21.5,
    21.8,
    21.6,
    22.3,
    22.5,
    22.0,
    22.7,
    21.7,
    20.8,
    20.1,
    19.8,
    22.2,
    21.5,
    20.2,
    21.1,
    20.4,
    22.1,
    22.5,
    22.0,
    21.3,
    20.6,
    20.5,
    20.4,
    20.5,
    20.4,
    19.9,
    19.6,
    19.7,
    20.4,
    19.5,
    19.0,
    19.7,
    19.9,
    19.8,
    19.8,
    20.0,
    20.4,
    21.3,
    20.5,
    21.4,
    19.9,
    20.5,
    20.8,
    21.7,
    21.8,
    19.8,
    19.8,
    19.9,
    20.4,
    19.9,
    19.9,
    18.3,
    19.6,
    20.2,
    20.7,
    20.4,
    20.9,
    22.3,
    21.3,
    20.6,
    21.0,
    21.3,
    19.1,
    19.1,
    20.9,
    19.0,
    17.6,
    19.2,
    20.4,
    19.9,
    21.3,
    21.9,
    22.3,
    22.0,
    22.6,
    22.3,
    22.5,
    20.5,
    19.5,
    21.6,
    21.6,
    21.4,
    22.3,
    21.7,
    20.5,
    20.7,
    19.6,
    18.8,
    18.9,
    18.9,
    18.5,
    19.8,
    19.5,
    20.5,
    20.0,
    19.9,
    21.4,
    22.5,
    22.5,
    22.2,
    21.2,
    20.1,
    20.1,
    19.8,
    19.6,
    20.2,
    20.9,
    20.5,
    21.0,
    20.0,
    19.5,
    20.9
  ],
  "zonesProfile": [
    22.31966880428606,
    20.91598344021431,
    21.794626187190513,
    24.04480883188571,
    22.405390047893498,
    22.212517249776766,
    22.44825066969722,
    21.199935059663932,
    21.655329166328432,
    21.907135319425276,
    22.694699245068588,
    22.308953648835132,
    21.998214140758186,
    21.569607922721005,
    22.458965825148134,
    22.73220228914685,
    20.851692507508726,
    20.915983440214305,
    22.866141732283463,
    21.633898855426573,
    21.02849257244906,
    21.569607922721,
    21.023134994723595,
    22.389317314717104,
    22.132153583894798,
    21.33387450280055,
    21.13028654923289,
    21.510674567740892,
    20.91598344021431,
    20.980274372919872,
    21.90177774169981,
    22.057147495738292,
    22.308953648835132,
    20.621316665313746,
    22.90364477636172,
    23.337608572124363,
    21.371377546878804,
    21.767838298563202,
    22.22858998295316,
    21.119571393781964,
    22.426820358795357,
    21.676759477230295,
    21.082068349703707,
    22.12679600616933,
    22.898287198636258,
    22.81792353275429,
    23.155450929458567,
    23.460832859810047,
    22.04107476256189,
    24.178748275022322,
    23.90551181102362,
    22.27680818248235,
    20.75525610845036,
    20.632031820764684
  ],
  "actuators": {
    "values": [
      38,
      37,
      100,
      27,
      55,
      60,
      21,
      10,
      56,
      19,
      11,
      3,
      47,
      50,
      4,
      0,
      66,
      56,
      8,
      45,
      79,
      42,
      37,
      48,
      77,
      61,
      34,
      56,
      24,
      37,
      45,
      55,
      22,
      100,
      5,
      43,
      83,
      98,
      34,
      43,
      67,
      84,
      85,
      32,
      20,
      62,
      96,
      54,
      38,
      89,
      48,
      60,
      81,
      35
    ],
    "forced": [
      false,
      false,
      false,
      false,
      false,
      false,
      false,
      false,
      false,
      false,
      false,
      false,
      false,
      false,
      false,
      false,
      false,
      false,
      false,
      false,
      false,
      false,
      false,
      false,
      false,
      false,
      false,
      false,
      false,
      false,
      false,
      false,
      false,
      false,
      false,
      false,
      false,
      false,
      false,
      false,
      false,
      false,
      false,
      false,
      false,
      false,
      false,
      false,
      false,
      false,
      false,
      false,
      false,
      false
    ]
  },
  "old_actuators": {
    "values": [
      37,
      33,
      100,
      25,
      52,
      56,
      18,
      5,
      53,
      17,
      11,
      2,
      47,
      48,
      4,
      0,
      65,
      55,
      8,
      45,
      79,
      42,
      37,
      48,
      77,
      61,
      35,
      56,
      24,
      37,
      45,
      55,
      22,
      99,
      6,
      44,
      82,
      98,
      35,
      43,
      67,
      84,
      86,
      34,
      22,
      64,
      100,
      59,
      41,
      92,
      52,
      63,
      81,
      34
    ],
    "forced": [
      false,
      false,
      false,
      false,
      false,
      false,
      false,
      false,
      false,
      false,
      false,
      false,
      false,
      false,
      false,
      false,
      false,
      false,
      false,
      false,
      false,
      false,
      false,
      false,
      false,
      false,
      false,
      false,
      false,
      false,
      false,
      false,
      false,
      false,
      false,
      false,
      false,
      false,
      false,
      false,
      false,
      false,
      false,
      false,
      false,
      false,
      false,
      false,
      false,
      false,
      false,
      false,
      false,
      false
    ]
  },
  "average_zones_profile": [
    20.981268043023086,
    19.257423941540797,
    20.774956812544865,
    20.701751470591542,
    19.542226606629505,
    19.297600001751405,
    20.13342270887274,
    18.290528211166247,
    20.49579801112731,
    20.938521527704122,
    21.858634221540683,
    21.624881366646093,
    21.584486772295346,
    20.774867836449214,
    21.65134238737889,
    23.001587304970876,
    20.886030781788428,
    21.66679228788572,
    22.271395919370974,
    21.839234736442883,
    22.14206743597613,
    21.947614465263975,
    22.147053657759244,
    22.444339281914978,
    22.20333726036472,
    21.965162943380406,
    22.49189983955612,
    22.206863188767535,
    21.940177667587633,
    21.60440262293971,
    21.89652407312102,
    21.86945380464701,
    22.450147512849078,
    20.742737821656164,
    23.082198541481073,
    23.041125080952177,
    21.301728517939047,
    21.637929085406512,
    22.742116141228173,
    21.75581124692647,
    22.51674587847504,
    22.356335735776256,
    22.503560789472154,
    23.600800416143574,
    23.281365032959016,
    23.603993703921503,
    24.999159105609337,
    25.665405784056908,
    23.890090255659942,
    24.412156252486323,
    24.403288197917774,
    24.151037164342668,
    21.977344164942007,
    21.453276378799657
  ],
  "thickness_difference ": [
    -4.6305998044405206,
    -12.466254811178198,
    -5.5683781247960695,
    -5.901129679129353,
    -11.171697242593158,
    -12.28363635567543,
    -8.484442232396638,
    -16.861235403789784,
    -6.837281767603138,
    -4.824902146799446,
    0.0,
    -1.7050846970632125,
    -1.8886964895666092,
    -5.568782561594481,
    -1.5848073300959566,
    4.552669568049436,
    -5.063496446416238,
    -1.5145805096103648,
    1.2336178153226094,
    0.0,
    0.0,
    0.0,
    0.0,
    2.019724008704445,
    0.0,
    0.0,
    2.2359083616187223,
    0.0,
    0.0,
    -1.7981698957285952,
    0.0,
    0.0,
    2.046125058404901,
    -5.714828083381074,
    4.919084279459424,
    4.732386731600807,
    -3.173961282095241,
    -1.6457768845158551,
    3.373255187400788,
    -1.1099488776069548,
    2.348844902159267,
    1.6197078898920705,
    2.2889126794188805,
    7.276365527925338,
    5.824386513450073,
    7.29088047237047,
    13.63254138913335,
    16.660935382076854,
    8.591319343908827,
    10.96434660221056,
    10.92403726326261,
    9.777441656103036,
    0.0,
    -2.4851073690924674
  ],
  "dynamic_gain": [
    0.5,
    0.5,
    0.5,
    0.5,
    0.5,
    0.5,
    0.5,
    0.5,
    0.5,
    0.5,
    0.5,
    0.5,
    0.5,
    0.5,
    0.5,
    0.5,
    0.5,
    0.5,
    0.5,
    0.5,
    0.5,
    0.5,
    0.5,
    0.5,
    0.5,
    0.5,
    0.5,
    0.5,
    0.5,
    0.5,
    0.5,
    0.5,
    0.5,
    0.5,
    0.5,
    0.5,
    0.5,
    0.5,
    0.5,
    0.5,
    0.5,
    0.5,
    0.5,
    0.5,
    0.5,
    0.5,
    0.5,
    0.5,
    0.5,
    0.5,
    0.5,
    0.5,
    0.5,
    0.5
  ],
  "value_map": {
    "next": "-0.05",
    "prev": "-0.05",
    "default": "-0.05"
  },
  "actuation_variation": [
    -1.64719900072791,
    -3.6831945213049195,
    -1.9904885965766081,
    -2.0413125459453028,
    -3.526835892583238,
    -3.8694034846854883,
    -3.061843407895706,
    -5.019882836042186,
    -2.4224059248555943,
    -1.4977801345599264,
    -0.16324967109656646,
    -0.5161157039315487,
    -0.7012382160972599,
    -1.6182527999300467,
    -0.46122484061501423,
    1.08577653680079,
    -1.3165092963034888,
    -0.5122566059201911,
    0.30138038647345844,
    0.030840445383065237,
    0.0,
    0.0,
    0.05049310021761112,
    0.5554241023937224,
    0.05049310021761112,
    0.05589770904046806,
    0.6148747994451487,
    0.05589770904046806,
    -0.04495424739321488,
    -0.4944967213253637,
    -0.04495424739321488,
    0.051153126460122524,
    0.4198136889768209,
    -1.3974474894831874,
    1.3281871430568353,
    1.3450344261243263,
    -0.7956741063990675,
    -0.4476062956092216,
    0.8587520324821466,
    -0.16218343910291125,
    0.6586763234009264,
    0.5613636092597731,
    0.8518528222856274,
    2.2038330000011923,
    1.9658874412061655,
    2.4914153274664654,
    4.347744278372854,
    5.13735374839719,
    3.0532448691821132,
    3.50307923078719,
    3.5226549538550582,
    2.9618973870099,
    0.18230835717526422,
    -0.7991695216114416
  ]
}