{
  "parameters": {
    "integral_band": 0,
    "dead_band": 1,
    "small_gain": 50.0,
    "large_gain": 80.0,
    "large_gain_regulations": 3,
    "valves_min": 0,
    "valves_max": 100,
    "matrix_minor": 10,
    "matrix_major": 55,
    "profiles_directions_used_for_regulation": 0,
    "profiles_to_average": 2,
    "profiles_for_first_regulation": 1,
    "profiles_for_regulation": 10,
    "phase_shift_misDx_haulDx": 0,
    "phase_shift_misDx_haulSx": 0,
    "phase_shift_misSx_haulDx": 0,
    "phase_shift_misSx_haulSx": 0,
    "revert_regulation": 0,
    "disturbation_type": 0,
    "disturbation_amount": 0.0,
    "disturbation_amplitude": 1.0,
    "disturbation_cycles": 1,
    "disturbation_frequency": 1,
    "measurer_speed_default": 2,
    "measurer_speed_control": 0,
    "measurer_speed_min": 3,
    "measurer_speed_max": 7,
    "measurer_twoSigma_for_speed_min": 2.0,
    "measurer_twoSigma_for_speed_max": 10.0
  },
  "production": {
    "line_speed": 45.0,
    "layflat": 1640.0,
    "thickness": 22.0
  },
  "status": {
    "application": {
      "measurer_active": true,
      "actuation_active": true
    },
    "measurer": {
      "is_valid": true,
      "reason_is_valid": "none",
      "direction": 1,
      "speed": 0
    },
    "hauloff": {
      "direction": 0,
      "position": 0,
      "speed": 0,
      "last_period": 0
    }
  },
  "stats": {
    "min_thickness": 20.181135456330118,
    "max_thickness": 24.146405090976163,
    "mean_thickness": 21.999999999999993,
    "sigma_perc": 8.171892093730133,
    "sigma_abs": 1.7978162606206296,
    "stdDev": 0.8989081303103148
  },
  "rawProfile": [
    22.5,
    22.1,
    22.5,
    23.9,
    25.5,
    23.3,
    21.7,
    20.7,
    21.1,
    21.5,
    21.4,
    22.3,
    20.5,
    21.9,
    19.8,
    21.6,
    22.3,
    23.2,
    22.7,
    22.0,
    23.4,
    22.2,
    22.1,
    22.1,
    22.6,
    21.6,
    22.5,
    22.0,
    22.5,
    21.4,
    22.5,
    21.6,
    21.4,
    21.7,
    23.0,
    23.2,
    23.0,
    23.4,
    21.9,
    21.5,
    21.9,
    21.6,
    22.8,
    21.8,
    21.3,
    21.2,
    21.6,
    22.0,
    22.8,
    21.4,
    21.1,
    22.5,
    22.3,
    21.8,
    23.1,
    23.2,
    22.0,
    21.8,
    21.9,
    22.0,
    22.1,
    21.2,
    20.4,
    22.1,
    23.0,
    23.1,
    22.3,
    21.8,
    20.1,
    21.1,
    21.9,
    21.1,
    23.0,
    22.5,
    21.8,
    20.7,
    21.0,
    22.7,
    24.2,
    23.5,
    22.7,
    21.8,
    22.9,
    21.9,
    20.7,
    21.0,
    20.6,
    20.4,
    20.4,
    21.0,
    21.6,
    22.0,
    22.6,
    21.4,
    21.0,
    20.3,
    21.3,
    22.5,
    20.9,
    21.6,
    20.7,
    22.0,
    20.4,
    21.0,
    21.1,
    22.7,
    20.1,
    21.4,
    22.3,
    20.8,
    21.4,
    21.0,
    21.2,
    19.9,
    23.8,
    22.5,
    20.6,
    21.2,
    21.2,
    20.7,
    21.9,
    21.4,
    20.0,
    20.7,
    20.4,
    21.0,
    21.0,
    21.8,
    21.9,
    22.3,
    20.6,
    20.3,
    20.4,
    20.3,
    20.7,
    21.3,
    20.4,
    21.2,
    21.1,
    20.5,
    21.6,
    19.7,
    18.7,
    20.3,
    23.0,
    21.6,
    22.8,
    19.5,
    20.5,
    19.1,
    18.9,
    18.9,
    18.1,
    19.3,
    18.7,
    18.1,
    18.6,
    19.8,
    19.6,
    21.8,
    21.4,
    19.3,
    18.6,
    20.0,
    20.6,
    20.4,
    20.2,
    19.5,
    20.2,
    21.4,
    22.2,
    21.9,
    21.7,
    22.1,
    20.9,
    21.6,
    20.4,
    20.7,
    20.3,
    19.5,
    19.9,
    18.9,
    20.9,
    18.9,
    19.8,
    20.6,
    21.0,
    20.3,
    22.7,
    22.3,
    20.5,
    20.4,
    21.4,
    22.1,
    21.0,
    20.3,
    21.1,
    20.7,
    21.4,
    21.2,
    22.3,
    22.6,
    22.3,
    20.4,
    21.2,
    23.0,
    21.4,
    21.3,
    19.6,
    20.3,
    21.4,
    22.3,
    22.5,
    23.9,
    22.9,
    21.8,
    21.7,
    20.8,
    21.0,
    21.1,
    20.5,
    20.3,
    20.4,
    20.4,
    18.7,
    22.0,
    21.0,
    20.8,
    21.7,
    21.4,
    20.7,
    20.4,
    21.1,
    22.2,
    22.5,
    21.4,
    21.7,
    21.8,
    21.1,
    21.0,
    22.0,
    20.5,
    20.6,
    21.2,
    19.7,
    20.9,
    20.5,
    20.2,
    19.9,
    20.3,
    18.8,
    19.5,
    19.1,
    19.8,
    20.4,
    20.2,
    19.7,
    19.5,
    18.8,
    19.3,
    18.8,
    18.8,
    20.4,
    20.4,
    22.5,
    21.7,
    20.7,
    21.7,
    21.9,
    22.0,
    21.0,
    20.2,
    19.5,
    19.2,
    19.7,
    20.4,
    20.6,
    19.5,
    19.1,
    17.8,
    18.2,
    19.2,
    19.5,
    20.2,
    18.9,
    20.0,
    19.4,
    20.4,
    21.0,
    20.2,
    20.0,
    21.0,
    20.0,
    20.2,
    20.4,
    20.7,
    20.6,
    21.4,
    21.4,
    21.9,
    20.4,
    21.7,
    21.1,
    20.3,
    20.9,
    20.1,
    20.7,
    21.2,
    20.7,
    19.6,
    20.7,
    19.1,
    19.4,
    20.4,
    19.2,
    19.6,
    19.9,
    20.4,
    19.8,
    20.2,
    19.6,
    19.3,
    20.3,
    22.3,
    21.1,
    22.5,
    22.8,
    22.6,
    22.6,
    22.1,
    21.6,
    21.2,
    21.8,
    21.6,
    21.0,
    20.4,
    21.8,
    22.3,
    22.5,
    20.5,
    21.0,
    20.9,
    21.4,
    21.8,
    22.5,
    20.5,
    20.5,
    20.4,
    21.0,
    20.4,
    21.0,
    19.7,
    21.5,
    20.0,
    19.5,
    21.0,
    21.4,
    20.6,
    22.2,
    22.5
  ],
  "zonesProfile": [
    21.981159172057595,
    22.22116233415459,
    20.81766558189173,
    21.621154428912106,
    22.069855992832576,
    20.93766716294022,
    20.264614817059517,
    20.196787836466882,
    21.92898457160174,
    21.715068709732677,
    22.080290912923758,
    21.819417910644404,
    22.424643275932482,
    22.137682973425203,
    22.116813133242864,
    22.20550995401784,
    22.22637979420019,
    22.65421151793831,
    23.30639402363667,
    22.52899247684423,
    22.97247658071912,
    23.24900196313521,
    22.941171820445597,
    22.69595119830301,
    23.55161464577925,
    22.87334483985296,
    23.322046403773438,
    22.883779759944133,
    22.231597254245774,
    24.146405090976163,
    21.996811552194362,
    21.52202268804595,
    22.18985757388108,
    22.367251215431033,
    22.96204166062794,
    21.960289331875263,
    20.77070844148144,
    21.036798903806368,
    21.647241729140042,
    21.892462351282614,
    21.25593222572102,
    20.181135456330118,
    20.332441797652148,
    21.850722670917925,
    21.34984650654159,
    20.520270359293274,
    20.541140199475628,
    21.688981409504727,
    22.586384537345683,
    21.991594092148773,
    21.334194126404828,
    22.732473418622117,
    22.304641694883994,
    22.862909919761783
  ],
  "actuators": {
    "values": [
      59,
      42,
      100,
      1,
      69,
      71,
      14,
      20,
      67,
      49,
      42,
      3,
      62,
      52,
      19,
      0,
      73,
      58,
      9,
      32,
      71,
      41,
      29,
      51,
      61,
      47,
      50,
      42,
      29,
      48,
      58,
      50,
      16,
      88,
      49,
      56,
      88,
      100,
      27,
      57,
      84,
      100,
      87,
      51,
      34,
      55,
      72,
      15,
      40,
      76,
      2,
      35,
      72,
      52
    ],
    "forced": [
      false,
      false,
      false,
      false,
      false,
      false,
      false,
      false,
      false,
      false,
      false,
      false,
      false,
      false,
      false,
      false,
      false,
      false,
      false,
      false,
      false,
      false,
      false,
      false,
      false,
      false,
      false,
      false,
      false,
      false,
      false,
      false,
      false,
      false,
      false,
      false,
      false,
      false,
      false,
      false,
      false,
      false,
      false,
      false,
      false,
      false,
      false,
      false,
      false,
      false,
      false,
      false,
      false,
      false
    ]
  },
  "old_actuators": {
    "values": [
      59,
      42,
      100,
      1,
      69,
      69,
      12,
      18,
      68,
      49,
      42,
      4,
      63,
      53,
      19,
      0,
      75,
      59,
      10,
      33,
      71,
      43,
      30,
      52,
      63,
      48,
      52,
      43,
      30,
      50,
      58,
      50,
      16,
      87,
      50,
      56,
      86,
      98,
      26,
      56,
      83,
      100,
      85,
      50,
      33,
      54,
      71,
      14,
      39,
      76,
      1,
      36,
      72,
      53
    ],
    "forced": [
      false,
      false,
      false,
      false,
      false,
      false,
      false,
      false,
      false,
      false,
      false,
      false,
      false,
      false,
      false,
      false,
      false,
      false,
      false,
      false,
      false,
      false,
      false,
      false,
      false,
      false,
      false,
      false,
      false,
      false,
      false,
      false,
      false,
      false,
      false,
      false,
      false,
      false,
      false,
      false,
      false,
      false,
      false,
      false,
      false,
      false,
      false,
      false,
      false,
      false,
      false,
      false,
      false,
      false
    ]
  },
  "average_zones_profile": [
    21.63348867693789,
    22.271890257986385,
    20.305560063673138,
    21.984977214456052,
    22.319291632779922,
    21.20337903601557,
    20.775216499438848,
    20.482103009142534,
    22.29860137670996,
    21.91935253668452,
    21.81134545646188,
    22.089345318958564,
    22.85799436523897,
    22.630732395803513,
    22.018115657530526,
    22.3949731588271,
    23.03900807891828,
    22.975396668060064,
    22.620760648181978,
    22.417950783876663,
    22.57423829035956,
    22.86173734520397,
    22.52716772840462,
    22.412411962787864,
    23.44766186834417,
    23.116381510835573,
    23.36429592915945,
    22.838835334517526,
    22.062416808941073,
    23.28425709094263,
    22.16756941246082,
    22.024429525841157,
    22.374056059667815,
    21.64849833498824,
    22.49047537576852,
    21.952944665937636,
    20.59364512983163,
    21.31316308826682,
    21.584348137297297,
    21.6755402665504,
    21.409638840133233,
    20.30409500089233,
    21.159966353371527,
    21.772488608186237,
    21.728886889634435,
    20.874244270555728,
    20.82446100882872,
    21.05539979566145,
    22.05391954140011,
    21.835069773347115,
    21.262878881384232,
    22.553727618401965,
    21.944466301987454,
    22.857200414426348
  ],
  "thickness_difference ": [
    -1.6659605593732252,
    1.2358648090290232,
    -7.701999710576647,
    0.0,
    1.451325603545102,
    -3.621004381747413,
    -5.567197729823419,
    -6.899531776624844,
    1.3572789850452758,
    0.0,
    0.0,
    0.0,
    3.899974387449861,
    2.866965435470512,
    0.0,
    1.7953325401231786,
    4.722763995083086,
    4.433621218454837,
    2.821639309918082,
    1.899776290348466,
    2.610174047088908,
    3.9169879327453185,
    2.39621694729373,
    1.874599830853928,
    6.580281219746227,
    5.0744614128889705,
    6.201345132542955,
    3.812887884170573,
    0.0,
    5.837532231557415,
    0.0,
    0.0,
    1.7002548166718867,
    -1.597734840962546,
    2.229433526220539,
    0.0,
    -6.392522137128961,
    -3.1219859624235498,
    -1.8893266486486482,
    -1.4748169702254577,
    -2.6834598175762117,
    -7.708659086853037,
    -3.8183347574021522,
    -1.0341426900625612,
    -1.2323323198434786,
    -5.1170714974739635,
    -5.3433590507785445,
    -4.29363729244795,
    0.0,
    0.0,
    -3.350550539162582,
    2.5169437200089297,
    0.0,
    3.896365520119764
  ],
  "dynamic_gain": [
    0.5,
    0.5,
    0.5,
    0.5,
    0.5,
    0.5,
    0.5,
    0.5,
    0.5,
    0.5,
    0.5,
    0.5,
    0.5,
    0.5,
    0.5,
    0.5,
    0.5,
    0.5,
    0.5,
    0.5,
    0.5,
    0.5,
    0.5,
    0.5,
    0.5,
    0.5,
    0.5,
    0.5,
    0.5,
    0.5,
    0.5,
    0.5,
    0.5,
    0.5,
    0.5,
    0.5,
    0.5,
    0.5,
    0.5,
    0.5,
    0.5,
    0.5,
    0.5,
    0.5,
    0.5,
    0.5,
    0.5,
    0.5,
    0.5,
    0.5,
    0.5,
    0.5,
    0.5,
    0.5
  ],
  "value_map": {
    "next": "-0.05",
    "prev": "-0.05",
    "default": "-0.05"
  },
  "actuation_variation": [
    -0.3298333955989173,
    0.10566381573423456,
    -2.0871533001828526,
    -0.15626685267578866,
    0.3085894314312178,
    -1.0986730081374967,
    -1.7939927796607469,
    -2.002619207191286,
    0.20076342647182974,
    0.03393197462613189,
    0.0,
    0.09749935968624653,
    1.1441670924354745,
    0.8859148544406374,
    0.11655744938984228,
    0.6117855484109513,
    1.454483942612299,
    1.4078559177001095,
    0.9342857479475551,
    0.658233813771003,
    0.8632169685267944,
    1.2023314563645289,
    0.8037493545957569,
    0.7399274076608292,
    1.983303866523785,
    1.7150175473516966,
    1.9275536438758014,
    1.2035777964604815,
    0.24126050289319972,
    1.6053213636782893,
    0.14593830578893538,
    0.04250637041679717,
    0.42762670356070526,
    -0.34113487269238957,
    0.5731508486865846,
    -0.10407721527271058,
    -1.8359932367710532,
    -1.0655923593109167,
    -0.6344849016946035,
    -0.5198943284676224,
    -0.9675383512604206,
    -2.2824261132590444,
    -1.268612102708482,
    -0.41065591669834517,
    -0.4926717426453697,
    -1.5715869460708909,
    -1.7046914587121476,
    -1.31433423169265,
    -0.10734093231119875,
    -0.08376376347906456,
    -0.8584778052694869,
    0.6083957595233912,
    0.16033273100321738,
    1.0298515040486045
  ]
}