{
  "parameters": {
    "integral_band": 0,
    "dead_band": 1,
    "small_gain": 50.0,
    "large_gain": 80.0,
    "large_gain_regulations": 3,
    "valves_min": 0,
    "valves_max": 100,
    "matrix_minor": 10,
    "matrix_major": 55,
    "profiles_directions_used_for_regulation": 0,
    "profiles_to_average": 2,
    "profiles_for_first_regulation": 1,
    "profiles_for_regulation": 10,
    "phase_shift_misDx_haulDx": 0,
    "phase_shift_misDx_haulSx": 0,
    "phase_shift_misSx_haulDx": 0,
    "phase_shift_misSx_haulSx": 0,
    "revert_regulation": 0,
    "disturbation_type": 0,
    "disturbation_amount": 0.0,
    "disturbation_amplitude": 1.0,
    "disturbation_cycles": 1,
    "disturbation_frequency": 1,
    "measurer_speed_default": 2,
    "measurer_speed_control": 0,
    "measurer_speed_min": 3,
    "measurer_speed_max": 7,
    "measurer_twoSigma_for_speed_min": 2.0,
    "measurer_twoSigma_for_speed_max": 10.0
  },
  "production": {
    "line_speed": 45.0,
    "layflat": 1640.0,
    "thickness": 22.0
  },
  "status": {
    "application": {
      "measurer_active": true,
      "actuation_active": true
    },
    "measurer": {
      "is_valid": true,
      "reason_is_valid": "none",
      "direction": -1,
      "speed": 0
    },
    "hauloff": {
      "direction": 0,
      "position": 0,
      "speed": 0,
      "last_period": 0
    }
  },
  "stats": {
    "min_thickness": 19.764509061939858,
    "max_thickness": 23.602788289185433,
    "mean_thickness": 22.000000000000014,
    "sigma_perc": 7.044426695961737,
    "sigma_abs": 1.5497738731115822,
    "stdDev": 0.7748869365557911
  },
  "rawProfile": [
    21.5,
    20.6,
    21.8,
    21.7,
    21.4,
    21.2,
    22.3,
    19.5,
    21.5,
    20.8,
    20.8,
    20.8,
    20.4,
    21.1,
    20.4,
    19.6,
    20.1,
    19.5,
    21.0,
    21.3,
    21.4,
    20.2,
    20.7,
    21.4,
    21.4,
    21.4,
    20.8,
    21.4,
    22.1,
    23.1,
    20.5,
    19.9,
    20.8,
    20.6,
    23.1,
    22.0,
    20.9,
    19.4,
    19.3,
    21.4,
    20.7,
    21.1,
    21.2,
    20.4,
    20.5,
    19.9,
    20.5,
    20.6,
    20.6,
    21.9,
    20.9,
    20.2,
    22.5,
    22.0,
    20.6,
    20.4,
    20.3,
    22.2,
    22.6,
    23.3,
    22.1,
    22.0,
    21.2,
    21.1,
    20.8,
    21.0,
    20.6,
    21.9,
    21.1,
    22.5,
    22.6,
    22.3,
    23.1,
    24.1,
    22.5,
    21.2,
    21.2,
    21.5,
    22.3,
    21.3,
    22.3,
    21.3,
    21.3,
    21.0,
    20.3,
    20.9,
    22.1,
    21.8,
    21.7,
    21.0,
    21.5,
    20.4,
    20.4,
    20.4,
    20.5,
    22.5,
    22.0,
    22.9,
    22.5,
    23.2,
    23.1,
    24.1,
    22.2,
    22.8,
    20.5,
    20.5,
    19.4,
    21.3,
    19.6,
    19.5,
    20.4,
    18.8,
    18.1,
    19.8,
    21.3,
    20.9,
    21.2,
    20.8,
    20.7,
    20.2,
    20.0,
    19.9,
    21.3,
    20.3,
    20.7,
    20.0,
    19.6,
    19.9,
    18.9,
    19.0,
    19.9,
    21.0,
    21.2,
    21.6,
    20.4,
    19.9,
    21.4,
    21.4,
    21.4,
    21.4,
    20.2,
    20.2,
    20.8,
    20.9,
    20.7,
    20.5,
    20.4,
    20.8,
    21.4,
    19.0,
    22.6,
    24.1,
    23.6,
    23.3,
    21.5,
    22.0,
    21.0,
    20.9,
    21.0,
    21.6,
    21.0,
    20.0,
    19.9,
    20.8,
    19.9,
    20.1,
    19.1,
    20.0,
    20.4,
    21.0,
    21.8,
    21.6,
    21.3,
    21.4,
    20.7,
    18.8,
    19.3,
    21.4,
    21.9,
    21.4,
    20.5,
    21.5,
    21.8,
    21.5,
    19.7,
    20.0,
    19.0,
    19.5,
    19.5,
    20.8,
    22.8,
    22.5,
    21.9,
    22.0,
    20.4,
    20.5,
    20.9,
    19.9,
    19.6,
    20.0,
    20.0,
    19.9,
    20.4,
    20.4,
    20.9,
    22.0,
    21.8,
    22.3,
    21.9,
    22.6,
    22.5,
    20.4,
    20.8,
    20.1,
    21.0,
    20.4,
    21.0,
    21.5,
    21.3,
    21.4,
    21.3,
    21.6,
    21.9,
    19.6,
    20.5,
    20.7,
    20.2,
    20.6,
    21.4,
    20.8,
    20.4,
    19.1,
    19.8,
    20.4,
    21.7,
    21.8,
    20.5,
    21.2,
    21.6,
    21.2,
    21.4,
    22.6,
    21.1,
    21.5,
    22.3,
    22.8,
    20.5,
    20.9,
    20.1,
    21.1,
    20.2,
    20.4,
    19.5,
    20.6,
    20.5,
    19.7,
    19.5,
    19.5,
    20.6,
    20.3,
    21.4,
    22.6,
    21.2,
    22.1,
    21.9,
    21.2,
    22.9,
    21.9,
    21.3,
    22.6,
    21.8,
    20.2,
    22.1,
    22.8,
    21.1,
    20.3,
    20.3,
    20.9,
    21.2,
    21.3,
    20.9,
    19.2,
    18.8,
    18.7,
    17.9,
    17.8,
    18.0,
    18.8,
    18.1,
    18.0,
    20.5,
    21.3,
    21.7,
    22.6,
    21.6,
    21.0,
    21.4,
    21.2,
    20.0,
    20.7,
    20.9,
    21.4,
    20.8,
    20.6,
    21.1,
    21.7,
    20.9,
    21.1,
    20.3,
    20.2,
    20.0,
    20.3,
    20.4,
    19.5,
    19.1,
    18.7,
    19.5,
    19.4,
    19.8,
    19.5,
    17.8,
    19.6,
    21.0,
    20.8,
    20.2,
    20.3,
    20.5,
    22.8,
    23.0,
    24.1,
    22.3,
    22.1,
    21.6,
    20.7,
    21.3,
    21.3,
    21.2,
    20.0,
    20.1,
    18.5,
    19.0,
    19.9,
    20.4,
    20.5,
    20.9,
    20.7,
    22.0,
    21.7,
    23.1,
    21.3,
    21.2,
    22.2,
    20.0,
    20.4,
    21.9,
    21.4,
    20.6,
    20.4,
    21.2,
    20.1
  ],
  "zonesProfile": [
    21.447042421828332,
    22.188408683529186,
    21.71519617606055,
    21.730969926309502,
    22.020155347540342,
    21.205178251344368,
    22.64058952399921,
    23.04019119697273,
    21.59426409081857,
    22.130571599283012,
    21.078988249352726,
    21.336626170085655,
    21.815096594303927,
    20.626807408882705,
    23.05070703047202,
    23.218960366460866,
    22.23572993427604,
    22.372435769766987,
    23.040191196972724,
    23.408245369448334,
    22.388209520015945,
    22.72471619199364,
    22.219956184027094,
    21.683648675562637,
    22.056960764787895,
    22.335630352519424,
    22.141087432782317,
    21.447042421828332,
    21.809838677554282,
    22.566978689504086,
    21.957060346544523,
    22.656363274248164,
    21.46281617207728,
    21.48384783907589,
    23.602788289185433,
    21.036924915355517,
    20.348137821151173,
    21.415494921330414,
    22.151603266281626,
    22.235729934276048,
    20.8108344951205,
    19.764509061939858,
    22.13057159928302,
    22.892969527982483,
    22.97709619597689,
    21.110535749850637,
    21.43652658832902,
    22.92977494523004,
    22.335630352519427,
    21.39446325433182,
    21.93602867954591,
    22.08325034853615,
    22.78781119298945,
    21.788807010555676
  ],
  "actuators": {
    "values": [
      54,
      36,
      100,
      0,
      47,
      64,
      7,
      0,
      59,
      40,
      29,
      0,
      46,
      51,
      14,
      0,
      67,
      55,
      8,
      27,
      73,
      44,
      24,
      45,
      60,
      53,
      50,
      52,
      25,
      36,
      57,
      54,
      16,
      100,
      30,
      62,
      100,
      100,
      33,
      55,
      100,
      100,
      100,
      49,
      38,
      69,
      94,
      25,
      40,
      93,
      20,
      22,
      62,
      32
    ],
    "forced": [
      false,
      false,
      false,
      false,
      false,
      false,
      false,
      false,
      false,
      false,
      false,
      false,
      false,
      false,
      false,
      false,
      false,
      false,
      false,
      false,
      false,
      false,
      false,
      false,
      false,
      false,
      false,
      false,
      false,
      false,
      false,
      false,
      false,
      false,
      false,
      false,
      false,
      false,
      false,
      false,
      false,
      false,
      false,
      false,
      false,
      false,
      false,
      false,
      false,
      false,
      false,
      false,
      false,
      false
    ]
  },
  "old_actuators": {
    "values": [
      53,
      36,
      100,
      0,
      47,
      64,
      7,
      2,
      59,
      41,
      29,
      0,
      46,
      50,
      14,
      0,
      67,
      55,
      10,
      28,
      73,
      44,
      24,
      45,
      60,
      53,
      50,
      52,
      25,
      36,
      58,
      54,
      15,
      100,
      32,
      61,
      100,
      100,
      33,
      56,
      100,
      100,
      100,
      50,
      38,
      69,
      93,
      25,
      40,
      93,
      19,
      23,
      63,
      32
    ],
    "forced": [
      false,
      false,
      false,
      false,
      false,
      false,
      false,
      false,
      false,
      false,
      false,
      false,
      false,
      false,
      false,
      false,
      false,
      false,
      false,
      false,
      false,
      false,
      false,
      false,
      false,
      false,
      false,
      false,
      false,
      false,
      false,
      false,
      false,
      false,
      false,
      false,
      false,
      false,
      false,
      false,
      false,
      false,
      false,
      false,
      false,
      false,
      false,
      false,
      false,
      false,
      false,
      false,
      false,
      false
    ]
  },
  "average_zones_profile": [
    21.72570730734089,
    22.151480068144817,
    21.38758735628418,
    22.36872436058708,
    22.53692691261114,
    22.13730831164937,
    22.485126432574745,
    23.429948931289736,
    21.91736734887921,
    22.345543361547783,
    21.405267804075386,
    21.70197897001441,
    22.17731259620996,
    21.33132969514051,
    21.61462574386195,
    23.445880676095804,
    22.08332464359575,
    22.122821088508438,
    22.771496687559853,
    22.78238493680096,
    22.193667540722625,
    22.346180982439044,
    21.87344245864179,
    21.636768492954417,
    21.999186690275813,
    21.873566597222393,
    22.321944805464653,
    21.757187095885747,
    21.68150028396574,
    22.054823658516504,
    22.26665768231475,
    22.083776056616113,
    21.410926349880604,
    21.573594494680037,
    23.325620067721616,
    20.988115464554028,
    20.407623503365443,
    20.964911894863704,
    22.206530199459024,
    22.442718896149508,
    20.890810148708944,
    19.88233402538545,
    21.881216480511178,
    22.724119010185447,
    22.141833204709698,
    21.609920285593468,
    21.58403697356353,
    22.34640104628647,
    22.597601733754047,
    21.85943998202898,
    21.57932639510107,
    22.379595681839916,
    22.747615998339,
    22.444862585527453
  ],
  "thickness_difference ": [
    -1.2467849666323165,
    0.0,
    -2.783693835071914,
    1.6760198208503658,
    2.440576875505181,
    0.0,
    2.205120148067023,
    6.499767869498801,
    0.0,
    1.5706516433990136,
    -2.7033281632937,
    -1.354641045389051,
    0.0,
    -3.039410476634042,
    -1.7517011642638636,
    6.5721848913445635,
    0.0,
    0.0,
    3.5068031252720613,
    3.5562951672770864,
    0.0,
    1.5735499201774739,
    0.0,
    -1.6510523047526506,
    0.0,
    0.0,
    1.4633854793847882,
    -1.103695018701148,
    -1.447725981973911,
    0.0,
    1.2120803741579584,
    0.0,
    -2.6776075005427074,
    -1.9382068423634669,
    6.025545762370981,
    -4.599475161118056,
    -7.238074984702533,
    -4.70494593243771,
    0.0,
    2.0123586188613984,
    -5.041772051322982,
    -9.625754430066134,
    0.0,
    3.2914500462974865,
    0.0,
    -1.7730896109387828,
    -1.8907410292566758,
    1.5745502103930453,
    2.7163715170638496,
    0.0,
    -1.9121527495405906,
    1.7254349174541648,
    3.3982545379045477,
    2.022102661488422
  ],
  "dynamic_gain": [
    0.5,
    0.5,
    0.5,
    0.5,
    0.5,
    0.5,
    0.5,
    0.5,
    0.5,
    0.5,
    0.5,
    0.5,
    0.5,
    0.5,
    0.5,
    0.5,
    0.5,
    0.5,
    0.5,
    0.5,
    0.5,
    0.5,
    0.5,
    0.5,
    0.5,
    0.5,
    0.5,
    0.5,
    0.5,
    0.5,
    0.5,
    0.5,
    0.5,
    0.5,
    0.5,
    0.5,
    0.5,
    0.5,
    0.5,
    0.5,
    0.5,
    0.5,
    0.5,
    0.5,
    0.5,
    0.5,
    0.5,
    0.5,
    0.5,
    0.5,
    0.5,
    0.5,
    0.5,
    0.5
  ],
  "value_map": {
    "next": "-0.05",
    "prev": "-0.05",
    "default": "-0.05"
  },
  "actuation_variation": [
    -0.2923132992866765,
    -0.10076197004260576,
    -0.7236153091235171,
    0.4523275267446823,
    0.713059136285184,
    0.1161424255893051,
    0.7689022374559014,
    1.842564167813846,
    0.20176048782244538,
    0.3643459978523863,
    -0.7380149799555183,
    -0.44010949156433155,
    -0.10985128805057734,
    -0.8796304101809582,
    -0.3933984598047995,
    1.7635583160131585,
    0.1643046222836141,
    0.08767007813180154,
    1.053278238631744,
    1.0656512491330004,
    0.12824612718636402,
    0.43272622804880534,
    -0.0019375596143794208,
    -0.45403938380697895,
    -0.04127630761881627,
    0.03658463698461971,
    0.3748386313632881,
    -0.3031246427075438,
    -0.42571702051035426,
    -0.005891140195398815,
    0.3333221028934386,
    -0.03663817815961873,
    -0.7847972337083313,
    -0.4493084251042466,
    1.4935830345649819,
    -1.2951688998657545,
    -2.223081148132091,
    -1.4748120060379335,
    -0.06731468283940778,
    0.42735431890381004,
    -1.5768222093939388,
    -2.773126769551262,
    -0.1583576095942162,
    0.9051487627318089,
    0.037959010883967595,
    -0.5348681687395822,
    -0.5249172680592293,
    0.45364207005326684,
    0.7863659224523849,
    0.020105469188081475,
    -0.4827061331873084,
    0.5116471470089943,
    1.0282084373973155,
    0.6098649711911219
  ]
}