{
  "parameters": {
    "integral_band": 0,
    "dead_band": 1,
    "small_gain": 50.0,
    "large_gain": 80.0,
    "large_gain_regulations": 3,
    "valves_min": 0,
    "valves_max": 100,
    "matrix_minor": 0,
    "matrix_major": 55,
    "profiles_directions_used_for_regulation": 0,
    "profiles_to_average": 4,
    "profiles_for_first_regulation": 1,
    "profiles_for_regulation": 10,
    "phase_shift_misDx_haulDx": 0,
    "phase_shift_misDx_haulSx": 0,
    "phase_shift_misSx_haulDx": 0,
    "phase_shift_misSx_haulSx": 0,
    "revert_regulation": 0,
    "disturbation_type": 0,
    "disturbation_amount": 0.0,
    "disturbation_amplitude": 1.0,
    "disturbation_cycles": 1,
    "disturbation_frequency": 1,
    "measurer_speed_default": 2,
    "measurer_speed_control": 0,
    "measurer_speed_min": 3,
    "measurer_speed_max": 7,
    "measurer_twoSigma_for_speed_min": 2.0,
    "measurer_twoSigma_for_speed_max": 10.0
  },
  "production": {
    "line_speed": 45.0,
    "layflat": 1640.0,
    "thickness": 22.0
  },
  "status": {
    "application": {
      "measurer_active": true,
      "actuation_active": true
    },
    "measurer": {
      "is_valid": true,
      "reason_is_valid": "none",
      "direction": 1,
      "speed": 0
    },
    "hauloff": {
      "direction": 0,
      "position": 0,
      "speed": 0,
      "last_period": 0
    }
  },
  "stats": {
    "min_thickness": 20.322796578653783,
    "max_thickness": 23.8978212641541,
    "mean_thickness": 22.000000000000007,
    "sigma_perc": 6.0153113345319555,
    "sigma_abs": 1.32336849359703,
    "stdDev": 0.661684246798515
  },
  "rawProfile": [
    19.6,
    21.0,
    21.4,
    21.3,
    21.0,
    22.1,
    21.2,
    21.1,
    21.5,
    23.1,
    22.3,
    20.5,
    19.9,
    21.9,
    20.9,
    21.9,
    22.7,
    22.5,
    21.5,
    21.9,
    20.6,
    21.4,
    20.6,
    21.5,
    22.5,
    22.5,
    21.9,
    21.8,
    22.7,
    23.3,
    21.1,
    21.5,
    22.2,
    21.5,
    21.8,
    21.2,
    21.2,
    21.7,
    21.8,
    21.2,
    20.8,
    21.2,
    21.6,
    20.7,
    21.1,
    20.8,
    21.2,
    20.7,
    21.3,
    20.8,
    20.7,
    21.6,
    21.6,
    21.8,
    22.3,
    22.5,
    23.9,
    22.7,
    22.1,
    21.5,
    21.8,
    21.4,
    20.3,
    19.7,
    20.4,
    20.7,
    19.5,
    19.9,
    21.8,
    21.7,
    21.9,
    20.4,
    21.5,
    22.5,
    21.7,
    21.3,
    22.6,
    23.2,
    22.5,
    22.5,
    21.8,
    22.5,
    22.2,
    22.2,
    21.6,
    21.0,
    21.0,
    20.5,
    21.0,
    21.4,
    20.8,
    19.3,
    21.4,
    21.0,
    21.3,
    21.4,
    21.2,
    21.8,
    20.8,
    20.8,
    21.4,
    20.7,
    21.9,
    22.5,
    21.5,
    22.0,
    21.8,
    21.3,
    21.9,
    22.5,
    24.3,
    22.8,
    22.2,
    21.9,
    21.7,
    21.4,
    21.9,
    21.3,
    21.8,
    21.2,
    21.7,
    22.5,
    22.2,
    21.8,
    23.8,
    22.1,
    23.0,
    23.3,
    23.4,
    23.1,
    23.4,
    23.6,
    25.1,
    21.9,
    22.6,
    23.3,
    23.3,
    22.2,
    20.6,
    21.6,
    22.1,
    20.6,
    22.9,
    22.6,
    22.7,
    21.3,
    21.8,
    22.8,
    22.1,
    20.3,
    21.7,
    24.2,
    24.1,
    23.1,
    22.1,
    24.0,
    22.8,
    22.7,
    22.1,
    21.3,
    21.3,
    21.4,
    22.3,
    22.9,
    21.0,
    22.6,
    22.1,
    20.8,
    21.5,
    21.4,
    19.9,
    20.4,
    19.5,
    19.8,
    21.6,
    21.2,
    21.5,
    20.3,
    21.4,
    24.1,
    21.5,
    20.5,
    21.2,
    22.0,
    20.5,
    21.5,
    21.6,
    21.1,
    20.3,
    20.7,
    20.4,
    21.4,
    23.9,
    23.3,
    21.9,
    21.7,
    22.0,
    20.7,
    20.3,
    20.8,
    21.5,
    21.2,
    20.4,
    20.6,
    20.7,
    20.9,
    22.5,
    22.5,
    22.5,
    22.3,
    23.0,
    20.9,
    20.2,
    21.5,
    20.6,
    20.4,
    21.7,
    22.3,
    23.9,
    23.3,
    22.5,
    22.7,
    21.7,
    21.3,
    20.7,
    22.8,
    22.1,
    21.3,
    22.1,
    22.2,
    22.5,
    20.8,
    20.4,
    19.1,
    19.5,
    20.3,
    21.2,
    22.5,
    21.4,
    20.0,
    22.1,
    22.7,
    22.1,
    22.7,
    23.2,
    24.4,
    23.7,
    23.9,
    22.0,
    22.2,
    22.5,
    21.7,
    22.0,
    21.3,
    20.5,
    23.2,
    22.2,
    21.4,
    20.8,
    21.7,
    21.3,
    21.1,
    21.4,
    21.0,
    22.5,
    21.7,
    22.1,
    22.1,
    23.1,
    21.4,
    21.4,
    21.0,
    22.0,
    22.6,
    21.4,
    21.1,
    20.6,
    21.0,
    21.4,
    20.2,
    19.9,
    21.4,
    23.2,
    21.6,
    21.1,
    21.0,
    22.5,
    21.9,
    22.0,
    20.9,
    22.1,
    23.0,
    22.1,
    21.7,
    21.3,
    22.9,
    19.6,
    22.3,
    23.6,
    21.3,
    22.5,
    21.8,
    22.7,
    23.0,
    23.3,
    23.6,
    23.0,
    22.2,
    22.6,
    21.6,
    20.6,
    21.0,
    21.5,
    20.8,
    21.6,
    20.9,
    21.9,
    21.7,
    21.6,
    20.4,
    20.8,
    21.1,
    21.9,
    20.3,
    19.6,
    20.3,
    21.5,
    21.8,
    21.2,
    20.8,
    21.5,
    23.0,
    21.6,
    20.7,
    19.5,
    20.2,
    19.5,
    19.1,
    19.7,
    21.6,
    20.4,
    21.1,
    21.5,
    22.5,
    20.9,
    21.8,
    22.5,
    23.3,
    21.4,
    22.7,
    22.5,
    21.8,
    20.9,
    21.9,
    21.6,
    21.3,
    21.1,
    20.8,
    20.7,
    20.7
  ],
  "zonesProfile": [
    21.775150357138287,
    21.74975955681512,
    21.572023954553043,
    21.831010117849228,
    20.942332106538778,
    22.277888203536776,
    22.912658211615664,
    22.877111091163243,
    22.354060604506234,
    22.577499647350013,
    23.8978212641541,
    22.765391569741357,
    21.922416999012587,
    22.785704209999878,
    22.01890204024058,
    21.52632051397136,
    21.08452058834845,
    22.135699721727097,
    22.668906528513364,
    21.511086033777463,
    20.91694130621562,
    22.78062604993525,
    21.48569523345432,
    21.37905387209706,
    21.82085379771996,
    22.404842205152544,
    21.891948038624797,
    22.242341083084344,
    21.749759556815125,
    21.40952283248485,
    21.45014811300189,
    22.455623805798847,
    21.81577563765533,
    20.322796578653783,
    21.932573319141852,
    21.074364268219195,
    21.627883715263984,
    21.952885959400376,
    23.191957015170374,
    22.161090522050255,
    22.354060604506238,
    21.815775637655335,
    21.445069952937256,
    22.22710660289045,
    21.89702619868943,
    21.937651479206476,
    22.74507892948283,
    23.308754696656877,
    20.96772290686193,
    21.790384837332176,
    22.30835716392455,
    22.323591644118444,
    22.252497403213606,
    21.37397571203242
  ],
  "actuators": {
    "values": [
      56,
      50,
      60,
      49,
      50,
      44,
      49,
      48,
      60,
      45,
      39,
      44,
      52,
      37,
      45,
      44,
      54,
      45,
      37,
      46,
      52,
      36,
      47,
      49,
      48,
      47,
      50,
      46,
      39,
      52,
      46,
      43,
      47,
      66,
      55,
      57,
      57,
      60,
      43,
      59,
      62,
      60,
      56,
      51,
      52,
      54,
      56,
      45,
      49,
      56,
      41,
      51,
      56,
      60
    ],
    "forced": [
      false,
      false,
      false,
      false,
      false,
      false,
      false,
      false,
      false,
      false,
      false,
      false,
      false,
      false,
      false,
      false,
      false,
      false,
      false,
      false,
      false,
      false,
      false,
      false,
      false,
      false,
      false,
      false,
      false,
      false,
      false,
      false,
      false,
      false,
      false,
      false,
      false,
      false,
      false,
      false,
      false,
      false,
      false,
      false,
      false,
      false,
      false,
      false,
      false,
      false,
      false,
      false,
      false,
      false
    ]
  },
  "old_actuators": {
    "values": [
      56,
      50,
      59,
      49,
      49,
      44,
      49,
      48,
      60,
      46,
      41,
      45,
      51,
      38,
      45,
      43,
      53,
      46,
      38,
      45,
      51,
      37,
      47,
      49,
      48,
      48,
      50,
      46,
      39,
      52,
      46,
      43,
      47,
      64,
      55,
      56,
      57,
      60,
      45,
      59,
      62,
      60,
      56,
      51,
      52,
      54,
      56,
      46,
      48,
      56,
      42,
      51,
      56,
      59
    ],
    "forced": [
      false,
      false,
      false,
      false,
      false,
      false,
      false,
      false,
      false,
      false,
      false,
      false,
      false,
      false,
      false,
      false,
      false,
      false,
      false,
      false,
      false,
      false,
      false,
      false,
      false,
      false,
      false,
      false,
      false,
      false,
      false,
      false,
      false,
      false,
      false,
      false,
      false,
      false,
      false,
      false,
      false,
      false,
      false,
      false,
      false,
      false,
      false,
      false,
      false,
      false,
      false,
      false,
      false,
      false
    ]
  },
  "average_zones_profile": [
    22.161478344273554,
    21.881269585933047,
    21.68802285605884,
    21.956805305461533,
    20.995274794159336,
    21.968987175694053,
    21.810489963589923,
    21.910047621547932,
    21.98524238623249,
    22.46107151489736,
    23.773264981082804,
    22.7055879191958,
    21.579969701605094,
    22.696733233011937,
    21.961249077840723,
    21.662062487027946,
    21.188996197131047,
    22.345168752620122,
    22.488761131921716,
    21.738970377629755,
    21.77686245634086,
    22.95310581234995,
    21.87373800053491,
    21.932583892199872,
    22.047564812693214,
    22.60988195298525,
    22.063846466720243,
    21.928651469132117,
    22.219292818303515,
    21.72528163455553,
    21.646936744815342,
    22.59606478060209,
    22.08726073904522,
    20.291362309323173,
    21.955440973672747,
    21.29000314202124,
    21.600670523376873,
    21.615292890700637,
    23.32240304778117,
    21.921262034725085,
    21.675840432701353,
    22.160946456287864,
    22.10877371880654,
    22.106717491545904,
    22.27870830673398,
    21.8384698052885,
    21.78809649860254,
    22.582820290354,
    20.86960922994967,
    21.912197596334373,
    22.540290638577744,
    22.151052242487204,
    22.16046612219141,
    21.409051261344864
  ],
  "thickness_difference ": [
    0.0,
    0.0,
    -1.418077927005273,
    0.0,
    -4.566932753821201,
    0.0,
    0.0,
    0.0,
    0.0,
    2.0957796131698134,
    8.060295368558199,
    3.2072178145263632,
    -1.9092286290677538,
    3.166969240963349,
    0.0,
    -1.5360796044184288,
    -3.6863809221316046,
    1.5689488755460088,
    2.221641508735075,
    -1.1864982835011129,
    -1.0142615620869933,
    4.332299147045227,
    0.0,
    0.0,
    0.0,
    2.7721906953875055,
    0.0,
    0.0,
    0.0,
    -1.2487198429294144,
    -1.6048329781120818,
    2.7093853663731435,
    0.0,
    -7.766534957621942,
    0.0,
    -3.2272584453579936,
    -1.8151339846505754,
    -1.7486686786334682,
    6.010922944459858,
    0.0,
    -1.4734525786302137,
    0.0,
    0.0,
    0.0,
    1.2668559396999028,
    0.0,
    0.0,
    2.6491831379727286,
    -5.138139863865134,
    0.0,
    2.455866538989746,
    0.0,
    0.0,
    -2.686130630250619
  ],
  "dynamic_gain": [
    0.5,
    0.5,
    0.5,
    0.5,
    0.5,
    0.5,
    0.5,
    0.5,
    0.5,
    0.5,
    0.5,
    0.5,
    0.5,
    0.5,
    0.5,
    0.5,
    0.5,
    0.5,
    0.5,
    0.5,
    0.5,
    0.5,
    0.5,
    0.5,
    0.5,
    0.5,
    0.5,
    0.5,
    0.5,
    0.5,
    0.5,
    0.5,
    0.5,
    0.5,
    0.5,
    0.5,
    0.5,
    0.5,
    0.5,
    0.5,
    0.5,
    0.5,
    0.5,
    0.5,
    0.5,
    0.5,
    0.5,
    0.5,
    0.5,
    0.5,
    0.5,
    0.5,
    0.5,
    0.5
  ],
  "value_map": {
    "next": "-0.0",
    "prev": "-0.0",
    "default": "-0.0"
  },
  "actuation_variation": [
    0.0,
    0.0,
    -0.3899714299264501,
    0.0,
    -1.2559065073008302,
    0.0,
    0.0,
    0.0,
    0.0,
    0.5763393936216987,
    2.216581226353505,
    0.88198489899475,
    -0.5250378729936324,
    0.8709165412649211,
    0.0,
    -0.42242189121506796,
    -1.0137547535861913,
    0.43146094077515246,
    0.6109514149021457,
    -0.32628702796280606,
    -0.27892192957392314,
    1.1913822654374373,
    0.0,
    0.0,
    0.0,
    0.7623524412315641,
    0.0,
    0.0,
    0.0,
    -0.343397956805589,
    -0.4413290689808225,
    0.7450809757526146,
    0.0,
    -2.135797113346034,
    0.0,
    -0.8874960724734483,
    -0.49916184577890826,
    -0.4808838866242038,
    1.653003809726461,
    0.0,
    -0.4051994591233088,
    0.0,
    0.0,
    0.0,
    0.3483853834174733,
    0.0,
    0.0,
    0.7285253629425005,
    -1.4129884625629119,
    0.0,
    0.6753632982221802,
    0.0,
    0.0,
    -0.7386859233189204
  ]
}