{
  "parameters": {
    "integral_band": 0,
    "dead_band": 1,
    "small_gain": 50.0,
    "large_gain": 80.0,
    "large_gain_regulations": 3,
    "valves_min": 0,
    "valves_max": 100,
    "matrix_minor": 10,
    "matrix_major": 55,
    "profiles_directions_used_for_regulation": 0,
    "profiles_to_average": 2,
    "profiles_for_first_regulation": 1,
    "profiles_for_regulation": 10,
    "phase_shift_misDx_haulDx": 0,
    "phase_shift_misDx_haulSx": 0,
    "phase_shift_misSx_haulDx": 0,
    "phase_shift_misSx_haulSx": 0,
    "revert_regulation": 0,
    "disturbation_type": 0,
    "disturbation_amount": 0.0,
    "disturbation_amplitude": 1.0,
    "disturbation_cycles": 1,
    "disturbation_frequency": 1,
    "measurer_speed_default": 2,
    "measurer_speed_control": 0,
    "measurer_speed_min": 3,
    "measurer_speed_max": 7,
    "measurer_twoSigma_for_speed_min": 2.0,
    "measurer_twoSigma_for_speed_max": 10.0
  },
  "production": {
    "line_speed": 45.0,
    "layflat": 1640.0,
    "thickness": 22.0
  },
  "status": {
    "application": {
      "measurer_active": true,
      "actuation_active": true
    },
    "measurer": {
      "is_valid": true,
      "reason_is_valid": "none",
      "direction": 1,
      "speed": 0
    },
    "hauloff": {
      "direction": 0,
      "position": 0,
      "speed": 0,
      "last_period": 0
    }
  },
  "stats": {
    "min_thickness": 19.581649071857463,
    "max_thickness": 23.51870020799812,
    "mean_thickness": 21.999999999999996,
    "sigma_perc": 7.342326360894101,
    "sigma_abs": 1.6153117993967026,
    "stdDev": 0.8076558996983513
  },
  "rawProfile": [
    22.5,
    21.8,
    21.4,
    23.5,
    22.7,
    22.2,
    22.2,
    23.6,
    22.2,
    22.6,
    21.9,
    21.3,
    22.7,
    21.9,
    20.8,
    21.6,
    21.2,
    21.5,
    21.8,
    21.2,
    21.0,
    20.7,
    21.9,
    22.0,
    22.3,
    21.5,
    20.4,
    21.2,
    23.2,
    23.7,
    22.1,
    22.9,
    22.0,
    23.6,
    22.1,
    22.5,
    22.6,
    24.0,
    22.3,
    22.1,
    23.5,
    24.0,
    22.1,
    22.0,
    20.0,
    21.7,
    21.6,
    22.3,
    22.5,
    22.2,
    21.4,
    20.6,
    22.0,
    20.2,
    21.7,
    21.6,
    22.9,
    24.0,
    21.4,
    21.8,
    22.5,
    23.1,
    23.5,
    22.2,
    22.5,
    20.5,
    18.9,
    22.0,
    22.2,
    21.1,
    21.4,
    21.0,
    22.3,
    21.6,
    21.4,
    21.7,
    20.5,
    21.2,
    21.6,
    23.6,
    22.7,
    22.5,
    21.5,
    20.5,
    22.7,
    20.9,
    21.2,
    21.5,
    21.5,
    22.5,
    22.8,
    22.3,
    22.5,
    21.4,
    21.5,
    20.5,
    22.6,
    20.2,
    21.1,
    20.6,
    19.7,
    21.4,
    21.5,
    21.6,
    22.5,
    22.9,
    19.8,
    19.9,
    21.6,
    22.9,
    20.2,
    21.6,
    20.9,
    20.4,
    21.9,
    23.8,
    20.9,
    22.3,
    22.9,
    21.8,
    22.7,
    19.6,
    20.7,
    20.8,
    21.0,
    21.5,
    21.1,
    21.2,
    21.4,
    21.4,
    22.2,
    21.5,
    21.0,
    20.4,
    20.2,
    21.4,
    20.9,
    21.4,
    21.4,
    21.5,
    21.0,
    20.4,
    19.7,
    20.4,
    17.3,
    22.2,
    21.7,
    21.3,
    21.3,
    19.7,
    18.7,
    19.2,
    20.2,
    19.8,
    21.4,
    20.8,
    20.4,
    19.6,
    19.3,
    19.8,
    22.2,
    20.4,
    19.5,
    21.9,
    21.2,
    21.3,
    21.2,
    20.4,
    20.4,
    21.1,
    21.9,
    21.6,
    23.5,
    23.3,
    21.8,
    20.7,
    20.6,
    20.9,
    19.6,
    21.2,
    19.3,
    19.7,
    18.1,
    17.6,
    18.8,
    19.5,
    19.5,
    19.5,
    21.6,
    21.4,
    21.1,
    21.5,
    20.6,
    21.1,
    20.5,
    20.8,
    21.0,
    20.8,
    21.2,
    20.4,
    21.6,
    23.4,
    23.6,
    22.1,
    22.5,
    21.6,
    20.0,
    20.6,
    20.7,
    20.7,
    20.9,
    21.3,
    22.2,
    21.4,
    22.6,
    22.1,
    21.0,
    21.1,
    21.4,
    20.8,
    21.4,
    20.6,
    19.8,
    21.3,
    21.3,
    21.1,
    20.3,
    19.5,
    18.5,
    21.1,
    21.1,
    20.4,
    21.4,
    21.8,
    20.3,
    19.2,
    20.4,
    19.5,
    21.0,
    20.2,
    19.5,
    20.4,
    21.4,
    20.6,
    20.4,
    19.9,
    19.2,
    20.3,
    20.3,
    22.3,
    21.1,
    22.3,
    20.9,
    18.5,
    21.9,
    21.3,
    21.4,
    20.8,
    19.7,
    20.4,
    20.2,
    20.4,
    20.4,
    21.7,
    20.9,
    21.7,
    20.8,
    19.5,
    21.4,
    21.7,
    21.1,
    19.9,
    19.5,
    19.6,
    20.1,
    21.4,
    20.9,
    20.0,
    20.6,
    20.0,
    19.5,
    19.5,
    18.8,
    18.6,
    20.1,
    19.2,
    20.1,
    22.7,
    20.2,
    21.4,
    19.4,
    20.7,
    21.5,
    21.4,
    21.2,
    20.6,
    20.9,
    20.0,
    19.8,
    21.9,
    21.2,
    21.7,
    22.0,
    22.2,
    22.7,
    22.6,
    21.4,
    21.4,
    21.7,
    20.7,
    20.0,
    20.2,
    21.3,
    20.6,
    19.7,
    22.3,
    20.6,
    20.3,
    21.1,
    20.5,
    21.8,
    21.5,
    22.1,
    20.5,
    22.0,
    23.3,
    21.8,
    22.6,
    22.5,
    22.9,
    23.1,
    21.8,
    20.7,
    21.9,
    20.9,
    20.8,
    20.4,
    22.1,
    23.3,
    21.4,
    22.1,
    22.3,
    21.3,
    21.9,
    22.8,
    23.0,
    22.2,
    21.5,
    19.6,
    19.5,
    20.5,
    20.4,
    22.2,
    22.1,
    20.9,
    20.9,
    20.6,
    21.1,
    21.9,
    23.5
  ],
  "zonesProfile": [
    21.56571563125466,
    21.638240257446732,
    19.581649071857463,
    21.809191162042303,
    22.337584867155922,
    21.85581413602292,
    20.902633334641504,
    20.861190691103168,
    21.052862917467916,
    21.819551822926883,
    22.151092971233467,
    21.814371492484597,
    22.876339233154116,
    21.835092814253752,
    22.19253561477179,
    21.876535457792087,
    22.89188022448099,
    22.524076763078366,
    22.44119147600173,
    22.301322554059887,
    22.829716259173498,
    22.82453592873121,
    22.524076763078373,
    22.95404418978847,
    23.51870020799812,
    23.275224677210467,
    22.223617597425534,
    22.176994623444912,
    23.15607707703779,
    23.14053608571092,
    22.322043875829046,
    21.519092657274044,
    23.03174914642283,
    22.301322554059887,
    23.026568815980536,
    22.648404693693344,
    21.482830344178023,
    21.648600918331304,
    22.793453946077467,
    21.550174639927786,
    21.715945214081078,
    20.063419802990467,
    21.14610886542915,
    21.223813822063494,
    21.627879596562142,
    21.42066637887053,
    21.72112554452337,
    20.980338291275846,
    21.001059613045015,
    21.14092853498685,
    21.60715827479299,
    22.26506024096386,
    21.78846984027314,
    23.02138848553825
  ],
  "actuators": {
    "values": [
      60,
      43,
      100,
      1,
      68,
      71,
      18,
      25,
      68,
      49,
      42,
      3,
      60,
      52,
      19,
      0,
      72,
      56,
      7,
      32,
      69,
      39,
      28,
      49,
      56,
      44,
      48,
      40,
      27,
      44,
      57,
      51,
      15,
      87,
      47,
      57,
      91,
      100,
      27,
      56,
      85,
      100,
      90,
      53,
      35,
      56,
      76,
      16,
      39,
      76,
      2,
      35,
      72,
      50
    ],
    "forced": [
      false,
      false,
      false,
      false,
      false,
      false,
      false,
      false,
      false,
      false,
      false,
      false,
      false,
      false,
      false,
      false,
      false,
      false,
      false,
      false,
      false,
      false,
      false,
      false,
      false,
      false,
      false,
      false,
      false,
      false,
      false,
      false,
      false,
      false,
      false,
      false,
      false,
      false,
      false,
      false,
      false,
      false,
      false,
      false,
      false,
      false,
      false,
      false,
      false,
      false,
      false,
      false,
      false,
      false
    ]
  },
  "old_actuators": {
    "values": [
      60,
      42,
      100,
      1,
      69,
      71,
      16,
      23,
      68,
      49,
      42,
      3,
      61,
      52,
      19,
      0,
      73,
      57,
      8,
      32,
      70,
      40,
      28,
      50,
      59,
      45,
      49,
      40,
      28,
      46,
      58,
      50,
      16,
      88,
      48,
      57,
      90,
      100,
      27,
      56,
      84,
      100,
      88,
      51,
      35,
      56,
      74,
      15,
      39,
      76,
      2,
      35,
      72,
      51
    ],
    "forced": [
      false,
      false,
      false,
      false,
      false,
      false,
      false,
      false,
      false,
      false,
      false,
      false,
      false,
      false,
      false,
      false,
      false,
      false,
      false,
      false,
      false,
      false,
      false,
      false,
      false,
      false,
      false,
      false,
      false,
      false,
      false,
      false,
      false,
      false,
      false,
      false,
      false,
      false,
      false,
      false,
      false,
      false,
      false,
      false,
      false,
      false,
      false,
      false,
      false,
      false,
      false,
      false,
      false,
      false
    ]
  },
  "average_zones_profile": [
    21.518652290002972,
    21.788758388762112,
    19.733126614009358,
    21.94254775597272,
    22.50890230910544,
    21.955349409899515,
    20.863933774993463,
    20.52266254478723,
    21.42512834559401,
    21.88466908803394,
    21.924321665425115,
    22.023961669170184,
    22.875495447942008,
    21.96075349861019,
    21.98182740291656,
    22.03665144396279,
    22.607382825688305,
    22.667834713713603,
    22.345254035726384,
    22.041475789092363,
    22.63935984141562,
    22.762887672956595,
    22.462892968975158,
    22.90646555146155,
    23.51722584380107,
    22.964584922803326,
    22.370467467998044,
    22.41546989592055,
    22.907638580982862,
    23.462144154217224,
    22.3145822765647,
    21.4217719715681,
    22.86123936527065,
    21.96790695764779,
    22.861276658315383,
    21.989055448043622,
    21.36160148276604,
    21.444486769842687,
    22.056325157703924,
    22.157236527745418,
    21.880160032396837,
    19.992404187437007,
    21.19849565992336,
    21.268877637431068,
    21.510322398668556,
    21.837618945426666,
    21.08137542652533,
    21.467689780474306,
    21.869541722974642,
    21.697750023484822,
    21.933492351653776,
    21.986560216822063,
    21.690460934627396,
    23.131942152745502
  ],
  "thickness_difference ": [
    -2.187944136350126,
    0.0,
    -10.303969936321101,
    0.0,
    2.3131923141156396,
    0.0,
    -5.163937386393352,
    -6.715170250967133,
    -2.613052974572677,
    0.0,
    0.0,
    0.0,
    3.9795247633727633,
    0.0,
    0.0,
    0.0,
    2.7608310258559308,
    3.0356123350618316,
    1.5693365260290193,
    0.0,
    2.9061810973437217,
    3.4676712407117933,
    2.1040589498870816,
    4.120297961188868,
    6.896481108186689,
    4.384476921833298,
    1.6839430363547434,
    1.8884995269115832,
    4.125629913558464,
    6.646109791896474,
    1.4299194389304533,
    -2.6283092201450065,
    3.9147243875938575,
    0.0,
    3.914893901433558,
    0.0,
    -2.901811441972542,
    -2.5250601370786963,
    0.0,
    0.0,
    0.0,
    -9.12543551164997,
    -3.64320154580291,
    -3.3232834662224193,
    -2.2258072787792895,
    0.0,
    -4.175566243066681,
    -2.4195919069349743,
    0.0,
    -1.3738635296144446,
    0.0,
    0.0,
    -1.4069957516936555,
    5.145191603388645
  ],
  "dynamic_gain": [
    0.5,
    0.5,
    0.5,
    0.5,
    0.5,
    0.5,
    0.5,
    0.5,
    0.5,
    0.5,
    0.5,
    0.5,
    0.5,
    0.5,
    0.5,
    0.5,
    0.5,
    0.5,
    0.5,
    0.5,
    0.5,
    0.5,
    0.5,
    0.5,
    0.5,
    0.5,
    0.5,
    0.5,
    0.5,
    0.5,
    0.5,
    0.5,
    0.5,
    0.5,
    0.5,
    0.5,
    0.5,
    0.5,
    0.5,
    0.5,
    0.5,
    0.5,
    0.5,
    0.5,
    0.5,
    0.5,
    0.5,
    0.5,
    0.5,
    0.5,
    0.5,
    0.5,
    0.5,
    0.5
  ],
  "value_map": {
    "next": "-0.05",
    "prev": "-0.05",
    "default": "-0.05"
  },
  "actuation_variation": [
    -0.4730548474115686,
    -0.3122978518167807,
    -2.833591732488303,
    -0.19976944055513657,
    0.636127886381801,
    -0.07126862680694282,
    -1.5879620375323502,
    -2.0410965780401122,
    -0.8864688242816645,
    -0.06532632436431693,
    0.0,
    0.0994881190843191,
    1.09436930992751,
    0.0994881190843191,
    0.0,
    0.06902077564639827,
    0.8351188404869268,
    0.9430475809391275,
    0.5074578530345262,
    0.11188794058431853,
    0.8858915827873184,
    1.0788655923765134,
    0.768315441266464,
    1.3580954407787829,
    2.109151676826894,
    1.4202417571176928,
    0.6199087462161765,
    0.6645766936485157,
    1.3479134591987791,
    1.9665689265837534,
    0.4936728599996613,
    -0.589168939876769,
    1.0108414760846858,
    0.1957404572256854,
    1.0765958228942285,
    0.0253270614865254,
    -0.8611246499694165,
    -0.7669368237459551,
    -0.0631265034269674,
    0.0,
    -0.22813588779124927,
    -2.6005748043488146,
    -1.3130983995426102,
    -1.0606281738257204,
    -0.6951790883198652,
    -0.16003433804614928,
    -1.2087705145167118,
    -0.7697769304837849,
    -0.09483638591373547,
    -0.3778124706439723,
    -0.03434658824036112,
    -0.03517489379234139,
    -0.25829404163103914,
    1.3250541937307831
  ]
}