{
  "parameters": {
    "integral_band": 0,
    "dead_band": 1,
    "small_gain": 50.0,
    "large_gain": 80.0,
    "large_gain_regulations": 3,
    "valves_min": 0,
    "valves_max": 100,
    "matrix_minor": 10,
    "matrix_major": 55,
    "profiles_directions_used_for_regulation": 0,
    "profiles_to_average": 2,
    "profiles_for_first_regulation": 1,
    "profiles_for_regulation": 10,
    "phase_shift_misDx_haulDx": 0,
    "phase_shift_misDx_haulSx": 0,
    "phase_shift_misSx_haulDx": 0,
    "phase_shift_misSx_haulSx": 0,
    "revert_regulation": 0,
    "disturbation_type": 0,
    "disturbation_amount": 0.0,
    "disturbation_amplitude": 1.0,
    "disturbation_cycles": 1,
    "disturbation_frequency": 1,
    "measurer_speed_default": 2,
    "measurer_speed_control": 0,
    "measurer_speed_min": 3,
    "measurer_speed_max": 7,
    "measurer_twoSigma_for_speed_min": 2.0,
    "measurer_twoSigma_for_speed_max": 10.0
  },
  "production": {
    "line_speed": 45.0,
    "layflat": 1640.0,
    "thickness": 22.0
  },
  "status": {
    "application": {
      "measurer_active": true,
      "actuation_active": true
    },
    "measurer": {
      "is_valid": true,
      "reason_is_valid": "none",
      "direction": 1,
      "speed": 0
    },
    "hauloff": {
      "direction": 0,
      "position": 0,
      "speed": 0,
      "last_period": 0
    }
  },
  "stats": {
    "min_thickness": 20.53927940887988,
    "max_thickness": 23.36174720460341,
    "mean_thickness": 22.000000000000004,
    "sigma_perc": 6.65199126927712,
    "sigma_abs": 1.4634380792409665,
    "stdDev": 0.7317190396204832
  },
  "rawProfile": [
    21.2,
    21.5,
    21.2,
    21.2,
    21.8,
    20.9,
    21.1,
    22.5,
    23.2,
    22.0,
    22.9,
    21.4,
    21.4,
    21.6,
    20.3,
    21.5,
    21.8,
    21.1,
    21.6,
    23.7,
    22.1,
    23.3,
    23.4,
    22.1,
    21.4,
    22.8,
    22.3,
    22.5,
    21.8,
    22.1,
    21.3,
    21.0,
    22.3,
    22.5,
    22.2,
    22.1,
    20.9,
    21.4,
    21.2,
    20.8,
    22.3,
    21.0,
    20.3,
    22.1,
    19.9,
    22.3,
    21.3,
    20.6,
    21.9,
    22.0,
    21.6,
    22.5,
    23.8,
    22.6,
    22.1,
    20.8,
    22.1,
    23.7,
    21.1,
    21.2,
    20.3,
    20.8,
    22.7,
    21.6,
    21.2,
    21.5,
    19.9,
    21.8,
    19.8,
    19.8,
    22.1,
    22.2,
    22.7,
    21.5,
    22.8,
    23.1,
    21.6,
    22.0,
    21.4,
    21.5,
    21.1,
    21.7,
    20.4,
    21.3,
    20.9,
    21.2,
    20.8,
    21.1,
    21.5,
    20.7,
    21.1,
    20.4,
    21.7,
    21.3,
    22.6,
    21.7,
    21.5,
    22.1,
    22.5,
    22.7,
    22.7,
    22.1,
    20.9,
    20.5,
    20.0,
    20.2,
    20.4,
    22.1,
    21.1,
    20.7,
    20.4,
    20.8,
    20.5,
    20.2,
    21.8,
    20.4,
    21.0,
    19.8,
    21.6,
    20.6,
    20.0,
    20.9,
    21.9,
    21.3,
    21.3,
    22.1,
    20.5,
    20.3,
    20.2,
    21.0,
    21.6,
    21.2,
    20.3,
    20.8,
    19.6,
    20.3,
    19.9,
    20.8,
    21.0,
    20.0,
    21.1,
    21.3,
    20.9,
    20.4,
    19.5,
    21.3,
    21.6,
    20.6,
    17.9,
    19.6,
    20.8,
    20.1,
    21.7,
    20.7,
    22.5,
    20.8,
    21.1,
    20.9,
    21.3,
    21.6,
    20.4,
    22.0,
    21.5,
    20.7,
    20.9,
    20.6,
    19.6,
    19.5,
    21.3,
    21.3,
    20.6,
    19.5,
    20.4,
    20.6,
    21.6,
    21.8,
    21.4,
    21.8,
    21.1,
    21.6,
    21.3,
    20.7,
    19.4,
    20.3,
    19.2,
    19.5,
    17.7,
    17.4,
    18.4,
    19.2,
    19.5,
    22.5,
    23.9,
    22.5,
    22.9,
    21.6,
    20.8,
    21.4,
    22.2,
    22.3,
    22.8,
    23.0,
    22.5,
    22.0,
    22.1,
    22.5,
    21.4,
    21.1,
    21.3,
    21.9,
    21.9,
    20.6,
    19.5,
    19.2,
    19.1,
    19.5,
    21.1,
    20.5,
    20.6,
    21.3,
    22.3,
    22.5,
    23.9,
    23.0,
    22.7,
    21.5,
    21.7,
    21.4,
    20.5,
    20.7,
    20.5,
    21.7,
    21.4,
    20.0,
    19.2,
    20.2,
    22.1,
    22.9,
    23.7,
    23.5,
    23.2,
    22.8,
    20.4,
    20.4,
    21.4,
    21.9,
    21.3,
    20.9,
    20.4,
    19.8,
    18.6,
    17.9,
    21.2,
    20.4,
    19.5,
    19.6,
    19.7,
    20.4,
    20.5,
    19.9,
    19.5,
    19.5,
    19.8,
    21.3,
    21.4,
    20.4,
    21.1,
    21.6,
    21.4,
    22.2,
    21.7,
    21.9,
    21.4,
    20.5,
    19.8,
    20.4,
    19.9,
    20.3,
    21.9,
    22.0,
    21.2,
    20.9,
    21.4,
    22.6,
    22.3,
    20.9,
    21.1,
    21.3,
    21.5,
    20.6,
    19.1,
    20.8,
    21.4,
    20.3,
    20.1,
    20.4,
    19.7,
    20.3,
    20.2,
    20.2,
    21.0,
    20.2,
    20.8,
    21.9,
    22.7,
    22.5,
    21.0,
    20.9,
    21.4,
    22.2,
    20.9,
    20.7,
    21.2,
    21.0,
    23.4,
    22.5,
    20.4,
    20.5,
    21.3,
    21.5,
    22.8,
    22.5,
    21.2,
    20.4,
    21.9,
    23.4,
    22.2,
    21.2,
    21.6,
    22.7,
    22.5,
    22.5,
    22.0,
    21.7,
    21.4,
    21.4,
    21.1,
    19.5,
    19.9,
    19.5,
    19.7,
    21.6,
    21.3,
    21.5,
    21.4,
    22.8,
    22.5,
    21.8,
    22.7,
    22.1,
    21.4,
    20.3,
    20.3,
    22.2,
    21.6,
    22.9,
    22.8,
    22.3,
    23.6,
    21.9
  ],
  "zonesProfile": [
    22.714392205584254,
    20.865546328385527,
    20.53927940887988,
    22.2224024063297,
    21.12966716798535,
    21.62165696723991,
    22.061858366572945,
    20.943228928267835,
    21.58022624730269,
    21.0468057281109,
    21.497364807428237,
    21.932387366769117,
    21.54397436735762,
    21.616478127247756,
    21.75112796704374,
    22.88529392532531,
    21.833989406918192,
    21.82363172693389,
    22.797253645458703,
    22.092931406525857,
    21.963460406722024,
    22.693676845615645,
    22.84386320538809,
    22.077394886549403,
    22.310442686196296,
    22.67296148564703,
    23.299601124697574,
    22.43473484600798,
    22.937082325246834,
    22.041143006604322,
    23.289243444713268,
    22.294906166219835,
    22.263833126266917,
    21.326463087687173,
    22.85939972536454,
    22.83868436539592,
    22.3104426861963,
    21.953102726737715,
    22.232760086314,
    20.886261688354146,
    21.518080167396846,
    22.274190806251227,
    21.435218727522393,
    22.382946446086436,
    21.1244883279932,
    20.69464460864447,
    20.616962008762172,
    22.419198326031513,
    22.517596285882423,
    21.766664487020197,
    23.36174720460341,
    20.9587654482443,
    21.72523376708298,
    23.175308964885893
  ],
  "actuators": {
    "values": [
      0,
      58,
      100,
      1,
      32,
      50,
      25,
      22,
      55,
      6,
      6,
      2,
      50,
      37,
      1,
      0,
      99,
      65,
      0,
      52,
      98,
      41,
      49,
      55,
      48,
      83,
      51,
      64,
      31,
      52,
      40,
      53,
      43,
      100,
      42,
      34,
      96,
      100,
      47,
      51,
      58,
      95,
      100,
      32,
      2,
      52,
      55,
      13,
      26,
      100,
      17,
      8,
      100,
      21
    ],
    "forced": [
      false,
      false,
      false,
      false,
      false,
      false,
      false,
      false,
      false,
      false,
      false,
      false,
      false,
      false,
      false,
      false,
      false,
      false,
      false,
      false,
      false,
      false,
      false,
      false,
      false,
      false,
      false,
      false,
      false,
      false,
      false,
      false,
      false,
      false,
      false,
      false,
      false,
      false,
      false,
      false,
      false,
      false,
      false,
      false,
      false,
      false,
      false,
      false,
      false,
      false,
      false,
      false,
      false,
      false
    ]
  },
  "old_actuators": {
    "values": [
      0,
      57,
      100,
      1,
      31,
      50,
      25,
      21,
      55,
      5,
      5,
      2,
      49,
      36,
      1,
      0,
      99,
      65,
      0,
      52,
      98,
      42,
      49,
      55,
      49,
      83,
      52,
      64,
      33,
      52,
      43,
      54,
      44,
      100,
      44,
      36,
      97,
      100,
      47,
      51,
      57,
      95,
      100,
      33,
      1,
      51,
      53,
      13,
      27,
      100,
      17,
      7,
      100,
      21
    ],
    "forced": [
      false,
      false,
      false,
      false,
      false,
      false,
      false,
      false,
      false,
      false,
      false,
      false,
      false,
      false,
      false,
      false,
      false,
      false,
      false,
      false,
      false,
      false,
      false,
      false,
      false,
      false,
      false,
      false,
      false,
      false,
      false,
      false,
      false,
      false,
      false,
      false,
      false,
      false,
      false,
      false,
      false,
      false,
      false,
      false,
      false,
      false,
      false,
      false,
      false,
      false,
      false,
      false,
      false,
      false
    ]
  },
  "average_zones_profile": [
    22.71554389597926,
    20.954162875734994,
    20.767780580380922,
    22.345555206478657,
    21.385874954395426,
    21.745530828073246,
    21.89588502093602,
    20.959422524252126,
    21.613737698009793,
    21.08612383888878,
    21.24940648361079,
    21.652908448091218,
    21.2675448556641,
    21.246966248583895,
    21.71468778161448,
    23.10839602657739,
    21.85944665977947,
    21.921431122635365,
    23.051459866865613,
    22.071580186165512,
    21.751107494649872,
    22.617357281501352,
    22.498710164710513,
    22.084477557822837,
    22.250082332804475,
    22.369344837593182,
    22.977149908067588,
    22.234732294039492,
    22.873386627013037,
    22.006937926869334,
    23.573857589752173,
    22.632377870126057,
    23.1024836938201,
    21.64701476345507,
    22.943039893211047,
    23.462239024144033,
    22.492903504639727,
    22.017165070005607,
    22.131161710236807,
    21.703316887047823,
    21.747989711221294,
    22.17254270185098,
    21.316495193974248,
    22.637649950723947,
    21.398784758133512,
    21.062452312541524,
    20.646463235069028,
    21.929895579146436,
    22.464736902742388,
    21.322059428470112,
    22.623325558622078,
    21.346921765727394,
    20.911280271191693,
    22.437111096358326
  ],
  "thickness_difference ": [
    3.2524722544511775,
    -4.753805110295482,
    -5.600997361904899,
    1.570705483993897,
    -2.7914774800207907,
    -1.1566780542125181,
    0.0,
    -4.72989761703579,
    -1.7557377363191244,
    -4.15398255050554,
    -3.411788710860041,
    -1.5776888723126479,
    -3.329341565163188,
    -3.4228806882550216,
    -1.2968737199341844,
    5.038163757169946,
    0.0,
    0.0,
    4.779363031207334,
    0.0,
    -1.1313295697733075,
    2.8061694613697825,
    2.266864385047785,
    0.0,
    1.1367378763839753,
    1.6788401708781011,
    4.441590491216309,
    1.0669649729067838,
    3.969939213695623,
    0.0,
    7.1538981352371485,
    2.8744448642093476,
    5.011289517364097,
    -1.604478347931507,
    4.286544969141123,
    6.646541018836513,
    2.240470475635125,
    0.0,
    0.0,
    -1.3485596043280783,
    -1.1455013126304825,
    0.0,
    -3.106840027389782,
    2.8984088669270327,
    -2.73279655393858,
    -4.261580397538529,
    -6.152439840595327,
    0.0,
    2.1124404670108534,
    -3.081548052408581,
    2.8332979937367173,
    -2.9685374285118438,
    -4.94872604003776,
    1.986868619810571
  ],
  "dynamic_gain": [
    0.5,
    0.5,
    0.5,
    0.5,
    0.5,
    0.5,
    0.5,
    0.5,
    0.5,
    0.5,
    0.5,
    0.5,
    0.5,
    0.5,
    0.5,
    0.5,
    0.5,
    0.5,
    0.5,
    0.5,
    0.5,
    0.5,
    0.5,
    0.5,
    0.5,
    0.5,
    0.5,
    0.5,
    0.5,
    0.5,
    0.5,
    0.5,
    0.5,
    0.5,
    0.5,
    0.5,
    0.5,
    0.5,
    0.5,
    0.5,
    0.5,
    0.5,
    0.5,
    0.5,
    0.5,
    0.5,
    0.5,
    0.5,
    0.5,
    0.5,
    0.5,
    0.5,
    0.5,
    0.5
  ],
  "value_map": {
    "next": "-0.05",
    "prev": "-0.05",
    "default": "-0.05"
  },
  "actuation_variation": [
    0.8252564577119511,
    -1.3660095330176008,
    -1.6198517651813868,
    0.2221321370501795,
    -0.7573056212611831,
    -0.38787340190896225,
    -0.14716439178120772,
    -1.3446152880928204,
    -0.7049248816762925,
    -1.2715333625685028,
    -1.0815336810569662,
    -0.6023926967865589,
    -1.0405831694340686,
    -1.0569475713975656,
    -0.3162581962590276,
    1.3530731902233806,
    0.12595409392924867,
    0.11948407578018334,
    1.3143248335820168,
    0.09120083653585065,
    -0.24096139515341503,
    0.8000849722585521,
    0.6935419424223855,
    0.08509005653579402,
    0.35457392027754575,
    0.601139256181485,
    1.2900825136791072,
    0.5037036101721639,
    1.118407408088966,
    0.2780959337233193,
    2.0391831087954495,
    1.0946020289726017,
    1.4098537801820727,
    -0.20878568351853394,
    1.304851433286434,
    1.9909741662994476,
    0.7822929062705722,
    0.05601176189087812,
    -0.03371399010820196,
    -0.3994914240059836,
    -0.3487268510815847,
    -0.10630853350050662,
    -0.7819207858590144,
    0.6510715238717251,
    -0.7855983405983971,
    -1.3940655191864433,
    -1.7984604661021781,
    -0.10099998433961185,
    0.5038824271177702,
    -0.7237822528936706,
    0.6279048112545866,
    -0.8692334939982831,
    -1.385441381227916,
    0.5039825258082424
  ]
}