{
  "parameters": {
    "integral_band": 0,
    "dead_band": 1,
    "small_gain": 50.0,
    "large_gain": 80.0,
    "large_gain_regulations": 3,
    "valves_min": 0,
    "valves_max": 100,
    "matrix_minor": 10,
    "matrix_major": 55,
    "profiles_directions_used_for_regulation": 0,
    "profiles_to_average": 2,
    "profiles_for_first_regulation": 1,
    "profiles_for_regulation": 10,
    "phase_shift_misDx_haulDx": 0,
    "phase_shift_misDx_haulSx": 0,
    "phase_shift_misSx_haulDx": 0,
    "phase_shift_misSx_haulSx": 0,
    "revert_regulation": 0,
    "disturbation_type": 0,
    "disturbation_amount": 0.0,
    "disturbation_amplitude": 1.0,
    "disturbation_cycles": 1,
    "disturbation_frequency": 1,
    "measurer_speed_default": 2,
    "measurer_speed_control": 0,
    "measurer_speed_min": 3,
    "measurer_speed_max": 7,
    "measurer_twoSigma_for_speed_min": 2.0,
    "measurer_twoSigma_for_speed_max": 10.0
  },
  "production": {
    "line_speed": 45.0,
    "layflat": 1640.0,
    "thickness": 22.0
  },
  "status": {
    "application": {
      "measurer_active": true,
      "actuation_active": true
    },
    "measurer": {
      "is_valid": true,
      "reason_is_valid": "none",
      "direction": 1,
      "speed": 0
    },
    "hauloff": {
      "direction": 0,
      "position": 0,
      "speed": 0,
      "last_period": 0
    }
  },
  "stats": {
    "min_thickness": 20.304503160456996,
    "max_thickness": 24.097993796867033,
    "mean_thickness": 22.000000000000004,
    "sigma_perc": 6.881641341611862,
    "sigma_abs": 1.5139610951546096,
    "stdDev": 0.7569805475773048
  },
  "rawProfile": [
    20.9,
    21.9,
    21.0,
    20.5,
    20.2,
    20.5,
    21.0,
    22.1,
    21.6,
    23.2,
    23.3,
    21.7,
    21.4,
    21.5,
    20.0,
    19.2,
    19.9,
    20.9,
    20.1,
    20.6,
    22.5,
    22.5,
    23.1,
    21.7,
    20.2,
    21.9,
    21.3,
    21.2,
    20.2,
    19.8,
    21.4,
    20.0,
    18.9,
    20.7,
    20.4,
    20.6,
    19.9,
    19.5,
    20.1,
    20.6,
    21.2,
    20.7,
    21.4,
    20.2,
    21.7,
    21.3,
    21.1,
    21.6,
    21.5,
    21.5,
    20.4,
    20.2,
    20.4,
    21.0,
    19.6,
    21.2,
    20.7,
    21.3,
    21.6,
    21.6,
    22.7,
    21.4,
    21.1,
    21.4,
    21.1,
    20.3,
    20.5,
    20.8,
    21.3,
    21.1,
    21.7,
    19.5,
    22.5,
    21.7,
    21.3,
    21.0,
    21.5,
    23.0,
    21.5,
    21.7,
    21.5,
    21.6,
    20.6,
    20.8,
    20.6,
    20.9,
    21.5,
    20.4,
    21.0,
    22.1,
    22.1,
    22.5,
    20.5,
    20.9,
    20.2,
    20.8,
    21.4,
    22.6,
    22.8,
    23.5,
    22.9,
    23.5,
    23.3,
    23.9,
    22.5,
    23.5,
    23.1,
    21.5,
    21.4,
    20.4,
    22.5,
    22.0,
    21.1,
    22.3,
    20.6,
    21.4,
    21.7,
    21.4,
    22.8,
    21.3,
    21.6,
    21.4,
    22.9,
    22.1,
    22.9,
    22.5,
    21.7,
    22.6,
    22.0,
    21.2,
    20.4,
    20.7,
    21.2,
    22.2,
    22.5,
    20.4,
    21.9,
    21.7,
    21.3,
    22.2,
    21.6,
    21.6,
    22.7,
    21.3,
    21.9,
    19.9,
    21.7,
    21.9,
    20.6,
    18.8,
    20.3,
    21.4,
    20.8,
    20.6,
    21.3,
    21.6,
    22.5,
    21.7,
    22.5,
    21.9,
    20.9,
    20.4,
    21.3,
    21.6,
    21.4,
    21.5,
    22.2,
    22.0,
    21.2,
    20.4,
    21.4,
    21.6,
    21.8,
    21.0,
    21.6,
    22.0,
    21.3,
    21.0,
    22.7,
    22.5,
    21.7,
    20.6,
    20.2,
    19.7,
    20.8,
    19.0,
    19.6,
    20.2,
    20.2,
    22.8,
    22.8,
    21.9,
    21.9,
    22.9,
    23.4,
    21.7,
    21.4,
    21.2,
    21.4,
    21.0,
    21.7,
    20.7,
    21.4,
    20.1,
    21.4,
    21.6,
    21.0,
    21.2,
    21.4,
    21.7,
    21.3,
    20.9,
    20.8,
    19.6,
    19.5,
    20.1,
    21.2,
    21.4,
    22.0,
    22.5,
    21.5,
    20.7,
    19.3,
    19.2,
    19.5,
    20.2,
    20.8,
    21.6,
    22.3,
    22.3,
    20.7,
    20.4,
    21.4,
    21.4,
    22.9,
    23.2,
    22.7,
    23.9,
    22.5,
    22.5,
    21.5,
    22.2,
    21.6,
    21.0,
    21.4,
    20.4,
    20.0,
    20.4,
    21.4,
    21.1,
    20.4,
    21.1,
    20.1,
    21.7,
    21.7,
    23.4,
    22.5,
    22.5,
    21.4,
    20.4,
    21.2,
    21.3,
    20.5,
    21.2,
    22.1,
    22.2,
    23.0,
    21.9,
    20.8,
    20.7,
    20.8,
    19.2,
    19.3,
    20.4,
    21.6,
    20.4,
    20.5,
    21.3,
    21.8,
    21.2,
    20.9,
    20.9,
    20.4,
    20.7,
    21.6,
    21.7,
    21.4,
    21.9,
    22.3,
    23.7,
    24.0,
    23.3,
    22.5,
    23.4,
    22.7,
    21.6,
    22.0,
    21.4,
    21.1,
    19.5,
    20.3,
    21.0,
    20.5,
    21.7,
    19.7,
    21.7,
    21.9,
    20.7,
    18.7,
    19.1,
    20.0,
    18.8,
    19.5,
    19.5,
    18.8,
    19.9,
    20.5,
    19.9,
    20.1,
    21.2,
    20.9,
    21.3,
    21.8,
    21.9,
    20.7,
    21.1,
    20.4,
    23.0,
    21.4,
    22.1,
    22.8,
    21.0,
    21.4,
    20.4,
    21.2,
    20.3,
    19.6,
    19.3,
    19.6,
    19.4,
    18.9,
    20.2,
    19.4,
    20.2,
    21.6,
    20.2,
    21.4,
    21.0,
    21.6,
    21.7,
    20.0,
    20.5,
    19.6,
    20.8,
    21.0,
    20.9,
    21.4,
    20.5,
    19.7,
    19.6
  ],
  "zonesProfile": [
    22.600290526481096,
    22.382631227670682,
    20.998939970947355,
    22.558831612421976,
    22.201248478662016,
    22.061324643712457,
    22.57956106945153,
    21.439440932825573,
    22.304895763809817,
    22.512190334105462,
    22.190883750147222,
    22.988967845785407,
    22.39817832044286,
    22.392995956185473,
    24.097993796867033,
    22.57956106945154,
    22.19088375014723,
    21.817753523615096,
    22.460366691531547,
    21.916218444505517,
    22.025048093910733,
    21.765929881041195,
    21.708923874209887,
    21.854030073416833,
    20.973028149660408,
    21.066310706293432,
    22.71430254014369,
    20.99375760668997,
    22.926779474696712,
    21.610458953319466,
    21.29433473361863,
    21.527541125201218,
    20.952298692630837,
    20.67763338698913,
    22.589925797966313,
    21.96804208707943,
    20.739821758077817,
    20.304503160456996,
    21.68819441718032,
    22.37226649915591,
    23.730045934592287,
    21.83848298064466,
    21.82811825212988,
    21.32542891916297,
    22.361901770641126,
    22.75576145420282,
    21.517176396686438,
    21.98877154410898,
    23.626398649444464,
    22.196066114404612,
    20.87456322876998,
    21.72965333123945,
    21.895488987475957,
    21.905853715990737
  ],
  "actuators": {
    "values": [
      41,
      35,
      100,
      1,
      34,
      47,
      0,
      0,
      53,
      28,
      16,
      0,
      39,
      52,
      0,
      0,
      70,
      70,
      21,
      40,
      83,
      55,
      38,
      52,
      75,
      59,
      49,
      70,
      41,
      51,
      57,
      59,
      25,
      100,
      18,
      69,
      100,
      100,
      39,
      51,
      91,
      97,
      97,
      43,
      10,
      51,
      75,
      16,
      18,
      85,
      38,
      29,
      54,
      18
    ],
    "forced": [
      false,
      false,
      false,
      false,
      false,
      false,
      false,
      false,
      false,
      false,
      false,
      false,
      false,
      false,
      false,
      false,
      false,
      false,
      false,
      false,
      false,
      false,
      false,
      false,
      false,
      false,
      false,
      false,
      false,
      false,
      false,
      false,
      false,
      false,
      false,
      false,
      false,
      false,
      false,
      false,
      false,
      false,
      false,
      false,
      false,
      false,
      false,
      false,
      false,
      false,
      false,
      false,
      false,
      false
    ]
  },
  "old_actuators": {
    "values": [
      42,
      34,
      100,
      1,
      34,
      47,
      0,
      0,
      53,
      28,
      17,
      0,
      40,
      53,
      0,
      0,
      70,
      70,
      22,
      40,
      84,
      55,
      38,
      52,
      75,
      59,
      50,
      70,
      42,
      51,
      56,
      58,
      23,
      100,
      18,
      68,
      100,
      100,
      39,
      51,
      92,
      98,
      97,
      43,
      11,
      52,
      76,
      17,
      19,
      85,
      37,
      28,
      54,
      18
    ],
    "forced": [
      false,
      false,
      false,
      false,
      false,
      false,
      false,
      false,
      false,
      false,
      false,
      false,
      false,
      false,
      false,
      false,
      false,
      false,
      false,
      false,
      false,
      false,
      false,
      false,
      false,
      false,
      false,
      false,
      false,
      false,
      false,
      false,
      false,
      false,
      false,
      false,
      false,
      false,
      false,
      false,
      false,
      false,
      false,
      false,
      false,
      false,
      false,
      false,
      false,
      false,
      false,
      false,
      false,
      false
    ]
  },
  "average_zones_profile": [
    22.91773309642374,
    21.746559109145608,
    20.598298876364463,
    22.17303564617707,
    21.729313762938663,
    21.866574568160082,
    22.382753880070474,
    21.97794737542662,
    22.095906098215654,
    22.107745847991737,
    22.4035071604321,
    22.904849033379694,
    22.389116185816263,
    22.216025295140057,
    23.629861717468017,
    22.553253588617984,
    22.27235353847248,
    21.70019677664513,
    22.33102590842806,
    21.799267613435,
    22.33370469450982,
    21.9785613583045,
    22.028750528064613,
    22.195734235479016,
    21.854910026290113,
    21.568421104829195,
    22.759647163241258,
    21.550506062101814,
    22.745224298314916,
    21.756556910288054,
    21.498818047748323,
    21.652144257688313,
    21.062869710895995,
    20.812744943189863,
    22.277767201881783,
    21.389749409816012,
    20.513332001395966,
    20.45043397649791,
    21.816409221732016,
    22.09811459661839,
    23.37506483047245,
    22.405675701545903,
    21.993917109213683,
    21.763557022243774,
    22.49950846043582,
    22.588892332209777,
    21.89090763027582,
    21.874890249824617,
    23.074049306175255,
    22.177891040351053,
    20.98203281993849,
    21.32563955311906,
    21.917433434440646,
    21.990815682117038
  ],
  "thickness_difference ": [
    4.1715140746533566,
    -1.1520040493381472,
    -6.371368743797894,
    0.0,
    -1.2303919866424418,
    0.0,
    1.7397903639567016,
    0.0,
    0.0,
    0.0,
    1.834123456509541,
    4.112950151725882,
    1.7687099355284694,
    0.0,
    7.408462352127352,
    2.514789039172656,
    1.2379706294203625,
    -1.3627419243403243,
    1.5046632201275465,
    0.0,
    1.5168395204991791,
    0.0,
    0.0,
    0.0,
    0.0,
    -1.9617222507763865,
    3.4529416510966278,
    -2.0431542631735735,
    3.38738317415871,
    -1.1065594986906613,
    -2.27809978296217,
    -1.581162465053122,
    -4.25968313229093,
    -5.396613894591534,
    1.2625781903717417,
    -2.7738663190181256,
    -6.757581811836517,
    -7.043481925009506,
    0.0,
    0.0,
    6.250294683965682,
    1.8439804615722852,
    0.0,
    -1.0747408079828475,
    2.270493001980999,
    2.676783328226261,
    0.0,
    0.0,
    4.882042300796612,
    0.0,
    -4.6271235457341415,
    -3.0652747585497244,
    0.0,
    0.0
  ],
  "dynamic_gain": [
    0.5,
    0.5,
    0.5,
    0.5,
    0.5,
    0.5,
    0.5,
    0.5,
    0.5,
    0.5,
    0.5,
    0.5,
    0.5,
    0.5,
    0.5,
    0.5,
    0.5,
    0.5,
    0.5,
    0.5,
    0.5,
    0.5,
    0.5,
    0.5,
    0.5,
    0.5,
    0.5,
    0.5,
    0.5,
    0.5,
    0.5,
    0.5,
    0.5,
    0.5,
    0.5,
    0.5,
    0.5,
    0.5,
    0.5,
    0.5,
    0.5,
    0.5,
    0.5,
    0.5,
    0.5,
    0.5,
    0.5,
    0.5,
    0.5,
    0.5,
    0.5,
    0.5,
    0.5,
    0.5
  ],
  "value_map": {
    "next": "-0.05",
    "prev": "-0.05",
    "default": "-0.05"
  },
  "actuation_variation": [
    1.1183662692962193,
    -0.3717974802966039,
    -1.7809265057778747,
    -0.1900440182610084,
    -0.3383577963266715,
    0.012734959432856498,
    0.478442350088093,
    0.04349475909891754,
    0.0,
    0.045853086412738525,
    0.6072077043332709,
    1.221132126525568,
    0.5892189860634762,
    0.22942930719139557,
    2.1001968728143385,
    0.9077278103111734,
    0.369243100961408,
    -0.3061881829548915,
    0.3797138374265672,
    0.07553756851566815,
    0.4171308681372743,
    0.03792098801247948,
    0.0,
    0.0,
    -0.04904305626940966,
    -0.4531500776860906,
    0.8494370412028238,
    -0.3908593017413493,
    0.8527875288470395,
    -0.27657177736001837,
    -0.6936704894081913,
    -0.5982642507709361,
    -1.3458572703711222,
    -1.5589964445606517,
    0.14294699701198751,
    -0.900188328266604,
    -2.1037687043557334,
    -2.1058970746735275,
    -0.17608704812523768,
    0.15625736709914206,
    1.7649305496298697,
    0.6633519940315206,
    0.019230991339735947,
    -0.23879139714575812,
    0.6644366385508601,
    0.7928777403117468,
    0.06691958320565654,
    0.1220510575199153,
    1.3425616327190684,
    0.0063729688765617465,
    -1.3490908440406322,
    -0.9586286472445278,
    -0.07663186896374312,
    0.10428785186633392
  ]
}