{
  "parameters": {
    "integral_band": 0,
    "dead_band": 1,
    "small_gain": 50.0,
    "large_gain": 80.0,
    "large_gain_regulations": 3,
    "valves_min": 0,
    "valves_max": 100,
    "matrix_minor": 10,
    "matrix_major": 55,
    "profiles_directions_used_for_regulation": 0,
    "profiles_to_average": 2,
    "profiles_for_first_regulation": 1,
    "profiles_for_regulation": 10,
    "phase_shift_misDx_haulDx": 0,
    "phase_shift_misDx_haulSx": 0,
    "phase_shift_misSx_haulDx": 0,
    "phase_shift_misSx_haulSx": 0,
    "revert_regulation": 0,
    "disturbation_type": 0,
    "disturbation_amount": 0.0,
    "disturbation_amplitude": 1.0,
    "disturbation_cycles": 1,
    "disturbation_frequency": 1,
    "measurer_speed_default": 2,
    "measurer_speed_control": 0,
    "measurer_speed_min": 3,
    "measurer_speed_max": 7,
    "measurer_twoSigma_for_speed_min": 2.0,
    "measurer_twoSigma_for_speed_max": 10.0
  },
  "production": {
    "line_speed": 45.0,
    "layflat": 1640.0,
    "thickness": 22.0
  },
  "status": {
    "application": {
      "measurer_active": true,
      "actuation_active": true
    },
    "measurer": {
      "is_valid": true,
      "reason_is_valid": "none",
      "direction": 1,
      "speed": 0
    },
    "hauloff": {
      "direction": 0,
      "position": 0,
      "speed": 0,
      "last_period": 0
    }
  },
  "stats": {
    "min_thickness": 20.62263462440703,
    "max_thickness": 24.25585153521347,
    "mean_thickness": 22.0,
    "sigma_perc": 7.691714589078761,
    "sigma_abs": 1.6921772095973269,
    "stdDev": 0.8460886047986634
  },
  "rawProfile": [
    21.3,
    21.9,
    22.9,
    22.2,
    21.9,
    20.5,
    20.6,
    21.4,
    23.6,
    23.1,
    23.1,
    22.9,
    21.9,
    22.6,
    21.6,
    21.1,
    21.5,
    23.0,
    20.9,
    22.3,
    21.7,
    21.4,
    22.1,
    21.0,
    21.1,
    22.6,
    22.9,
    23.1,
    22.6,
    22.2,
    22.7,
    21.0,
    21.1,
    21.6,
    22.5,
    21.3,
    20.1,
    21.3,
    20.4,
    19.1,
    19.2,
    20.4,
    19.7,
    18.8,
    20.0,
    21.7,
    21.4,
    21.0,
    21.6,
    23.8,
    22.9,
    22.0,
    21.0,
    21.3,
    20.3,
    19.2,
    18.8,
    19.7,
    19.6,
    21.4,
    21.7,
    22.5,
    22.5,
    21.2,
    21.0,
    21.1,
    21.3,
    21.2,
    21.0,
    22.8,
    23.1,
    20.7,
    23.4,
    22.3,
    21.6,
    21.0,
    22.5,
    21.9,
    22.7,
    21.7,
    20.2,
    20.7,
    20.9,
    21.1,
    21.2,
    21.3,
    20.9,
    22.5,
    22.5,
    20.4,
    21.6,
    20.8,
    20.9,
    21.0,
    20.6,
    20.2,
    20.6,
    21.7,
    21.5,
    21.0,
    20.1,
    19.5,
    19.6,
    21.3,
    20.7,
    21.7,
    19.9,
    20.5,
    20.1,
    20.0,
    20.7,
    19.9,
    21.7,
    20.4,
    22.8,
    22.1,
    21.6,
    22.8,
    21.6,
    22.9,
    20.3,
    22.3,
    21.8,
    22.1,
    22.3,
    22.5,
    23.8,
    21.4,
    21.2,
    21.8,
    21.8,
    21.2,
    19.9,
    20.5,
    20.4,
    20.7,
    21.4,
    20.6,
    21.5,
    19.4,
    19.7,
    20.5,
    21.9,
    21.6,
    20.7,
    20.7,
    21.5,
    21.6,
    22.9,
    21.3,
    20.6,
    23.5,
    23.2,
    24.8,
    24.5,
    24.2,
    23.0,
    21.6,
    21.2,
    21.4,
    21.7,
    21.3,
    21.3,
    21.7,
    20.5,
    21.1,
    20.9,
    20.2,
    19.5,
    20.5,
    21.3,
    21.0,
    21.0,
    22.0,
    24.1,
    23.4,
    23.1,
    23.7,
    23.8,
    23.9,
    22.3,
    21.0,
    20.0,
    20.3,
    21.4,
    19.5,
    20.5,
    19.1,
    19.9,
    19.5,
    20.4,
    20.5,
    21.4,
    20.7,
    21.7,
    21.5,
    20.2,
    21.4,
    20.6,
    21.4,
    20.8,
    21.5,
    21.7,
    21.8,
    22.0,
    23.6,
    23.6,
    22.3,
    22.8,
    23.6,
    24.1,
    23.8,
    20.6,
    20.3,
    19.6,
    21.4,
    22.2,
    22.2,
    23.2,
    22.5,
    23.1,
    22.1,
    23.1,
    21.3,
    20.9,
    20.5,
    21.4,
    21.3,
    19.2,
    19.5,
    19.9,
    19.2,
    20.6,
    22.9,
    22.1,
    21.7,
    23.4,
    21.9,
    23.1,
    20.7,
    20.0,
    19.8,
    21.3,
    21.9,
    22.3,
    21.5,
    21.0,
    20.6,
    19.7,
    20.6,
    20.6,
    20.7,
    21.5,
    21.1,
    20.2,
    20.5,
    19.7,
    18.4,
    19.8,
    20.7,
    21.8,
    21.0,
    20.2,
    20.6,
    21.3,
    20.0,
    21.6,
    21.9,
    21.2,
    20.7,
    21.9,
    20.9,
    19.9,
    22.5,
    22.0,
    20.7,
    20.8,
    20.9,
    22.1,
    21.5,
    21.4,
    21.2,
    20.4,
    19.8,
    18.8,
    19.3,
    20.6,
    21.3,
    19.9,
    19.8,
    20.8,
    20.1,
    22.5,
    22.5,
    22.2,
    20.9,
    20.2,
    20.4,
    21.2,
    20.3,
    21.8,
    22.3,
    21.9,
    23.7,
    21.6,
    21.2,
    20.7,
    21.1,
    21.6,
    20.9,
    19.8,
    19.9,
    18.9,
    19.8,
    20.6,
    20.5,
    21.1,
    20.4,
    19.9,
    21.2,
    20.6,
    20.9,
    19.6,
    20.6,
    20.7,
    21.3,
    20.2,
    20.6,
    22.5,
    22.5,
    23.4,
    23.0,
    22.6,
    20.9,
    20.7,
    21.3,
    20.2,
    21.8,
    20.3,
    20.1,
    20.8,
    20.7,
    22.9,
    21.4,
    22.0,
    22.7,
    21.7,
    22.8,
    23.8,
    21.9,
    23.1,
    21.5,
    20.6,
    21.4,
    20.2,
    19.7,
    19.8,
    19.9,
    21.0,
    20.9
  ],
  "zonesProfile": [
    21.768336547985196,
    20.829067403430123,
    21.391596726268055,
    24.25585153521347,
    21.334827712036706,
    21.912839493301366,
    23.600427461815148,
    22.99661158317261,
    21.587707866339994,
    21.314184434134393,
    21.995412604910598,
    22.78501798467394,
    22.821143721002976,
    21.107751655111294,
    21.08194755773341,
    21.613511963717876,
    22.08830735547099,
    21.57222540791326,
    22.64567585883334,
    22.717927331491428,
    22.325705051347555,
    20.62263462440703,
    22.686962414637964,
    20.75681593077204,
    21.53609967158422,
    22.841786998905288,
    22.4753688161393,
    22.521816191419486,
    23.28561747380493,
    22.361830787676592,
    21.020017724026484,
    22.924360110514527,
    22.444403899285827,
    21.41740082364595,
    22.960485846843564,
    21.236772142000728,
    21.195485586196106,
    21.009696085075326,
    22.650836678308924,
    21.70640671427827,
    21.484491476828453,
    20.844549861856866,
    22.139915550226767,
    21.86123129854558,
    21.567064588437688,
    20.648438721784917,
    21.324506073085548,
    21.799301464838663,
    22.939842568941252,
    20.818745764478972,
    22.490851274566023,
    22.392795704530055,
    23.50753271125477,
    22.77985716519836
  ],
  "actuators": {
    "values": [
      59,
      41,
      100,
      0,
      67,
      67,
      9,
      16,
      66,
      49,
      41,
      5,
      67,
      56,
      20,
      1,
      77,
      61,
      13,
      35,
      76,
      45,
      32,
      55,
      68,
      52,
      55,
      45,
      33,
      54,
      56,
      49,
      18,
      86,
      52,
      55,
      83,
      95,
      25,
      53,
      78,
      100,
      85,
      48,
      31,
      49,
      67,
      12,
      41,
      75,
      0,
      38,
      74,
      56
    ],
    "forced": [
      false,
      false,
      false,
      false,
      false,
      false,
      false,
      false,
      false,
      false,
      false,
      false,
      false,
      false,
      false,
      false,
      false,
      false,
      false,
      false,
      false,
      false,
      false,
      false,
      false,
      false,
      false,
      false,
      false,
      false,
      false,
      false,
      false,
      false,
      false,
      false,
      false,
      false,
      false,
      false,
      false,
      false,
      false,
      false,
      false,
      false,
      false,
      false,
      false,
      false,
      false,
      false,
      false,
      false
    ]
  },
  "old_actuators": {
    "values": [
      58,
      39,
      100,
      0,
      66,
      67,
      11,
      17,
      66,
      48,
      41,
      6,
      68,
      55,
      20,
      1,
      77,
      60,
      12,
      36,
      76,
      43,
      32,
      54,
      67,
      53,
      56,
      46,
      34,
      54,
      55,
      50,
      18,
      86,
      53,
      54,
      82,
      94,
      26,
      53,
      77,
      100,
      85,
      48,
      32,
      48,
      66,
      12,
      42,
      75,
      0,
      38,
      76,
      57
    ],
    "forced": [
      false,
      false,
      false,
      false,
      false,
      false,
      false,
      false,
      false,
      false,
      false,
      false,
      false,
      false,
      false,
      false,
      false,
      false,
      false,
      false,
      false,
      false,
      false,
      false,
      false,
      false,
      false,
      false,
      false,
      false,
      false,
      false,
      false,
      false,
      false,
      false,
      false,
      false,
      false,
      false,
      false,
      false,
      false,
      false,
      false,
      false,
      false,
      false,
      false,
      false,
      false,
      false,
      false,
      false
    ]
  },
  "average_zones_profile": [
    21.539846310598254,
    20.864304916357327,
    21.62687677411573,
    23.748792032165802,
    21.21499081109323,
    21.81285693467065,
    23.354160278328536,
    22.606978836511423,
    21.66573413283722,
    21.49036488761628,
    22.183594405616695,
    22.3982286262804,
    22.563000105093835,
    21.18381551141588,
    22.06918197354225,
    22.3298165059854,
    21.80021129004831,
    21.377444858698723,
    22.112355400298533,
    22.356961793865512,
    22.29211625279524,
    20.534591022686044,
    22.3363316648897,
    20.89767273244093,
    21.331069802514243,
    22.68657049612485,
    22.44931086397648,
    22.222872529985953,
    23.26110116618699,
    22.289588438763417,
    21.075602664009914,
    22.36237244294445,
    22.572815510375023,
    21.7993566098263,
    22.848873331075694,
    21.044992768171745,
    21.132450571800213,
    21.304660854517696,
    22.351728655294227,
    21.387911135841296,
    21.320708716783606,
    20.751075887667206,
    22.37424230090373,
    22.059879376394253,
    22.30916665361984,
    21.631077721957347,
    21.77864758729153,
    21.987733095148116,
    22.81538717465365,
    21.317286775750304,
    22.881734913489332,
    22.173805298188483,
    23.487881372266322,
    22.62986722652597
  ],
  "thickness_difference ": [
    -2.091607679098847,
    -5.16225038019397,
    -1.6960146631103223,
    7.949054691662738,
    -3.568223585939863,
    0.0,
    6.155273992402434,
    2.758994711415561,
    -1.519390305285368,
    -2.316523238107816,
    0.0,
    1.8101301194563615,
    2.5590913867901577,
    -3.709929493564184,
    0.0,
    1.4991659362972662,
    0.0,
    -2.829796096823985,
    0.0,
    1.6225536084796002,
    1.3278011490692683,
    -6.660949896881618,
    1.5287802949531744,
    -5.0105784889048595,
    -3.0405918067534414,
    3.120774982385687,
    2.042322108983993,
    1.013056954481603,
    5.732278028122679,
    1.3163110852882587,
    -4.201806072682211,
    1.647147467929325,
    2.6037068653410116,
    0.0,
    3.8585151412531555,
    -4.340941962855703,
    -3.943406491817214,
    -3.160632479465019,
    1.598766614973761,
    -2.7822221098122895,
    -3.087687650983607,
    -5.676927783330883,
    1.701101367744232,
    0.0,
    1.4053029709992741,
    -1.676919445648424,
    -1.0061473304930437,
    0.0,
    3.706305339334777,
    -3.103241928407708,
    4.007885970406055,
    0.0,
    6.763097146665102,
    2.86303284784532
  ],
  "dynamic_gain": [
    0.5,
    0.5,
    0.5,
    0.5,
    0.5,
    0.5,
    0.5,
    0.5,
    0.5,
    0.5,
    0.5,
    0.5,
    0.5,
    0.5,
    0.5,
    0.5,
    0.5,
    0.5,
    0.5,
    0.5,
    0.5,
    0.5,
    0.5,
    0.5,
    0.5,
    0.5,
    0.5,
    0.5,
    0.5,
    0.5,
    0.5,
    0.5,
    0.5,
    0.5,
    0.5,
    0.5,
    0.5,
    0.5,
    0.5,
    0.5,
    0.5,
    0.5,
    0.5,
    0.5,
    0.5,
    0.5,
    0.5,
    0.5,
    0.5,
    0.5,
    0.5,
    0.5,
    0.5,
    0.5
  ],
  "value_map": {
    "next": "-0.05",
    "prev": "-0.05",
    "default": "-0.05"
  },
  "actuation_variation": [
    -0.6326725500608992,
    -1.5143094131085713,
    -0.39673392456861944,
    2.0543840839809984,
    -0.782535118841894,
    0.06467626016156429,
    1.7616752156960584,
    0.8746206378172061,
    -0.40677054712078253,
    -0.6750286481117835,
    -0.012659827966286362,
    0.5617630675202534,
    0.6562551470145979,
    -0.9562533260603967,
    -0.05526908893167295,
    0.4122706324817482,
    -0.03326575401316797,
    -0.7781939266265959,
    -0.030181062208609617,
    0.4793972710586218,
    0.23918540878399835,
    -1.7603466855418841,
    0.12862637146746103,
    -1.4157043722438432,
    -0.8834078345201758,
    0.8332563777118278,
    0.6649843783922803,
    0.4729556659101077,
    1.6346106587279834,
    0.40024734734028294,
    -1.0814102061571687,
    0.4130130734970344,
    0.7571980746670114,
    0.16155555016485418,
    0.9525681147732253,
    -1.19588132354942,
    -1.271976146307752,
    -0.9277899287739666,
    0.2910894543858516,
    -0.8023341060986259,
    -1.0605928513490712,
    -1.5958197974969772,
    0.32587968154639174,
    0.07766010846858766,
    0.34453533088358984,
    -0.4511739565406609,
    -0.31861350202679767,
    0.06750395022104333,
    0.941652920106871,
    -0.660536747568599,
    1.0245875936514726,
    0.26927457792677895,
    1.9314275365290363,
    0.9041212698466194
  ]
}