{
  "parameters": {
    "integral_band": 0,
    "dead_band": 1,
    "small_gain": 50.0,
    "large_gain": 80.0,
    "large_gain_regulations": 3,
    "valves_min": 0,
    "valves_max": 100,
    "matrix_minor": 10,
    "matrix_major": 55,
    "profiles_directions_used_for_regulation": 0,
    "profiles_to_average": 2,
    "profiles_for_first_regulation": 1,
    "profiles_for_regulation": 10,
    "phase_shift_misDx_haulDx": 0,
    "phase_shift_misDx_haulSx": 0,
    "phase_shift_misSx_haulDx": 0,
    "phase_shift_misSx_haulSx": 0,
    "revert_regulation": 0,
    "disturbation_type": 0,
    "disturbation_amount": 0.0,
    "disturbation_amplitude": 1.0,
    "disturbation_cycles": 1,
    "disturbation_frequency": 1,
    "measurer_speed_default": 2,
    "measurer_speed_control": 0,
    "measurer_speed_min": 3,
    "measurer_speed_max": 7,
    "measurer_twoSigma_for_speed_min": 2.0,
    "measurer_twoSigma_for_speed_max": 10.0
  },
  "production": {
    "line_speed": 45.0,
    "layflat": 1640.0,
    "thickness": 22.0
  },
  "status": {
    "application": {
      "measurer_active": true,
      "actuation_active": true
    },
    "measurer": {
      "is_valid": true,
      "reason_is_valid": "none",
      "direction": 1,
      "speed": 0
    },
    "hauloff": {
      "direction": 0,
      "position": 0,
      "speed": 0,
      "last_period": 0
    }
  },
  "stats": {
    "min_thickness": 19.988360969387756,
    "max_thickness": 23.403061224489804,
    "mean_thickness": 22.0,
    "sigma_perc": 6.331425995965566,
    "sigma_abs": 1.3929137191124248,
    "stdDev": 0.6964568595562124
  },
  "rawProfile": [
    21.3,
    21.4,
    22.1,
    21.1,
    21.4,
    20.8,
    21.9,
    22.3,
    21.2,
    21.4,
    21.4,
    22.1,
    21.0,
    21.7,
    20.9,
    21.6,
    20.6,
    20.0,
    20.4,
    20.7,
    20.7,
    19.9,
    21.6,
    21.2,
    22.0,
    20.9,
    21.0,
    20.6,
    20.3,
    20.9,
    21.2,
    21.6,
    20.6,
    20.0,
    20.7,
    21.9,
    21.9,
    21.9,
    22.2,
    20.8,
    21.7,
    22.5,
    22.3,
    20.2,
    20.0,
    21.4,
    20.5,
    20.8,
    22.3,
    22.2,
    20.5,
    20.8,
    20.0,
    19.6,
    19.6,
    19.0,
    20.0,
    20.3,
    20.5,
    21.8,
    20.8,
    20.7,
    20.8,
    20.9,
    20.9,
    21.0,
    20.7,
    20.7,
    20.4,
    20.5,
    20.9,
    19.5,
    19.9,
    21.4,
    20.8,
    20.6,
    20.4,
    21.4,
    21.2,
    21.4,
    20.1,
    20.6,
    21.2,
    21.9,
    20.9,
    21.1,
    20.9,
    20.7,
    20.8,
    21.4,
    22.3,
    20.4,
    19.9,
    20.5,
    20.7,
    21.1,
    22.3,
    20.6,
    20.3,
    21.8,
    21.3,
    21.9,
    23.5,
    22.1,
    22.1,
    22.5,
    22.3,
    20.7,
    20.1,
    19.9,
    20.7,
    20.6,
    21.3,
    22.0,
    21.6,
    21.0,
    21.0,
    21.2,
    21.1,
    21.3,
    21.9,
    20.9,
    21.4,
    22.1,
    22.5,
    22.8,
    23.9,
    23.1,
    21.2,
    20.3,
    20.9,
    21.5,
    21.4,
    22.1,
    21.0,
    21.4,
    21.7,
    20.4,
    20.6,
    21.2,
    20.8,
    22.1,
    21.3,
    21.9,
    20.9,
    22.0,
    21.6,
    20.5,
    21.2,
    18.9,
    19.9,
    21.1,
    21.7,
    21.7,
    22.8,
    22.1,
    23.2,
    21.0,
    20.4,
    22.8,
    22.8,
    21.3,
    20.2,
    21.2,
    21.1,
    20.9,
    19.9,
    21.0,
    20.4,
    20.6,
    20.6,
    21.4,
    20.6,
    20.4,
    22.0,
    21.2,
    20.3,
    20.8,
    21.7,
    22.0,
    21.6,
    20.6,
    20.3,
    20.4,
    19.5,
    18.5,
    18.1,
    19.3,
    19.2,
    20.6,
    22.5,
    21.8,
    22.1,
    22.9,
    23.0,
    22.2,
    21.1,
    20.7,
    20.4,
    21.1,
    21.6,
    21.3,
    21.3,
    20.4,
    20.2,
    21.5,
    20.9,
    21.3,
    22.5,
    22.7,
    21.0,
    21.0,
    19.4,
    20.0,
    20.7,
    20.6,
    19.4,
    20.4,
    21.3,
    20.4,
    20.6,
    19.9,
    19.3,
    19.5,
    19.1,
    19.5,
    20.4,
    20.6,
    20.9,
    20.4,
    20.1,
    21.2,
    21.2,
    22.5,
    21.5,
    21.4,
    21.4,
    21.4,
    21.4,
    21.5,
    21.6,
    22.1,
    20.7,
    20.4,
    21.0,
    21.0,
    20.6,
    20.9,
    21.0,
    19.9,
    20.4,
    20.7,
    21.0,
    20.9,
    21.3,
    22.0,
    22.6,
    21.5,
    21.0,
    19.8,
    21.2,
    22.0,
    21.1,
    21.4,
    21.4,
    22.3,
    23.0,
    21.4,
    20.9,
    21.1,
    21.0,
    20.4,
    20.4,
    21.2,
    19.9,
    20.6,
    20.4,
    20.2,
    21.2,
    20.7,
    21.5,
    21.6,
    20.4,
    20.8,
    20.4,
    21.0,
    20.4,
    20.9,
    20.6,
    21.5,
    22.7,
    22.1,
    21.2,
    21.4,
    20.7,
    21.0,
    21.2,
    19.8,
    20.8,
    21.4,
    21.1,
    21.4,
    21.5,
    21.5,
    19.8,
    21.2,
    20.1,
    20.5,
    18.7,
    19.5,
    18.5,
    18.8,
    19.5,
    19.4,
    19.1,
    18.5,
    19.1,
    19.1,
    18.7,
    19.2,
    18.2,
    18.4,
    18.9,
    20.1,
    21.3,
    19.8,
    20.5,
    21.7,
    19.9,
    20.3,
    23.4,
    22.5,
    20.5,
    21.1,
    21.7,
    20.3,
    19.9,
    18.9,
    19.2,
    18.3,
    19.3,
    19.6,
    20.3,
    19.9,
    20.4,
    19.9,
    19.3,
    20.7,
    21.9,
    21.2,
    19.5,
    18.4,
    20.2,
    20.3,
    21.1,
    20.6,
    23.0,
    21.7,
    21.4,
    20.0
  ],
  "zonesProfile": [
    22.692761479591837,
    21.966677295918373,
    20.98804209183674,
    22.350765306122454,
    21.78778698979592,
    22.21922831632653,
    23.16629464285714,
    21.740433673469393,
    22.634885204081634,
    22.261320153061224,
    22.687499999999996,
    23.287308673469393,
    22.39285714285715,
    21.793048469387763,
    23.403061224489804,
    22.17187500000001,
    21.98772321428571,
    22.05612244897959,
    22.108737244897956,
    21.4563137755102,
    21.924585459183678,
    21.193239795918373,
    22.09295280612245,
    22.37707270408163,
    22.529655612244902,
    21.919323979591844,
    22.145567602040813,
    21.887755102040806,
    22.719068877551024,
    22.524394132653057,
    22.308673469387752,
    21.32477678571428,
    20.877551020408163,
    20.893335459183675,
    22.440210459183678,
    20.577646683673475,
    19.988360969387756,
    20.3093112244898,
    22.08242984693878,
    21.966677295918366,
    22.56122448979592,
    21.98772321428571,
    21.645727040816325,
    22.087691326530607,
    22.8453443877551,
    22.43494897959184,
    21.74043367346939,
    22.182397959183678,
    22.66645408163265,
    21.893016581632654,
    20.756536989795922,
    21.487882653061224,
    22.340242346938773,
    22.135044642857146
  ],
  "actuators": {
    "values": [
      44,
      34,
      100,
      1,
      33,
      47,
      0,
      0,
      53,
      28,
      18,
      0,
      41,
      53,
      0,
      0,
      70,
      70,
      21,
      40,
      84,
      55,
      39,
      53,
      76,
      59,
      51,
      70,
      42,
      51,
      56,
      57,
      22,
      100,
      18,
      66,
      100,
      100,
      39,
      52,
      93,
      98,
      97,
      43,
      12,
      53,
      76,
      17,
      20,
      85,
      36,
      27,
      54,
      18
    ],
    "forced": [
      false,
      false,
      false,
      false,
      false,
      false,
      false,
      false,
      false,
      false,
      false,
      false,
      false,
      false,
      false,
      false,
      false,
      false,
      false,
      false,
      false,
      false,
      false,
      false,
      false,
      false,
      false,
      false,
      false,
      false,
      false,
      false,
      false,
      false,
      false,
      false,
      false,
      false,
      false,
      false,
      false,
      false,
      false,
      false,
      false,
      false,
      false,
      false,
      false,
      false,
      false,
      false,
      false,
      false
    ]
  },
  "old_actuators": {
    "values": [
      44,
      34,
      100,
      1,
      33,
      47,
      0,
      0,
      53,
      28,
      19,
      0,
      41,
      53,
      0,
      0,
      70,
      69,
      21,
      39,
      83,
      54,
      38,
      53,
      76,
      59,
      51,
      70,
      43,
      51,
      56,
      57,
      21,
      100,
      18,
      65,
      100,
      100,
      38,
      52,
      94,
      98,
      97,
      43,
      13,
      54,
      76,
      17,
      21,
      85,
      34,
      26,
      54,
      18
    ],
    "forced": [
      false,
      false,
      false,
      false,
      false,
      false,
      false,
      false,
      false,
      false,
      false,
      false,
      false,
      false,
      false,
      false,
      false,
      false,
      false,
      false,
      false,
      false,
      false,
      false,
      false,
      false,
      false,
      false,
      false,
      false,
      false,
      false,
      false,
      false,
      false,
      false,
      false,
      false,
      false,
      false,
      false,
      false,
      false,
      false,
      false,
      false,
      false,
      false,
      false,
      false,
      false,
      false,
      false,
      false
    ]
  },
  "average_zones_profile": [
    22.348536503524212,
    22.233838393187106,
    20.689058869772875,
    22.1956468321072,
    22.11593715891238,
    21.912577353397065,
    22.657736746427588,
    22.110368916066797,
    22.102297381956934,
    22.184554169737996,
    22.757225483087048,
    23.137324230514334,
    22.10545534209451,
    22.178066977609255,
    22.63383963117643,
    22.952123366029088,
    21.90547529428274,
    22.009521656426454,
    21.727985993985058,
    21.228450855536227,
    21.53760727511765,
    21.570319580473978,
    21.580400285003762,
    22.49336134322178,
    22.140224662626977,
    22.067881328956354,
    21.862812413884434,
    22.347005368211637,
    22.307364956550764,
    22.11948550751337,
    22.140970999578446,
    21.47052542103885,
    21.13050129705784,
    20.68050930055566,
    22.253303991007588,
    21.51604083879907,
    20.38323704409497,
    20.660123412973938,
    21.934720195291597,
    22.081210321223793,
    22.53628582307379,
    22.112428612199103,
    22.109580096271443,
    22.126195837686183,
    22.983601915980003,
    22.607667724617386,
    22.446668057680874,
    21.97694350199218,
    22.726007192111737,
    22.70404366493932,
    20.95616995689772,
    21.239061461363832,
    21.820456296739877,
    22.19126315943273
  ],
  "thickness_difference ": [
    1.584256834200963,
    1.06290178721412,
    -5.958823319214203,
    0.0,
    0.0,
    0.0,
    2.989712483761764,
    0.0,
    0.0,
    0.0,
    3.4419340140320354,
    5.169655593246974,
    0.0,
    0.0,
    2.8810892326201296,
    4.3278334819504005,
    0.0,
    0.0,
    -1.2364273000679176,
    -3.5070415657444216,
    -2.101785113101587,
    -1.9530928160273737,
    -1.907271431801082,
    2.2425515600989923,
    0.0,
    0.0,
    0.0,
    1.5772971282347115,
    1.3971134388671076,
    0.0,
    0.0,
    -2.4067026316415894,
    -3.952266831555271,
    -5.997684997474276,
    1.1513817773072172,
    -2.19981436909513,
    -7.348922526841051,
    -6.090348122845735,
    0.0,
    0.0,
    2.4376628321535905,
    0.0,
    0.0,
    0.0,
    4.470917799909105,
    2.7621260209881173,
    2.0303093530948826,
    0.0,
    3.3000326914169875,
    3.2001984769969094,
    -4.744682014101268,
    -3.458811539255309,
    0.0,
    0.0
  ],
  "dynamic_gain": [
    0.5,
    0.5,
    0.5,
    0.5,
    0.5,
    0.5,
    0.5,
    0.5,
    0.5,
    0.5,
    0.5,
    0.5,
    0.5,
    0.5,
    0.5,
    0.5,
    0.5,
    0.5,
    0.5,
    0.5,
    0.5,
    0.5,
    0.5,
    0.5,
    0.5,
    0.5,
    0.5,
    0.5,
    0.5,
    0.5,
    0.5,
    0.5,
    0.5,
    0.5,
    0.5,
    0.5,
    0.5,
    0.5,
    0.5,
    0.5,
    0.5,
    0.5,
    0.5,
    0.5,
    0.5,
    0.5,
    0.5,
    0.5,
    0.5,
    0.5,
    0.5,
    0.5,
    0.5,
    0.5
  ],
  "value_map": {
    "next": "-0.05",
    "prev": "-0.05",
    "default": "-0.05"
  },
  "actuation_variation": [
    0.4622431740856179,
    0.182933829358552,
    -1.6121038681035529,
    -0.1489705829803551,
    0.0,
    0.0747428120940441,
    0.8221709330344852,
    0.0747428120940441,
    0.0,
    0.08604835035080088,
    1.075773243689984,
    1.5077036384937188,
    0.12924138983117436,
    0.07202723081550325,
    0.9004953760192957,
    1.2621814383518635,
    0.10819583704876001,
    -0.030910682501697942,
    -0.4276935466622879,
    -1.0478917409089537,
    -0.7144942656472315,
    -0.6373269380300945,
    -0.5172631751435072,
    0.5690198932321959,
    0.05606378900247481,
    0.0,
    0.03943242820586779,
    0.4686845462362234,
    0.4236386238943224,
    0.034927835971677694,
    -0.06016756579103974,
    -0.7606498944903188,
    -1.2969830694055962,
    -1.7193855006616274,
    0.11169250459524963,
    -0.7598874702395066,
    -2.2282077571798107,
    -1.8585687969536036,
    -0.1522587030711434,
    0.060941570803839766,
    0.6703572788422374,
    0.060941570803839766,
    0.0,
    0.11177294499772764,
    1.298555545499707,
    0.9221153345968319,
    0.6273882226257957,
    0.13325855111279675,
    0.9875139520645944,
    0.8439383481070432,
    -1.3112528804343089,
    -1.069790223647742,
    -0.08647028848138273,
    0.03960642085502408
  ]
}