{
  "parameters": {
    "integral_band": 0,
    "dead_band": 1,
    "small_gain": 50.0,
    "large_gain": 80.0,
    "large_gain_regulations": 3,
    "valves_min": 0,
    "valves_max": 100,
    "matrix_minor": 10,
    "matrix_major": 55,
    "profiles_directions_used_for_regulation": 0,
    "profiles_to_average": 2,
    "profiles_for_first_regulation": 1,
    "profiles_for_regulation": 10,
    "phase_shift_misDx_haulDx": 0,
    "phase_shift_misDx_haulSx": 0,
    "phase_shift_misSx_haulDx": 0,
    "phase_shift_misSx_haulSx": 0,
    "revert_regulation": 0,
    "disturbation_type": 0,
    "disturbation_amount": 0.0,
    "disturbation_amplitude": 1.0,
    "disturbation_cycles": 1,
    "disturbation_frequency": 1,
    "measurer_speed_default": 2,
    "measurer_speed_control": 0,
    "measurer_speed_min": 3,
    "measurer_speed_max": 7,
    "measurer_twoSigma_for_speed_min": 2.0,
    "measurer_twoSigma_for_speed_max": 10.0
  },
  "production": {
    "line_speed": 45.0,
    "layflat": 1640.0,
    "thickness": 22.0
  },
  "status": {
    "application": {
      "measurer_active": true,
      "actuation_active": true
    },
    "measurer": {
      "is_valid": true,
      "reason_is_valid": "none",
      "direction": -1,
      "speed": 0
    },
    "hauloff": {
      "direction": 0,
      "position": 0,
      "speed": 0,
      "last_period": 0
    }
  },
  "stats": {
    "min_thickness": 20.28362630851274,
    "max_thickness": 23.464349200079003,
    "mean_thickness": 21.999999999999996,
    "sigma_perc": 6.234266107035376,
    "sigma_abs": 1.3715385435477827,
    "stdDev": 0.6857692717738914
  },
  "rawProfile": [
    19.3,
    20.4,
    19.6,
    21.2,
    21.1,
    22.0,
    21.0,
    21.3,
    20.5,
    20.4,
    20.4,
    19.8,
    19.3,
    20.7,
    21.2,
    21.2,
    21.0,
    20.9,
    20.9,
    20.4,
    21.8,
    21.5,
    21.5,
    21.3,
    20.5,
    20.6,
    21.3,
    21.6,
    20.9,
    21.8,
    21.2,
    20.7,
    21.1,
    20.7,
    20.6,
    20.6,
    22.5,
    22.0,
    22.6,
    20.5,
    21.4,
    21.3,
    21.2,
    21.7,
    21.4,
    20.9,
    20.6,
    20.1,
    20.0,
    19.9,
    20.6,
    21.1,
    20.0,
    20.8,
    20.9,
    21.6,
    21.4,
    20.2,
    19.8,
    20.4,
    20.2,
    20.3,
    20.4,
    20.9,
    21.4,
    20.3,
    19.3,
    20.7,
    21.3,
    19.5,
    20.4,
    19.4,
    20.6,
    20.8,
    20.8,
    20.2,
    20.2,
    21.0,
    20.4,
    21.9,
    21.3,
    22.1,
    22.8,
    21.4,
    22.2,
    21.3,
    19.9,
    20.6,
    20.8,
    21.1,
    22.5,
    21.6,
    22.6,
    22.3,
    21.6,
    21.4,
    21.9,
    20.7,
    21.5,
    21.9,
    23.0,
    22.1,
    20.2,
    20.4,
    20.7,
    22.7,
    20.9,
    20.4,
    21.4,
    21.5,
    21.0,
    21.4,
    22.0,
    21.0,
    20.5,
    20.5,
    21.4,
    20.8,
    20.8,
    22.1,
    22.8,
    25.0,
    23.0,
    21.9,
    21.0,
    20.7,
    20.9,
    21.0,
    22.2,
    21.6,
    22.0,
    21.1,
    21.2,
    20.3,
    21.6,
    21.8,
    21.6,
    21.6,
    21.5,
    22.1,
    21.5,
    22.3,
    21.7,
    20.9,
    22.5,
    21.9,
    20.5,
    21.8,
    21.8,
    21.5,
    21.6,
    22.1,
    22.1,
    21.9,
    21.4,
    21.1,
    20.4,
    20.6,
    20.1,
    20.1,
    20.5,
    21.6,
    19.7,
    19.7,
    19.0,
    20.3,
    21.0,
    20.6,
    20.4,
    21.7,
    21.0,
    21.3,
    20.1,
    20.6,
    23.4,
    20.7,
    20.8,
    20.3,
    19.9,
    19.6,
    19.2,
    18.2,
    19.4,
    19.0,
    19.6,
    20.2,
    21.1,
    20.4,
    21.3,
    21.2,
    21.3,
    21.2,
    22.0,
    22.7,
    22.6,
    21.0,
    21.1,
    21.9,
    21.4,
    20.3,
    21.5,
    21.6,
    20.4,
    21.2,
    22.3,
    21.4,
    20.8,
    20.6,
    20.4,
    18.9,
    21.3,
    19.2,
    20.6,
    21.1,
    20.6,
    21.2,
    21.7,
    20.2,
    19.4,
    20.0,
    19.1,
    19.7,
    20.5,
    20.7,
    20.6,
    21.2,
    19.5,
    20.5,
    20.8,
    20.9,
    22.5,
    22.0,
    22.6,
    22.5,
    21.7,
    20.8,
    20.3,
    22.0,
    21.4,
    21.7,
    23.5,
    22.8,
    21.4,
    21.5,
    21.6,
    21.9,
    22.0,
    22.2,
    22.5,
    23.2,
    23.3,
    22.5,
    22.0,
    20.9,
    20.2,
    21.4,
    23.7,
    23.1,
    22.2,
    22.0,
    21.0,
    22.7,
    21.6,
    23.2,
    23.6,
    21.3,
    21.2,
    21.5,
    21.0,
    21.5,
    20.6,
    20.6,
    21.4,
    22.1,
    22.0,
    21.9,
    22.1,
    21.6,
    22.7,
    22.0,
    20.3,
    20.2,
    20.7,
    21.2,
    22.0,
    21.9,
    21.3,
    22.1,
    22.3,
    20.1,
    22.0,
    23.2,
    22.5,
    22.0,
    20.3,
    21.9,
    21.2,
    21.9,
    22.9,
    21.3,
    21.3,
    20.2,
    21.0,
    19.9,
    18.5,
    20.0,
    19.5,
    20.6,
    19.6,
    19.2,
    19.7,
    20.2,
    19.6,
    20.0,
    20.4,
    20.4,
    21.4,
    20.6,
    19.5,
    20.4,
    20.6,
    20.6,
    21.2,
    21.2,
    21.0,
    21.9,
    22.2,
    21.7,
    21.1,
    21.3,
    20.8,
    20.5,
    20.9,
    20.3,
    19.9,
    21.0,
    20.9,
    18.6,
    19.5,
    20.3,
    20.8,
    21.9,
    21.4,
    21.2,
    20.7,
    20.6,
    20.9,
    20.3,
    20.9,
    22.5,
    20.6,
    21.1,
    20.4,
    20.1,
    20.2,
    21.9,
    21.1,
    21.9,
    21.9,
    20.9
  ],
  "zonesProfile": [
    22.43713213509776,
    22.212917242741455,
    20.28362630851274,
    21.654987161761802,
    21.738415958917642,
    21.08662848113766,
    21.634129962472848,
    22.68741852656528,
    22.598775429587196,
    22.48406083349793,
    22.343274738297453,
    23.203634208967006,
    21.9157021528738,
    22.160774244519054,
    22.37456053723088,
    22.504918032786883,
    22.411060635986573,
    22.58313253012048,
    21.644558562117307,
    21.15962867864902,
    21.331700572782935,
    21.61327276318388,
    21.196128777404706,
    22.15555994469681,
    22.306774639541775,
    22.10341694647442,
    22.119059845941145,
    21.806201856606744,
    21.21177167687142,
    21.524629666205808,
    22.103416946474415,
    21.816630456251236,
    21.983488050562908,
    20.919770886825997,
    21.973059450918427,
    22.103416946474415,
    21.279557574560535,
    20.659055895714,
    20.94584238593719,
    22.551846731187034,
    22.937704918032782,
    21.978273750740662,
    23.000276515899664,
    22.061702547896505,
    23.07849101323326,
    22.922062018566066,
    23.464349200079003,
    23.05241951412206,
    22.35370333794193,
    22.41627493580881,
    21.086628481137662,
    21.456843768516684,
    21.112699980248866,
    22.25463164131937
  ],
  "actuators": {
    "values": [
      46,
      36,
      100,
      0,
      33,
      46,
      0,
      0,
      53,
      29,
      20,
      0,
      41,
      54,
      0,
      0,
      70,
      69,
      19,
      36,
      82,
      53,
      36,
      53,
      76,
      59,
      51,
      71,
      42,
      51,
      56,
      57,
      20,
      100,
      18,
      65,
      100,
      100,
      37,
      52,
      96,
      100,
      99,
      43,
      16,
      55,
      80,
      18,
      23,
      89,
      34,
      25,
      53,
      19
    ],
    "forced": [
      false,
      false,
      false,
      false,
      false,
      false,
      false,
      false,
      false,
      false,
      false,
      false,
      false,
      false,
      false,
      false,
      false,
      false,
      false,
      false,
      false,
      false,
      false,
      false,
      false,
      false,
      false,
      false,
      false,
      false,
      false,
      false,
      false,
      false,
      false,
      false,
      false,
      false,
      false,
      false,
      false,
      false,
      false,
      false,
      false,
      false,
      false,
      false,
      false,
      false,
      false,
      false,
      false,
      false
    ]
  },
  "old_actuators": {
    "values": [
      46,
      37,
      100,
      0,
      33,
      46,
      0,
      0,
      53,
      30,
      21,
      0,
      41,
      54,
      0,
      0,
      70,
      69,
      19,
      34,
      81,
      53,
      35,
      53,
      76,
      58,
      51,
      71,
      40,
      50,
      56,
      56,
      19,
      100,
      17,
      65,
      100,
      100,
      36,
      52,
      97,
      100,
      100,
      44,
      17,
      57,
      82,
      19,
      24,
      90,
      33,
      25,
      52,
      19
    ],
    "forced": [
      false,
      false,
      false,
      false,
      false,
      false,
      false,
      false,
      false,
      false,
      false,
      false,
      false,
      false,
      false,
      false,
      false,
      false,
      false,
      false,
      false,
      false,
      false,
      false,
      false,
      false,
      false,
      false,
      false,
      false,
      false,
      false,
      false,
      false,
      false,
      false,
      false,
      false,
      false,
      false,
      false,
      false,
      false,
      false,
      false,
      false,
      false,
      false,
      false,
      false,
      false,
      false,
      false,
      false
    ]
  },
  "average_zones_profile": [
    22.388158097909418,
    22.70394438987168,
    20.640864387652957,
    21.785747850330615,
    22.221437580976843,
    21.71812448724815,
    22.064930256378737,
    22.722029946394592,
    22.072395304926424,
    22.56034161219489,
    22.63344951336125,
    22.87055524490096,
    22.187452594463466,
    22.323034181083052,
    22.591692033321323,
    22.849944784894394,
    21.61065365765173,
    22.077619395990027,
    21.38916732659945,
    20.951019272910848,
    21.522349337624867,
    21.89795516717069,
    20.901432510144485,
    21.83774202168427,
    21.92117669358493,
    21.626423843256184,
    21.832537513103397,
    21.793518385608877,
    21.04231847600687,
    21.433567205019415,
    22.140418150656565,
    21.655231736664515,
    21.608205125850716,
    20.979809542084727,
    21.71779158504176,
    22.456120237943093,
    21.00837461270721,
    20.969471021860798,
    21.52510335615645,
    22.18721368817416,
    22.98284676641677,
    21.97087311825458,
    22.886286265539965,
    22.192615979830606,
    22.985403001872793,
    22.915015829017378,
    23.67667175373969,
    22.43489097148229,
    22.47428999914174,
    23.0065245646786,
    21.347631128614374,
    21.642321314998377,
    21.091928737752518,
    21.97337843925551
  ],
  "thickness_difference ": [
    1.7643549904973552,
    3.1997472266894533,
    -6.177889147032012,
    0.0,
    1.0065344589856517,
    -1.2812523306902242,
    0.0,
    3.2819543017936,
    0.0,
    2.5470073281585894,
    2.87931596982386,
    3.957069295004361,
    0.0,
    1.4683371867411472,
    2.6895092423696485,
    3.8633853858836082,
    -1.769756101583039,
    0.0,
    -2.7765121518206892,
    -4.768094214041599,
    -2.1711393744324234,
    0.0,
    -4.993488590252342,
    0.0,
    0.0,
    -1.6980734397446184,
    0.0,
    0.0,
    -4.353097836332412,
    -2.5746945226390237,
    0.0,
    -1.567128469706751,
    -1.7808857915876528,
    -4.637229354160333,
    -1.2827655225374586,
    2.073273808832241,
    -4.5073881240581315,
    -4.684222627905464,
    -2.1586211083797737,
    0.0,
    4.467485301894411,
    0.0,
    4.028573934272569,
    0.0,
    4.479104553967242,
    4.159162859169899,
    7.621235244271318,
    1.976777143101316,
    2.155863632462449,
    4.575111657629998,
    -2.965313051752845,
    -1.6258122045528334,
    -4.127596646579463,
    0.0
  ],
  "dynamic_gain": [
    0.5,
    0.5,
    0.5,
    0.5,
    0.5,
    0.5,
    0.5,
    0.5,
    0.5,
    0.5,
    0.5,
    0.5,
    0.5,
    0.5,
    0.5,
    0.5,
    0.5,
    0.5,
    0.5,
    0.5,
    0.5,
    0.5,
    0.5,
    0.5,
    0.5,
    0.5,
    0.5,
    0.5,
    0.5,
    0.5,
    0.5,
    0.5,
    0.5,
    0.5,
    0.5,
    0.5,
    0.5,
    0.5,
    0.5,
    0.5,
    0.5,
    0.5,
    0.5,
    0.5,
    0.5,
    0.5,
    0.5,
    0.5,
    0.5,
    0.5,
    0.5,
    0.5,
    0.5,
    0.5
  ],
  "value_map": {
    "next": "-0.05",
    "prev": "-0.05",
    "default": "-0.05"
  },
  "actuation_variation": [
    0.565191303054009,
    0.7695921334262333,
    -1.6189258347665672,
    -0.129283867201159,
    0.24476566795379864,
    -0.32718102946517036,
    0.0500175492775844,
    0.9025374329932401,
    0.14572404074880474,
    0.7724099144892087,
    0.9544138072806353,
    1.1601769553717958,
    0.1356351620436377,
    0.4710304574130567,
    0.8729081059672723,
    1.0854248096376575,
    -0.3900982932882455,
    -0.1136567063350932,
    -0.8827431971017295,
    -1.4349171970177679,
    -0.7162656833199564,
    -0.17911569911711916,
    -1.3732093623193942,
    -0.12483721475630856,
    -0.04245183599361546,
    -0.4669701959297701,
    -0.04245183599361546,
    -0.10882744590831031,
    -1.2614692680573891,
    -0.8168684396340419,
    -0.10354557480864438,
    -0.47548247395904786,
    -0.6448525382832817,
    -1.3518293552472191,
    -0.4168594073310034,
    0.4253964562639766,
    -1.3048054545928167,
    -1.4548114534849503,
    -0.7107263705020744,
    0.05772160483786593,
    1.228558458020963,
    0.21240148090417452,
    1.1078578319249566,
    0.2126919622059953,
    1.3357328238202393,
    1.4462782812276864,
    2.249238192231393,
    0.788041186271206,
    0.7566597189454565,
    1.2379194703659895,
    -0.7417286029051033,
    -0.6244210987103369,
    -1.1757343829231734,
    -0.0590810414020527
  ]
}