{
  "parameters": {
    "integral_band": 0,
    "dead_band": 1,
    "small_gain": 60.0,
    "large_gain": 100.0,
    "large_gain_regulations": 3,
    "valves_min": 0,
    "valves_max": 100,
    "matrix_minor": 10,
    "matrix_major": 55,
    "profiles_directions_used_for_regulation": 0,
    "profiles_to_average": 1,
    "profiles_for_first_regulation": 1,
    "profiles_for_regulation": 10,
    "phase_shift_misDx_haulDx": 0,
    "phase_shift_misDx_haulSx": 0,
    "phase_shift_misSx_haulDx": 0,
    "phase_shift_misSx_haulSx": 0,
    "revert_regulation": 0,
    "disturbation_type": 0,
    "disturbation_amount": 0.0,
    "disturbation_amplitude": 1.0,
    "disturbation_cycles": 1,
    "disturbation_frequency": 1,
    "measurer_speed_default": 2,
    "measurer_speed_control": 0,
    "measurer_speed_min": 3,
    "measurer_speed_max": 7,
    "measurer_twoSigma_for_speed_min": 2.0,
    "measurer_twoSigma_for_speed_max": 10.0
  },
  "production": {
    "line_speed": 45.0,
    "layflat": 1640.0,
    "thickness": 22.0
  },
  "status": {
    "application": {
      "measurer_active": true,
      "actuation_active": false
    },
    "measurer": {
      "is_valid": true,
      "reason_is_valid": "none",
      "direction": -1,
      "speed": 0
    },
    "hauloff": {
      "direction": 0,
      "position": 0,
      "speed": 0,
      "last_period": 0
    }
  },
  "stats": {
    "min_thickness": 14.085682918953832,
    "max_thickness": 40.08844688408137,
    "mean_thickness": 22.000000000000004,
    "sigma_perc": 30.0,
    "sigma_abs": 6.723530390941281,
    "stdDev": 3.3617651954706407
  },
  "rawProfile": [
    19.9,
    20.8,
    20.4,
    20.7,
    20.9,
    22.2,
    23.9,
    22.5,
    22.5,
    23.6,
    22.7,
    21.9,
    22.5,
    23.4,
    22.1,
    21.7,
    20.5,
    21.0,
    21.3,
    20.9,
    21.0,
    22.6,
    20.9,
    21.3,
    22.6,
    22.0,
    21.3,
    20.8,
    21.0,
    21.0,
    21.6,
    24.0,
    22.1,
    22.7,
    21.7,
    20.7,
    19.6,
    21.4,
    23.0,
    22.3,
    21.9,
    21.2,
    21.4,
    21.8,
    22.0,
    22.1,
    21.9,
    21.4,
    21.5,
    21.1,
    22.3,
    22.0,
    22.3,
    23.7,
    23.2,
    22.2,
    22.6,
    22.5,
    22.8,
    22.3,
    20.3,
    21.6,
    20.9,
    20.9,
    20.8,
    21.0,
    22.1,
    21.4,
    21.5,
    22.0,
    22.5,
    21.4,
    22.1,
    22.5,
    22.5,
    21.9,
    22.8,
    22.6,
    23.2,
    22.6,
    23.7,
    24.0,
    23.9,
    24.0,
    23.1,
    22.9,
    22.1,
    21.7,
    20.7,
    21.0,
    21.4,
    21.6,
    22.7,
    24.0,
    23.3,
    23.0,
    23.5,
    23.5,
    24.2,
    23.5,
    23.3,
    21.6,
    21.5,
    21.7,
    21.4,
    22.6,
    21.4,
    22.8,
    23.7,
    22.5,
    22.5,
    23.8,
    24.1,
    22.3,
    22.2,
    23.0,
    22.3,
    21.8,
    21.8,
    23.5,
    23.4,
    21.2,
    21.9,
    22.3,
    22.5,
    22.5,
    22.5,
    22.6,
    22.9,
    23.7,
    22.7,
    23.3,
    23.8,
    22.0,
    22.5,
    23.2,
    22.5,
    22.1,
    21.4,
    22.5,
    22.0,
    19.9,
    17.4,
    22.2,
    23.1,
    21.1,
    21.9,
    21.5,
    22.5,
    21.3,
    21.4,
    21.6,
    23.5,
    23.1,
    22.9,
    23.0,
    23.3,
    22.8,
    23.7,
    23.8,
    22.9,
    22.5,
    22.1,
    21.4,
    20.7,
    20.8,
    21.3,
    22.5,
    23.6,
    22.8,
    21.6,
    22.8,
    21.9,
    22.1,
    21.3,
    21.5,
    20.8,
    20.9,
    20.7,
    21.2,
    19.9,
    21.0,
    21.7,
    22.2,
    21.3,
    20.7,
    21.8,
    21.4,
    21.8,
    21.3,
    21.5,
    21.6,
    20.0,
    20.1,
    20.3,
    19.5,
    19.6,
    22.3,
    22.0,
    21.7,
    21.7,
    22.1,
    22.5,
    21.7,
    21.2,
    22.0,
    22.5,
    20.3,
    18.7,
    19.6,
    20.4,
    21.8,
    22.1,
    22.8,
    20.5,
    20.5,
    20.9,
    21.0,
    21.7,
    22.1,
    22.3,
    21.6,
    22.2,
    23.5,
    22.9,
    22.9,
    21.4,
    22.5,
    20.0,
    21.7,
    21.3,
    20.6,
    21.9,
    23.2,
    21.4,
    21.5,
    22.6,
    23.1,
    24.2,
    22.2,
    21.1,
    21.4,
    22.8,
    23.6,
    22.7,
    19.5,
    18.6,
    18.7,
    18.2,
    18.8,
    18.8,
    18.5,
    17.8,
    18.3,
    18.3,
    16.6,
    19.5,
    18.7,
    19.5,
    18.3,
    19.6,
    21.0,
    21.5,
    25.2,
    24.0,
    22.2,
    23.2,
    24.2,
    24.0,
    28.0,
    30.1,
    30.1,
    29.5,
    37.0,
    47.7,
    56.0,
    40.9,
    33.2,
    28.8,
    26.9,
    24.1,
    23.8,
    21.9,
    19.5,
    19.3,
    19.0,
    18.8,
    18.1,
    16.6,
    15.8,
    16.7,
    14.4,
    15.5,
    13.0,
    13.6,
    13.7,
    14.5,
    15.0,
    16.0,
    18.3,
    15.1,
    16.6,
    16.6,
    13.6,
    13.7,
    13.1,
    13.9,
    13.0,
    14.3,
    14.4,
    14.6,
    14.5,
    15.1,
    15.9,
    15.2,
    15.7,
    17.9,
    18.7,
    19.2,
    18.4,
    18.5,
    19.0,
    18.9,
    20.1,
    20.4,
    21.8,
    21.2,
    21.6,
    20.9,
    22.2,
    20.6,
    21.4,
    21.6,
    20.3,
    20.6,
    20.1,
    19.5,
    17.4,
    18.1,
    19.6,
    19.9,
    19.7,
    20.4,
    20.9,
    21.3,
    23.1,
    22.0,
    21.4,
    19.9,
    21.3,
    21.3,
    21.8,
    21.5,
    21.0,
    22.7,
    22.5,
    20.4,
    21.0,
    20.6,
    21.0
  ],
  "zonesProfile": [
    22.31000322893123,
    22.453212786567654,
    22.489015175976764,
    21.818999031320637,
    21.22570229254118,
    22.519702938327423,
    20.780729738456582,
    21.92129157248952,
    21.512121407814018,
    22.217939941879248,
    22.40718114304167,
    23.332928640619965,
    23.271553115918636,
    22.391837261866332,
    21.496777526638684,
    23.389189538262844,
    23.27666774297708,
    22.780548918308046,
    23.430106554730393,
    22.882841459476918,
    23.332928640619965,
    23.378960284145954,
    22.499244430093643,
    23.93645463351631,
    22.739631901840497,
    21.98266709719084,
    22.146335163061032,
    23.148802066515994,
    22.20259606070392,
    22.361149499515665,
    22.279315466580567,
    21.941750080723292,
    21.772967387794647,
    22.591307717145636,
    23.02605101711335,
    21.09783661608008,
    22.110532773651926,
    21.951979334840175,
    19.79872134323539,
    21.05691959961254,
    21.737164998385534,
    19.348634162092353,
    15.962751049402646,
    14.085682918953832,
    16.366806587019706,
    14.70455279302551,
    18.36151113981273,
    26.345443978043285,
    40.08844688408137,
    25.169079754601235,
    20.775615111398135,
    18.64793025508558,
    20.044223442040693,
    23.097655795931555
  ],
  "actuators": {
    "values": [
      50,
      50,
      50,
      50,
      50,
      50,
      50,
      50,
      50,
      50,
      50,
      50,
      50,
      50,
      50,
      50,
      50,
      50,
      50,
      50,
      50,
      50,
      50,
      50,
      50,
      50,
      50,
      50,
      50,
      50,
      50,
      50,
      50,
      50,
      50,
      50,
      50,
      50,
      50,
      50,
      50,
      50,
      50,
      50,
      50,
      50,
      50,
      50,
      50,
      50,
      50,
      50,
      50,
      50
    ],
    "forced": [
      false,
      false,
      false,
      false,
      false,
      false,
      false,
      false,
      false,
      false,
      false,
      false,
      false,
      false,
      false,
      false,
      false,
      false,
      false,
      false,
      false,
      false,
      false,
      false,
      false,
      false,
      false,
      false,
      false,
      false,
      false,
      false,
      false,
      false,
      false,
      false,
      false,
      false,
      false,
      false,
      false,
      false,
      false,
      false,
      false,
      false,
      false,
      false,
      false,
      false,
      false,
      false,
      false,
      false
    ]
  },
  "old_actuators": {
    "values": [
      50,
      50,
      50,
      50,
      50,
      50,
      50,
      50,
      50,
      50,
      50,
      50,
      50,
      50,
      50,
      50,
      50,
      50,
      50,
      50,
      50,
      50,
      50,
      50,
      50,
      50,
      50,
      50,
      50,
      50,
      50,
      50,
      50,
      50,
      50,
      50,
      50,
      50,
      50,
      50,
      50,
      50,
      50,
      50,
      50,
      50,
      50,
      50,
      50,
      50,
      50,
      50,
      50,
      50
    ],
    "forced": [
      false,
      false,
      false,
      false,
      false,
      false,
      false,
      false,
      false,
      false,
      false,
      false,
      false,
      false,
      false,
      false,
      false,
      false,
      false,
      false,
      false,
      false,
      false,
      false,
      false,
      false,
      false,
      false,
      false,
      false,
      false,
      false,
      false,
      false,
      false,
      false,
      false,
      false,
      false,
      false,
      false,
      false,
      false,
      false,
      false,
      false,
      false,
      false,
      false,
      false,
      false,
      false,
      false,
      false
    ]
  },
  "average_zones_profile": [],
  "thickness_difference ": [],
  "dynamic_gain": [],
  "value_map": {
    "next": "-0.05",
    "prev": "-0.05",
    "default": "-0.05"
  },
  "actuation_variation": []
}