{
  "parameters": {
    "integral_band": 0,
    "dead_band": 1,
    "small_gain": 50.0,
    "large_gain": 80.0,
    "large_gain_regulations": 3,
    "valves_min": 0,
    "valves_max": 100,
    "matrix_minor": 10,
    "matrix_major": 55,
    "profiles_directions_used_for_regulation": 0,
    "profiles_to_average": 2,
    "profiles_for_first_regulation": 1,
    "profiles_for_regulation": 10,
    "phase_shift_misDx_haulDx": 0,
    "phase_shift_misDx_haulSx": 0,
    "phase_shift_misSx_haulDx": 0,
    "phase_shift_misSx_haulSx": 0,
    "revert_regulation": 0,
    "disturbation_type": 0,
    "disturbation_amount": 0.0,
    "disturbation_amplitude": 1.0,
    "disturbation_cycles": 1,
    "disturbation_frequency": 1,
    "measurer_speed_default": 2,
    "measurer_speed_control": 0,
    "measurer_speed_min": 3,
    "measurer_speed_max": 7,
    "measurer_twoSigma_for_speed_min": 2.0,
    "measurer_twoSigma_for_speed_max": 10.0
  },
  "production": {
    "line_speed": 45.0,
    "layflat": 1640.0,
    "thickness": 22.0
  },
  "status": {
    "application": {
      "measurer_active": true,
      "actuation_active": true
    },
    "measurer": {
      "is_valid": true,
      "reason_is_valid": "none",
      "direction": 1,
      "speed": 0
    },
    "hauloff": {
      "direction": 0,
      "position": 0,
      "speed": 0,
      "last_period": 0
    }
  },
  "stats": {
    "min_thickness": 20.222029488291412,
    "max_thickness": 23.687771032090193,
    "mean_thickness": 22.0,
    "sigma_perc": 6.432024453363125,
    "sigma_abs": 1.4150453797398879,
    "stdDev": 0.7075226898699439
  },
  "rawProfile": [
    20.9,
    22.3,
    21.2,
    20.5,
    19.9,
    20.6,
    20.3,
    20.9,
    21.9,
    21.2,
    21.2,
    21.4,
    19.8,
    19.7,
    19.6,
    20.2,
    20.5,
    20.0,
    21.2,
    20.4,
    20.5,
    20.1,
    21.0,
    21.3,
    20.5,
    22.6,
    20.9,
    20.7,
    20.2,
    19.8,
    20.4,
    21.4,
    20.8,
    21.0,
    22.0,
    22.5,
    21.2,
    22.9,
    22.0,
    22.9,
    22.3,
    21.4,
    21.4,
    21.5,
    20.6,
    20.3,
    19.8,
    20.4,
    20.4,
    21.0,
    21.6,
    20.7,
    21.2,
    20.8,
    21.2,
    21.3,
    22.2,
    20.4,
    20.0,
    20.8,
    23.0,
    21.1,
    20.6,
    19.5,
    19.6,
    19.9,
    21.5,
    22.5,
    21.2,
    21.6,
    21.0,
    20.3,
    22.1,
    23.1,
    22.2,
    22.3,
    23.0,
    22.5,
    21.5,
    20.4,
    20.0,
    21.7,
    20.6,
    21.6,
    21.1,
    20.9,
    20.8,
    21.1,
    21.0,
    19.5,
    19.2,
    20.4,
    19.2,
    19.5,
    20.3,
    20.9,
    22.2,
    22.0,
    22.2,
    22.5,
    22.0,
    22.5,
    22.5,
    24.0,
    24.7,
    22.1,
    20.3,
    21.1,
    20.5,
    22.0,
    20.4,
    21.8,
    21.4,
    18.6,
    20.3,
    20.4,
    23.1,
    23.1,
    21.3,
    21.1,
    21.7,
    21.8,
    20.0,
    21.2,
    21.8,
    21.4,
    22.6,
    22.0,
    21.6,
    21.1,
    20.8,
    22.3,
    21.9,
    21.2,
    21.0,
    20.7,
    19.9,
    20.7,
    21.0,
    22.1,
    20.8,
    22.0,
    21.9,
    22.2,
    21.0,
    21.0,
    21.7,
    21.3,
    21.3,
    17.5,
    21.7,
    23.1,
    20.5,
    22.0,
    22.5,
    21.8,
    21.5,
    22.5,
    22.5,
    21.4,
    20.9,
    21.5,
    21.8,
    20.1,
    21.5,
    20.5,
    20.7,
    20.6,
    22.6,
    22.7,
    22.5,
    20.5,
    21.4,
    20.4,
    21.5,
    20.6,
    23.5,
    22.3,
    22.7,
    22.5,
    20.8,
    20.4,
    21.0,
    20.0,
    19.5,
    19.8,
    19.7,
    19.0,
    19.1,
    19.0,
    18.3,
    19.6,
    20.7,
    21.8,
    21.2,
    22.5,
    23.4,
    23.8,
    22.5,
    23.8,
    23.8,
    22.5,
    23.8,
    23.2,
    21.3,
    20.9,
    20.8,
    20.4,
    19.5,
    20.0,
    20.6,
    19.7,
    20.5,
    21.7,
    20.0,
    19.1,
    19.5,
    21.5,
    22.6,
    23.7,
    22.8,
    21.8,
    21.5,
    20.7,
    21.4,
    20.3,
    20.9,
    20.4,
    21.5,
    21.9,
    20.6,
    20.4,
    19.8,
    20.2,
    20.4,
    21.8,
    22.5,
    21.4,
    20.6,
    20.4,
    20.4,
    20.9,
    23.2,
    21.5,
    23.0,
    22.0,
    20.7,
    21.1,
    19.4,
    20.4,
    20.6,
    21.1,
    20.9,
    20.9,
    20.6,
    21.7,
    21.5,
    18.7,
    19.6,
    19.5,
    19.9,
    19.8,
    20.4,
    20.7,
    21.8,
    21.1,
    21.5,
    21.7,
    21.7,
    22.5,
    23.0,
    20.8,
    20.6,
    20.6,
    20.6,
    20.1,
    18.8,
    20.4,
    21.8,
    21.0,
    20.2,
    20.6,
    20.8,
    21.0,
    22.5,
    22.0,
    21.7,
    20.4,
    21.3,
    21.7,
    22.5,
    22.6,
    21.6,
    21.6,
    21.4,
    21.6,
    20.6,
    20.5,
    20.5,
    21.4,
    21.5,
    22.0,
    21.0,
    21.2,
    20.3,
    20.4,
    22.2,
    21.5,
    20.9,
    21.0,
    20.1,
    20.0,
    19.1,
    20.4,
    19.5,
    19.6,
    20.0,
    19.8,
    22.2,
    21.5,
    22.2,
    21.3,
    22.3,
    21.9,
    20.9,
    20.5,
    20.9,
    20.4,
    21.9,
    21.0,
    21.5,
    24.1,
    20.9,
    22.0,
    20.7,
    20.4,
    19.1,
    19.3,
    18.5,
    20.4,
    20.3,
    20.2,
    20.9,
    20.0,
    21.6,
    21.0,
    21.1,
    20.7,
    21.8,
    21.6,
    21.3,
    20.5,
    20.5,
    20.6,
    20.6,
    24.1,
    24.0,
    22.2,
    21.2,
    21.6
  ],
  "zonesProfile": [
    23.687771032090193,
    20.222029488291412,
    21.0182133564614,
    22.90199479618386,
    22.480485689505624,
    21.871639202081514,
    22.928013876843007,
    21.8508239375542,
    22.38161318300086,
    21.783174327840413,
    22.527320034692096,
    22.3191673894189,
    22.121422376409367,
    21.88204683434518,
    23.625325238508236,
    22.339982653946215,
    20.893321769297472,
    21.819601040763217,
    22.9956634865568,
    22.412836079791845,
    21.549002601908057,
    21.819601040763214,
    21.673894189071973,
    21.965307892454472,
    23.026886383347772,
    21.429314830875967,
    21.84562012142237,
    21.08065915004335,
    21.814397224631385,
    21.68950563746747,
    23.016478751084122,
    21.9028620988725,
    21.554206418039893,
    20.773633998265385,
    22.49609713790112,
    22.329575021682555,
    21.262792714657408,
    21.356461405030352,
    22.043365134431905,
    21.918473547267983,
    22.563746747614918,
    22.100607111882038,
    21.29921942758022,
    22.532523850823935,
    21.549002601908064,
    21.15871639202081,
    21.44492627927146,
    22.60537727666955,
    21.94449262792714,
    21.590633130962697,
    22.235906331309614,
    21.991326973113612,
    21.054640069384206,
    23.31830008673026
  ],
  "actuators": {
    "values": [
      0,
      52,
      100,
      1,
      37,
      48,
      16,
      9,
      50,
      0,
      0,
      0,
      44,
      39,
      0,
      0,
      93,
      66,
      0,
      53,
      100,
      48,
      51,
      50,
      63,
      85,
      51,
      66,
      33,
      49,
      45,
      59,
      44,
      100,
      32,
      40,
      100,
      100,
      43,
      45,
      59,
      95,
      98,
      35,
      8,
      55,
      54,
      17,
      42,
      100,
      23,
      19,
      99,
      32
    ],
    "forced": [
      false,
      false,
      false,
      false,
      false,
      false,
      false,
      false,
      false,
      false,
      false,
      false,
      false,
      false,
      false,
      false,
      false,
      false,
      false,
      false,
      false,
      false,
      false,
      false,
      false,
      false,
      false,
      false,
      false,
      false,
      false,
      false,
      false,
      false,
      false,
      false,
      false,
      false,
      false,
      false,
      false,
      false,
      false,
      false,
      false,
      false,
      false,
      false,
      false,
      false,
      false,
      false,
      false,
      false
    ]
  },
  "old_actuators": {
    "values": [
      0,
      50,
      100,
      2,
      37,
      47,
      16,
      9,
      50,
      0,
      0,
      0,
      44,
      38,
      0,
      1,
      92,
      65,
      0,
      53,
      100,
      47,
      51,
      51,
      65,
      85,
      51,
      65,
      33,
      49,
      46,
      59,
      43,
      100,
      33,
      41,
      100,
      100,
      43,
      45,
      61,
      96,
      98,
      36,
      8,
      54,
      54,
      17,
      42,
      100,
      24,
      19,
      98,
      33
    ],
    "forced": [
      false,
      false,
      false,
      false,
      false,
      false,
      false,
      false,
      false,
      false,
      false,
      false,
      false,
      false,
      false,
      false,
      false,
      false,
      false,
      false,
      false,
      false,
      false,
      false,
      false,
      false,
      false,
      false,
      false,
      false,
      false,
      false,
      false,
      false,
      false,
      false,
      false,
      false,
      false,
      false,
      false,
      false,
      false,
      false,
      false,
      false,
      false,
      false,
      false,
      false,
      false,
      false,
      false,
      false
    ]
  },
  "average_zones_profile": [
    23.66010301574829,
    20.320916204433015,
    21.071614098389787,
    22.53327212206201,
    21.94118075286156,
    21.57668390117135,
    22.0839760705597,
    21.417398196961834,
    21.962265691583532,
    21.86155035993113,
    22.526155565250598,
    22.119099306724173,
    21.973212672236496,
    21.636737533283238,
    23.067322479161515,
    22.51606754684726,
    20.768873872895202,
    21.595067052496056,
    22.817789003162055,
    21.95698197198662,
    21.56685556902953,
    21.78573546042672,
    21.72594151457635,
    22.33134206210044,
    22.883026475539495,
    21.483504619522037,
    21.788297416760102,
    21.24126748313042,
    21.801416824354156,
    21.540466934844382,
    22.749839755454207,
    21.542669325584892,
    21.83848276499763,
    20.445228491475085,
    22.91277610070884,
    22.328031010781913,
    21.648373681322525,
    21.961621418412122,
    22.195373651152796,
    21.99449736962117,
    22.96227228156004,
    22.404215463812328,
    21.8154651097298,
    22.552264537307963,
    22.25900800877784,
    21.528426224028923,
    22.306221895423455,
    22.3144421703305,
    22.169444461891857,
    21.921993521435283,
    22.644250209463426,
    22.033535978543036,
    21.155124854827445,
    22.76231993532761
  ],
  "thickness_difference ": [
    7.545922798855869,
    -7.632199070759023,
    -4.219935916410058,
    2.4239641911909486,
    0.0,
    -1.9241640855847726,
    0.0,
    -2.6481900138098458,
    0.0,
    0.0,
    2.3916162056845347,
    0.0,
    0.0,
    -1.6511930305307356,
    4.851465814370521,
    2.3457615765784565,
    -5.596027850476353,
    -1.8406043068361102,
    3.7172227416457044,
    0.0,
    -1.9688383225930393,
    0.0,
    -1.2457203882893257,
    1.506100282274726,
    4.013756706997705,
    -2.347706274899831,
    0.0,
    -3.4487841675889928,
    0.0,
    -2.0887866597982643,
    3.4083625247918516,
    -2.0787757927959434,
    0.0,
    -7.067143220567797,
    4.148982275949271,
    1.4910500490086969,
    -1.5983014485339775,
    0.0,
    0.0,
    0.0,
    4.373964916181999,
    1.837343017328763,
    0.0,
    2.5102933513998305,
    1.1773091308083654,
    -2.1435171635048955,
    1.391917706470251,
    1.42928259241137,
    0.0,
    0.0,
    2.9284100430155715,
    0.0,
    -3.8403415689661586,
    3.465090615125503
  ],
  "dynamic_gain": [
    0.5,
    0.5,
    0.5,
    0.5,
    0.5,
    0.5,
    0.5,
    0.5,
    0.5,
    0.5,
    0.5,
    0.5,
    0.5,
    0.5,
    0.5,
    0.5,
    0.5,
    0.5,
    0.5,
    0.5,
    0.5,
    0.5,
    0.5,
    0.5,
    0.5,
    0.5,
    0.5,
    0.5,
    0.5,
    0.5,
    0.5,
    0.5,
    0.5,
    0.5,
    0.5,
    0.5,
    0.5,
    0.5,
    0.5,
    0.5,
    0.5,
    0.5,
    0.5,
    0.5,
    0.5,
    0.5,
    0.5,
    0.5,
    0.5,
    0.5,
    0.5,
    0.5,
    0.5,
    0.5
  ],
  "value_map": {
    "next": "-0.05",
    "prev": "-0.05",
    "default": "-0.05"
  },
  "actuation_variation": [
    1.9709510582945264,
    -2.015705072397586,
    -1.2906882490019675,
    0.5610917546672596,
    0.0124950026401544,
    -0.5291451235358126,
    -0.11430885248486547,
    -0.7282522537977076,
    -0.06620475034524614,
    0.05979040514211337,
    0.6576944565632471,
    0.05979040514211337,
    -0.04127982576326839,
    -0.3327914380366893,
    1.3515173126030864,
    0.6264703826564298,
    -1.5262787271374385,
    -0.5531363121006965,
    0.9762211462816661,
    0.043709610476316635,
    -0.5414305387130859,
    -0.08036396777205913,
    -0.3049205997226965,
    0.48337848559325913,
    1.0827429446087413,
    -0.5452753079225109,
    -0.1449122610622206,
    -0.948415646086973,
    -0.13843927068468143,
    -0.48920726832472644,
    0.8331106330029041,
    -0.4864542798990881,
    -0.22864797533409353,
    -1.8397398287574125,
    1.0015677965970722,
    0.47380578416277397,
    -0.4022566471216264,
    -0.03995753621334944,
    0.0,
    0.10934912290454997,
    1.2487739273832688,
    0.6146184526699598,
    0.10869090921821484,
    0.7197633999051626,
    0.3329294156696739,
    -0.5252365490318809,
    0.3649215050019809,
    0.42785065557488305,
    0.03573206481028425,
    0.0732102510753893,
    0.8053127618292822,
    -0.02279828814876468,
    -0.969466666087556,
    1.045539449906756
  ]
}