{
  "parameters": {
    "integral_band": 0,
    "dead_band": 1,
    "small_gain": 50.0,
    "large_gain": 80.0,
    "large_gain_regulations": 3,
    "valves_min": 0,
    "valves_max": 100,
    "matrix_minor": 10,
    "matrix_major": 55,
    "profiles_directions_used_for_regulation": 0,
    "profiles_to_average": 2,
    "profiles_for_first_regulation": 1,
    "profiles_for_regulation": 10,
    "phase_shift_misDx_haulDx": 0,
    "phase_shift_misDx_haulSx": 0,
    "phase_shift_misSx_haulDx": 0,
    "phase_shift_misSx_haulSx": 0,
    "revert_regulation": 0,
    "disturbation_type": 0,
    "disturbation_amount": 0.0,
    "disturbation_amplitude": 1.0,
    "disturbation_cycles": 1,
    "disturbation_frequency": 1,
    "measurer_speed_default": 2,
    "measurer_speed_control": 0,
    "measurer_speed_min": 3,
    "measurer_speed_max": 7,
    "measurer_twoSigma_for_speed_min": 2.0,
    "measurer_twoSigma_for_speed_max": 10.0
  },
  "production": {
    "line_speed": 45.0,
    "layflat": 1640.0,
    "thickness": 22.0
  },
  "status": {
    "application": {
      "measurer_active": true,
      "actuation_active": true
    },
    "measurer": {
      "is_valid": true,
      "reason_is_valid": "none",
      "direction": -1,
      "speed": 0
    },
    "hauloff": {
      "direction": 0,
      "position": 0,
      "speed": 0,
      "last_period": 0
    }
  },
  "stats": {
    "min_thickness": 20.837706280422648,
    "max_thickness": 24.15481419921642,
    "mean_thickness": 22.0,
    "sigma_perc": 6.509940477130876,
    "sigma_abs": 1.432186904968793,
    "stdDev": 0.7160934524843965
  },
  "rawProfile": [
    19.8,
    21.0,
    19.8,
    20.7,
    20.6,
    21.1,
    21.4,
    20.3,
    20.5,
    19.9,
    19.3,
    20.2,
    20.4,
    20.1,
    20.0,
    20.1,
    20.5,
    20.4,
    21.4,
    20.7,
    21.4,
    21.2,
    20.7,
    20.5,
    20.0,
    20.1,
    20.5,
    21.6,
    22.6,
    21.4,
    21.6,
    20.8,
    22.7,
    21.3,
    21.4,
    21.5,
    20.4,
    21.5,
    21.4,
    21.0,
    20.5,
    21.5,
    21.2,
    21.6,
    21.7,
    21.1,
    20.4,
    20.4,
    19.6,
    19.6,
    19.4,
    19.5,
    20.5,
    21.5,
    20.6,
    21.4,
    21.4,
    20.5,
    20.6,
    20.8,
    21.2,
    20.6,
    20.9,
    19.8,
    22.5,
    21.5,
    21.0,
    21.1,
    21.0,
    20.1,
    19.7,
    19.8,
    20.4,
    21.4,
    21.1,
    19.9,
    20.4,
    20.6,
    20.3,
    20.4,
    20.9,
    20.7,
    21.4,
    20.7,
    23.0,
    20.4,
    19.6,
    19.1,
    19.8,
    20.0,
    21.7,
    21.1,
    23.2,
    22.5,
    22.7,
    22.5,
    24.0,
    23.2,
    23.6,
    23.1,
    21.2,
    21.9,
    21.4,
    20.7,
    19.9,
    20.7,
    20.4,
    21.2,
    21.7,
    22.8,
    20.5,
    20.5,
    21.8,
    21.3,
    20.6,
    20.6,
    20.2,
    21.5,
    20.1,
    20.2,
    21.1,
    21.3,
    23.2,
    23.6,
    21.4,
    20.3,
    20.0,
    20.9,
    21.7,
    21.3,
    21.2,
    21.7,
    20.5,
    20.4,
    20.6,
    22.2,
    22.1,
    21.8,
    22.3,
    22.1,
    20.7,
    20.2,
    20.4,
    21.8,
    19.4,
    20.5,
    21.2,
    20.8,
    19.6,
    19.9,
    21.0,
    22.0,
    20.2,
    21.6,
    20.3,
    22.0,
    20.7,
    22.0,
    21.9,
    21.0,
    20.9,
    21.2,
    19.5,
    19.3,
    21.3,
    20.3,
    20.5,
    20.2,
    20.4,
    20.8,
    20.5,
    21.7,
    21.4,
    20.2,
    20.2,
    21.0,
    21.4,
    20.6,
    22.0,
    21.7,
    21.2,
    19.7,
    19.8,
    19.1,
    20.6,
    22.0,
    21.4,
    22.2,
    22.5,
    21.4,
    21.7,
    21.7,
    22.6,
    21.9,
    21.6,
    20.4,
    20.3,
    20.3,
    19.6,
    20.4,
    21.2,
    21.5,
    22.0,
    20.9,
    22.7,
    23.3,
    22.5,
    21.3,
    21.6,
    21.0,
    20.1,
    21.0,
    21.1,
    20.8,
    20.0,
    21.4,
    20.3,
    19.5,
    18.9,
    19.5,
    19.5,
    19.6,
    20.4,
    20.4,
    20.1,
    20.8,
    21.3,
    21.8,
    21.5,
    22.5,
    22.5,
    21.4,
    22.9,
    21.6,
    20.4,
    21.9,
    22.1,
    21.7,
    21.2,
    20.8,
    21.5,
    22.5,
    21.4,
    21.6,
    20.7,
    20.6,
    21.2,
    23.0,
    24.0,
    24.1,
    23.1,
    24.0,
    21.9,
    20.9,
    21.7,
    21.5,
    21.4,
    21.9,
    21.1,
    21.7,
    22.2,
    21.6,
    21.4,
    22.8,
    22.5,
    21.4,
    20.1,
    20.2,
    21.2,
    21.5,
    20.3,
    20.5,
    20.5,
    20.9,
    19.4,
    19.2,
    20.9,
    20.2,
    21.0,
    20.1,
    18.9,
    19.5,
    20.4,
    21.1,
    21.3,
    21.5,
    22.6,
    21.5,
    21.6,
    21.0,
    21.7,
    22.5,
    22.5,
    20.2,
    19.7,
    20.5,
    22.0,
    21.8,
    22.3,
    20.4,
    23.1,
    22.0,
    21.7,
    20.3,
    20.3,
    19.9,
    20.1,
    19.7,
    19.9,
    19.3,
    19.9,
    20.2,
    20.4,
    20.7,
    20.2,
    21.0,
    20.7,
    21.0,
    20.8,
    20.4,
    20.5,
    21.4,
    22.6,
    21.6,
    22.5,
    22.7,
    22.2,
    21.2,
    21.9,
    20.4,
    20.8,
    19.6,
    19.4,
    19.2,
    20.0,
    20.7,
    20.2,
    19.5,
    20.9,
    21.4,
    22.5,
    22.2,
    22.1,
    22.0,
    20.6,
    20.5,
    20.8,
    20.9,
    21.7,
    22.2,
    21.4,
    21.9,
    20.9,
    21.2,
    21.4,
    20.5,
    21.2,
    22.2,
    22.1,
    22.3
  ],
  "zonesProfile": [
    21.501127864181406,
    22.963789623649525,
    21.417547192211796,
    21.997388104000944,
    21.715303336103517,
    21.33919031224029,
    22.30036803989076,
    21.589932328149107,
    21.490680280185202,
    22.676481063754007,
    22.060073607978147,
    22.603347975780594,
    21.532470616170002,
    22.316039415885072,
    21.84589813605602,
    24.14959040721833,
    21.772765048082626,
    21.96604535201234,
    21.4645613201947,
    21.349637896236484,
    22.018283271993344,
    21.88246468004274,
    20.837706280422648,
    22.127982903953455,
    22.159325655942055,
    22.6660334797578,
    21.558589576160507,
    21.391428232221287,
    21.067553128339064,
    21.511575448177606,
    22.54066247180339,
    22.410067671850864,
    22.530214887807194,
    21.23471447227827,
    21.4854564881871,
    22.895880327674217,
    21.610827496141507,
    20.842930072420742,
    22.049626023981947,
    21.96604535201234,
    22.7339427757331,
    21.58993232814911,
    21.11456725632197,
    21.60560370414341,
    22.770509319719807,
    22.44663421583758,
    24.15481419921642,
    22.321263207883174,
    22.33171079187937,
    23.021251335628623,
    21.15635759230678,
    20.916063160394152,
    22.023507063991453,
    22.97423720764573
  ],
  "actuators": {
    "values": [
      46,
      38,
      100,
      0,
      33,
      46,
      0,
      0,
      52,
      30,
      21,
      0,
      41,
      55,
      0,
      0,
      69,
      68,
      18,
      33,
      81,
      53,
      33,
      53,
      76,
      58,
      50,
      70,
      39,
      49,
      57,
      56,
      19,
      100,
      17,
      66,
      100,
      100,
      36,
      52,
      99,
      100,
      100,
      44,
      18,
      58,
      84,
      19,
      25,
      92,
      32,
      24,
      51,
      20
    ],
    "forced": [
      false,
      false,
      false,
      false,
      false,
      false,
      false,
      false,
      false,
      false,
      false,
      false,
      false,
      false,
      false,
      false,
      false,
      false,
      false,
      false,
      false,
      false,
      false,
      false,
      false,
      false,
      false,
      false,
      false,
      false,
      false,
      false,
      false,
      false,
      false,
      false,
      false,
      false,
      false,
      false,
      false,
      false,
      false,
      false,
      false,
      false,
      false,
      false,
      false,
      false,
      false,
      false,
      false,
      false
    ]
  },
  "old_actuators": {
    "values": [
      47,
      39,
      100,
      0,
      34,
      46,
      0,
      0,
      52,
      31,
      22,
      0,
      41,
      55,
      0,
      0,
      69,
      68,
      17,
      32,
      80,
      52,
      32,
      53,
      76,
      59,
      50,
      69,
      38,
      48,
      58,
      56,
      19,
      100,
      16,
      67,
      100,
      100,
      36,
      52,
      99,
      100,
      100,
      43,
      20,
      60,
      86,
      20,
      26,
      92,
      31,
      23,
      52,
      20
    ],
    "forced": [
      false,
      false,
      false,
      false,
      false,
      false,
      false,
      false,
      false,
      false,
      false,
      false,
      false,
      false,
      false,
      false,
      false,
      false,
      false,
      false,
      false,
      false,
      false,
      false,
      false,
      false,
      false,
      false,
      false,
      false,
      false,
      false,
      false,
      false,
      false,
      false,
      false,
      false,
      false,
      false,
      false,
      false,
      false,
      false,
      false,
      false,
      false,
      false,
      false,
      false,
      false,
      false,
      false,
      false
    ]
  },
  "average_zones_profile": [
    22.341592782907995,
    22.457815324611673,
    21.209737037755417,
    22.535219632359375,
    22.048989868840863,
    21.88169650756007,
    22.55953530256804,
    21.939587275899328,
    21.812099436976816,
    22.50102940052124,
    22.384884816153342,
    22.31133462048478,
    22.123678714080633,
    21.80951599181046,
    22.79168505879995,
    23.751472050861068,
    21.530092626415186,
    21.68383144266978,
    21.40194470078474,
    21.35745995796239,
    21.595753074080797,
    21.51486680894874,
    21.158592814345212,
    21.68174761603708,
    21.814211714442216,
    22.329700403316615,
    21.82010014665095,
    21.266753191206664,
    21.46038459416075,
    21.204843289111285,
    22.801666028597893,
    22.095306352277724,
    22.37079764825809,
    20.944429291088085,
    21.77574742117019,
    22.50950867305862,
    21.046837806585092,
    20.533119403157116,
    22.151266366996282,
    21.948561613467668,
    22.823039759453543,
    21.238830941434333,
    21.502059414971665,
    21.584067827507223,
    23.108648596076137,
    22.915566318158803,
    23.447827474760594,
    22.34937441089934,
    22.62711455518938,
    22.395707396503905,
    21.424329617372702,
    21.26006070628341,
    22.293930516882146,
    22.572045657526544
  ],
  "thickness_difference ": [
    1.5526944677636128,
    2.0809787482348763,
    -3.5921043738390135,
    2.432816510724433,
    0.0,
    0.0,
    2.543342284400183,
    0.0,
    0.0,
    2.277406366005637,
    1.7494764370606444,
    1.415157365839903,
    0.0,
    0.0,
    3.5985684490906777,
    7.961236594823036,
    -2.1359426072036993,
    -1.4371298060464484,
    -2.7184331782511864,
    -2.9206365547164057,
    -1.8374860269054691,
    -2.2051508684148238,
    -3.8245781166126718,
    -1.4466017452860054,
    0.0,
    1.498638196893703,
    0.0,
    -3.332940039969708,
    -2.4527972992693168,
    -3.6143486858577973,
    3.643936493626786,
    0.0,
    1.6854438557185925,
    -4.798048676872342,
    -1.0193299037718584,
    2.3159485139028133,
    -4.332555424613218,
    -6.667639076558564,
    0.0,
    0.0,
    3.741089815697924,
    -3.459859357116667,
    -2.263366295583341,
    -1.8906007840580779,
    5.039311800346075,
    4.161665082540011,
    6.581033976184517,
    1.588065504087911,
    2.8505207054062707,
    1.7986699841086595,
    -2.616683557396807,
    -3.3633604259844936,
    1.3360478040097525,
    2.600207534211566
  ],
  "dynamic_gain": [
    0.5,
    0.5,
    0.5,
    0.5,
    0.5,
    0.5,
    0.5,
    0.5,
    0.5,
    0.5,
    0.5,
    0.5,
    0.5,
    0.5,
    0.5,
    0.5,
    0.5,
    0.5,
    0.5,
    0.5,
    0.5,
    0.5,
    0.5,
    0.5,
    0.5,
    0.5,
    0.5,
    0.5,
    0.5,
    0.5,
    0.5,
    0.5,
    0.5,
    0.5,
    0.5,
    0.5,
    0.5,
    0.5,
    0.5,
    0.5,
    0.5,
    0.5,
    0.5,
    0.5,
    0.5,
    0.5,
    0.5,
    0.5,
    0.5,
    0.5,
    0.5,
    0.5,
    0.5,
    0.5
  ],
  "value_map": {
    "next": "-0.05",
    "prev": "-0.05",
    "default": "-0.05"
  },
  "actuation_variation": [
    0.5440206356961546,
    0.5212839081127061,
    -0.8749838213317461,
    0.5792219311032438,
    0.06082041276811082,
    0.06358355711000457,
    0.6994191282100504,
    0.06358355711000457,
    0.05693515915014093,
    0.6700236615780664,
    0.5734201134878157,
    0.4329051865324895,
    0.035378934145997576,
    0.08996421122726694,
    1.1886372383705124,
    2.2259057096235093,
    -0.4242815472616027,
    -0.5165700912991454,
    -0.8565132830381477,
    -0.917073032675928,
    -0.6334533429772848,
    -0.7479680924020301,
    -1.1430527974110054,
    -0.4934299328689683,
    0.0013009112901924413,
    0.4121255041457684,
    -0.04585754607690012,
    -0.9778784434734027,
    -0.8482014754447498,
    -0.9641674087519577,
    0.9117238186009214,
    0.13323450873363446,
    0.3435458434008044,
    -1.3028105373412258,
    -0.3423682276114993,
    0.5030887081136468,
    -1.3002450058350288,
    -1.9419146316689357,
    -0.16669097691396412,
    0.09352724539244811,
    0.9423032153890126,
    -0.9145182352042189,
    -0.7561872348147873,
    -0.4505165779969031,
    1.4425873525572193,
    1.4349665421117679,
    1.9535276081164403,
    0.6725068806639453,
    0.8685615811916388,
    0.500480174330118,
    -0.7587052393310179,
    -0.9569400109804121,
    0.3483343238083588,
    0.7872756287025149
  ]
}