{
  "parameters": {
    "integral_band": 0,
    "dead_band": 1,
    "small_gain": 50.0,
    "large_gain": 80.0,
    "large_gain_regulations": 3,
    "valves_min": 0,
    "valves_max": 100,
    "matrix_minor": 10,
    "matrix_major": 55,
    "profiles_directions_used_for_regulation": 0,
    "profiles_to_average": 2,
    "profiles_for_first_regulation": 1,
    "profiles_for_regulation": 10,
    "phase_shift_misDx_haulDx": 0,
    "phase_shift_misDx_haulSx": 0,
    "phase_shift_misSx_haulDx": 0,
    "phase_shift_misSx_haulSx": 0,
    "revert_regulation": 0,
    "disturbation_type": 0,
    "disturbation_amount": 0.0,
    "disturbation_amplitude": 1.0,
    "disturbation_cycles": 1,
    "disturbation_frequency": 1,
    "measurer_speed_default": 2,
    "measurer_speed_control": 0,
    "measurer_speed_min": 3,
    "measurer_speed_max": 7,
    "measurer_twoSigma_for_speed_min": 2.0,
    "measurer_twoSigma_for_speed_max": 10.0
  },
  "production": {
    "line_speed": 45.0,
    "layflat": 1640.0,
    "thickness": 22.0
  },
  "status": {
    "application": {
      "measurer_active": true,
      "actuation_active": true
    },
    "measurer": {
      "is_valid": true,
      "reason_is_valid": "none",
      "direction": 1,
      "speed": 0
    },
    "hauloff": {
      "direction": 0,
      "position": 0,
      "speed": 0,
      "last_period": 0
    }
  },
  "stats": {
    "min_thickness": 20.451890856869316,
    "max_thickness": 24.416945907132597,
    "mean_thickness": 22.0,
    "sigma_perc": 7.50185843419575,
    "sigma_abs": 1.6504088555230647,
    "stdDev": 0.8252044277615324
  },
  "rawProfile": [
    21.2,
    22.8,
    22.3,
    21.5,
    22.5,
    20.4,
    20.4,
    20.6,
    21.5,
    20.9,
    20.7,
    21.4,
    20.8,
    19.3,
    19.4,
    18.8,
    19.5,
    20.0,
    19.4,
    19.5,
    21.2,
    21.0,
    20.2,
    19.8,
    18.9,
    19.8,
    21.4,
    19.7,
    21.4,
    19.7,
    19.7,
    19.5,
    19.8,
    20.2,
    20.0,
    20.5,
    19.8,
    19.5,
    20.9,
    20.6,
    19.8,
    21.8,
    20.9,
    21.5,
    20.6,
    21.4,
    21.3,
    21.3,
    22.3,
    21.9,
    21.3,
    21.6,
    21.3,
    20.3,
    20.4,
    21.3,
    20.7,
    20.8,
    20.4,
    19.6,
    20.4,
    21.3,
    21.0,
    21.8,
    20.4,
    19.3,
    20.4,
    18.9,
    20.4,
    20.3,
    21.5,
    21.2,
    20.7,
    21.2,
    19.8,
    20.5,
    20.5,
    19.9,
    20.8,
    20.4,
    20.5,
    20.7,
    20.1,
    19.4,
    18.7,
    20.1,
    22.1,
    22.7,
    23.4,
    22.5,
    20.4,
    19.0,
    20.8,
    18.5,
    20.7,
    20.4,
    22.3,
    23.5,
    22.8,
    22.9,
    21.6,
    22.6,
    21.6,
    20.4,
    20.9,
    22.2,
    22.0,
    21.1,
    19.2,
    22.1,
    19.9,
    20.8,
    20.3,
    20.1,
    20.4,
    21.4,
    21.5,
    20.6,
    19.5,
    21.1,
    21.4,
    21.6,
    21.5,
    21.1,
    22.9,
    22.5,
    22.5,
    22.9,
    24.1,
    22.8,
    20.7,
    21.2,
    21.0,
    21.6,
    21.3,
    23.1,
    21.3,
    21.4,
    20.7,
    21.8,
    21.0,
    21.2,
    21.6,
    21.5,
    21.2,
    21.7,
    22.3,
    23.0,
    22.3,
    20.7,
    20.4,
    21.7,
    21.4,
    22.8,
    22.5,
    24.0,
    21.5,
    21.3,
    22.3,
    20.9,
    21.1,
    21.3,
    21.4,
    21.9,
    22.5,
    21.5,
    20.3,
    20.5,
    20.3,
    20.8,
    20.5,
    21.4,
    21.0,
    22.0,
    24.3,
    24.2,
    23.0,
    22.2,
    23.3,
    22.9,
    23.0,
    22.2,
    20.5,
    20.9,
    19.2,
    19.4,
    19.0,
    20.1,
    20.5,
    21.1,
    21.6,
    22.9,
    23.8,
    23.2,
    21.5,
    22.1,
    21.5,
    22.1,
    22.6,
    21.5,
    20.8,
    20.5,
    20.6,
    22.2,
    22.2,
    22.2,
    23.6,
    23.0,
    22.7,
    19.9,
    20.9,
    19.7,
    20.5,
    21.7,
    21.3,
    21.0,
    21.5,
    23.1,
    22.2,
    20.3,
    20.1,
    21.2,
    20.0,
    20.7,
    20.7,
    19.7,
    19.9,
    21.0,
    20.4,
    20.6,
    19.5,
    19.8,
    21.5,
    21.3,
    19.6,
    20.3,
    19.6,
    19.8,
    19.6,
    18.5,
    19.7,
    19.9,
    20.1,
    20.4,
    21.3,
    20.9,
    21.0,
    20.8,
    19.8,
    20.4,
    21.0,
    19.6,
    20.3,
    20.9,
    20.0,
    21.1,
    20.0,
    19.7,
    19.5,
    20.3,
    21.7,
    21.8,
    19.9,
    19.2,
    19.5,
    21.1,
    21.5,
    20.7,
    20.7,
    19.5,
    19.9,
    20.3,
    21.7,
    20.0,
    20.3,
    20.5,
    18.9,
    19.9,
    20.4,
    20.7,
    21.0,
    20.2,
    18.7,
    19.3,
    18.5,
    19.1,
    19.5,
    18.7,
    18.0,
    19.3,
    19.6,
    20.3,
    21.4,
    21.2,
    20.6,
    21.0,
    21.6,
    20.6,
    21.1,
    20.2,
    21.0,
    21.2,
    21.6,
    22.8,
    20.2,
    21.1,
    21.4,
    20.1,
    20.5,
    20.1,
    18.6,
    21.0,
    18.9,
    20.1,
    20.1,
    19.0,
    20.0,
    20.9,
    19.5,
    17.9,
    21.0,
    20.4,
    20.0,
    21.0,
    19.6,
    19.4,
    20.0,
    21.1,
    20.7,
    21.9,
    22.0,
    22.6,
    22.5,
    21.6,
    22.3,
    22.0,
    22.3,
    20.7,
    19.8,
    21.1,
    21.4,
    19.8,
    20.6,
    21.2,
    19.3,
    20.2,
    21.1,
    21.5,
    20.4,
    21.9,
    20.7,
    20.0,
    20.4,
    21.1,
    21.0,
    21.4,
    21.6,
    22.0,
    21.3,
    20.7
  ],
  "zonesProfile": [
    23.184777405457165,
    22.75825753949258,
    21.77884155098133,
    24.416945907132597,
    21.894686452848255,
    22.6266156055529,
    23.332216371469602,
    22.831977022498798,
    22.60028721876496,
    22.747726184777406,
    23.28482527525132,
    23.063666826232645,
    21.784107228338925,
    21.7103877453327,
    22.74246050741981,
    22.895165150789854,
    22.48444231689804,
    21.204882719004317,
    21.489229296314026,
    21.62087123025371,
    21.768310196266157,
    21.59980852082336,
    22.67927237912878,
    22.147438966012448,
    21.289133556725712,
    21.115366203925326,
    21.352321685016754,
    20.451890856869316,
    21.97893729056965,
    22.79511728099569,
    22.44231689803734,
    21.952608903781716,
    21.573480134035425,
    22.526567735758746,
    22.85303973192916,
    21.28386787936812,
    20.66251795117281,
    21.01531833413116,
    22.458113930110102,
    21.994734322642415,
    20.673049305887986,
    20.504547630445195,
    21.17328865485878,
    21.5840114887506,
    21.72618477740546,
    21.252273815222598,
    21.462900909526095,
    21.531354715174725,
    20.78889420775491,
    21.56821445667784,
    21.43130684538056,
    22.726663475347063,
    22.400191479176637,
    22.784585926280517
  ],
  "actuators": {
    "values": [
      52,
      38,
      98,
      0,
      58,
      68,
      11,
      10,
      61,
      43,
      32,
      0,
      51,
      54,
      18,
      0,
      71,
      57,
      8,
      26,
      69,
      41,
      24,
      44,
      55,
      47,
      51,
      47,
      22,
      36,
      63,
      58,
      14,
      95,
      37,
      58,
      100,
      100,
      31,
      59,
      100,
      100,
      100,
      52,
      38,
      64,
      88,
      26,
      44,
      88,
      14,
      28,
      66,
      39
    ],
    "forced": [
      false,
      false,
      false,
      false,
      false,
      false,
      false,
      false,
      false,
      false,
      false,
      false,
      false,
      false,
      false,
      false,
      false,
      false,
      false,
      false,
      false,
      false,
      false,
      false,
      false,
      false,
      false,
      false,
      false,
      false,
      false,
      false,
      false,
      false,
      false,
      false,
      false,
      false,
      false,
      false,
      false,
      false,
      false,
      false,
      false,
      false,
      false,
      false,
      false,
      false,
      false,
      false,
      false,
      false
    ]
  },
  "old_actuators": {
    "values": [
      53,
      39,
      98,
      0,
      58,
      69,
      14,
      11,
      62,
      44,
      33,
      0,
      50,
      54,
      19,
      0,
      71,
      56,
      7,
      25,
      69,
      42,
      24,
      44,
      54,
      46,
      50,
      45,
      22,
      36,
      62,
      58,
      14,
      95,
      38,
      57,
      100,
      100,
      32,
      59,
      98,
      100,
      100,
      52,
      38,
      64,
      88,
      26,
      43,
      87,
      13,
      29,
      66,
      39
    ],
    "forced": [
      false,
      false,
      false,
      false,
      false,
      false,
      false,
      false,
      false,
      false,
      false,
      false,
      false,
      false,
      false,
      false,
      false,
      false,
      false,
      false,
      false,
      false,
      false,
      false,
      false,
      false,
      false,
      false,
      false,
      false,
      false,
      false,
      false,
      false,
      false,
      false,
      false,
      false,
      false,
      false,
      false,
      false,
      false,
      false,
      false,
      false,
      false,
      false,
      false,
      false,
      false,
      false,
      false,
      false
    ]
  },
  "average_zones_profile": [
    23.09119538530615,
    22.339749294805955,
    22.06794106188685,
    23.927804695809733,
    21.997223894681884,
    22.49707868583134,
    23.839616538956754,
    22.849162735593076,
    22.528544564036423,
    22.681022996923307,
    23.17272290015549,
    23.230162768724913,
    21.679404449491656,
    22.086220125649643,
    22.762399704783892,
    22.085291405943856,
    22.257972948425156,
    20.980245655444882,
    21.5739702567489,
    21.68179599698843,
    22.167687317703482,
    21.828782542034595,
    22.70455265734482,
    22.207609697803363,
    21.51592716022443,
    21.24264730243999,
    21.28499139143439,
    20.574871442754468,
    21.97634215363805,
    22.447439308755605,
    21.772232434698857,
    22.052438103442167,
    21.584592095657328,
    21.900992698428297,
    22.586663064055273,
    21.261265681927497,
    20.693311481552993,
    20.972098307877033,
    22.544092764577726,
    22.070875514543165,
    20.564686944113447,
    20.580197442907565,
    21.78354170213106,
    21.98890311907697,
    22.052113868416335,
    22.20632783839889,
    21.60018553829527,
    21.79718093753963,
    21.000652354474113,
    21.382436583947513,
    21.558135522928943,
    22.449966582542267,
    22.276229391139637,
    22.040502987006608
  ],
  "thickness_difference ": [
    4.959979024118866,
    1.544314976390705,
    0.0,
    8.762748617316971,
    0.0,
    2.2594485719606374,
    8.361893358894337,
    3.859830616332163,
    2.40247529107465,
    3.095559076924123,
    5.330558637070417,
    5.591648948749605,
    -1.4572525023106535,
    0.0,
    3.465453203563145,
    0.0,
    1.1726043110234357,
    -4.63524702070508,
    -1.9364988329595434,
    -1.44638183187077,
    0.0,
    0.0,
    3.202512078840091,
    0.0,
    -2.2003310898889596,
    -3.442512261636404,
    -3.2500391298436875,
    -6.477857078388784,
    0.0,
    2.0338150397982058,
    -1.0353071150051947,
    0.0,
    -1.8882177470121453,
    0.0,
    2.6666502911603307,
    -3.357883263965921,
    -5.939493265668216,
    -4.672280418740759,
    2.473148929898757,
    0.0,
    -6.524150254029787,
    -6.453647986783796,
    0.0,
    0.0,
    0.0,
    0.0,
    -1.8173384622942217,
    0.0,
    -4.542489297844942,
    -2.8071064366022145,
    -2.0084748957775322,
    2.0453026479193945,
    1.2555881415438044,
    0.0
  ],
  "dynamic_gain": [
    0.5,
    0.5,
    0.5,
    0.5,
    0.5,
    0.5,
    0.5,
    0.5,
    0.5,
    0.5,
    0.5,
    0.5,
    0.5,
    0.5,
    0.5,
    0.5,
    0.5,
    0.5,
    0.5,
    0.5,
    0.5,
    0.5,
    0.5,
    0.5,
    0.5,
    0.5,
    0.5,
    0.5,
    0.5,
    0.5,
    0.5,
    0.5,
    0.5,
    0.5,
    0.5,
    0.5,
    0.5,
    0.5,
    0.5,
    0.5,
    0.5,
    0.5,
    0.5,
    0.5,
    0.5,
    0.5,
    0.5,
    0.5,
    0.5,
    0.5,
    0.5,
    0.5,
    0.5,
    0.5
  ],
  "value_map": {
    "next": "-0.05",
    "prev": "-0.05",
    "default": "-0.05"
  },
  "actuation_variation": [
    1.4026021060424556,
    0.5486860941104155,
    0.2576765898426919,
    2.4097558697621673,
    0.27555492973194023,
    0.8303956912615338,
    2.452502653403263,
    1.3305626357405695,
    0.8345654473769359,
    1.0446045943577604,
    1.683083825836208,
    1.6345361142751356,
    -0.2609532144166896,
    0.05020501753131229,
    0.952999630979865,
    0.11595143786466452,
    0.20658501001381785,
    -1.2937902937422996,
    -0.6845779003782707,
    -0.44616747458845035,
    -0.03615954579676925,
    0.08006280197100228,
    0.8806908216810251,
    0.02505452472377829,
    -0.6911538562603741,
    -1.0829501274433273,
    -1.1417699942076438,
    -1.8626616748030078,
    -0.11110105096476447,
    0.5334164580693768,
    -0.2338640806314734,
    -0.0730881215504335,
    -0.51925988042834,
    0.019460813603704635,
    0.649381748469943,
    -1.0052389719533255,
    -1.8341147401264266,
    -1.3715357235479453,
    0.5633089452536393,
    -0.10127503310327578,
    -1.9554825195277865,
    -1.9378569527162888,
    -0.16134119966959493,
    0.0,
    0.0,
    -0.045433461557355545,
    -0.499768077130911,
    -0.15899569400347913,
    -1.3193622178224145,
    -0.9357283749061709,
    -0.5713756910558919,
    0.5436360593219903,
    0.3964193051225311,
    0.15538917914156675
  ]
}