{
  "parameters": {
    "integral_band": 0,
    "dead_band": 1,
    "small_gain": 50.0,
    "large_gain": 80.0,
    "large_gain_regulations": 3,
    "valves_min": 0,
    "valves_max": 100,
    "matrix_minor": 10,
    "matrix_major": 55,
    "profiles_directions_used_for_regulation": 0,
    "profiles_to_average": 2,
    "profiles_for_first_regulation": 1,
    "profiles_for_regulation": 10,
    "phase_shift_misDx_haulDx": 0,
    "phase_shift_misDx_haulSx": 0,
    "phase_shift_misSx_haulDx": 0,
    "phase_shift_misSx_haulSx": 0,
    "revert_regulation": 0,
    "disturbation_type": 0,
    "disturbation_amount": 0.0,
    "disturbation_amplitude": 1.0,
    "disturbation_cycles": 1,
    "disturbation_frequency": 1,
    "measurer_speed_default": 2,
    "measurer_speed_control": 0,
    "measurer_speed_min": 3,
    "measurer_speed_max": 7,
    "measurer_twoSigma_for_speed_min": 2.0,
    "measurer_twoSigma_for_speed_max": 10.0
  },
  "production": {
    "line_speed": 45.0,
    "layflat": 1640.0,
    "thickness": 22.0
  },
  "status": {
    "application": {
      "measurer_active": true,
      "actuation_active": true
    },
    "measurer": {
      "is_valid": true,
      "reason_is_valid": "none",
      "direction": 1,
      "speed": 0
    },
    "hauloff": {
      "direction": 0,
      "position": 0,
      "speed": 0,
      "last_period": 0
    }
  },
  "stats": {
    "min_thickness": 20.297424717979695,
    "max_thickness": 23.937751979723433,
    "mean_thickness": 21.999999999999996,
    "sigma_perc": 6.355749801563261,
    "sigma_abs": 1.3982649563439176,
    "stdDev": 0.6991324781719588
  },
  "rawProfile": [
    20.1,
    20.4,
    21.8,
    23.3,
    21.2,
    21.5,
    21.5,
    20.4,
    21.4,
    19.8,
    20.8,
    20.3,
    20.1,
    20.1,
    20.2,
    21.3,
    21.5,
    21.7,
    21.3,
    20.9,
    22.0,
    21.9,
    22.0,
    21.4,
    20.5,
    20.1,
    20.9,
    21.2,
    21.2,
    21.1,
    22.7,
    21.5,
    20.2,
    20.6,
    20.9,
    21.4,
    21.4,
    20.4,
    20.3,
    21.9,
    21.3,
    21.4,
    20.4,
    20.6,
    21.1,
    21.4,
    21.3,
    20.8,
    20.9,
    19.3,
    19.8,
    20.7,
    20.4,
    20.5,
    20.2,
    21.4,
    21.2,
    21.2,
    19.9,
    19.8,
    20.6,
    20.4,
    20.4,
    21.5,
    20.9,
    21.4,
    19.4,
    20.9,
    20.8,
    20.1,
    19.6,
    19.5,
    20.0,
    20.8,
    20.4,
    20.0,
    21.3,
    20.4,
    20.1,
    21.4,
    20.8,
    20.6,
    20.3,
    20.6,
    20.4,
    20.4,
    21.3,
    20.3,
    19.6,
    19.6,
    22.5,
    21.6,
    21.0,
    21.2,
    20.7,
    22.5,
    22.3,
    21.5,
    21.9,
    22.3,
    21.5,
    20.6,
    20.1,
    19.9,
    20.4,
    22.1,
    21.1,
    21.2,
    21.0,
    21.5,
    21.4,
    21.7,
    22.8,
    23.0,
    22.8,
    20.9,
    21.1,
    20.4,
    20.7,
    21.7,
    21.0,
    21.2,
    23.1,
    21.9,
    21.0,
    21.2,
    20.4,
    21.2,
    20.7,
    22.0,
    21.5,
    20.9,
    21.2,
    20.4,
    20.9,
    21.1,
    22.2,
    22.3,
    22.0,
    21.4,
    21.4,
    20.6,
    21.2,
    20.2,
    19.1,
    18.4,
    21.6,
    21.5,
    21.5,
    20.8,
    20.3,
    21.1,
    20.6,
    22.5,
    21.7,
    21.5,
    21.4,
    21.5,
    21.8,
    20.9,
    22.0,
    21.7,
    21.2,
    20.1,
    20.7,
    21.4,
    20.3,
    20.8,
    20.1,
    19.5,
    21.4,
    22.0,
    22.0,
    22.0,
    22.0,
    22.2,
    21.4,
    20.4,
    20.5,
    19.0,
    18.6,
    18.5,
    18.9,
    19.8,
    19.5,
    22.7,
    22.0,
    22.2,
    21.8,
    22.6,
    24.0,
    22.0,
    23.0,
    22.3,
    23.6,
    22.5,
    21.9,
    20.8,
    21.2,
    21.8,
    21.9,
    22.0,
    21.6,
    20.9,
    21.0,
    22.7,
    22.0,
    22.0,
    21.5,
    20.4,
    20.6,
    20.5,
    21.4,
    22.1,
    21.5,
    22.2,
    20.9,
    21.4,
    21.4,
    21.2,
    20.3,
    21.1,
    21.5,
    21.1,
    20.9,
    21.7,
    22.8,
    22.3,
    23.0,
    24.3,
    23.9,
    22.1,
    22.9,
    22.0,
    22.3,
    22.5,
    23.8,
    21.9,
    21.4,
    21.2,
    22.5,
    21.9,
    21.9,
    21.2,
    20.1,
    20.5,
    21.8,
    21.3,
    23.1,
    23.6,
    21.5,
    22.5,
    22.5,
    21.9,
    21.0,
    20.9,
    22.1,
    21.9,
    21.1,
    21.2,
    21.2,
    21.7,
    22.5,
    22.5,
    21.7,
    22.5,
    20.6,
    20.4,
    20.3,
    21.4,
    20.4,
    20.2,
    21.0,
    22.7,
    23.1,
    21.7,
    20.5,
    21.4,
    20.5,
    20.8,
    21.7,
    22.5,
    21.7,
    20.9,
    21.4,
    22.8,
    23.4,
    22.9,
    22.3,
    22.0,
    21.5,
    22.3,
    20.7,
    20.5,
    20.6,
    21.5,
    21.1,
    21.1,
    22.0,
    22.2,
    21.4,
    20.8,
    21.4,
    20.9,
    20.1,
    19.5,
    19.5,
    20.4,
    20.8,
    18.8,
    18.7,
    20.2,
    19.7,
    20.3,
    20.2,
    19.6,
    19.9,
    21.0,
    21.5,
    19.3,
    19.3,
    19.9,
    20.2,
    20.7,
    20.6,
    22.1,
    23.0,
    22.5,
    22.3,
    20.9,
    20.3,
    20.0,
    19.6,
    18.9,
    19.3,
    19.0,
    20.0,
    20.2,
    19.5,
    19.5,
    22.1,
    21.4,
    20.5,
    21.4,
    20.6,
    20.4,
    20.1,
    20.0,
    20.3,
    21.5,
    23.2,
    22.2,
    21.3,
    20.3,
    20.4,
    20.6,
    21.6,
    22.0,
    21.5,
    21.0
  ],
  "zonesProfile": [
    22.88205707381775,
    23.45930896817997,
    20.697860716771512,
    21.86796590804628,
    21.826362167912066,
    21.940772453281145,
    22.43481686737495,
    21.91997058321406,
    21.108697650596866,
    22.38801265972395,
    22.013578998516024,
    22.3100056469723,
    22.29960471193874,
    22.5128238801266,
    21.633944869791332,
    22.67403837314668,
    21.64954627234166,
    21.420725701603473,
    21.446728039187363,
    20.95268362509357,
    21.55073738952289,
    21.43112663663703,
    21.191905130865297,
    21.90436918066372,
    21.847164037979173,
    22.112387881334786,
    22.12798928388512,
    21.888767778113387,
    21.32191681878473,
    22.252800504287762,
    21.940772453281156,
    22.148791153952224,
    21.810760765361742,
    20.297424717979695,
    21.774357492744304,
    21.550737389522904,
    21.067093910462663,
    20.573049496368863,
    21.389522896502825,
    22.179993959052887,
    22.83005239864998,
    22.87165613878419,
    22.330807517039407,
    21.550737389522897,
    22.75204538589833,
    22.27880284187164,
    23.25649073502567,
    22.252800504287762,
    23.053672501871375,
    23.937751979723433,
    22.122788816368338,
    22.362010322140065,
    22.013578998516028,
    22.58563042536147
  ],
  "actuators": {
    "values": [
      45,
      35,
      100,
      1,
      33,
      47,
      0,
      0,
      53,
      28,
      19,
      0,
      41,
      54,
      0,
      0,
      70,
      69,
      20,
      37,
      82,
      54,
      37,
      53,
      76,
      59,
      51,
      71,
      42,
      51,
      56,
      57,
      20,
      100,
      18,
      65,
      100,
      100,
      38,
      52,
      95,
      99,
      98,
      43,
      15,
      54,
      78,
      17,
      22,
      88,
      34,
      25,
      54,
      19
    ],
    "forced": [
      false,
      false,
      false,
      false,
      false,
      false,
      false,
      false,
      false,
      false,
      false,
      false,
      false,
      false,
      false,
      false,
      false,
      false,
      false,
      false,
      false,
      false,
      false,
      false,
      false,
      false,
      false,
      false,
      false,
      false,
      false,
      false,
      false,
      false,
      false,
      false,
      false,
      false,
      false,
      false,
      false,
      false,
      false,
      false,
      false,
      false,
      false,
      false,
      false,
      false,
      false,
      false,
      false,
      false
    ]
  },
  "old_actuators": {
    "values": [
      46,
      36,
      100,
      0,
      33,
      46,
      0,
      0,
      53,
      29,
      20,
      0,
      41,
      54,
      0,
      0,
      70,
      69,
      19,
      36,
      82,
      53,
      36,
      53,
      76,
      59,
      51,
      71,
      42,
      51,
      56,
      57,
      20,
      100,
      18,
      65,
      100,
      100,
      37,
      52,
      96,
      100,
      99,
      43,
      16,
      55,
      80,
      18,
      23,
      89,
      34,
      25,
      53,
      19
    ],
    "forced": [
      false,
      false,
      false,
      false,
      false,
      false,
      false,
      false,
      false,
      false,
      false,
      false,
      false,
      false,
      false,
      false,
      false,
      false,
      false,
      false,
      false,
      false,
      false,
      false,
      false,
      false,
      false,
      false,
      false,
      false,
      false,
      false,
      false,
      false,
      false,
      false,
      false,
      false,
      false,
      false,
      false,
      false,
      false,
      false,
      false,
      false,
      false,
      false,
      false,
      false,
      false,
      false,
      false,
      false
    ]
  },
  "average_zones_profile": [
    22.659594604457755,
    22.83611310546071,
    20.490743512642126,
    21.76147653490404,
    21.782389063414854,
    21.513700467209404,
    22.034473414923898,
    22.30369455488967,
    21.85373654009203,
    22.43603674661094,
    22.17842686840674,
    22.75681992796965,
    22.10765343240627,
    22.336799062322825,
    22.004252703511106,
    22.58947820296678,
    22.030303454164116,
    22.001929115861977,
    21.545643300652337,
    21.056156151871296,
    21.441218981152915,
    21.522199699910452,
    21.194016954135,
    22.029964562680266,
    22.076969338760474,
    22.107902413904604,
    22.123524564913133,
    21.847484817360066,
    21.266844247828075,
    21.888715085246787,
    22.022094699877783,
    21.982710805101732,
    21.897124407962323,
    20.608597802402848,
    21.873708471831364,
    21.82707716799866,
    21.1733257425116,
    20.616052696041432,
    21.167682641220008,
    22.36592034511996,
    22.88387865834138,
    22.424964944762426,
    22.665542016469537,
    21.8062199687097,
    22.915268199565794,
    22.600432430218852,
    23.36041996755234,
    22.652610009204913,
    22.703687919906653,
    23.177013457766122,
    21.604708648753,
    21.909427045328375,
    21.563139489382447,
    22.420131033340418
  ],
  "thickness_difference ": [
    2.9981572929897964,
    3.8005141157305062,
    -6.860256760717608,
    -1.084197568617995,
    0.0,
    -2.210452421775438,
    0.0,
    1.380429794953047,
    0.0,
    1.9819852118679162,
    0.0,
    3.440090581680234,
    0.0,
    1.5309048287401146,
    0.0,
    2.679446377121731,
    0.0,
    0.0,
    -2.0652577243075596,
    -4.290199309675929,
    -2.5399137220322063,
    -2.1718195458615823,
    -3.6635592993863564,
    0.0,
    0.0,
    0.0,
    0.0,
    0.0,
    -3.3325261462360216,
    0.0,
    0.0,
    0.0,
    0.0,
    -6.32455544362342,
    0.0,
    0.0,
    -3.7576102613109055,
    -6.290669563448035,
    -3.783260721727237,
    1.663274295999819,
    4.017630265188094,
    1.9316588398292078,
    3.0251909839524416,
    0.0,
    4.160309998026338,
    2.7292383191766008,
    6.183727125237904,
    2.9664091327496065,
    3.198581454121148,
    5.350061171664193,
    -1.7967788693045443,
    0.0,
    -1.9857295937161499,
    1.9096865151837183
  ],
  "dynamic_gain": [
    0.5,
    0.5,
    0.5,
    0.5,
    0.5,
    0.5,
    0.5,
    0.5,
    0.5,
    0.5,
    0.5,
    0.5,
    0.5,
    0.5,
    0.5,
    0.5,
    0.5,
    0.5,
    0.5,
    0.5,
    0.5,
    0.5,
    0.5,
    0.5,
    0.5,
    0.5,
    0.5,
    0.5,
    0.5,
    0.5,
    0.5,
    0.5,
    0.5,
    0.5,
    0.5,
    0.5,
    0.5,
    0.5,
    0.5,
    0.5,
    0.5,
    0.5,
    0.5,
    0.5,
    0.5,
    0.5,
    0.5,
    0.5,
    0.5,
    0.5,
    0.5,
    0.5,
    0.5,
    0.5
  ],
  "value_map": {
    "next": "-0.05",
    "prev": "-0.05",
    "default": "-0.05"
  },
  "actuation_variation": [
    0.9672482713450498,
    0.9485888951326941,
    -1.8186626955195293,
    -0.4696607503878888,
    -0.08236624975983584,
    -0.6078744159882455,
    -0.02075056567055978,
    0.379618193612088,
    0.08406037517052409,
    0.545045933263677,
    0.13555189483870375,
    0.9460249099620643,
    0.12427488526050873,
    0.42099882790353155,
    0.10525878014654616,
    0.7368477537084761,
    0.06698615942804328,
    -0.051631443107688996,
    -0.6752008569264772,
    -1.2949340963193745,
    -0.8600267449472946,
    -0.7523372006473994,
    -1.0617742959777878,
    -0.09158898248465891,
    0.0,
    0.0,
    0.0,
    -0.08331315365590054,
    -0.916444690214906,
    -0.08331315365590054,
    0.0,
    0.0,
    -0.15811388609058552,
    -1.7392527469964407,
    -0.15811388609058552,
    -0.09394025653277265,
    -1.1906095609467,
    -1.9184559045241634,
    -1.1560815801611954,
    0.4632596699864717,
    1.194721651322452,
    0.7072767121815455,
    0.8802189915826517,
    0.1796375245494695,
    1.212316207436658,
    1.0091414658551712,
    1.8429161457385788,
    1.0503202259901183,
    1.0875216574936608,
    1.5063118868280685,
    -0.3603626597671449,
    -0.09456271157551736,
    -0.4983334753923483,
    0.5504744841573638
  ]
}