{
  "parameters": {
    "integral_band": 0,
    "dead_band": 1,
    "small_gain": 60.0,
    "large_gain": 100.0,
    "large_gain_regulations": 3,
    "valves_min": 0,
    "valves_max": 100,
    "matrix_minor": 10,
    "matrix_major": 55,
    "profiles_directions_used_for_regulation": 0,
    "profiles_to_average": 1,
    "profiles_for_first_regulation": 1,
    "profiles_for_regulation": 10,
    "phase_shift_misDx_haulDx": 0,
    "phase_shift_misDx_haulSx": 0,
    "phase_shift_misSx_haulDx": 0,
    "phase_shift_misSx_haulSx": 0,
    "revert_regulation": 0,
    "disturbation_type": 0,
    "disturbation_amount": 0.0,
    "disturbation_amplitude": 1.0,
    "disturbation_cycles": 1,
    "disturbation_frequency": 1,
    "measurer_speed_default": 2,
    "measurer_speed_control": 0,
    "measurer_speed_min": 3,
    "measurer_speed_max": 7,
    "measurer_twoSigma_for_speed_min": 2.0,
    "measurer_twoSigma_for_speed_max": 10.0
  },
  "production": {
    "line_speed": 45.0,
    "layflat": 1640.0,
    "thickness": 22.0
  },
  "status": {
    "application": {
      "measurer_active": true,
      "actuation_active": false
    },
    "measurer": {
      "is_valid": true,
      "reason_is_valid": "none",
      "direction": 1,
      "speed": 0
    },
    "hauloff": {
      "direction": 0,
      "position": 0,
      "speed": 0,
      "last_period": 0
    }
  },
  "stats": {
    "min_thickness": 19.1810339252687,
    "max_thickness": 24.651085789671086,
    "mean_thickness": 22.0,
    "sigma_perc": 11.051119960338703,
    "sigma_abs": 2.4312463912745144,
    "stdDev": 1.2156231956372572
  },
  "rawProfile": [
    20.5,
    21.4,
    21.2,
    22.0,
    21.2,
    21.1,
    21.0,
    22.3,
    21.6,
    22.2,
    21.4,
    20.3,
    20.5,
    22.5,
    21.9,
    21.9,
    23.0,
    23.7,
    22.8,
    23.5,
    22.7,
    22.8,
    23.0,
    21.9,
    21.8,
    22.3,
    20.6,
    20.8,
    21.3,
    21.7,
    22.8,
    21.4,
    21.6,
    22.5,
    22.7,
    23.3,
    23.5,
    21.4,
    22.5,
    22.5,
    21.7,
    21.0,
    22.0,
    21.3,
    20.8,
    20.7,
    20.3,
    21.3,
    22.0,
    21.3,
    20.5,
    20.7,
    21.2,
    23.2,
    22.5,
    22.3,
    22.8,
    23.0,
    23.6,
    23.7,
    22.5,
    22.9,
    23.8,
    23.3,
    22.7,
    21.3,
    21.5,
    21.5,
    20.9,
    20.2,
    19.8,
    19.4,
    20.4,
    20.7,
    21.7,
    21.0,
    21.4,
    20.8,
    22.8,
    22.5,
    22.5,
    22.5,
    23.8,
    24.1,
    23.5,
    22.5,
    22.1,
    21.2,
    21.6,
    21.5,
    21.4,
    20.4,
    20.2,
    20.5,
    20.2,
    21.1,
    21.8,
    22.5,
    22.2,
    21.9,
    22.6,
    23.3,
    24.2,
    24.5,
    23.9,
    23.0,
    24.6,
    23.8,
    24.0,
    23.9,
    25.1,
    24.2,
    24.2,
    25.6,
    23.9,
    22.9,
    22.9,
    22.5,
    23.7,
    22.6,
    21.3,
    20.4,
    20.5,
    20.5,
    21.6,
    22.2,
    21.5,
    21.9,
    21.9,
    23.3,
    22.5,
    22.2,
    23.1,
    22.6,
    22.9,
    23.8,
    24.1,
    24.0,
    23.0,
    23.1,
    22.2,
    21.4,
    22.5,
    22.5,
    21.6,
    21.4,
    20.9,
    19.1,
    18.7,
    19.4,
    23.2,
    22.1,
    22.8,
    22.5,
    24.1,
    22.3,
    23.2,
    22.9,
    21.5,
    23.2,
    24.2,
    23.9,
    22.1,
    23.2,
    24.2,
    21.4,
    21.5,
    21.4,
    21.9,
    22.8,
    21.4,
    24.0,
    22.2,
    22.9,
    23.3,
    23.6,
    24.0,
    23.5,
    21.7,
    21.0,
    20.3,
    20.5,
    22.7,
    22.3,
    20.5,
    20.2,
    22.3,
    22.1,
    21.3,
    22.2,
    22.7,
    20.4,
    23.0,
    20.9,
    20.7,
    23.2,
    21.9,
    21.5,
    21.5,
    20.6,
    21.6,
    22.8,
    22.8,
    20.9,
    23.3,
    24.1,
    22.5,
    21.2,
    21.7,
    22.2,
    20.4,
    19.4,
    20.3,
    20.6,
    20.4,
    20.6,
    20.3,
    19.5,
    19.7,
    20.1,
    20.0,
    21.7,
    21.4,
    22.6,
    20.6,
    20.9,
    20.4,
    21.0,
    22.1,
    21.4,
    21.8,
    21.4,
    21.9,
    19.8,
    19.6,
    20.7,
    20.2,
    21.0,
    21.6,
    22.5,
    22.7,
    23.7,
    22.5,
    22.3,
    22.6,
    22.7,
    23.0,
    22.3,
    21.0,
    21.4,
    21.4,
    22.6,
    21.4,
    21.1,
    22.0,
    21.5,
    21.1,
    21.3,
    21.2,
    21.6,
    20.4,
    20.3,
    20.1,
    20.6,
    20.4,
    20.8,
    20.9,
    21.3,
    20.9,
    20.6,
    21.0,
    21.7,
    20.4,
    19.7,
    20.3,
    20.7,
    19.5,
    19.6,
    21.7,
    20.9,
    19.5,
    21.1,
    20.2,
    21.4,
    21.0,
    21.3,
    21.3,
    20.9,
    19.8,
    21.4,
    20.6,
    20.3,
    18.6,
    19.5,
    17.7,
    17.5,
    17.5,
    17.7,
    17.9,
    19.8,
    20.1,
    19.5,
    19.1,
    19.5,
    19.6,
    20.5,
    20.2,
    19.8,
    20.1,
    20.2,
    20.0,
    20.6,
    19.2,
    19.1,
    20.3,
    19.7,
    19.9,
    20.7,
    20.5,
    19.4,
    18.1,
    19.4,
    18.8,
    19.4,
    19.5,
    19.7,
    20.3,
    19.8,
    20.2,
    20.0,
    20.5,
    21.0,
    21.1,
    20.7,
    20.2,
    20.6,
    19.2,
    18.7,
    19.4,
    19.0,
    19.8,
    19.8,
    19.5,
    20.6,
    20.6,
    19.4,
    20.0,
    21.4,
    21.5,
    22.0,
    22.1,
    22.5,
    22.8,
    20.8,
    20.7,
    20.3,
    21.0,
    20.6,
    20.8,
    20.8
  ],
  "zonesProfile": [
    22.873831110881177,
    22.674082025945136,
    22.120930713814563,
    21.30144728843593,
    21.321934374070388,
    20.94292328983277,
    21.091454660682647,
    21.46534397351165,
    19.1810339252687,
    19.529314381054625,
    20.52293803432622,
    20.302701863755708,
    19.94929963656117,
    20.40513729192804,
    20.96853214687585,
    19.96466495078703,
    21.37827385956517,
    21.946790485921603,
    21.50631814478058,
    22.10556539958871,
    22.18239197071795,
    23.524296079775468,
    22.03386059986808,
    23.07870196722584,
    22.325801570159214,
    21.562657630275368,
    22.489698255234945,
    23.821358821475226,
    21.890451000426815,
    21.173403003220503,
    23.19650270962402,
    22.674082025945136,
    21.27583843139284,
    23.514052536958243,
    24.543528590090148,
    24.651085789671086,
    22.2284879133955,
    22.546037740729723,
    23.61648796513057,
    23.23235510948433,
    20.94804506124138,
    23.426982423011765,
    23.54990493681855,
    22.750908597074382,
    23.70355807907705,
    22.213122599169655,
    22.064591228319777,
    22.31555802734198,
    22.238731456212737,
    22.858465796655324,
    20.77390483334843,
    21.122185289134343,
    21.695823686899395,
    21.224620717306678
  ],
  "actuators": {
    "values": [
      80,
      80,
      80,
      80,
      80,
      80,
      80,
      80,
      80,
      80,
      80,
      80,
      80,
      80,
      80,
      80,
      80,
      80,
      80,
      80,
      80,
      50,
      50,
      50,
      50,
      50,
      50,
      50,
      50,
      50,
      50,
      50,
      50,
      50,
      50,
      50,
      50,
      50,
      50,
      50,
      50,
      50,
      50,
      50,
      50,
      50,
      50,
      50,
      50,
      50,
      50,
      50,
      50,
      50
    ],
    "forced": [
      false,
      false,
      false,
      false,
      false,
      false,
      false,
      false,
      false,
      false,
      false,
      false,
      false,
      false,
      false,
      false,
      false,
      false,
      false,
      false,
      false,
      false,
      false,
      false,
      false,
      false,
      false,
      false,
      false,
      false,
      false,
      false,
      false,
      false,
      false,
      false,
      false,
      false,
      false,
      false,
      false,
      false,
      false,
      false,
      false,
      false,
      false,
      false,
      false,
      false,
      false,
      false,
      false,
      false
    ]
  },
  "old_actuators": {
    "values": [
      80,
      80,
      80,
      80,
      80,
      80,
      80,
      80,
      80,
      80,
      80,
      80,
      80,
      80,
      80,
      80,
      80,
      80,
      80,
      80,
      80,
      50,
      50,
      50,
      50,
      50,
      50,
      50,
      50,
      50,
      50,
      50,
      50,
      50,
      50,
      50,
      50,
      50,
      50,
      50,
      50,
      50,
      50,
      50,
      50,
      50,
      50,
      50,
      50,
      50,
      50,
      50,
      50,
      50
    ],
    "forced": [
      false,
      false,
      false,
      false,
      false,
      false,
      false,
      false,
      false,
      false,
      false,
      false,
      false,
      false,
      false,
      false,
      false,
      false,
      false,
      false,
      false,
      false,
      false,
      false,
      false,
      false,
      false,
      false,
      false,
      false,
      false,
      false,
      false,
      false,
      false,
      false,
      false,
      false,
      false,
      false,
      false,
      false,
      false,
      false,
      false,
      false,
      false,
      false,
      false,
      false,
      false,
      false,
      false,
      false
    ]
  },
  "average_zones_profile": [],
  "thickness_difference ": [],
  "dynamic_gain": [],
  "value_map": {
    "next": "-0.05",
    "prev": "-0.05",
    "default": "-0.05"
  },
  "actuation_variation": []
}