{
  "parameters": {
    "integral_band": 0,
    "dead_band": 1,
    "small_gain": 50.0,
    "large_gain": 80.0,
    "large_gain_regulations": 3,
    "valves_min": 0,
    "valves_max": 100,
    "matrix_minor": 10,
    "matrix_major": 55,
    "profiles_directions_used_for_regulation": 0,
    "profiles_to_average": 2,
    "profiles_for_first_regulation": 1,
    "profiles_for_regulation": 10,
    "phase_shift_misDx_haulDx": 0,
    "phase_shift_misDx_haulSx": 0,
    "phase_shift_misSx_haulDx": 0,
    "phase_shift_misSx_haulSx": 0,
    "revert_regulation": 0,
    "disturbation_type": 0,
    "disturbation_amount": 0.0,
    "disturbation_amplitude": 1.0,
    "disturbation_cycles": 1,
    "disturbation_frequency": 1,
    "measurer_speed_default": 2,
    "measurer_speed_control": 0,
    "measurer_speed_min": 3,
    "measurer_speed_max": 7,
    "measurer_twoSigma_for_speed_min": 2.0,
    "measurer_twoSigma_for_speed_max": 10.0
  },
  "production": {
    "line_speed": 45.0,
    "layflat": 1640.0,
    "thickness": 22.0
  },
  "status": {
    "application": {
      "measurer_active": true,
      "actuation_active": true
    },
    "measurer": {
      "is_valid": true,
      "reason_is_valid": "none",
      "direction": -1,
      "speed": 0
    },
    "hauloff": {
      "direction": 0,
      "position": 0,
      "speed": 0,
      "last_period": 0
    }
  },
  "stats": {
    "min_thickness": 19.818258463970494,
    "max_thickness": 24.168989592939,
    "mean_thickness": 21.999999999999996,
    "sigma_perc": 7.390673956010809,
    "sigma_abs": 1.6259482703223778,
    "stdDev": 0.8129741351611889
  },
  "rawProfile": [
    21.2,
    20.8,
    20.5,
    20.3,
    20.4,
    20.0,
    21.0,
    20.5,
    22.5,
    20.7,
    22.0,
    20.9,
    21.3,
    21.3,
    19.8,
    21.4,
    21.4,
    19.9,
    20.0,
    20.0,
    21.3,
    22.5,
    21.0,
    21.1,
    20.2,
    20.7,
    21.4,
    21.1,
    20.4,
    19.9,
    21.0,
    20.1,
    19.9,
    20.7,
    20.0,
    19.7,
    19.3,
    20.4,
    19.9,
    21.1,
    20.7,
    21.1,
    21.5,
    20.7,
    19.6,
    20.4,
    21.4,
    21.2,
    21.4,
    21.5,
    22.0,
    21.8,
    20.7,
    20.4,
    20.7,
    21.0,
    20.4,
    20.7,
    21.6,
    21.9,
    22.5,
    22.7,
    20.7,
    21.4,
    21.7,
    20.8,
    20.5,
    20.0,
    21.1,
    21.9,
    21.6,
    20.7,
    21.4,
    21.4,
    22.0,
    21.9,
    21.6,
    21.7,
    20.9,
    19.5,
    20.6,
    20.0,
    20.5,
    20.0,
    21.3,
    22.0,
    21.0,
    21.3,
    21.3,
    21.4,
    20.5,
    21.1,
    20.4,
    19.5,
    21.2,
    21.0,
    21.7,
    23.6,
    23.5,
    23.2,
    21.5,
    21.6,
    22.5,
    22.5,
    21.5,
    22.5,
    20.7,
    19.6,
    20.4,
    20.1,
    21.3,
    21.4,
    21.4,
    21.1,
    22.6,
    21.4,
    20.6,
    20.2,
    20.9,
    20.7,
    20.5,
    20.9,
    20.3,
    20.7,
    21.5,
    22.5,
    21.7,
    21.9,
    22.0,
    19.8,
    21.4,
    20.3,
    19.5,
    21.3,
    21.6,
    20.8,
    20.0,
    21.2,
    21.1,
    22.7,
    22.7,
    22.3,
    20.8,
    20.7,
    19.5,
    21.1,
    21.2,
    20.1,
    19.5,
    19.8,
    20.7,
    21.6,
    21.0,
    20.0,
    20.4,
    20.9,
    21.1,
    20.5,
    20.7,
    20.2,
    19.7,
    20.5,
    20.3,
    21.3,
    20.4,
    21.1,
    21.1,
    21.0,
    20.9,
    21.2,
    21.1,
    19.7,
    21.9,
    21.3,
    22.3,
    21.1,
    21.9,
    21.4,
    21.6,
    21.5,
    20.9,
    19.3,
    18.8,
    18.3,
    19.2,
    17.6,
    18.8,
    19.9,
    22.0,
    22.9,
    23.1,
    22.5,
    21.8,
    22.5,
    22.3,
    21.6,
    21.8,
    21.7,
    21.8,
    21.3,
    20.4,
    19.4,
    21.3,
    20.3,
    19.0,
    20.0,
    21.0,
    18.7,
    19.1,
    20.6,
    20.4,
    18.9,
    18.2,
    17.6,
    19.0,
    19.4,
    18.9,
    18.7,
    19.5,
    20.5,
    21.2,
    22.2,
    21.4,
    20.8,
    21.0,
    21.4,
    21.6,
    21.4,
    23.5,
    22.8,
    23.1,
    22.5,
    21.2,
    21.8,
    22.5,
    24.1,
    23.5,
    23.3,
    23.1,
    23.4,
    22.0,
    22.3,
    21.2,
    20.1,
    20.7,
    20.6,
    19.5,
    19.2,
    20.8,
    20.9,
    22.2,
    21.5,
    20.4,
    22.5,
    22.2,
    22.5,
    21.7,
    21.7,
    21.9,
    21.6,
    21.0,
    21.5,
    21.3,
    21.3,
    21.7,
    21.5,
    21.7,
    21.6,
    21.4,
    22.1,
    22.5,
    20.3,
    19.8,
    21.4,
    21.4,
    20.4,
    21.2,
    21.7,
    21.4,
    21.4,
    20.9,
    20.7,
    20.6,
    22.0,
    21.0,
    21.0,
    20.6,
    20.4,
    20.4,
    21.6,
    21.3,
    22.8,
    21.4,
    22.9,
    21.8,
    21.4,
    21.3,
    21.6,
    21.1,
    20.5,
    20.3,
    21.4,
    21.5,
    20.7,
    21.4,
    20.6,
    21.2,
    20.4,
    20.3,
    20.5,
    20.4,
    20.9,
    21.6,
    21.3,
    20.7,
    20.3,
    20.7,
    21.7,
    22.0,
    23.7,
    23.8,
    23.2,
    24.1,
    22.1,
    22.1,
    22.0,
    20.6,
    21.2,
    23.2,
    23.7,
    23.3,
    22.9,
    21.9,
    21.6,
    19.2,
    18.6,
    19.1,
    20.3,
    20.0,
    20.6,
    19.6,
    19.5,
    20.4,
    21.1,
    20.3,
    23.0,
    21.1,
    22.6,
    21.6,
    21.4,
    21.2,
    21.7,
    20.6,
    20.3,
    20.6,
    21.5,
    21.9,
    21.0,
    21.3,
    21.3
  ],
  "zonesProfile": [
    22.77091292319852,
    22.843946779080486,
    19.818258463970494,
    22.536161243577915,
    21.899723356606497,
    21.498037149255698,
    21.461520221314704,
    21.351969437491764,
    22.103174812277693,
    22.160558556184952,
    21.790172572783558,
    22.045791068370434,
    21.983190620471596,
    21.618021341061773,
    22.833513371097343,
    23.036964826768532,
    21.831906204716105,
    21.65975497299433,
    22.202292188117493,
    22.01449084442101,
    22.452693979712812,
    21.894506652614933,
    22.306626267948882,
    21.63888815702805,
    21.00245027005664,
    21.35196943749176,
    22.07709129231984,
    21.393703069424316,
    22.223159004083772,
    21.471953629297843,
    22.08752470030299,
    22.36401001185614,
    21.591937821103937,
    20.68944803056251,
    23.51690159399287,
    23.636885785798974,
    22.426610459754965,
    21.638888157028056,
    21.91537346858121,
    22.374443419839285,
    22.2857594519826,
    21.899723356606504,
    22.18664207614279,
    22.233592412066916,
    22.343143195889862,
    22.943064154920293,
    21.753655644842567,
    21.894506652614933,
    24.168989592939,
    23.31345013832169,
    22.285759451982603,
    19.99040969569226,
    20.15212751943089,
    21.033750494006057
  ],
  "actuators": {
    "values": [
      38,
      30,
      100,
      6,
      33,
      44,
      2,
      3,
      53,
      22,
      14,
      0,
      37,
      51,
      0,
      0,
      67,
      64,
      17,
      45,
      85,
      52,
      44,
      53,
      76,
      61,
      49,
      71,
      39,
      49,
      55,
      62,
      29,
      100,
      9,
      68,
      100,
      100,
      41,
      49,
      84,
      94,
      95,
      40,
      7,
      46,
      73,
      19,
      8,
      77,
      37,
      36,
      64,
      23
    ],
    "forced": [
      false,
      false,
      false,
      false,
      false,
      false,
      false,
      false,
      false,
      false,
      false,
      false,
      false,
      false,
      false,
      false,
      false,
      false,
      false,
      false,
      false,
      false,
      false,
      false,
      false,
      false,
      false,
      false,
      false,
      false,
      false,
      false,
      false,
      false,
      false,
      false,
      false,
      false,
      false,
      false,
      false,
      false,
      false,
      false,
      false,
      false,
      false,
      false,
      false,
      false,
      false,
      false,
      false,
      false
    ]
  },
  "old_actuators": {
    "values": [
      39,
      30,
      100,
      6,
      33,
      44,
      2,
      2,
      53,
      23,
      14,
      0,
      37,
      51,
      0,
      0,
      67,
      64,
      18,
      45,
      85,
      52,
      44,
      53,
      75,
      61,
      49,
      70,
      40,
      49,
      55,
      62,
      28,
      100,
      11,
      70,
      100,
      100,
      40,
      49,
      84,
      94,
      95,
      40,
      8,
      47,
      74,
      19,
      10,
      79,
      37,
      34,
      62,
      22
    ],
    "forced": [
      false,
      false,
      false,
      false,
      false,
      false,
      false,
      false,
      false,
      false,
      false,
      false,
      false,
      false,
      false,
      false,
      false,
      false,
      false,
      false,
      false,
      false,
      false,
      false,
      false,
      false,
      false,
      false,
      false,
      false,
      false,
      false,
      false,
      false,
      false,
      false,
      false,
      false,
      false,
      false,
      false,
      false,
      false,
      false,
      false,
      false,
      false,
      false,
      false,
      false,
      false,
      false,
      false,
      false
    ]
  },
  "average_zones_profile": [
    22.408692011991356,
    21.914567057852757,
    19.894607012990186,
    22.15016020354905,
    21.92343123973223,
    21.814078115725728,
    21.521349712748552,
    21.39338233710197,
    22.495676863007855,
    22.32047678027081,
    22.01242581587188,
    22.362425014289776,
    22.52456074735459,
    21.87668421104788,
    22.615130197021223,
    22.993939863282606,
    21.881680665529704,
    21.709343068838145,
    22.540007552089534,
    22.155952944719942,
    22.273108535020505,
    22.090732849978682,
    22.343844647189655,
    21.57866568757589,
    21.500934690648418,
    21.80639424532154,
    22.25260315414714,
    21.47698513912691,
    22.349163004801106,
    21.858544342967246,
    22.33885384013116,
    21.888946626607705,
    21.51075252948894,
    20.87652767488044,
    23.134576268968555,
    23.301742341055167,
    21.977754837777567,
    21.589121685252337,
    21.575752374720455,
    21.849725340474393,
    21.797541358288715,
    21.83978325832068,
    22.01461061111815,
    22.343923711116233,
    22.351647113483708,
    22.931305530843826,
    21.92881736642361,
    21.826718908648445,
    23.612232234750067,
    23.045920538228522,
    21.86027734434738,
    20.971388408694228,
    20.43534345765329,
    20.95718892693332
  ],
  "thickness_difference ": [
    1.8576909635970715,
    0.0,
    -9.569968122771884,
    0.0,
    0.0,
    0.0,
    -2.175683123870216,
    -2.7573530131728705,
    2.2530766500357045,
    1.4567126375945867,
    0.0,
    1.6473864285898931,
    2.3843670334299625,
    0.0,
    2.7960463500964683,
    4.517908469466389,
    0.0,
    -1.3211678689175248,
    2.4545797822251556,
    0.0,
    1.2414024319113859,
    0.0,
    1.5629302144984338,
    -1.9151559655641426,
    -2.2684786788708293,
    0.0,
    1.148196155214265,
    -2.377340276695864,
    1.5871045672777548,
    0.0,
    1.5402447278689153,
    0.0,
    -2.223852138686637,
    -5.106692386907096,
    5.1571648589479775,
    5.917010641159851,
    0.0,
    -1.8676287033984675,
    -1.9283982967252038,
    0.0,
    0.0,
    0.0,
    0.0,
    1.5632895959828763,
    1.598395970380489,
    4.233206958381026,
    0.0,
    0.0,
    7.328328339773033,
    4.754184264675099,
    0.0,
    -4.675507233208054,
    -7.11207519248505,
    -4.740050332121274
  ],
  "dynamic_gain": [
    0.5,
    0.5,
    0.5,
    0.5,
    0.5,
    0.5,
    0.5,
    0.5,
    0.5,
    0.5,
    0.5,
    0.5,
    0.5,
    0.5,
    0.5,
    0.5,
    0.5,
    0.5,
    0.5,
    0.5,
    0.5,
    0.5,
    0.5,
    0.5,
    0.5,
    0.5,
    0.5,
    0.5,
    0.5,
    0.5,
    0.5,
    0.5,
    0.5,
    0.5,
    0.5,
    0.5,
    0.5,
    0.5,
    0.5,
    0.5,
    0.5,
    0.5,
    0.5,
    0.5,
    0.5,
    0.5,
    0.5,
    0.5,
    0.5,
    0.5,
    0.5,
    0.5,
    0.5,
    0.5
  ],
  "value_map": {
    "next": "-0.05",
    "prev": "-0.05",
    "default": "-0.05"
  },
  "actuation_variation": [
    0.39236375668616286,
    -0.19280692897937032,
    -2.6317412337622685,
    -0.23924920306929712,
    0.0,
    -0.054392078096755406,
    -0.6672466843936313,
    -0.7563372404684022,
    0.5870800693703617,
    0.456922891589404,
    0.07760247665461201,
    0.5126404436979697,
    0.6968855949079871,
    0.12951033458816077,
    0.8818604580131886,
    1.3123259878556686,
    0.0799185150137216,
    -0.3019566693966904,
    0.6419802433889797,
    0.09239955535341354,
    0.34138566877563115,
    0.07010831616024549,
    0.38192690984796573,
    -0.5443066021394491,
    -0.6717105358285818,
    -0.02800706309141411,
    0.2563204357665263,
    -0.5853860580290622,
    0.377020249083986,
    0.07818373237866677,
    0.4235673001639517,
    -0.017090185270443037,
    -0.7392266478115026,
    -1.331007588392918,
    1.4384782925670128,
    1.7561070477926586,
    0.1012345484440346,
    -0.5618078508527087,
    -0.5770002491843927,
    -0.0482099574181301,
    0.0,
    0.0,
    0.03908223989957191,
    0.4698645381548032,
    0.5844713057137321,
    1.2040918128142946,
    0.10583017395952565,
    0.18320820849432584,
    2.1341449000544617,
    1.4906088812799783,
    0.0019669257866761214,
    -1.4635663689443414,
    -2.1912096170666224,
    -1.4348734470555498
  ]
}