{
  "parameters": {
    "integral_band": 0,
    "dead_band": 1,
    "small_gain": 50.0,
    "large_gain": 80.0,
    "large_gain_regulations": 3,
    "valves_min": 0,
    "valves_max": 100,
    "matrix_minor": 10,
    "matrix_major": 55,
    "profiles_directions_used_for_regulation": 0,
    "profiles_to_average": 2,
    "profiles_for_first_regulation": 1,
    "profiles_for_regulation": 10,
    "phase_shift_misDx_haulDx": 0,
    "phase_shift_misDx_haulSx": 0,
    "phase_shift_misSx_haulDx": 0,
    "phase_shift_misSx_haulSx": 0,
    "revert_regulation": 0,
    "disturbation_type": 0,
    "disturbation_amount": 0.0,
    "disturbation_amplitude": 1.0,
    "disturbation_cycles": 1,
    "disturbation_frequency": 1,
    "measurer_speed_default": 2,
    "measurer_speed_control": 0,
    "measurer_speed_min": 3,
    "measurer_speed_max": 7,
    "measurer_twoSigma_for_speed_min": 2.0,
    "measurer_twoSigma_for_speed_max": 10.0
  },
  "production": {
    "line_speed": 45.0,
    "layflat": 1640.0,
    "thickness": 22.0
  },
  "status": {
    "application": {
      "measurer_active": true,
      "actuation_active": true
    },
    "measurer": {
      "is_valid": true,
      "reason_is_valid": "none",
      "direction": -1,
      "speed": 0
    },
    "hauloff": {
      "direction": 0,
      "position": 0,
      "speed": 0,
      "last_period": 0
    }
  },
  "stats": {
    "min_thickness": 19.646725855852367,
    "max_thickness": 23.50544721436049,
    "mean_thickness": 22.000000000000004,
    "sigma_perc": 6.571852722216029,
    "sigma_abs": 1.4458075988875263,
    "stdDev": 0.7229037994437632
  },
  "rawProfile": [
    20.2,
    21.1,
    21.2,
    22.9,
    23.2,
    23.1,
    22.5,
    22.1,
    21.4,
    21.3,
    21.4,
    21.0,
    21.0,
    23.2,
    22.9,
    23.2,
    22.9,
    22.3,
    21.5,
    22.9,
    22.6,
    22.5,
    21.5,
    21.2,
    21.6,
    21.7,
    21.4,
    22.0,
    23.6,
    24.1,
    23.1,
    23.1,
    22.5,
    22.7,
    21.3,
    22.6,
    22.0,
    21.6,
    22.2,
    20.9,
    21.2,
    21.4,
    20.6,
    21.1,
    21.4,
    22.2,
    22.5,
    22.2,
    22.3,
    22.7,
    21.0,
    21.2,
    22.3,
    22.7,
    21.7,
    22.0,
    20.9,
    21.1,
    21.6,
    22.2,
    22.7,
    22.0,
    21.4,
    22.2,
    20.0,
    20.1,
    20.5,
    21.3,
    21.4,
    22.5,
    23.5,
    22.5,
    22.3,
    21.2,
    22.0,
    21.5,
    20.7,
    21.6,
    21.7,
    22.5,
    22.6,
    21.6,
    21.2,
    23.0,
    21.4,
    21.8,
    21.7,
    21.1,
    21.9,
    21.9,
    21.3,
    21.5,
    22.2,
    21.5,
    21.5,
    22.0,
    21.9,
    21.6,
    21.2,
    21.7,
    21.3,
    21.1,
    21.2,
    20.5,
    21.6,
    21.4,
    21.2,
    20.5,
    20.4,
    21.8,
    21.6,
    20.3,
    20.1,
    21.3,
    20.2,
    19.7,
    21.5,
    21.2,
    21.4,
    21.1,
    22.5,
    23.1,
    21.5,
    20.3,
    20.1,
    21.3,
    21.4,
    22.3,
    21.6,
    21.7,
    21.0,
    20.4,
    21.6,
    22.5,
    21.6,
    20.7,
    22.3,
    21.1,
    21.0,
    20.0,
    20.8,
    21.6,
    20.2,
    21.9,
    21.8,
    21.5,
    21.0,
    19.9,
    20.4,
    21.0,
    21.0,
    21.3,
    19.7,
    20.1,
    20.5,
    19.7,
    19.4,
    20.4,
    20.7,
    22.0,
    21.9,
    21.4,
    21.2,
    21.4,
    22.3,
    22.1,
    20.6,
    21.8,
    22.3,
    22.5,
    23.0,
    21.4,
    21.9,
    21.4,
    21.8,
    21.0,
    21.4,
    20.6,
    19.9,
    19.8,
    18.5,
    19.5,
    19.5,
    18.8,
    18.9,
    19.1,
    20.5,
    23.3,
    22.6,
    22.3,
    23.2,
    24.5,
    22.8,
    22.0,
    22.1,
    22.6,
    22.6,
    21.8,
    22.1,
    21.6,
    21.3,
    21.2,
    20.5,
    20.3,
    21.7,
    22.5,
    20.1,
    20.4,
    20.5,
    19.6,
    19.6,
    21.0,
    21.5,
    21.6,
    21.7,
    21.3,
    22.3,
    21.8,
    20.8,
    22.2,
    21.5,
    20.6,
    20.4,
    21.0,
    20.3,
    19.9,
    20.3,
    20.9,
    21.4,
    22.1,
    22.5,
    22.5,
    21.4,
    21.6,
    23.8,
    22.7,
    21.0,
    20.4,
    20.8,
    20.5,
    20.4,
    20.8,
    20.7,
    20.7,
    20.6,
    20.7,
    21.4,
    21.0,
    21.0,
    21.3,
    21.1,
    23.1,
    22.9,
    21.2,
    21.7,
    22.8,
    22.5,
    22.5,
    21.6,
    21.4,
    21.2,
    23.3,
    23.1,
    23.2,
    23.1,
    22.0,
    21.7,
    21.4,
    21.8,
    22.5,
    21.3,
    20.6,
    21.9,
    21.4,
    21.7,
    22.5,
    22.8,
    21.4,
    21.0,
    21.1,
    21.0,
    21.7,
    20.8,
    21.1,
    21.6,
    21.4,
    20.5,
    20.4,
    21.4,
    21.4,
    20.6,
    21.9,
    22.0,
    21.4,
    20.5,
    22.5,
    20.9,
    20.6,
    20.1,
    20.8,
    21.2,
    21.1,
    22.0,
    22.3,
    22.0,
    20.4,
    20.4,
    21.7,
    21.9,
    21.3,
    20.5,
    19.7,
    20.2,
    22.3,
    23.2,
    23.2,
    23.5,
    21.2,
    22.5,
    22.0,
    20.9,
    21.2,
    21.0,
    22.3,
    21.5,
    22.3,
    21.7,
    21.8,
    21.2,
    20.5,
    20.2,
    18.9,
    19.6,
    18.6,
    19.2,
    19.4,
    20.5,
    21.0,
    21.4,
    21.6,
    21.5,
    21.8,
    22.7,
    21.7,
    22.3,
    22.1,
    22.3,
    21.4,
    21.0,
    21.9,
    22.0,
    24.0,
    24.8,
    22.7,
    21.7,
    22.3,
    21.8,
    21.3,
    22.5,
    21.9
  ],
  "zonesProfile": [
    22.640561392625912,
    23.469623541270888,
    19.646725855852367,
    21.30485015314233,
    22.553561043694017,
    22.113441631450403,
    20.895436746404062,
    21.033613771178228,
    21.7705579033071,
    21.755204900554418,
    21.990617609428913,
    21.965029271507774,
    21.38673283448998,
    21.320203155895015,
    21.683557554375213,
    22.14414763695576,
    22.154382972124225,
    22.42561935408831,
    22.12879463420308,
    22.630326057457452,
    21.81149924398093,
    22.205559647966506,
    22.533090373357116,
    21.939440933586628,
    22.374442678246034,
    23.50544721436049,
    22.318148334819526,
    23.208622494475243,
    22.021323614934285,
    22.522855038188656,
    22.512619703020203,
    23.044857131779946,
    22.563796378862488,
    20.803318729887955,
    20.823789400224868,
    22.057147288023888,
    23.101151475206454,
    21.42255650757958,
    21.893381925328573,
    21.443027177916502,
    21.750087232970184,
    21.68867522195945,
    22.22603031830342,
    22.087853293529257,
    23.085798472453767,
    22.512619703020203,
    22.200441980382276,
    21.21273213662621,
    22.046911952855424,
    22.226030318303412,
    21.069437444267827,
    22.185088977629594,
    20.956848757414804,
    21.63238087853294
  ],
  "actuators": {
    "values": [
      0,
      56,
      100,
      1,
      30,
      49,
      22,
      16,
      50,
      1,
      2,
      0,
      45,
      32,
      0,
      0,
      100,
      65,
      0,
      55,
      100,
      47,
      52,
      56,
      54,
      87,
      57,
      67,
      38,
      54,
      48,
      59,
      47,
      100,
      44,
      40,
      99,
      100,
      45,
      50,
      55,
      90,
      100,
      33,
      0,
      50,
      50,
      10,
      29,
      96,
      16,
      7,
      100,
      20
    ],
    "forced": [
      false,
      false,
      false,
      false,
      false,
      false,
      false,
      false,
      false,
      false,
      false,
      false,
      false,
      false,
      false,
      false,
      false,
      false,
      false,
      false,
      false,
      false,
      false,
      false,
      false,
      false,
      false,
      false,
      false,
      false,
      false,
      false,
      false,
      false,
      false,
      false,
      false,
      false,
      false,
      false,
      false,
      false,
      false,
      false,
      false,
      false,
      false,
      false,
      false,
      false,
      false,
      false,
      false,
      false
    ]
  },
  "old_actuators": {
    "values": [
      0,
      57,
      100,
      0,
      31,
      49,
      21,
      16,
      50,
      1,
      1,
      0,
      45,
      31,
      0,
      0,
      100,
      65,
      0,
      56,
      100,
      47,
      53,
      56,
      55,
      89,
      58,
      68,
      38,
      55,
      49,
      60,
      48,
      100,
      43,
      39,
      99,
      100,
      44,
      49,
      54,
      90,
      100,
      33,
      0,
      51,
      50,
      9,
      29,
      97,
      15,
      7,
      100,
      19
    ],
    "forced": [
      false,
      false,
      false,
      false,
      false,
      false,
      false,
      false,
      false,
      false,
      false,
      false,
      false,
      false,
      false,
      false,
      false,
      false,
      false,
      false,
      false,
      false,
      false,
      false,
      false,
      false,
      false,
      false,
      false,
      false,
      false,
      false,
      false,
      false,
      false,
      false,
      false,
      false,
      false,
      false,
      false,
      false,
      false,
      false,
      false,
      false,
      false,
      false,
      false,
      false,
      false,
      false,
      false,
      false
    ]
  },
  "average_zones_profile": [
    22.49206391264076,
    23.296008483192587,
    19.83980014219608,
    21.71331570788002,
    22.479510506087077,
    21.975772094102844,
    21.05730197245702,
    21.45391044524891,
    21.616070725231573,
    22.196382814188276,
    21.66420704246795,
    22.092404316257163,
    21.50926180258174,
    21.59462624028128,
    21.910406100474525,
    22.254172624109778,
    21.810562156966164,
    22.410381866632186,
    22.182023689582877,
    23.085250424693662,
    22.005323713189654,
    22.439612469176474,
    22.175280875752108,
    21.744353494913717,
    22.346110068820714,
    22.89613895292181,
    22.341172973041658,
    22.915354919170618,
    21.95034426445296,
    22.533787731136993,
    22.477092117032328,
    22.79478877793264,
    22.96946087096347,
    20.94934942837443,
    20.87448115178416,
    21.785154390850188,
    22.673359904736614,
    21.088761093702782,
    21.839953267781706,
    21.475515438470474,
    21.724464667060133,
    21.49518356745106,
    21.823175754121557,
    21.635457964737462,
    22.88231077874613,
    22.51835447424868,
    22.207531773368387,
    21.404209172367707,
    22.424761054771487,
    22.42921662573675,
    21.270668290363986,
    22.504165156462662,
    21.12669143785272,
    21.644980311233333
  ],
  "thickness_difference ": [
    2.2366541483670876,
    5.890947650875395,
    -9.819090262745094,
    -1.3031104187271774,
    2.1795932094867156,
    0.0,
    -4.2849910342862785,
    -2.482225248868598,
    -1.7451330671292131,
    0.0,
    -1.5263316251456807,
    0.0,
    -2.230628170082999,
    -1.8426079987214583,
    0.0,
    1.1553301095898987,
    0.0,
    1.8653721210553895,
    0.0,
    4.932956475880281,
    0.0,
    1.9982384962567001,
    0.0,
    -1.1620295685740119,
    1.5732275855486997,
    4.073358876917316,
    1.5507862410984463,
    4.160704178048262,
    0.0,
    2.4263078688045137,
    2.168600531965126,
    3.6126762633301883,
    4.406640322561228,
    -4.775684416479868,
    -5.115994764617455,
    0.0,
    3.0607268397118825,
    -4.141995028623717,
    0.0,
    -2.384020734225119,
    -1.2524333315448515,
    -2.294620147949722,
    0.0,
    -1.6570092511933543,
    4.010503539755141,
    2.356156701130371,
    0.0,
    -2.7081401256013296,
    1.930732067143123,
    1.9509846624397718,
    -3.3151441347091555,
    2.2916598021030086,
    -3.9695843733967258,
    -1.6137258580303058
  ],
  "dynamic_gain": [
    0.5,
    0.5,
    0.5,
    0.5,
    0.5,
    0.5,
    0.5,
    0.5,
    0.5,
    0.5,
    0.5,
    0.5,
    0.5,
    0.5,
    0.5,
    0.5,
    0.5,
    0.5,
    0.5,
    0.5,
    0.5,
    0.5,
    0.5,
    0.5,
    0.5,
    0.5,
    0.5,
    0.5,
    0.5,
    0.5,
    0.5,
    0.5,
    0.5,
    0.5,
    0.5,
    0.5,
    0.5,
    0.5,
    0.5,
    0.5,
    0.5,
    0.5,
    0.5,
    0.5,
    0.5,
    0.5,
    0.5,
    0.5,
    0.5,
    0.5,
    0.5,
    0.5,
    0.5,
    0.5
  ],
  "value_map": {
    "next": "-0.05",
    "prev": "-0.05",
    "default": "-0.05"
  },
  "actuation_variation": [
    0.7220104356220765,
    1.4304497011312836,
    -2.5855538914511955,
    -0.5493427914814333,
    0.5668103721406674,
    -0.05263494561998907,
    -1.2404281656504414,
    -0.8333650459742518,
    -0.5419672246822486,
    -0.08178661730687234,
    -0.41974119691506223,
    -0.093923994880717,
    -0.6594879467408613,
    -0.5624829039004761,
    -0.017181947228288988,
    0.3177157801372222,
    0.07551755576613221,
    0.5129773332902322,
    0.16995821492339178,
    1.3565630308670773,
    0.17327987430342454,
    0.5495155864705926,
    0.020905223192067206,
    -0.2802274417191358,
    0.5054208187344751,
    1.1982740368184408,
    0.6323177926762122,
    1.1829633049907333,
    0.1646753011713194,
    0.7214496772203695,
    0.7473397495937772,
    1.1578669937789607,
    1.1827508848755959,
    -1.3310470755833697,
    -1.5262906706817971,
    -0.05138169812263932,
    0.7381500052051748,
    -1.0625304618787252,
    -0.1631503940712209,
    -0.6869165352005291,
    -0.4613851882292052,
    -0.6623313739747948,
    -0.0987907349785769,
    -0.3554149555842939,
    1.1203671596810894,
    0.7482056813047306,
    -0.00879958561177397,
    -0.6964702328617876,
    0.5120224318853199,
    0.5019104804817864,
    -0.8055985254314483,
    0.44808823287568034,
    -1.074687354082282,
    -0.4870978665840751
  ]
}