{
  "parameters": {
    "integral_band": 0,
    "dead_band": 1,
    "small_gain": 50.0,
    "large_gain": 80.0,
    "large_gain_regulations": 3,
    "valves_min": 0,
    "valves_max": 100,
    "matrix_minor": 10,
    "matrix_major": 55,
    "profiles_directions_used_for_regulation": 0,
    "profiles_to_average": 2,
    "profiles_for_first_regulation": 1,
    "profiles_for_regulation": 10,
    "phase_shift_misDx_haulDx": 0,
    "phase_shift_misDx_haulSx": 0,
    "phase_shift_misSx_haulDx": 0,
    "phase_shift_misSx_haulSx": 0,
    "revert_regulation": 0,
    "disturbation_type": 0,
    "disturbation_amount": 0.0,
    "disturbation_amplitude": 1.0,
    "disturbation_cycles": 1,
    "disturbation_frequency": 1,
    "measurer_speed_default": 2,
    "measurer_speed_control": 0,
    "measurer_speed_min": 3,
    "measurer_speed_max": 7,
    "measurer_twoSigma_for_speed_min": 2.0,
    "measurer_twoSigma_for_speed_max": 10.0
  },
  "production": {
    "line_speed": 45.0,
    "layflat": 1640.0,
    "thickness": 22.0
  },
  "status": {
    "application": {
      "measurer_active": true,
      "actuation_active": true
    },
    "measurer": {
      "is_valid": true,
      "reason_is_valid": "none",
      "direction": 1,
      "speed": 0
    },
    "hauloff": {
      "direction": 0,
      "position": 0,
      "speed": 0,
      "last_period": 0
    }
  },
  "stats": {
    "min_thickness": 20.03287442853979,
    "max_thickness": 23.540174791929875,
    "mean_thickness": 21.999999999999996,
    "sigma_perc": 6.036412691057504,
    "sigma_abs": 1.3280107920326512,
    "stdDev": 0.6640053960163256
  },
  "rawProfile": [
    20.4,
    22.7,
    20.7,
    22.5,
    21.7,
    22.9,
    22.2,
    21.0,
    21.4,
    20.1,
    21.4,
    20.6,
    21.8,
    23.1,
    22.6,
    21.4,
    22.1,
    21.4,
    21.9,
    21.4,
    22.6,
    23.1,
    22.3,
    21.8,
    19.5,
    21.3,
    20.9,
    22.0,
    22.2,
    20.0,
    22.0,
    21.7,
    22.1,
    21.2,
    21.1,
    22.5,
    23.1,
    20.8,
    20.8,
    21.8,
    21.6,
    20.7,
    19.9,
    19.2,
    21.6,
    22.2,
    21.1,
    20.5,
    20.4,
    21.5,
    20.7,
    21.8,
    22.0,
    21.2,
    20.9,
    22.8,
    21.0,
    22.1,
    22.7,
    22.9,
    21.5,
    21.4,
    22.9,
    21.5,
    21.7,
    20.4,
    21.1,
    20.8,
    22.2,
    23.9,
    23.6,
    23.6,
    23.4,
    22.8,
    21.3,
    21.8,
    21.7,
    21.4,
    20.9,
    21.4,
    22.2,
    21.5,
    21.5,
    21.7,
    22.6,
    22.1,
    19.7,
    21.0,
    21.2,
    21.1,
    20.4,
    20.8,
    20.8,
    20.6,
    20.7,
    21.4,
    22.7,
    22.2,
    21.5,
    22.3,
    21.7,
    20.7,
    20.3,
    20.7,
    22.7,
    21.7,
    22.9,
    22.5,
    21.7,
    20.6,
    20.5,
    20.3,
    20.9,
    21.6,
    20.9,
    21.4,
    20.7,
    20.6,
    20.4,
    21.4,
    21.9,
    22.5,
    21.9,
    21.9,
    21.1,
    20.7,
    20.4,
    20.8,
    21.4,
    20.6,
    20.6,
    20.2,
    20.4,
    21.3,
    21.3,
    22.6,
    22.7,
    22.2,
    22.1,
    21.2,
    21.0,
    21.7,
    21.5,
    20.9,
    18.7,
    19.9,
    22.5,
    21.4,
    19.8,
    20.5,
    22.0,
    22.7,
    20.8,
    20.0,
    20.0,
    20.8,
    20.7,
    20.7,
    20.6,
    21.0,
    21.3,
    20.7,
    20.2,
    21.9,
    21.6,
    21.5,
    20.9,
    21.0,
    20.8,
    22.5,
    21.5,
    21.9,
    22.5,
    22.9,
    22.0,
    21.4,
    21.9,
    21.6,
    21.2,
    19.6,
    18.4,
    18.9,
    18.9,
    19.2,
    19.4,
    20.4,
    21.4,
    21.6,
    22.9,
    23.1,
    22.2,
    22.1,
    23.2,
    21.6,
    22.5,
    22.1,
    22.1,
    21.4,
    21.2,
    20.7,
    20.6,
    21.0,
    21.0,
    20.9,
    21.6,
    21.4,
    20.2,
    19.6,
    19.7,
    20.0,
    21.4,
    21.5,
    21.6,
    21.3,
    21.9,
    23.1,
    22.3,
    22.3,
    22.0,
    21.7,
    21.1,
    20.7,
    20.4,
    21.9,
    21.2,
    19.8,
    20.5,
    21.0,
    20.7,
    21.4,
    22.5,
    22.8,
    23.2,
    23.5,
    22.5,
    22.1,
    22.1,
    21.7,
    22.1,
    21.2,
    21.5,
    21.4,
    21.5,
    20.6,
    20.3,
    20.2,
    21.1,
    21.1,
    21.9,
    21.0,
    21.4,
    22.2,
    21.7,
    21.7,
    21.5,
    22.5,
    22.1,
    22.5,
    21.5,
    21.0,
    22.1,
    21.8,
    21.8,
    22.5,
    22.1,
    22.2,
    21.1,
    19.8,
    20.9,
    19.8,
    21.2,
    20.6,
    20.2,
    22.1,
    20.7,
    21.0,
    19.2,
    20.4,
    21.3,
    21.1,
    21.0,
    20.1,
    20.2,
    21.6,
    20.4,
    20.5,
    20.8,
    21.7,
    21.6,
    21.0,
    20.5,
    20.9,
    20.6,
    21.0,
    20.4,
    21.3,
    19.9,
    19.6,
    21.9,
    21.9,
    20.9,
    20.4,
    21.4,
    22.3,
    21.2,
    20.6,
    21.0,
    20.0,
    21.0,
    20.1,
    18.6,
    19.3,
    20.9,
    21.7,
    21.8,
    21.7,
    21.5,
    21.5,
    22.2,
    20.6,
    20.3,
    20.1,
    20.7,
    21.1,
    21.6,
    21.3,
    20.9,
    21.4,
    21.6,
    20.9,
    20.0,
    19.8,
    18.5,
    18.2,
    19.5,
    20.0,
    21.0,
    21.1,
    21.4,
    21.2,
    21.2,
    22.5,
    23.6,
    24.0,
    22.9,
    22.2,
    22.0,
    21.9,
    20.6,
    21.4,
    22.5,
    22.5,
    22.3,
    21.5,
    21.1,
    21.4,
    22.9,
    21.5,
    21.7,
    22.1
  ],
  "zonesProfile": [
    22.343566432655606,
    23.12239342511429,
    20.03287442853979,
    22.121781262617716,
    22.405459968480137,
    21.83810255675528,
    21.21916719850997,
    21.87420711931959,
    21.461583547156046,
    22.637560727822134,
    21.337796475506984,
    22.21977936100655,
    21.6317907706735,
    21.86904932466754,
    22.137254646573837,
    22.36419761126379,
    21.4667413418081,
    22.39514437917606,
    22.235252744962672,
    23.540174791929875,
    22.199148182398375,
    22.67366529038644,
    21.8174713781471,
    21.549266056240807,
    22.317777459395394,
    22.286830691483125,
    22.36419761126379,
    22.62208734386599,
    21.879364913971635,
    22.54472042408533,
    22.441564531044456,
    22.544720424085337,
    23.375125363064452,
    21.095380126860903,
    20.92517290334345,
    21.51316149367649,
    22.245568334266775,
    20.754965679825986,
    21.78652461023484,
    21.508003699024442,
    21.698842101150085,
    21.301691912942673,
    21.4203211899397,
    21.183062635945664,
    22.678823085038495,
    22.52408924547716,
    22.214621566354502,
    21.5956862081092,
    22.802610156687546,
    22.63240293317009,
    21.47189913646014,
    22.823241335295727,
    21.296534118290637,
    21.657579743933727
  ],
  "actuators": {
    "values": [
      0,
      57,
      100,
      0,
      31,
      49,
      21,
      16,
      50,
      1,
      1,
      0,
      45,
      31,
      0,
      0,
      100,
      65,
      0,
      56,
      100,
      47,
      53,
      56,
      55,
      89,
      58,
      68,
      38,
      55,
      49,
      60,
      48,
      100,
      43,
      39,
      99,
      100,
      44,
      49,
      54,
      90,
      100,
      33,
      0,
      51,
      50,
      9,
      29,
      97,
      15,
      7,
      100,
      19
    ],
    "forced": [
      false,
      false,
      false,
      false,
      false,
      false,
      false,
      false,
      false,
      false,
      false,
      false,
      false,
      false,
      false,
      false,
      false,
      false,
      false,
      false,
      false,
      false,
      false,
      false,
      false,
      false,
      false,
      false,
      false,
      false,
      false,
      false,
      false,
      false,
      false,
      false,
      false,
      false,
      false,
      false,
      false,
      false,
      false,
      false,
      false,
      false,
      false,
      false,
      false,
      false,
      false,
      false,
      false,
      false
    ]
  },
  "old_actuators": {
    "values": [
      0,
      58,
      100,
      0,
      32,
      49,
      20,
      15,
      49,
      0,
      0,
      0,
      44,
      31,
      0,
      0,
      100,
      66,
      0,
      58,
      100,
      48,
      53,
      55,
      56,
      90,
      59,
      69,
      38,
      56,
      49,
      61,
      49,
      100,
      41,
      39,
      99,
      100,
      44,
      48,
      54,
      89,
      100,
      33,
      0,
      52,
      51,
      9,
      31,
      98,
      14,
      8,
      100,
      19
    ],
    "forced": [
      false,
      false,
      false,
      false,
      false,
      false,
      false,
      false,
      false,
      false,
      false,
      false,
      false,
      false,
      false,
      false,
      false,
      false,
      false,
      false,
      false,
      false,
      false,
      false,
      false,
      false,
      false,
      false,
      false,
      false,
      false,
      false,
      false,
      false,
      false,
      false,
      false,
      false,
      false,
      false,
      false,
      false,
      false,
      false,
      false,
      false,
      false,
      false,
      false,
      false,
      false,
      false,
      false,
      false
    ]
  },
  "average_zones_profile": [
    22.18731772522225,
    22.99744562747364,
    19.92631374148444,
    22.166211751244596,
    22.410664373937287,
    21.890975147623465,
    21.47376353525126,
    21.608883614853294,
    21.44105180493208,
    22.10600034758623,
    21.402246254803877,
    21.9432856355711,
    21.405584824721075,
    21.78074727612178,
    21.886631287890523,
    22.649131701476836,
    21.956697051065483,
    22.677431744153154,
    22.1690755257923,
    23.30894958064291,
    22.00992999858812,
    22.621726987211545,
    21.957619510640477,
    21.76451421957448,
    22.68748958739952,
    22.58736025589017,
    22.525995777763065,
    22.793468558242157,
    22.04756890866559,
    22.790699742768346,
    22.0849622015185,
    22.334070692329774,
    22.739011834843186,
    21.08094220444596,
    20.98301193396705,
    21.864467198518017,
    22.122926685563613,
    20.700377777917474,
    21.7933568855302,
    20.889627570202013,
    21.70333965959516,
    21.515025892467605,
    21.279327380401874,
    21.671199120468202,
    22.806444438364185,
    22.29297112209725,
    22.263938537993724,
    21.880076238294002,
    23.322401692883247,
    22.62931445778777,
    21.179415098204295,
    22.84017358733225,
    21.207172517601194,
    21.641663173082392
  ],
  "thickness_difference ": [
    0.0,
    4.53384376124381,
    -9.425846629616187,
    0.0,
    1.8666562451694866,
    0.0,
    -2.391983930676098,
    -1.777801750666845,
    -2.540673613945091,
    0.0,
    -2.7170624781641934,
    0.0,
    -2.7018871603587513,
    0.0,
    0.0,
    2.9505986430765287,
    0.0,
    3.079235200696153,
    0.0,
    5.949770821104136,
    0.0,
    2.826031760052478,
    0.0,
    -1.0703899110250925,
    3.124952669997812,
    2.6698193449553256,
    2.390889898923021,
    3.606675264737078,
    0.0,
    3.5940897398561202,
    0.0,
    1.5185031469535204,
    3.3591447038326643,
    -4.177535434336542,
    -4.622673027422505,
    0.0,
    0.0,
    -5.907373736738754,
    0.0,
    -5.04714740817267,
    -1.3484560927492788,
    -2.2044277615108854,
    -3.275784634536937,
    -1.4945494524172627,
    3.665656538019022,
    1.3316869186238605,
    1.1997206272441991,
    0.0,
    6.010916785832941,
    2.8605202626716872,
    -3.7299313717986586,
    3.818970851510221,
    -3.6037612836309374,
    -1.6288037587163986
  ],
  "dynamic_gain": [
    0.5,
    0.5,
    0.5,
    0.5,
    0.5,
    0.5,
    0.5,
    0.5,
    0.5,
    0.5,
    0.5,
    0.5,
    0.5,
    0.5,
    0.5,
    0.5,
    0.5,
    0.5,
    0.5,
    0.5,
    0.5,
    0.5,
    0.5,
    0.5,
    0.5,
    0.5,
    0.5,
    0.5,
    0.5,
    0.5,
    0.5,
    0.5,
    0.5,
    0.5,
    0.5,
    0.5,
    0.5,
    0.5,
    0.5,
    0.5,
    0.5,
    0.5,
    0.5,
    0.5,
    0.5,
    0.5,
    0.5,
    0.5,
    0.5,
    0.5,
    0.5,
    0.5,
    0.5,
    0.5
  ],
  "value_map": {
    "next": "-0.05",
    "prev": "-0.05",
    "default": "-0.05"
  },
  "actuation_variation": [
    0.07262600006318529,
    1.0111608686016431,
    -2.4787617291133563,
    -0.1889797596111675,
    0.5133304674216088,
    -0.013133192137665284,
    -0.7022406247025982,
    -0.6122119200489122,
    -0.7431302876015713,
    -0.1314434023027321,
    -0.7471921814951532,
    -0.13547374096307363,
    -0.7430189690986567,
    -0.06754717900896878,
    0.07376496607691323,
    0.8114146268460455,
    0.15074584609431707,
    0.8467896801914422,
    0.22572515054500722,
    1.6361869758036374,
    0.21939506452891533,
    0.7771587340144315,
    0.04389104622568464,
    -0.21623340878195518,
    0.8993477200976542,
    0.8720963840857354,
    0.8144070874461409,
    1.051607945275772,
    0.18001912511482998,
    0.9883746784604331,
    0.12781482217024104,
    0.5015669830080348,
    0.8572889863694072,
    -1.1804104525322952,
    -1.3756734683996024,
    -0.11556682568556263,
    -0.14768434341846887,
    -1.6245277776031575,
    -0.2738630286227856,
    -1.4216769395662163,
    -0.5521148047481406,
    -0.7218236525976488,
    -0.9933152048458614,
    -0.40125430182769517,
    1.0039839846103962,
    0.4878483317531422,
    0.3632153454577513,
    0.18026593532692853,
    1.724515122670851,
    0.8436677075855712,
    -0.8587438493900835,
    0.8668746677795709,
    -0.9362801756786623,
    -0.5380150657377831
  ]
}