{
  "parameters": {
    "integral_band": 0,
    "dead_band": 1,
    "small_gain": 50.0,
    "large_gain": 80.0,
    "large_gain_regulations": 3,
    "valves_min": 0,
    "valves_max": 100,
    "matrix_minor": 10,
    "matrix_major": 55,
    "profiles_directions_used_for_regulation": 0,
    "profiles_to_average": 2,
    "profiles_for_first_regulation": 1,
    "profiles_for_regulation": 10,
    "phase_shift_misDx_haulDx": 0,
    "phase_shift_misDx_haulSx": 0,
    "phase_shift_misSx_haulDx": 0,
    "phase_shift_misSx_haulSx": 0,
    "revert_regulation": 0,
    "disturbation_type": 0,
    "disturbation_amount": 0.0,
    "disturbation_amplitude": 1.0,
    "disturbation_cycles": 1,
    "disturbation_frequency": 1,
    "measurer_speed_default": 2,
    "measurer_speed_control": 0,
    "measurer_speed_min": 3,
    "measurer_speed_max": 7,
    "measurer_twoSigma_for_speed_min": 2.0,
    "measurer_twoSigma_for_speed_max": 10.0
  },
  "production": {
    "line_speed": 45.0,
    "layflat": 1640.0,
    "thickness": 22.0
  },
  "status": {
    "application": {
      "measurer_active": true,
      "actuation_active": true
    },
    "measurer": {
      "is_valid": true,
      "reason_is_valid": "none",
      "direction": -1,
      "speed": 0
    },
    "hauloff": {
      "direction": 0,
      "position": 0,
      "speed": 0,
      "last_period": 0
    }
  },
  "stats": {
    "min_thickness": 20.026303428839828,
    "max_thickness": 23.73085955847816,
    "mean_thickness": 22.0,
    "sigma_perc": 6.311769727320809,
    "sigma_abs": 1.3885893400105782,
    "stdDev": 0.6942946700052891
  },
  "rawProfile": [
    20.9,
    20.4,
    21.3,
    23.2,
    21.3,
    21.3,
    22.0,
    22.5,
    21.5,
    21.6,
    22.9,
    21.7,
    21.0,
    20.6,
    22.2,
    22.5,
    21.5,
    21.5,
    22.2,
    20.8,
    21.2,
    20.9,
    20.6,
    21.6,
    21.5,
    21.1,
    20.8,
    21.3,
    23.4,
    21.6,
    23.7,
    22.5,
    22.5,
    20.4,
    20.7,
    21.3,
    21.4,
    22.5,
    20.9,
    22.0,
    21.0,
    20.8,
    22.6,
    23.4,
    22.5,
    21.5,
    22.7,
    23.1,
    23.4,
    24.1,
    24.0,
    22.6,
    21.0,
    22.0,
    22.1,
    21.6,
    22.0,
    21.2,
    20.5,
    22.3,
    22.0,
    23.1,
    21.0,
    20.7,
    21.9,
    20.4,
    21.3,
    21.4,
    20.4,
    21.7,
    22.6,
    22.7,
    22.7,
    23.4,
    22.5,
    21.6,
    21.5,
    21.5,
    20.5,
    21.1,
    21.3,
    21.9,
    21.9,
    22.3,
    22.0,
    22.0,
    21.7,
    22.1,
    20.5,
    21.9,
    22.3,
    22.8,
    21.7,
    22.2,
    21.9,
    21.3,
    21.2,
    22.0,
    21.6,
    21.0,
    22.0,
    20.6,
    21.0,
    20.7,
    21.0,
    21.4,
    22.9,
    22.2,
    21.5,
    20.0,
    21.0,
    20.7,
    19.7,
    19.9,
    20.2,
    21.1,
    21.0,
    21.4,
    23.8,
    22.5,
    22.3,
    22.6,
    21.4,
    19.9,
    20.7,
    19.8,
    20.9,
    21.2,
    20.2,
    21.4,
    21.5,
    19.9,
    20.9,
    21.4,
    20.9,
    20.1,
    20.0,
    19.8,
    19.9,
    21.6,
    20.8,
    21.9,
    22.0,
    21.4,
    19.4,
    18.7,
    22.5,
    22.7,
    22.8,
    23.2,
    23.5,
    22.7,
    21.3,
    20.5,
    21.0,
    21.0,
    20.5,
    21.2,
    21.1,
    20.5,
    22.2,
    22.3,
    21.8,
    19.5,
    21.6,
    22.1,
    21.1,
    19.9,
    19.2,
    21.1,
    21.3,
    20.6,
    21.0,
    20.5,
    20.5,
    20.8,
    21.5,
    21.5,
    21.4,
    20.0,
    20.0,
    19.8,
    18.8,
    18.8,
    18.7,
    19.5,
    20.4,
    20.3,
    22.2,
    23.1,
    22.6,
    21.4,
    20.9,
    20.2,
    20.1,
    20.3,
    20.4,
    21.2,
    21.7,
    22.2,
    21.9,
    22.5,
    21.6,
    20.3,
    21.5,
    21.6,
    19.5,
    20.1,
    19.2,
    19.5,
    20.2,
    22.2,
    22.7,
    22.2,
    22.5,
    21.7,
    21.7,
    21.9,
    21.6,
    23.6,
    22.8,
    22.9,
    21.0,
    19.6,
    21.4,
    21.3,
    21.6,
    20.7,
    20.2,
    20.4,
    19.9,
    20.4,
    20.9,
    19.5,
    21.8,
    20.1,
    19.3,
    21.8,
    22.9,
    22.7,
    21.7,
    21.2,
    20.8,
    21.4,
    21.4,
    21.5,
    20.7,
    19.8,
    19.7,
    22.5,
    22.3,
    19.7,
    19.1,
    19.5,
    21.5,
    20.2,
    20.4,
    22.2,
    21.2,
    20.9,
    20.5,
    20.5,
    21.4,
    21.3,
    21.0,
    20.4,
    19.0,
    20.4,
    20.2,
    21.4,
    22.5,
    22.5,
    21.0,
    20.9,
    20.6,
    19.5,
    19.7,
    20.1,
    18.7,
    19.9,
    20.1,
    19.7,
    19.4,
    19.5,
    19.5,
    21.1,
    21.1,
    22.9,
    22.9,
    21.2,
    21.3,
    21.1,
    20.4,
    21.0,
    19.7,
    20.2,
    20.7,
    21.8,
    21.6,
    22.2,
    21.4,
    23.5,
    22.2,
    23.3,
    23.1,
    21.5,
    20.6,
    20.6,
    21.0,
    21.0,
    20.2,
    21.5,
    21.3,
    22.5,
    21.4,
    20.6,
    21.8,
    21.4,
    21.4,
    21.5,
    21.3,
    21.2,
    21.6,
    22.7,
    22.5,
    22.1,
    21.7,
    20.7,
    21.3,
    21.2,
    21.9,
    21.4,
    21.0,
    18.9,
    20.2,
    21.6,
    19.9,
    21.3,
    22.7,
    22.6,
    21.9,
    23.5,
    23.2,
    21.9,
    22.1,
    22.3,
    21.4,
    21.5,
    19.8,
    18.9,
    21.2,
    21.4,
    20.5,
    20.3,
    19.6,
    20.4,
    20.0,
    21.4,
    23.6,
    23.1
  ],
  "zonesProfile": [
    21.60216063879755,
    22.325504931892898,
    20.026303428839828,
    21.60216063879755,
    21.230155002348525,
    22.25317050258338,
    21.540159699389385,
    23.333020197275715,
    21.576326914044145,
    21.168154062940346,
    21.57632691404414,
    21.798496946923436,
    22.206669798027242,
    21.60216063879755,
    22.005166744950674,
    22.28933771723814,
    22.620009394081727,
    22.609675904180367,
    22.366838891498357,
    22.69234382339126,
    22.211836542977913,
    22.377172381399713,
    23.73085955847816,
    22.775011742602157,
    22.072334429309528,
    23.05401596993893,
    21.819163926726162,
    22.387505871301077,
    22.537341474870825,
    22.17566932832316,
    21.953499295443876,
    21.266322217003285,
    23.12118365429779,
    21.839830906528885,
    21.8604978863316,
    22.609675904180367,
    22.18083607327383,
    21.695162047909815,
    23.05401596993894,
    21.731329262564582,
    22.29450446218882,
    20.67214654767497,
    20.527477689055885,
    21.901831845937057,
    21.35415688116486,
    21.607327383748228,
    21.157820573038986,
    21.979333020197274,
    21.948332550493184,
    21.11131986848285,
    22.227336777829965,
    22.909347111319867,
    21.35932362611554,
    22.072334429309535
  ],
  "actuators": {
    "values": [
      54,
      53,
      56,
      45,
      53,
      47,
      47,
      51,
      54,
      42,
      41,
      39,
      49,
      37,
      36,
      37,
      53,
      42,
      34,
      48,
      55,
      38,
      46,
      55,
      49,
      48,
      51,
      45,
      39,
      56,
      54,
      51,
      46,
      63,
      57,
      57,
      59,
      60,
      52,
      56,
      63,
      69,
      63,
      52,
      43,
      49,
      52,
      43,
      50,
      56,
      41,
      55,
      57,
      50
    ],
    "forced": [
      false,
      false,
      false,
      false,
      false,
      false,
      false,
      false,
      false,
      false,
      false,
      false,
      false,
      false,
      false,
      false,
      false,
      false,
      false,
      false,
      false,
      false,
      false,
      false,
      false,
      false,
      false,
      false,
      false,
      false,
      false,
      false,
      false,
      false,
      false,
      false,
      false,
      false,
      false,
      false,
      false,
      false,
      false,
      false,
      false,
      false,
      false,
      false,
      false,
      false,
      false,
      false,
      false,
      false
    ]
  },
  "old_actuators": {
    "values": [
      54,
      53,
      54,
      45,
      53,
      47,
      47,
      52,
      53,
      42,
      41,
      39,
      49,
      36,
      36,
      38,
      53,
      42,
      35,
      49,
      55,
      39,
      48,
      56,
      49,
      49,
      51,
      46,
      40,
      56,
      54,
      50,
      47,
      63,
      56,
      57,
      59,
      60,
      53,
      56,
      63,
      68,
      61,
      51,
      42,
      48,
      52,
      43,
      50,
      55,
      41,
      55,
      56,
      51
    ],
    "forced": [
      false,
      false,
      false,
      false,
      false,
      false,
      false,
      false,
      false,
      false,
      false,
      false,
      false,
      false,
      false,
      false,
      false,
      false,
      false,
      false,
      false,
      false,
      false,
      false,
      false,
      false,
      false,
      false,
      false,
      false,
      false,
      false,
      false,
      false,
      false,
      false,
      false,
      false,
      false,
      false,
      false,
      false,
      false,
      false,
      false,
      false,
      false,
      false,
      false,
      false,
      false,
      false,
      false,
      false
    ]
  },
  "average_zones_profile": [
    21.92803899013176,
    22.573416047816256,
    20.56749496817951,
    22.26640264561604,
    21.541620775966564,
    22.162446014778915,
    21.98293083297369,
    22.387432382789715,
    21.485660565025015,
    21.79172242004941,
    21.631417216618246,
    22.06524910444289,
    21.522332690579503,
    21.36583476255789,
    21.916112660518245,
    22.570949224588148,
    22.496827706821065,
    22.260011997731155,
    22.263527764184346,
    22.840125008761568,
    21.85807412383936,
    22.46130151302608,
    23.380205255104052,
    22.636796017478385,
    21.96791608414682,
    22.37286454191551,
    22.00530706589752,
    22.28166964613534,
    22.851118944397236,
    22.235615713693598,
    21.68986353982416,
    21.525868017745516,
    22.992077787817735,
    21.72152445526255,
    21.403905479079146,
    22.23918961893212,
    22.029975298178613,
    21.82097465104503,
    22.58108832990585,
    22.044679249012866,
    22.393939579921835,
    20.775893444202406,
    20.794656922138625,
    21.434983648281396,
    21.52814059222824,
    21.784865711013875,
    21.258187813073285,
    22.249367845675454,
    22.397843843865797,
    21.372885720338804,
    22.47227602378721,
    22.238062976208887,
    21.20277149861882,
    22.376555268077837
  ],
  "thickness_difference ": [
    0.0,
    2.606436580982981,
    -6.511386508274955,
    1.2109211164365454,
    -2.0835419274247093,
    0.0,
    0.0,
    1.7610562854077958,
    -2.33790652261357,
    0.0,
    -1.6753762880988823,
    0.0,
    -2.1712150428204393,
    -2.882569261100507,
    0.0,
    2.5952237481279448,
    2.25830775827757,
    1.1818727169597956,
    1.1978534735652084,
    3.818750039825309,
    0.0,
    2.0968250592094506,
    6.273660250472962,
    2.8945273521744785,
    0.0,
    1.6948388268886883,
    0.0,
    1.280316573342462,
    3.868722474532889,
    1.0709805167890802,
    -1.4097111826174569,
    -2.1551453738840176,
    4.509444490080612,
    -1.265797930624773,
    -2.7095205496402452,
    1.0872255406005429,
    0.0,
    0.0,
    2.6413105904811345,
    0.0,
    1.7906344541901573,
    -5.56412070817088,
    -5.478832172097159,
    -2.5682561441754745,
    -2.144815489871635,
    0.0,
    -3.371873576939615,
    1.133490207615702,
    1.8083811084808943,
    -2.850519453005437,
    2.1467091990327702,
    1.082104437313124,
    -3.623765915369003,
    1.7116148548992591
  ],
  "dynamic_gain": [
    0.5,
    0.5,
    0.5,
    0.5,
    0.5,
    0.5,
    0.5,
    0.5,
    0.5,
    0.5,
    0.5,
    0.5,
    0.5,
    0.5,
    0.5,
    0.5,
    0.5,
    0.5,
    0.5,
    0.5,
    0.5,
    0.5,
    0.5,
    0.5,
    0.5,
    0.5,
    0.5,
    0.5,
    0.5,
    0.5,
    0.5,
    0.5,
    0.5,
    0.5,
    0.5,
    0.5,
    0.5,
    0.5,
    0.5,
    0.5,
    0.5,
    0.5,
    0.5,
    0.5,
    0.5,
    0.5,
    0.5,
    0.5,
    0.5,
    0.5,
    0.5,
    0.5,
    0.5,
    0.5
  ],
  "value_map": {
    "next": "-0.05",
    "prev": "-0.05",
    "default": "-0.05"
  },
  "actuation_variation": [
    0.107951285897056,
    0.553985397063446,
    -1.6951973473401247,
    0.11813009612755843,
    -0.5427010021308815,
    -0.052088548185617735,
    0.0440264071351949,
    0.42584281542180463,
    -0.5988978865835369,
    -0.10033207026781131,
    -0.4607284792271927,
    -0.09616478327298304,
    -0.6691483683031336,
    -0.8469869228731505,
    -0.007183637824314054,
    0.7701442246921241,
    0.7154620451535254,
    0.41141902796001334,
    0.45442527415005995,
    1.0801025977910903,
    0.147889377475869,
    0.733468397544423,
    1.850040379164663,
    0.9528365281098057,
    0.11473415447657917,
    0.4660806773943893,
    0.07437888500577876,
    0.4488051195324993,
    1.122681107749833,
    0.3559949244148829,
    -0.41477469664717415,
    -0.515171645131526,
    1.1545736521594485,
    -0.30309633241080347,
    -0.7495824609016732,
    0.2312490099241432,
    0.027180638515013573,
    0.06603276476202836,
    0.7263604123823121,
    0.1107986261167823,
    0.3533214571980213,
    -1.622338137694667,
    -1.7099882686353778,
    -0.8968616311974754,
    -0.6540306633190867,
    -0.13791722667028128,
    -0.8989279784680017,
    0.2726224953828501,
    0.45437907369750263,
    -0.6850155918886536,
    0.5461346543417039,
    0.26065230235270326,
    -0.9266926444211663,
    0.3800999372130712
  ]
}