{
  "parameters": {
    "integral_band": 0,
    "dead_band": 1,
    "small_gain": 50.0,
    "large_gain": 80.0,
    "large_gain_regulations": 3,
    "valves_min": 0,
    "valves_max": 100,
    "matrix_minor": 10,
    "matrix_major": 55,
    "profiles_directions_used_for_regulation": 0,
    "profiles_to_average": 2,
    "profiles_for_first_regulation": 1,
    "profiles_for_regulation": 10,
    "phase_shift_misDx_haulDx": 0,
    "phase_shift_misDx_haulSx": 0,
    "phase_shift_misSx_haulDx": 0,
    "phase_shift_misSx_haulSx": 0,
    "revert_regulation": 0,
    "disturbation_type": 0,
    "disturbation_amount": 0.0,
    "disturbation_amplitude": 1.0,
    "disturbation_cycles": 1,
    "disturbation_frequency": 1,
    "measurer_speed_default": 2,
    "measurer_speed_control": 0,
    "measurer_speed_min": 3,
    "measurer_speed_max": 7,
    "measurer_twoSigma_for_speed_min": 2.0,
    "measurer_twoSigma_for_speed_max": 10.0
  },
  "production": {
    "line_speed": 45.0,
    "layflat": 1640.0,
    "thickness": 22.0
  },
  "status": {
    "application": {
      "measurer_active": true,
      "actuation_active": true
    },
    "measurer": {
      "is_valid": true,
      "reason_is_valid": "none",
      "direction": -1,
      "speed": 0
    },
    "hauloff": {
      "direction": 0,
      "position": 0,
      "speed": 0,
      "last_period": 0
    }
  },
  "stats": {
    "min_thickness": 19.793454545454544,
    "max_thickness": 23.85163636363637,
    "mean_thickness": 22.000000000000004,
    "sigma_perc": 7.625143429573167,
    "sigma_abs": 1.6775315545060965,
    "stdDev": 0.8387657772530482
  },
  "rawProfile": [
    21.9,
    21.4,
    20.5,
    21.6,
    20.2,
    22.6,
    21.8,
    20.8,
    20.9,
    20.0,
    19.6,
    22.1,
    21.5,
    21.6,
    21.7,
    21.7,
    20.9,
    21.2,
    22.6,
    22.6,
    22.0,
    23.3,
    22.8,
    21.5,
    21.5,
    22.5,
    23.1,
    22.0,
    23.0,
    21.9,
    23.3,
    23.4,
    20.5,
    20.7,
    19.6,
    21.6,
    23.9,
    23.6,
    23.2,
    22.9,
    21.8,
    20.7,
    21.3,
    20.7,
    21.4,
    20.7,
    21.4,
    22.5,
    21.8,
    21.7,
    20.5,
    20.2,
    20.1,
    20.5,
    21.4,
    22.5,
    20.5,
    22.3,
    21.4,
    21.3,
    21.5,
    20.2,
    20.3,
    22.0,
    20.2,
    22.9,
    21.1,
    20.4,
    21.2,
    21.6,
    21.5,
    21.2,
    22.1,
    20.9,
    19.4,
    20.4,
    21.3,
    20.7,
    21.8,
    22.1,
    22.7,
    22.5,
    22.5,
    22.0,
    22.7,
    21.1,
    22.2,
    21.4,
    22.5,
    23.6,
    24.0,
    23.6,
    22.3,
    21.1,
    21.6,
    21.0,
    21.5,
    21.5,
    22.2,
    21.9,
    20.8,
    18.9,
    19.1,
    21.4,
    22.5,
    23.3,
    20.3,
    23.3,
    22.1,
    24.3,
    22.3,
    20.2,
    21.4,
    20.5,
    22.3,
    21.4,
    23.3,
    22.3,
    22.1,
    23.2,
    20.6,
    20.4,
    22.5,
    22.1,
    21.4,
    21.4,
    20.9,
    19.5,
    19.4,
    20.8,
    19.6,
    22.5,
    21.4,
    20.9,
    20.5,
    21.0,
    21.0,
    21.4,
    21.1,
    21.9,
    21.6,
    20.7,
    20.1,
    20.2,
    23.2,
    23.5,
    22.5,
    20.4,
    21.1,
    19.5,
    19.8,
    19.4,
    18.3,
    18.6,
    20.8,
    18.4,
    20.9,
    20.4,
    21.2,
    21.4,
    20.1,
    18.5,
    20.6,
    20.6,
    21.1,
    22.1,
    20.5,
    21.4,
    20.6,
    21.9,
    20.7,
    22.5,
    22.5,
    21.7,
    22.3,
    21.6,
    23.1,
    20.8,
    20.2,
    19.8,
    18.5,
    21.4,
    17.5,
    17.6,
    18.6,
    19.4,
    19.5,
    18.7,
    22.2,
    22.7,
    21.9,
    21.3,
    21.9,
    20.7,
    21.4,
    19.4,
    20.7,
    19.6,
    20.5,
    20.1,
    22.1,
    22.5,
    21.4,
    20.4,
    22.9,
    22.5,
    20.5,
    19.8,
    18.9,
    19.9,
    21.0,
    21.3,
    22.1,
    22.7,
    22.2,
    21.2,
    20.2,
    21.0,
    21.4,
    21.3,
    20.4,
    20.7,
    20.9,
    21.0,
    19.1,
    19.4,
    20.1,
    20.9,
    22.5,
    20.9,
    21.1,
    20.4,
    19.1,
    19.2,
    19.8,
    20.7,
    20.0,
    20.4,
    21.9,
    21.4,
    21.1,
    21.2,
    19.6,
    19.2,
    17.5,
    18.4,
    19.5,
    19.6,
    20.2,
    20.9,
    19.5,
    20.0,
    20.4,
    21.8,
    21.2,
    20.8,
    20.3,
    18.5,
    19.5,
    20.3,
    20.2,
    21.0,
    20.8,
    22.3,
    21.7,
    20.6,
    21.2,
    20.9,
    20.3,
    21.1,
    21.4,
    20.6,
    19.9,
    20.5,
    20.9,
    21.6,
    21.3,
    21.4,
    21.4,
    19.7,
    19.0,
    19.6,
    19.4,
    19.5,
    19.5,
    20.3,
    19.1,
    21.4,
    19.9,
    19.5,
    21.0,
    21.5,
    20.7,
    20.7,
    20.1,
    19.6,
    19.9,
    20.2,
    20.8,
    22.2,
    21.6,
    20.8,
    21.0,
    20.4,
    19.7,
    19.5,
    21.0,
    21.2,
    21.7,
    20.4,
    20.6,
    19.7,
    20.4,
    19.3,
    18.8,
    19.4,
    20.0,
    19.6,
    19.6,
    19.7,
    20.3,
    19.5,
    21.0,
    20.4,
    21.6,
    22.5,
    21.6,
    21.8,
    21.3,
    20.5,
    20.3,
    21.3,
    20.8,
    20.9,
    20.0,
    18.8,
    20.6,
    19.8,
    20.2,
    19.9,
    19.8,
    21.5,
    22.2,
    22.2,
    21.8,
    21.5,
    21.9,
    21.4,
    21.4,
    22.3,
    22.5,
    21.6,
    20.4,
    19.5,
    19.5,
    20.5,
    21.4,
    22.6,
    22.3,
    22.9
  ],
  "zonesProfile": [
    21.285818181818186,
    22.322618181818182,
    19.793454545454544,
    22.3488,
    22.568727272727273,
    21.46909090909092,
    21.28581818181818,
    20.767418181818183,
    22.668218181818183,
    22.123636363636365,
    21.5424,
    22.35927272727272,
    23.291345454545457,
    23.12378181818182,
    21.919418181818187,
    22.58443636363636,
    23.85163636363637,
    23.29658181818182,
    21.935127272727282,
    22.306909090909095,
    22.176000000000002,
    22.47447272727273,
    22.11316363636364,
    22.12887272727272,
    23.34370909090909,
    23.35941818181818,
    23.406545454545462,
    22.79389090909092,
    21.89323636363637,
    22.422109090909096,
    22.338327272727277,
    22.526836363636367,
    22.558254545454545,
    20.92974545454545,
    22.018909090909094,
    21.945600000000006,
    20.41658181818182,
    21.58952727272727,
    21.52145454545455,
    21.45861818181818,
    21.563345454545452,
    20.42705454545455,
    21.987490909090905,
    21.694254545454545,
    22.10792727272728,
    21.228218181818185,
    21.107781818181817,
    20.421818181818175,
    21.521454545454535,
    21.678545454545457,
    21.19156363636364,
    22.374981818181816,
    21.584290909090917,
    22.851490909090913
  ],
  "actuators": {
    "values": [
      59,
      42,
      100,
      1,
      69,
      69,
      12,
      18,
      68,
      49,
      42,
      4,
      63,
      53,
      19,
      0,
      75,
      59,
      10,
      33,
      71,
      43,
      30,
      52,
      63,
      48,
      52,
      43,
      30,
      50,
      58,
      50,
      16,
      87,
      50,
      56,
      86,
      98,
      26,
      56,
      83,
      100,
      85,
      50,
      33,
      54,
      71,
      14,
      39,
      76,
      1,
      36,
      72,
      53
    ],
    "forced": [
      false,
      false,
      false,
      false,
      false,
      false,
      false,
      false,
      false,
      false,
      false,
      false,
      false,
      false,
      false,
      false,
      false,
      false,
      false,
      false,
      false,
      false,
      false,
      false,
      false,
      false,
      false,
      false,
      false,
      false,
      false,
      false,
      false,
      false,
      false,
      false,
      false,
      false,
      false,
      false,
      false,
      false,
      false,
      false,
      false,
      false,
      false,
      false,
      false,
      false,
      false,
      false,
      false,
      false
    ]
  },
  "old_actuators": {
    "values": [
      59,
      42,
      100,
      1,
      70,
      69,
      11,
      16,
      67,
      50,
      42,
      4,
      65,
      55,
      19,
      0,
      77,
      60,
      10,
      33,
      73,
      44,
      30,
      53,
      65,
      50,
      54,
      44,
      30,
      51,
      58,
      49,
      17,
      87,
      50,
      56,
      85,
      97,
      25,
      55,
      81,
      100,
      85,
      50,
      33,
      53,
      69,
      12,
      39,
      76,
      0,
      36,
      72,
      54
    ],
    "forced": [
      false,
      false,
      false,
      false,
      false,
      false,
      false,
      false,
      false,
      false,
      false,
      false,
      false,
      false,
      false,
      false,
      false,
      false,
      false,
      false,
      false,
      false,
      false,
      false,
      false,
      false,
      false,
      false,
      false,
      false,
      false,
      false,
      false,
      false,
      false,
      false,
      false,
      false,
      false,
      false,
      false,
      false,
      false,
      false,
      false,
      false,
      false,
      false,
      false,
      false,
      false,
      false,
      false,
      false
    ]
  },
  "average_zones_profile": [
    21.613534855520573,
    22.32988536789248,
    19.903646595528155,
    21.850704608058514,
    22.549310557528088,
    21.548894498863334,
    21.27753990688931,
    20.479185221876353,
    21.92967072681591,
    22.34239277501199,
    21.804336452728926,
    22.004403855973806,
    23.4237282134012,
    23.34515561922917,
    22.044937783735897,
    22.374842262640083,
    23.315786479217525,
    22.876773262186852,
    22.357531933762978,
    22.366309226521125,
    22.81917247004039,
    23.015291849764836,
    22.188693527096696,
    22.746121205583776,
    23.502002271680887,
    22.970702132122476,
    23.24430852095589,
    22.71398461580778,
    21.875570154351372,
    22.658324306961546,
    22.251787717185543,
    21.634983185304158,
    22.314868337461093,
    21.28964021961017,
    22.480165815005584,
    21.893938136518507,
    20.962733877296237,
    21.174142475864294,
    21.26512748846282,
    21.228500082634852,
    21.176679238802745,
    20.379327927826658,
    21.82893139490247,
    21.64584864501579,
    21.82403427659832,
    21.30343675899207,
    20.563414843896684,
    20.93930593906547,
    22.028278805896615,
    22.15891650053994,
    21.42836314653395,
    22.236255033849197,
    21.78360811519609,
    22.734970779793095
  ],
  "thickness_difference ": [
    -1.7566597476337587,
    1.4994789449658181,
    -9.528879111235659,
    0.0,
    2.496866170582218,
    -2.0504795506212115,
    -3.2839095141395025,
    -6.912794446016577,
    0.0,
    1.5563307955090493,
    0.0,
    0.0,
    6.471491879096369,
    6.11434372376896,
    0.0,
    1.7038284665458325,
    5.980847632806934,
    3.9853330099402355,
    1.6251451534680814,
    1.6650419387323854,
    3.723511227456313,
    4.614962953476526,
    0.0,
    3.3914600253808014,
    6.82728305309494,
    4.412282418738527,
    5.655947822526774,
    3.245384617308098,
    0.0,
    2.9923832134615744,
    1.1444896235706508,
    -1.6591673395265552,
    1.4312197157322388,
    -3.228908092681044,
    2.1825718863890198,
    0.0,
    -4.71484601228983,
    -3.753897836980484,
    -3.340329597896272,
    -3.5068178062052175,
    -3.74236709635116,
    -7.366691237151554,
    0.0,
    -1.6097788862918672,
    0.0,
    -3.1661965500360427,
    -6.5299325277423454,
    -4.8213366406115,
    0.0,
    0.0,
    -2.5983493339365893,
    1.0738865174963503,
    0.0,
    3.340776271786794
  ],
  "dynamic_gain": [
    0.5,
    0.5,
    0.5,
    0.5,
    0.5,
    0.5,
    0.5,
    0.5,
    0.5,
    0.5,
    0.5,
    0.5,
    0.5,
    0.5,
    0.5,
    0.5,
    0.5,
    0.5,
    0.5,
    0.5,
    0.5,
    0.5,
    0.5,
    0.5,
    0.5,
    0.5,
    0.5,
    0.5,
    0.5,
    0.5,
    0.5,
    0.5,
    0.5,
    0.5,
    0.5,
    0.5,
    0.5,
    0.5,
    0.5,
    0.5,
    0.5,
    0.5,
    0.5,
    0.5,
    0.5,
    0.5,
    0.5,
    0.5,
    0.5,
    0.5,
    0.5,
    0.5,
    0.5,
    0.5
  ],
  "value_map": {
    "next": "-0.05",
    "prev": "-0.05",
    "default": "-0.05"
  },
  "actuation_variation": [
    -0.36207505018046837,
    0.1302182383938646,
    -2.5829547819656606,
    -0.17580032351633604,
    0.6353762081445797,
    -0.5835579600097653,
    -1.127156966304308,
    -1.9831162105080464,
    -0.1339115912626882,
    0.4279909687649886,
    0.038908269887726235,
    0.16178729697740923,
    1.9325188598457257,
    1.8432318210138734,
    0.19545430475786982,
    0.6180740191202774,
    1.7869621359340586,
    1.2861163973904404,
    0.588174290920538,
    0.591602942674516,
    1.180965709855709,
    1.3622025928924528,
    0.2001605744714332,
    1.1033335833070939,
    2.072596400704092,
    1.525458437043638,
    1.7468273270960284,
    1.0338794653228964,
    0.15594419576924182,
    0.8515176242911993,
    0.34806504333030447,
    -0.3918782848872305,
    0.2713835360211757,
    -0.7976049354342556,
    0.5194845664399543,
    -0.06330685314752027,
    -1.3904300993042154,
    -1.2337012954242856,
    -1.1001085305011176,
    -1.1414423140626206,
    -1.3009886775804884,
    -2.1193992676254565,
    -0.22441175308608555,
    -0.4426891937302635,
    -0.11939938590819775,
    -1.0339523644534705,
    -1.9954197748953337,
    -1.4891158893617213,
    -0.12053341601528751,
    -0.06495873334841473,
    -0.6876989038951534,
    0.23036005896308165,
    0.1103665697320786,
    0.8747969810505245
  ]
}