{
  "parameters": {
    "integral_band": 0,
    "dead_band": 1,
    "small_gain": 60.0,
    "large_gain": 100.0,
    "large_gain_regulations": 3,
    "valves_min": 0,
    "valves_max": 100,
    "matrix_minor": 10,
    "matrix_major": 55,
    "profiles_directions_used_for_regulation": 0,
    "profiles_to_average": 1,
    "profiles_for_first_regulation": 1,
    "profiles_for_regulation": 10,
    "phase_shift_misDx_haulDx": 0,
    "phase_shift_misDx_haulSx": 0,
    "phase_shift_misSx_haulDx": 0,
    "phase_shift_misSx_haulSx": 0,
    "revert_regulation": 0,
    "disturbation_type": 0,
    "disturbation_amount": 0.0,
    "disturbation_amplitude": 1.0,
    "disturbation_cycles": 1,
    "disturbation_frequency": 1,
    "measurer_speed_default": 2,
    "measurer_speed_control": 0,
    "measurer_speed_min": 3,
    "measurer_speed_max": 7,
    "measurer_twoSigma_for_speed_min": 2.0,
    "measurer_twoSigma_for_speed_max": 10.0
  },
  "production": {
    "line_speed": 45.0,
    "layflat": 1640.0,
    "thickness": 22.0
  },
  "status": {
    "application": {
      "measurer_active": true,
      "actuation_active": true
    },
    "measurer": {
      "is_valid": true,
      "reason_is_valid": "none",
      "direction": -1,
      "speed": 0
    },
    "hauloff": {
      "direction": 0,
      "position": 0,
      "speed": 0,
      "last_period": 0
    }
  },
  "stats": {
    "min_thickness": 19.60943019505452,
    "max_thickness": 25.346797726923675,
    "mean_thickness": 21.999999999999996,
    "sigma_perc": 9.876335581343326,
    "sigma_abs": 2.172793827895532,
    "stdDev": 1.086396913947766
  },
  "rawProfile": [
    20.0,
    20.5,
    20.6,
    20.6,
    20.4,
    20.5,
    21.2,
    22.5,
    20.4,
    20.6,
    20.4,
    20.7,
    20.7,
    21.6,
    22.5,
    20.4,
    20.9,
    21.3,
    22.1,
    21.4,
    22.1,
    21.0,
    21.0,
    21.4,
    21.4,
    20.8,
    20.2,
    20.6,
    20.6,
    22.5,
    21.7,
    21.5,
    22.2,
    23.0,
    21.5,
    21.6,
    22.5,
    21.8,
    22.1,
    23.4,
    21.5,
    21.2,
    21.5,
    21.5,
    22.1,
    22.6,
    22.1,
    22.7,
    23.8,
    21.4,
    21.5,
    22.1,
    21.4,
    22.0,
    22.1,
    23.4,
    24.0,
    22.7,
    22.5,
    23.8,
    23.5,
    24.5,
    24.6,
    23.3,
    23.2,
    22.8,
    21.3,
    21.0,
    21.7,
    21.4,
    22.7,
    22.9,
    23.2,
    23.0,
    21.5,
    22.5,
    23.8,
    24.7,
    24.7,
    24.3,
    25.6,
    25.3,
    25.7,
    24.6,
    24.0,
    24.6,
    23.0,
    23.6,
    23.6,
    23.7,
    23.0,
    21.4,
    20.3,
    21.6,
    22.6,
    21.3,
    22.7,
    24.0,
    23.5,
    23.5,
    22.9,
    22.7,
    24.1,
    25.1,
    23.4,
    22.3,
    22.3,
    22.1,
    22.1,
    24.8,
    22.8,
    23.5,
    23.6,
    22.8,
    23.0,
    23.7,
    23.3,
    23.4,
    21.4,
    21.9,
    20.0,
    19.8,
    22.5,
    22.6,
    23.2,
    21.3,
    23.1,
    24.0,
    22.9,
    22.0,
    22.6,
    23.5,
    21.6,
    22.1,
    20.7,
    22.9,
    23.4,
    21.2,
    21.0,
    22.5,
    22.8,
    21.1,
    22.0,
    20.6,
    21.6,
    22.0,
    22.0,
    21.3,
    21.0,
    19.9,
    21.2,
    22.1,
    23.2,
    24.6,
    21.9,
    22.0,
    20.7,
    20.8,
    23.4,
    21.5,
    22.0,
    22.2,
    23.4,
    23.4,
    23.9,
    23.8,
    22.5,
    22.2,
    21.3,
    21.4,
    21.3,
    22.7,
    23.2,
    22.0,
    21.3,
    21.0,
    21.9,
    21.9,
    21.6,
    21.6,
    22.5,
    21.4,
    21.0,
    20.3,
    20.4,
    19.5,
    19.5,
    19.8,
    20.0,
    19.9,
    20.3,
    19.9,
    20.9,
    21.8,
    23.0,
    22.1,
    20.9,
    22.0,
    19.7,
    20.9,
    21.4,
    22.3,
    21.4,
    20.0,
    22.1,
    22.8,
    22.5,
    22.6,
    21.4,
    20.5,
    21.8,
    22.6,
    20.4,
    22.3,
    22.1,
    22.5,
    21.8,
    21.4,
    21.1,
    19.7,
    19.8,
    22.1,
    22.0,
    21.7,
    21.6,
    21.6,
    23.1,
    23.1,
    21.9,
    21.4,
    22.6,
    21.6,
    20.1,
    19.5,
    20.1,
    22.5,
    22.7,
    20.8,
    22.2,
    22.6,
    23.0,
    23.2,
    21.4,
    20.2,
    21.0,
    22.5,
    22.1,
    22.7,
    23.1,
    23.8,
    22.0,
    21.7,
    22.1,
    22.8,
    21.2,
    19.8,
    21.8,
    21.9,
    21.4,
    21.4,
    20.4,
    21.7,
    22.1,
    21.5,
    22.3,
    21.8,
    22.9,
    23.2,
    22.2,
    22.5,
    22.0,
    21.6,
    21.9,
    22.0,
    21.9,
    20.2,
    19.9,
    20.4,
    19.9,
    21.2,
    20.1,
    19.7,
    19.7,
    19.1,
    20.2,
    19.2,
    19.7,
    20.3,
    20.1,
    20.5,
    19.1,
    21.5,
    21.6,
    20.1,
    19.7,
    20.1,
    20.6,
    21.4,
    20.6,
    20.3,
    20.2,
    20.9,
    21.2,
    21.4,
    22.2,
    21.6,
    21.4,
    21.0,
    20.9,
    20.5,
    19.3,
    18.8,
    19.3,
    19.4,
    20.0,
    19.7,
    18.9,
    20.2,
    21.0,
    20.6,
    21.3,
    21.7,
    22.5,
    20.7,
    20.2,
    20.1,
    20.4,
    21.2,
    19.6,
    20.2,
    19.9,
    20.8,
    21.2,
    20.8,
    20.5,
    18.5,
    18.1,
    19.5,
    20.4,
    20.1,
    18.9,
    20.1,
    20.7,
    21.2,
    22.1,
    22.1,
    22.2,
    23.1,
    21.8,
    21.2,
    21.3,
    21.7,
    23.4,
    22.1,
    22.8,
    20.2,
    21.4,
    21.7,
    21.8,
    20.7
  ],
  "zonesProfile": [
    22.300721855321758,
    22.696052833666112,
    21.90539087697743,
    21.778682230072196,
    22.716326217170945,
    21.616495162033477,
    20.33420365535248,
    20.182153279066203,
    20.72953463369683,
    21.114728920288737,
    21.464444785747197,
    19.60943019505452,
    21.45430809399478,
    20.56227921978191,
    20.248041775456926,
    20.34940869298111,
    22.30072185532177,
    22.168944862540318,
    21.1400706496698,
    21.175549070803257,
    21.347872830594373,
    21.768545538319767,
    21.3580095223468,
    22.3159268929504,
    22.174013208416525,
    22.660574412532636,
    22.706189525418523,
    23.89218246045155,
    22.310858547074183,
    23.116725541391496,
    25.346797726923675,
    24.079711257871303,
    22.082782982644762,
    23.937797573337434,
    23.25863922592537,
    23.58301336200277,
    21.90539087697743,
    23.045768699124558,
    22.6960528336661,
    21.945937643987108,
    21.55060666564276,
    22.59975426201812,
    22.640301029027796,
    22.807556442942712,
    22.24497005068346,
    21.82429734295807,
    20.16694824143757,
    21.61142681615728,
    21.44417140224236,
    22.17401320841653,
    22.234833358931052,
    21.37321455997543,
    22.42236215635079,
    21.525264936261713
  ],
  "actuators": {
    "values": [
      43,
      42,
      45,
      55,
      40,
      50,
      63,
      65,
      70,
      63,
      61,
      69,
      65,
      66,
      65,
      64,
      50,
      51,
      55,
      59,
      51,
      62,
      57,
      54,
      53,
      47,
      41,
      35,
      47,
      47,
      30,
      34,
      50,
      39,
      33,
      34,
      43,
      38,
      34,
      44,
      54,
      41,
      36,
      41,
      46,
      51,
      60,
      55,
      56,
      49,
      50,
      50,
      45,
      52
    ],
    "forced": [
      false,
      false,
      false,
      false,
      false,
      false,
      false,
      false,
      false,
      false,
      false,
      false,
      false,
      false,
      false,
      false,
      false,
      false,
      false,
      false,
      false,
      false,
      false,
      false,
      false,
      false,
      false,
      false,
      false,
      false,
      false,
      false,
      false,
      false,
      false,
      false,
      false,
      false,
      false,
      false,
      false,
      false,
      false,
      false,
      false,
      false,
      false,
      false,
      false,
      false,
      false,
      false,
      false,
      false
    ]
  },
  "old_actuators": {
    "values": [
      44,
      43,
      45,
      55,
      41,
      50,
      60,
      61,
      67,
      62,
      60,
      65,
      63,
      64,
      62,
      61,
      50,
      51,
      54,
      58,
      50,
      62,
      56,
      54,
      53,
      48,
      42,
      38,
      48,
      49,
      35,
      37,
      51,
      42,
      35,
      37,
      44,
      39,
      35,
      44,
      53,
      42,
      37,
      42,
      47,
      51,
      57,
      54,
      56,
      49,
      50,
      49,
      45,
      52
    ],
    "forced": [
      false,
      false,
      false,
      false,
      false,
      false,
      false,
      false,
      false,
      false,
      false,
      false,
      false,
      false,
      false,
      false,
      false,
      false,
      false,
      false,
      false,
      false,
      false,
      false,
      false,
      false,
      false,
      false,
      false,
      false,
      false,
      false,
      false,
      false,
      false,
      false,
      false,
      false,
      false,
      false,
      false,
      false,
      false,
      false,
      false,
      false,
      false,
      false,
      false,
      false,
      false,
      false,
      false,
      false
    ]
  },
  "average_zones_profile": [
    22.300721855321758,
    22.696052833666112,
    21.90539087697743,
    21.778682230072196,
    22.716326217170945,
    21.616495162033477,
    20.33420365535248,
    20.182153279066203,
    20.72953463369683,
    21.114728920288737,
    21.464444785747197,
    19.60943019505452,
    21.45430809399478,
    20.56227921978191,
    20.248041775456926,
    20.34940869298111,
    22.30072185532177,
    22.168944862540318,
    21.1400706496698,
    21.175549070803257,
    21.347872830594373,
    21.768545538319767,
    21.3580095223468,
    22.3159268929504,
    22.174013208416525,
    22.660574412532636,
    22.706189525418523,
    23.89218246045155,
    22.310858547074183,
    23.116725541391496,
    25.346797726923675,
    24.079711257871303,
    22.082782982644762,
    23.937797573337434,
    23.25863922592537,
    23.58301336200277,
    21.90539087697743,
    23.045768699124558,
    22.6960528336661,
    21.945937643987108,
    21.55060666564276,
    22.59975426201812,
    22.640301029027796,
    22.807556442942712,
    22.24497005068346,
    21.82429734295807,
    20.16694824143757,
    21.61142681615728,
    21.44417140224236,
    22.17401320841653,
    22.234833358931052,
    21.37321455997543,
    22.42236215635079,
    21.525264936261713
  ],
  "thickness_difference ": [
    1.3669175241898075,
    3.163876516664146,
    0.0,
    -1.0059898633082007,
    3.256028259867931,
    -1.7432038089387414,
    -7.571801566579643,
    -8.26293964060817,
    -5.774842574105321,
    -4.0239594532330125,
    -2.4343418829672845,
    -10.86622638611581,
    -2.4804177545691855,
    -6.535094455536772,
    -7.963446475195791,
    -7.5026877591767684,
    1.3669175241898561,
    0.0,
    -3.9087697742281886,
    -3.74750422362156,
    -2.9642144063892153,
    -1.0520657349101499,
    -2.9181385347872664,
    1.4360313315927313,
    0.0,
    3.0026109660574365,
    3.209952388266014,
    8.600829365688867,
    1.4129933957917407,
    5.076025188143163,
    15.212716940562162,
    9.453232990324102,
    0.0,
    8.808170787897428,
    5.72108739056987,
    7.195515281830773,
    0.0,
    4.75349408692981,
    3.163876516664097,
    0.0,
    -2.042696974351088,
    2.726155736446,
    2.910459222853619,
    3.6707111042850538,
    1.1135002303793617,
    0.0,
    -8.332053448011045,
    -1.7662417447396352,
    -2.526493626171086,
    0.0,
    1.0674243587775094,
    -2.8490247273844074,
    1.9198279834126808,
    -2.157886653355848
  ],
  "dynamic_gain": [
    0.6,
    0.6,
    0.6,
    0.6,
    0.6,
    0.6,
    0.6,
    0.6,
    0.6,
    0.6,
    0.6,
    0.6,
    0.6,
    0.6,
    0.6,
    0.6,
    0.6,
    0.6,
    0.6,
    0.6,
    0.6,
    0.6,
    0.6,
    0.6,
    0.6,
    0.6,
    0.6,
    0.6,
    0.6,
    0.6,
    0.6,
    0.6,
    0.6,
    0.6,
    0.6,
    0.6,
    0.6,
    0.6,
    0.6,
    0.6,
    0.6,
    0.6,
    0.6,
    0.6,
    0.6,
    0.6,
    0.6,
    0.6,
    0.6,
    0.6,
    0.6,
    0.6,
    0.6,
    0.6
  ],
  "value_map": {
    "next": "-0.05",
    "prev": "-0.05",
    "default": "-0.05"
  },
  "actuation_variation": [
    0.4812624788818854,
    1.0850867762248624,
    0.06473659960067835,
    -0.23429580709566833,
    0.992013515589009,
    -0.704730456151136,
    -2.79887882045769,
    -3.1271694056212453,
    -2.2743050222699916,
    -1.5741821532790725,
    -1.2500383965596686,
    -3.7332974965443118,
    -1.3405774842574087,
    -2.469897097220084,
    -3.0490708032560176,
    -2.6737828290585117,
    0.22600215020734946,
    -0.07625556750114998,
    -1.4023191522039493,
    -1.442865919213637,
    -1.1221778528643926,
    -0.5236522807556439,
    -0.9514667485793205,
    0.3863461833819834,
    0.13315926892950505,
    1.0871601904469346,
    1.4073874980801737,
    2.976962064199059,
    0.8765934572262353,
    2.173859622177861,
    5.456074335739532,
    3.575948395023819,
    0.5478421133466458,
    3.0783289817232475,
    2.368069420979903,
    2.5461526647212516,
    0.35847028106281753,
    1.6635693441867603,
    1.1866840731070463,
    0.03363538626939026,
    -0.592305329442479,
    0.925664260482256,
    1.152357548763626,
    1.3320534480110573,
    0.477576409153741,
    -0.2165565965289505,
    -2.802564890185834,
    -0.9086161879895436,
    -0.8867301489786474,
    -0.043772078021807305,
    0.2667792965750459,
    -0.8505605897711488,
    0.48333589310397695,
    -0.6135002303793553
  ]
}