{
  "parameters": {
    "integral_band": 0,
    "dead_band": 1,
    "small_gain": 50.0,
    "large_gain": 80.0,
    "large_gain_regulations": 3,
    "valves_min": 0,
    "valves_max": 100,
    "matrix_minor": 0,
    "matrix_major": 55,
    "profiles_directions_used_for_regulation": 0,
    "profiles_to_average": 4,
    "profiles_for_first_regulation": 1,
    "profiles_for_regulation": 10,
    "phase_shift_misDx_haulDx": 0,
    "phase_shift_misDx_haulSx": 0,
    "phase_shift_misSx_haulDx": 0,
    "phase_shift_misSx_haulSx": 0,
    "revert_regulation": 0,
    "disturbation_type": 0,
    "disturbation_amount": 0.0,
    "disturbation_amplitude": 1.0,
    "disturbation_cycles": 1,
    "disturbation_frequency": 1,
    "measurer_speed_default": 2,
    "measurer_speed_control": 0,
    "measurer_speed_min": 3,
    "measurer_speed_max": 7,
    "measurer_twoSigma_for_speed_min": 2.0,
    "measurer_twoSigma_for_speed_max": 10.0
  },
  "production": {
    "line_speed": 45.0,
    "layflat": 1640.0,
    "thickness": 22.0
  },
  "status": {
    "application": {
      "measurer_active": true,
      "actuation_active": true
    },
    "measurer": {
      "is_valid": true,
      "reason_is_valid": "none",
      "direction": -1,
      "speed": 0
    },
    "hauloff": {
      "direction": 0,
      "position": 0,
      "speed": 0,
      "last_period": 0
    }
  },
  "stats": {
    "min_thickness": 20.70634515173189,
    "max_thickness": 23.30096045775008,
    "mean_thickness": 22.0,
    "sigma_perc": 5.575007832925773,
    "sigma_abs": 1.2265017232436703,
    "stdDev": 0.6132508616218352
  },
  "rawProfile": [
    21.6,
    21.6,
    21.0,
    21.8,
    21.4,
    20.5,
    20.4,
    21.1,
    21.8,
    21.7,
    21.6,
    20.9,
    21.2,
    21.2,
    22.3,
    21.9,
    21.8,
    21.4,
    21.3,
    21.9,
    21.7,
    21.6,
    21.7,
    20.8,
    21.6,
    22.1,
    21.4,
    21.0,
    20.5,
    22.5,
    21.4,
    21.7,
    21.5,
    21.5,
    20.7,
    21.4,
    22.8,
    20.6,
    20.2,
    21.0,
    21.3,
    20.8,
    20.8,
    22.5,
    21.9,
    20.9,
    20.8,
    21.6,
    22.3,
    23.0,
    22.6,
    22.3,
    23.3,
    22.2,
    22.1,
    21.4,
    21.0,
    20.5,
    21.3,
    18.8,
    19.9,
    21.4,
    20.5,
    21.5,
    20.3,
    20.7,
    20.2,
    19.6,
    21.5,
    23.0,
    22.1,
    23.0,
    21.5,
    21.5,
    21.9,
    21.4,
    21.8,
    21.0,
    21.4,
    21.3,
    21.9,
    22.0,
    21.2,
    22.6,
    21.9,
    21.7,
    20.4,
    21.3,
    20.2,
    21.6,
    22.7,
    21.9,
    22.6,
    22.5,
    23.4,
    20.6,
    21.2,
    22.2,
    22.5,
    22.0,
    21.5,
    24.0,
    22.1,
    22.9,
    20.9,
    22.6,
    22.5,
    21.9,
    22.1,
    22.2,
    21.6,
    22.0,
    22.0,
    23.2,
    21.2,
    20.5,
    21.3,
    21.1,
    21.1,
    20.5,
    21.0,
    20.9,
    21.7,
    21.9,
    21.6,
    20.5,
    22.5,
    23.1,
    23.0,
    24.6,
    22.9,
    22.5,
    21.6,
    20.6,
    21.8,
    22.9,
    20.5,
    20.9,
    21.5,
    22.1,
    21.8,
    23.2,
    21.4,
    20.2,
    19.5,
    24.2,
    22.7,
    21.6,
    23.3,
    23.5,
    22.1,
    22.8,
    22.7,
    21.4,
    20.2,
    21.7,
    22.8,
    22.2,
    22.0,
    23.1,
    25.0,
    24.5,
    24.6,
    22.6,
    21.6,
    20.4,
    20.6,
    21.2,
    20.7,
    21.3,
    21.2,
    21.9,
    21.3,
    21.7,
    22.8,
    23.1,
    22.1,
    22.7,
    21.9,
    20.4,
    21.2,
    19.7,
    20.6,
    19.6,
    21.4,
    21.6,
    22.5,
    23.5,
    21.9,
    21.6,
    21.8,
    21.9,
    20.9,
    20.8,
    21.6,
    20.4,
    19.7,
    20.4,
    20.4,
    20.1,
    21.5,
    20.9,
    20.5,
    21.9,
    22.0,
    21.9,
    21.4,
    21.5,
    21.6,
    20.8,
    19.6,
    21.2,
    22.5,
    23.6,
    24.0,
    23.1,
    22.2,
    20.9,
    23.1,
    22.5,
    25.1,
    23.6,
    22.8,
    23.3,
    22.3,
    22.2,
    21.4,
    19.6,
    20.3,
    20.2,
    21.5,
    21.8,
    20.3,
    20.8,
    21.6,
    22.5,
    21.7,
    24.0,
    24.2,
    24.2,
    23.2,
    22.3,
    22.8,
    21.3,
    20.6,
    21.4,
    21.3,
    22.0,
    22.7,
    21.8,
    20.7,
    22.6,
    21.4,
    23.2,
    23.5,
    22.7,
    21.8,
    22.3,
    21.5,
    21.6,
    20.4,
    20.7,
    22.9,
    23.0,
    21.6,
    22.5,
    22.7,
    21.7,
    23.0,
    20.9,
    21.6,
    22.5,
    20.7,
    20.8,
    21.8,
    21.3,
    22.5,
    21.1,
    19.9,
    20.9,
    20.4,
    21.7,
    21.0,
    22.5,
    20.8,
    21.7,
    22.5,
    22.8,
    21.9,
    23.2,
    21.8,
    20.8,
    20.7,
    21.8,
    20.4,
    21.7,
    22.0,
    23.6,
    24.4,
    23.1,
    23.6,
    22.5,
    24.6,
    23.4,
    22.0,
    20.4,
    21.9,
    22.0,
    20.4,
    21.8,
    21.1,
    22.1,
    21.7,
    22.6,
    21.9,
    21.8,
    23.0,
    21.5,
    20.7,
    21.4,
    22.0,
    21.8,
    22.5,
    23.6,
    22.3,
    22.5,
    23.9,
    22.7,
    23.5,
    21.5,
    21.3,
    19.6,
    19.1,
    20.7,
    22.0,
    23.1,
    22.9,
    20.9,
    20.2,
    22.7,
    22.0,
    23.3,
    22.1,
    22.5,
    21.7,
    21.5,
    21.3,
    21.1,
    21.9,
    20.1,
    20.4,
    20.7,
    20.8,
    20.4,
    20.2,
    22.1,
    21.7,
    21.2,
    21.4,
    21.6
  ],
  "zonesProfile": [
    20.70634515173189,
    22.157913558802488,
    21.105905793399412,
    22.375395933381007,
    21.500408705425567,
    23.12899764994381,
    22.193317666292028,
    22.865995708593033,
    22.066874425257996,
    21.76341064677634,
    23.073362623888837,
    21.63696740574232,
    21.4194850311638,
    22.309645448043323,
    22.608051496883625,
    22.289414529477877,
    21.94043118422397,
    21.985950750996214,
    21.71789108000409,
    21.940431184223975,
    20.90359660774497,
    21.227291304792075,
    22.67380198222132,
    21.556043731480532,
    21.399254112598353,
    21.682486972514557,
    21.813987943189954,
    21.960662102789414,
    21.571216920404616,
    21.470062327577395,
    21.515581894349644,
    21.075559415551243,
    22.35010728517421,
    22.0921630734648,
    21.63190967610096,
    22.85588024931031,
    22.056758965975277,
    21.83927659139676,
    22.92668846428936,
    22.719321548993566,
    22.147798099519772,
    21.71283335036273,
    21.449831409011956,
    21.985950750996224,
    22.188259936650663,
    22.587820578318183,
    22.15791355880249,
    22.122509451312972,
    23.07336262388883,
    20.90359660774497,
    23.30096045775008,
    22.992438949627054,
    21.576274650045985,
    21.69260243179728
  ],
  "actuators": {
    "values": [
      56,
      49,
      61,
      49,
      53,
      42,
      47,
      47,
      60,
      44,
      34,
      43,
      53,
      35,
      43,
      44,
      57,
      45,
      35,
      47,
      55,
      34,
      47,
      50,
      49,
      46,
      50,
      46,
      39,
      54,
      48,
      41,
      47,
      70,
      56,
      59,
      58,
      62,
      39,
      59,
      64,
      61,
      55,
      49,
      51,
      54,
      55,
      42,
      51,
      57,
      39,
      50,
      56,
      61
    ],
    "forced": [
      false,
      false,
      false,
      false,
      false,
      false,
      false,
      false,
      false,
      false,
      false,
      false,
      false,
      false,
      false,
      false,
      false,
      false,
      false,
      false,
      false,
      false,
      false,
      false,
      false,
      false,
      false,
      false,
      false,
      false,
      false,
      false,
      false,
      false,
      false,
      false,
      false,
      false,
      false,
      false,
      false,
      false,
      false,
      false,
      false,
      false,
      false,
      false,
      false,
      false,
      false,
      false,
      false,
      false
    ]
  },
  "old_actuators": {
    "values": [
      56,
      50,
      60,
      49,
      52,
      43,
      48,
      48,
      60,
      44,
      35,
      43,
      53,
      36,
      44,
      44,
      56,
      45,
      36,
      47,
      53,
      34,
      47,
      49,
      49,
      46,
      50,
      46,
      39,
      53,
      48,
      41,
      47,
      69,
      55,
      59,
      58,
      62,
      40,
      59,
      63,
      60,
      55,
      49,
      51,
      54,
      56,
      43,
      51,
      56,
      40,
      51,
      56,
      61
    ],
    "forced": [
      false,
      false,
      false,
      false,
      false,
      false,
      false,
      false,
      false,
      false,
      false,
      false,
      false,
      false,
      false,
      false,
      false,
      false,
      false,
      false,
      false,
      false,
      false,
      false,
      false,
      false,
      false,
      false,
      false,
      false,
      false,
      false,
      false,
      false,
      false,
      false,
      false,
      false,
      false,
      false,
      false,
      false,
      false,
      false,
      false,
      false,
      false,
      false,
      false,
      false,
      false,
      false,
      false,
      false
    ]
  },
  "average_zones_profile": [
    21.60794541946159,
    22.251980854460783,
    21.655979086264157,
    22.185917596061753,
    21.280011788706325,
    22.679058356418526,
    22.67543489761138,
    22.731227041127802,
    22.035972242719108,
    22.17600346750327,
    23.227228229623837,
    22.12290450016964,
    21.67054109275649,
    22.539799934691533,
    22.649502484892604,
    21.86053182235627,
    21.206014787114793,
    22.067931305869756,
    22.590707070033858,
    21.620339205475712,
    20.96417680013892,
    22.302295099935368,
    21.88303149900029,
    21.60460186835449,
    21.51671512184554,
    21.872788241905695,
    21.944294726153203,
    21.973694129781947,
    21.654231559331,
    21.257319360745075,
    21.373949379953512,
    21.901988109595845,
    22.082428773713872,
    21.494464457176807,
    21.728279895184116,
    21.822038736016736,
    21.93267689439692,
    21.55545104816979,
    22.930360600053337,
    21.988385496763634,
    21.6997025656788,
    21.515507385401673,
    22.1580622237033,
    22.305741849470877,
    22.259387371636937,
    22.134266160251737,
    22.305883935469986,
    22.749161155546403,
    22.040825977807614,
    21.335329875167794,
    22.565419811178455,
    22.463354399749647,
    21.914106236962702,
    21.93504807043906
  ],
  "thickness_difference ": [
    -1.7820662751745917,
    1.1453675202762847,
    -1.5637314260720137,
    0.0,
    -3.272673687698522,
    3.0866288928114827,
    3.0701586255062807,
    3.323759277853646,
    0.0,
    0.0,
    5.578310134653803,
    0.0,
    -1.4975404874704974,
    2.4536360667796973,
    2.9522840222391102,
    0.0,
    -3.6090236949327608,
    0.0,
    2.685032136517536,
    -1.7257308842013073,
    -4.7082872720958235,
    1.3740686360698524,
    0.0,
    -1.797264234752321,
    -2.196749446156639,
    0.0,
    0.0,
    0.0,
    -1.5716747303136425,
    -3.375821087522384,
    -2.8456846365749464,
    0.0,
    0.0,
    -2.2978888310145122,
    -1.235091385526746,
    0.0,
    0.0,
    -2.020677053773684,
    4.228911818424259,
    0.0,
    -1.3649883378236443,
    -2.2022391572651236,
    0.0,
    1.3897356794130773,
    1.1790335074406209,
    0.0,
    1.390381524863571,
    3.4052779797563786,
    0.0,
    -3.021227840146391,
    2.570090050811157,
    2.1061563624983974,
    0.0,
    0.0
  ],
  "dynamic_gain": [
    0.5,
    0.5,
    0.5,
    0.5,
    0.5,
    0.5,
    0.5,
    0.5,
    0.5,
    0.5,
    0.5,
    0.5,
    0.5,
    0.5,
    0.5,
    0.5,
    0.5,
    0.5,
    0.5,
    0.5,
    0.5,
    0.5,
    0.5,
    0.5,
    0.5,
    0.5,
    0.5,
    0.5,
    0.5,
    0.5,
    0.5,
    0.5,
    0.5,
    0.5,
    0.5,
    0.5,
    0.5,
    0.5,
    0.5,
    0.5,
    0.5,
    0.5,
    0.5,
    0.5,
    0.5,
    0.5,
    0.5,
    0.5,
    0.5,
    0.5,
    0.5,
    0.5,
    0.5,
    0.5
  ],
  "value_map": {
    "next": "-0.0",
    "prev": "-0.0",
    "default": "-0.0"
  },
  "actuation_variation": [
    -0.4900682256730128,
    0.31497606807597833,
    -0.4300261421698038,
    0.0,
    -0.8999852641170936,
    0.8488229455231578,
    0.8442936220142273,
    0.9140338014097528,
    0.0,
    0.0,
    1.534035287029796,
    0.0,
    -0.4118236340543868,
    0.6747499183644168,
    0.8118781061157554,
    0.0,
    -0.9924815161065093,
    0.0,
    0.7383838375423225,
    -0.47457599315535953,
    -1.2947789998263515,
    0.37786887491920945,
    0.0,
    -0.49424766455688834,
    -0.6041060976930758,
    0.0,
    0.0,
    0.0,
    -0.4322105508362517,
    -0.9283507990686557,
    -0.7825632750581103,
    0.0,
    0.0,
    -0.631919428528991,
    -0.3396501310198552,
    0.0,
    0.0,
    -0.5556861897877631,
    1.1629507500666714,
    0.0,
    -0.3753717929015022,
    -0.6056157682479091,
    0.0,
    0.38217731183859627,
    0.32423421454617074,
    0.0,
    0.38235491933748206,
    0.9364514444330042,
    0.0,
    -0.8308376560402575,
    0.7067747639730683,
    0.5791929996870594,
    0.0,
    0.0
  ]
}