{
  "parameters": {
    "integral_band": 0,
    "dead_band": 1,
    "small_gain": 60.0,
    "large_gain": 100.0,
    "large_gain_regulations": 3,
    "valves_min": 0,
    "valves_max": 100,
    "matrix_minor": 10,
    "matrix_major": 55,
    "profiles_directions_used_for_regulation": 0,
    "profiles_to_average": 1,
    "profiles_for_first_regulation": 1,
    "profiles_for_regulation": 10,
    "phase_shift_misDx_haulDx": 0,
    "phase_shift_misDx_haulSx": 0,
    "phase_shift_misSx_haulDx": 0,
    "phase_shift_misSx_haulSx": 0,
    "revert_regulation": 0,
    "disturbation_type": 0,
    "disturbation_amount": 0.0,
    "disturbation_amplitude": 1.0,
    "disturbation_cycles": 1,
    "disturbation_frequency": 1,
    "measurer_speed_default": 2,
    "measurer_speed_control": 0,
    "measurer_speed_min": 3,
    "measurer_speed_max": 7,
    "measurer_twoSigma_for_speed_min": 2.0,
    "measurer_twoSigma_for_speed_max": 10.0
  },
  "production": {
    "line_speed": 45.0,
    "layflat": 1640.0,
    "thickness": 22.0
  },
  "status": {
    "application": {
      "measurer_active": true,
      "actuation_active": false
    },
    "measurer": {
      "is_valid": true,
      "reason_is_valid": "none",
      "direction": -1,
      "speed": 0
    },
    "hauloff": {
      "direction": 0,
      "position": 0,
      "speed": 0,
      "last_period": 0
    }
  },
  "stats": {
    "min_thickness": 19.2765061086926,
    "max_thickness": 23.947760146046903,
    "mean_thickness": 21.999999999999996,
    "sigma_perc": 9.687464836378632,
    "sigma_abs": 2.1312422640032995,
    "stdDev": 1.0656211320016498
  },
  "rawProfile": [
    21.7,
    20.0,
    20.7,
    21.4,
    21.7,
    22.5,
    22.1,
    22.5,
    23.5,
    22.0,
    22.5,
    23.1,
    22.7,
    24.0,
    24.0,
    23.3,
    22.5,
    21.6,
    21.9,
    22.3,
    21.4,
    21.4,
    21.6,
    21.5,
    21.9,
    22.5,
    21.4,
    21.8,
    21.5,
    21.4,
    22.0,
    21.9,
    23.0,
    23.3,
    21.4,
    21.9,
    22.1,
    23.5,
    23.3,
    21.5,
    20.0,
    19.2,
    21.5,
    22.5,
    22.3,
    21.1,
    22.1,
    22.7,
    21.4,
    21.4,
    23.3,
    23.2,
    23.5,
    23.9,
    24.0,
    23.9,
    22.7,
    22.3,
    21.7,
    21.9,
    21.2,
    21.0,
    21.4,
    22.3,
    21.3,
    22.0,
    21.4,
    21.4,
    21.3,
    20.7,
    22.5,
    23.2,
    22.6,
    23.1,
    23.1,
    24.3,
    23.6,
    24.0,
    24.3,
    22.7,
    24.2,
    22.9,
    22.5,
    24.1,
    23.6,
    23.2,
    21.8,
    20.9,
    21.1,
    21.4,
    20.9,
    20.7,
    22.5,
    21.9,
    22.0,
    23.9,
    23.0,
    23.0,
    22.1,
    21.2,
    21.4,
    22.7,
    23.2,
    21.5,
    21.2,
    22.9,
    24.0,
    24.2,
    23.6,
    23.2,
    23.8,
    23.7,
    22.0,
    22.7,
    23.5,
    22.3,
    23.9,
    23.7,
    23.8,
    23.4,
    23.3,
    23.9,
    24.0,
    23.7,
    24.2,
    23.6,
    22.8,
    23.0,
    22.2,
    23.5,
    22.8,
    23.7,
    22.6,
    22.1,
    22.0,
    22.3,
    22.5,
    22.0,
    21.3,
    21.4,
    19.9,
    19.5,
    18.0,
    19.0,
    22.8,
    22.5,
    22.0,
    21.9,
    21.7,
    21.4,
    21.7,
    21.3,
    22.7,
    23.9,
    23.9,
    22.8,
    22.0,
    22.2,
    22.2,
    21.8,
    21.1,
    21.1,
    20.6,
    19.5,
    20.4,
    19.8,
    21.1,
    22.3,
    23.2,
    23.3,
    21.7,
    21.3,
    21.4,
    21.8,
    20.4,
    20.9,
    21.1,
    20.3,
    20.3,
    20.2,
    20.2,
    20.4,
    18.1,
    18.6,
    20.7,
    20.4,
    22.0,
    21.2,
    20.3,
    21.9,
    22.2,
    21.5,
    22.3,
    22.2,
    22.8,
    22.2,
    22.5,
    22.5,
    22.5,
    24.2,
    24.5,
    23.6,
    23.6,
    23.3,
    22.3,
    23.2,
    22.3,
    23.0,
    20.6,
    21.0,
    21.9,
    22.7,
    22.2,
    21.1,
    21.4,
    21.8,
    22.8,
    23.5,
    22.5,
    23.2,
    23.2,
    22.7,
    22.0,
    22.2,
    22.0,
    20.9,
    21.2,
    21.9,
    22.6,
    22.5,
    22.2,
    20.9,
    21.5,
    21.6,
    22.8,
    23.4,
    23.5,
    24.1,
    23.5,
    23.7,
    23.6,
    22.3,
    22.9,
    21.8,
    22.0,
    21.8,
    22.3,
    22.3,
    20.9,
    21.2,
    22.1,
    22.2,
    21.8,
    20.6,
    22.0,
    22.2,
    22.0,
    20.9,
    20.0,
    19.5,
    20.9,
    22.0,
    22.7,
    21.6,
    20.7,
    21.6,
    24.1,
    23.0,
    22.7,
    21.4,
    21.7,
    21.3,
    21.8,
    20.5,
    19.4,
    19.5,
    20.3,
    20.7,
    20.4,
    20.4,
    21.7,
    21.2,
    20.6,
    22.1,
    22.5,
    20.5,
    21.0,
    21.4,
    19.7,
    20.3,
    19.6,
    20.4,
    21.2,
    21.0,
    20.7,
    21.6,
    22.5,
    21.3,
    20.2,
    18.7,
    20.3,
    19.7,
    21.0,
    20.0,
    19.4,
    20.0,
    20.9,
    21.3,
    20.7,
    20.3,
    20.4,
    20.7,
    19.5,
    20.6,
    21.2,
    20.3,
    21.2,
    20.4,
    19.9,
    19.1,
    20.4,
    20.2,
    21.9,
    22.2,
    20.6,
    20.7,
    21.2,
    20.6,
    20.0,
    19.2,
    19.5,
    18.4,
    18.9,
    17.8,
    19.4,
    19.2,
    20.4,
    20.9,
    20.3,
    20.2,
    20.4,
    21.9,
    22.1,
    21.3,
    21.5,
    21.3,
    21.9,
    21.4,
    19.8,
    20.6,
    20.5,
    19.6,
    20.7,
    20.7,
    20.4,
    20.2,
    21.3,
    21.5,
    21.0,
    21.4
  ],
  "zonesProfile": [
    23.45232411178206,
    22.011515236624074,
    22.07218087347283,
    21.29363853391378,
    22.436174694565366,
    20.818424378598515,
    21.192529139165856,
    21.1268080325797,
    21.303749473388574,
    20.403875860132008,
    20.636427468052243,
    20.79314702991153,
    20.732481393062773,
    20.656649347001824,
    19.2765061086926,
    21.232972897065025,
    21.298694003651182,
    20.712259514113185,
    21.31891588260076,
    22.587838786687264,
    23.447268642044662,
    21.92051678135094,
    21.991293357674486,
    22.486729391939342,
    21.839629265552592,
    22.183401207695542,
    23.770818705238028,
    21.895239432663953,
    21.693020643168097,
    23.492767869681234,
    23.760707765763236,
    22.294621541918275,
    22.436174694565373,
    22.43617469456537,
    23.38660300519591,
    23.351214717034125,
    23.947760146046903,
    23.47760146046904,
    22.810279455132708,
    20.439264148293788,
    22.12273557084679,
    22.91138884988064,
    21.536301081308817,
    21.81435191686561,
    21.440247156298277,
    20.00449375087769,
    21.24813930627721,
    22.491784861676734,
    23.725319477601474,
    22.365398118241828,
    22.233955905069514,
    23.037775593315544,
    22.12779104058419,
    22.52211768010111
  ],
  "actuators": {
    "values": [
      100,
      50,
      50,
      50,
      50,
      50,
      50,
      50,
      50,
      50,
      50,
      50,
      100,
      50,
      50,
      50,
      50,
      50,
      50,
      50,
      50,
      50,
      50,
      50,
      50,
      50,
      50,
      50,
      50,
      50,
      50,
      50,
      50,
      50,
      50,
      50,
      50,
      50,
      50,
      50,
      50,
      50,
      50,
      50,
      50,
      50,
      50,
      50,
      50,
      50,
      50,
      50,
      50,
      50
    ],
    "forced": [
      false,
      false,
      false,
      false,
      false,
      false,
      false,
      false,
      false,
      false,
      false,
      false,
      false,
      false,
      false,
      false,
      false,
      false,
      false,
      false,
      false,
      false,
      false,
      false,
      false,
      false,
      false,
      false,
      false,
      false,
      false,
      false,
      false,
      false,
      false,
      false,
      false,
      false,
      false,
      false,
      false,
      false,
      false,
      false,
      false,
      false,
      false,
      false,
      false,
      false,
      false,
      false,
      false,
      false
    ]
  },
  "old_actuators": {
    "values": [
      100,
      50,
      50,
      50,
      50,
      50,
      50,
      50,
      50,
      50,
      50,
      50,
      100,
      50,
      50,
      50,
      50,
      50,
      50,
      50,
      50,
      50,
      50,
      50,
      50,
      50,
      50,
      50,
      50,
      50,
      50,
      50,
      50,
      50,
      50,
      50,
      50,
      50,
      50,
      50,
      50,
      50,
      50,
      50,
      50,
      50,
      50,
      50,
      50,
      50,
      50,
      50,
      50,
      50
    ],
    "forced": [
      false,
      false,
      false,
      false,
      false,
      false,
      false,
      false,
      false,
      false,
      false,
      false,
      false,
      false,
      false,
      false,
      false,
      false,
      false,
      false,
      false,
      false,
      false,
      false,
      false,
      false,
      false,
      false,
      false,
      false,
      false,
      false,
      false,
      false,
      false,
      false,
      false,
      false,
      false,
      false,
      false,
      false,
      false,
      false,
      false,
      false,
      false,
      false,
      false,
      false,
      false,
      false,
      false,
      false
    ]
  },
  "average_zones_profile": [],
  "thickness_difference ": [],
  "dynamic_gain": [],
  "value_map": {
    "next": "-0.05",
    "prev": "-0.05",
    "default": "-0.05"
  },
  "actuation_variation": []
}