{
  "parameters": {
    "integral_band": 0,
    "dead_band": 1,
    "small_gain": 50.0,
    "large_gain": 80.0,
    "large_gain_regulations": 3,
    "valves_min": 0,
    "valves_max": 100,
    "matrix_minor": 10,
    "matrix_major": 55,
    "profiles_directions_used_for_regulation": 0,
    "profiles_to_average": 2,
    "profiles_for_first_regulation": 1,
    "profiles_for_regulation": 10,
    "phase_shift_misDx_haulDx": 0,
    "phase_shift_misDx_haulSx": 0,
    "phase_shift_misSx_haulDx": 0,
    "phase_shift_misSx_haulSx": 0,
    "revert_regulation": 0,
    "disturbation_type": 0,
    "disturbation_amount": 0.0,
    "disturbation_amplitude": 1.0,
    "disturbation_cycles": 1,
    "disturbation_frequency": 1,
    "measurer_speed_default": 2,
    "measurer_speed_control": 0,
    "measurer_speed_min": 3,
    "measurer_speed_max": 7,
    "measurer_twoSigma_for_speed_min": 2.0,
    "measurer_twoSigma_for_speed_max": 10.0
  },
  "production": {
    "line_speed": 45.0,
    "layflat": 1640.0,
    "thickness": 22.0
  },
  "status": {
    "application": {
      "measurer_active": true,
      "actuation_active": true
    },
    "measurer": {
      "is_valid": true,
      "reason_is_valid": "none",
      "direction": -1,
      "speed": 0
    },
    "hauloff": {
      "direction": 0,
      "position": 0,
      "speed": 0,
      "last_period": 0
    }
  },
  "stats": {
    "min_thickness": 19.925915372560183,
    "max_thickness": 23.63413591679726,
    "mean_thickness": 21.999999999999993,
    "sigma_perc": 6.950582919032432,
    "sigma_abs": 1.5291282421871348,
    "stdDev": 0.7645641210935674
  },
  "rawProfile": [
    21.9,
    21.7,
    22.7,
    21.7,
    22.5,
    22.1,
    21.9,
    21.5,
    21.8,
    21.3,
    21.2,
    21.8,
    21.7,
    22.5,
    23.3,
    22.8,
    22.1,
    21.0,
    21.3,
    21.4,
    22.5,
    22.9,
    23.5,
    21.5,
    21.8,
    21.2,
    21.1,
    21.9,
    21.5,
    23.2,
    23.4,
    23.1,
    22.1,
    21.2,
    22.1,
    21.6,
    21.5,
    21.1,
    21.3,
    20.8,
    20.2,
    22.5,
    23.3,
    22.5,
    22.1,
    22.5,
    21.5,
    21.8,
    22.2,
    21.3,
    21.4,
    22.9,
    21.8,
    22.3,
    20.6,
    22.5,
    21.7,
    21.4,
    21.4,
    20.7,
    21.5,
    21.4,
    21.6,
    21.2,
    20.3,
    20.9,
    20.3,
    20.9,
    22.3,
    22.6,
    22.8,
    22.8,
    23.3,
    22.9,
    22.9,
    22.3,
    21.0,
    21.5,
    21.9,
    23.2,
    22.2,
    22.7,
    22.5,
    22.6,
    22.6,
    20.1,
    21.0,
    21.2,
    22.1,
    22.0,
    21.5,
    21.0,
    22.5,
    23.3,
    21.7,
    19.5,
    20.6,
    20.7,
    21.1,
    21.1,
    21.3,
    19.7,
    21.5,
    21.3,
    21.5,
    21.6,
    22.8,
    22.1,
    23.2,
    22.7,
    19.4,
    20.8,
    19.5,
    20.0,
    19.8,
    22.2,
    20.4,
    22.1,
    23.3,
    22.3,
    22.8,
    25.3,
    23.5,
    22.9,
    20.9,
    20.3,
    20.1,
    20.4,
    20.5,
    20.1,
    20.4,
    22.0,
    22.2,
    21.1,
    21.4,
    21.4,
    22.8,
    22.3,
    23.1,
    22.8,
    22.7,
    21.7,
    19.3,
    21.6,
    22.0,
    23.7,
    23.1,
    22.1,
    22.9,
    21.9,
    22.9,
    22.5,
    21.8,
    23.1,
    24.0,
    22.6,
    23.4,
    21.3,
    24.0,
    22.9,
    21.8,
    20.3,
    20.1,
    18.3,
    19.5,
    19.9,
    19.3,
    18.9,
    22.5,
    20.5,
    20.6,
    21.8,
    22.5,
    21.8,
    21.3,
    20.9,
    20.2,
    20.3,
    21.7,
    19.4,
    19.7,
    17.5,
    19.4,
    18.6,
    19.8,
    20.9,
    20.4,
    20.9,
    20.8,
    22.5,
    22.8,
    22.5,
    21.8,
    20.8,
    20.6,
    19.8,
    18.6,
    19.2,
    19.5,
    18.6,
    20.1,
    20.2,
    19.7,
    19.9,
    19.5,
    20.4,
    20.0,
    18.5,
    20.2,
    19.0,
    19.3,
    20.5,
    20.8,
    21.7,
    23.1,
    22.7,
    21.2,
    21.0,
    20.5,
    20.8,
    21.6,
    22.1,
    23.6,
    22.7,
    21.6,
    20.2,
    20.3,
    21.6,
    21.5,
    20.7,
    21.3,
    21.1,
    20.4,
    20.9,
    21.4,
    18.9,
    20.3,
    21.7,
    20.7,
    20.4,
    20.4,
    22.5,
    23.0,
    21.4,
    20.4,
    20.2,
    19.3,
    20.8,
    20.4,
    20.5,
    22.5,
    21.2,
    20.0,
    20.8,
    20.4,
    21.5,
    21.5,
    21.9,
    21.1,
    20.5,
    19.9,
    20.3,
    21.6,
    21.4,
    22.3,
    22.1,
    20.5,
    21.6,
    20.9,
    21.4,
    22.5,
    22.9,
    20.9,
    21.1,
    21.0,
    21.8,
    21.7,
    21.7,
    21.7,
    19.7,
    19.4,
    20.9,
    21.4,
    21.1,
    21.0,
    21.6,
    21.1,
    21.7,
    21.8,
    21.0,
    20.5,
    21.0,
    20.6,
    21.4,
    20.8,
    19.6,
    21.1,
    21.6,
    22.0,
    23.0,
    21.6,
    21.5,
    22.2,
    22.2,
    22.3,
    21.7,
    21.9,
    21.3,
    20.9,
    21.2,
    21.1,
    22.5,
    22.3,
    21.6,
    20.4,
    22.7,
    23.6,
    23.4,
    21.8,
    21.1,
    20.5,
    20.8,
    22.6,
    22.1,
    23.6,
    23.4,
    22.8,
    21.8,
    21.6,
    22.1,
    22.7,
    20.6,
    22.0,
    20.0,
    20.1,
    20.4,
    21.9,
    22.7,
    22.1,
    21.3,
    22.1,
    22.9,
    21.4,
    20.2,
    22.6,
    21.7,
    21.4,
    20.6,
    21.8,
    21.4,
    20.9,
    21.5,
    21.4,
    21.4,
    22.3,
    21.6,
    21.3,
    22.1,
    22.1,
    22.5
  ],
  "zonesProfile": [
    20.028494087476847,
    22.31599943011825,
    19.925915372560183,
    21.28508334520586,
    21.618464168684998,
    20.428551075651797,
    23.63413591679726,
    23.00327682005984,
    22.52628579569739,
    22.75195896851404,
    21.438951417580846,
    22.941729591109844,
    22.06981051431828,
    21.844137341501632,
    21.86465308448497,
    21.577432682718335,
    22.321128365864077,
    22.57244621740989,
    22.782732582989023,
    22.941729591109844,
    21.608206297193327,
    22.028779028351604,
    22.464738566747396,
    22.685282803818207,
    21.931329249180795,
    22.97250320558484,
    22.69041173956404,
    22.603219831884882,
    22.172389229234934,
    22.649380253597375,
    22.490383245476565,
    21.82875053426413,
    22.336515173101578,
    21.82362159851831,
    22.32112836586408,
    22.80324832597236,
    22.680153868072374,
    22.126228807522438,
    22.48012537398489,
    21.905684570451626,
    21.659495654651657,
    21.459467160564184,
    21.797976919789132,
    22.167260293489093,
    21.736429690839152,
    21.659495654651657,
    21.35175950990169,
    21.65949565465165,
    21.131215272830882,
    21.592819489955833,
    22.362159851830743,
    22.1210998717766,
    20.341359167972644,
    20.484969368855953
  ],
  "actuators": {
    "values": [
      49,
      46,
      69,
      26,
      62,
      40,
      16,
      41,
      64,
      51,
      47,
      31,
      53,
      37,
      40,
      39,
      71,
      53,
      18,
      49,
      73,
      36,
      41,
      64,
      61,
      54,
      55,
      46,
      32,
      53,
      49,
      47,
      35,
      70,
      56,
      54,
      63,
      65,
      33,
      55,
      66,
      86,
      69,
      51,
      36,
      51,
      55,
      20,
      55,
      69,
      30,
      55,
      65,
      52
    ],
    "forced": [
      false,
      false,
      false,
      false,
      false,
      false,
      false,
      false,
      false,
      false,
      false,
      false,
      false,
      false,
      false,
      false,
      false,
      false,
      false,
      false,
      false,
      false,
      false,
      false,
      false,
      false,
      false,
      false,
      false,
      false,
      false,
      false,
      false,
      false,
      false,
      false,
      false,
      false,
      false,
      false,
      false,
      false,
      false,
      false,
      false,
      false,
      false,
      false,
      false,
      false,
      false,
      false,
      false,
      false
    ]
  },
  "old_actuators": {
    "values": [
      47,
      46,
      67,
      25,
      61,
      38,
      18,
      43,
      64,
      51,
      46,
      32,
      53,
      37,
      40,
      38,
      70,
      53,
      19,
      50,
      73,
      36,
      41,
      64,
      61,
      55,
      55,
      46,
      32,
      53,
      49,
      47,
      36,
      70,
      56,
      55,
      63,
      65,
      34,
      55,
      66,
      86,
      69,
      51,
      36,
      51,
      54,
      20,
      55,
      68,
      31,
      55,
      63,
      50
    ],
    "forced": [
      false,
      false,
      false,
      false,
      false,
      false,
      false,
      false,
      false,
      false,
      false,
      false,
      false,
      false,
      false,
      false,
      false,
      false,
      false,
      false,
      false,
      false,
      false,
      false,
      false,
      false,
      false,
      false,
      false,
      false,
      false,
      false,
      false,
      false,
      false,
      false,
      false,
      false,
      false,
      false,
      false,
      false,
      false,
      false,
      false,
      false,
      false,
      false,
      false,
      false,
      false,
      false,
      false,
      false
    ]
  },
  "average_zones_profile": [
    20.71002744888162,
    22.258457635531016,
    20.061966818818313,
    21.474068332888027,
    21.42817498657518,
    20.743574686662985,
    23.624430905647227,
    23.257776355338173,
    21.992219554253115,
    22.348374899878053,
    21.32817361063504,
    22.968316481064456,
    22.025229423459297,
    22.091680343842164,
    22.073764464266645,
    21.704764254845827,
    21.733404583418412,
    22.253496024131948,
    22.578906715264985,
    22.791590224370278,
    21.45890355218759,
    22.104602434259622,
    21.940955939001974,
    22.130626810544918,
    21.704986281382887,
    22.532923271226952,
    22.31504003530604,
    22.27656658166049,
    22.079080031014634,
    22.512230550569157,
    22.138188285351788,
    21.996904436924837,
    22.263593006828643,
    21.666499956633743,
    22.02794834457538,
    22.72747209199557,
    22.655679862657507,
    21.822926061329845,
    22.312346856397145,
    22.253077713265032,
    22.194014507790477,
    21.842997751239068,
    22.04554888211276,
    22.319834322358336,
    21.82524276045851,
    22.081319503521723,
    21.67901017173609,
    22.43733326700709,
    21.860720564260625,
    21.15154388721784,
    22.45570285298442,
    21.966352848986894,
    20.80755123689812,
    20.963877590541344
  ],
  "thickness_difference ": [
    -5.863511595992644,
    1.174807434231892,
    -8.809241732644034,
    -2.390598486872603,
    -2.5992046064764582,
    -5.711024151531887,
    7.383776843851031,
    5.717165251537149,
    0.0,
    1.583522272172967,
    -3.0537563152952694,
    4.40143855029298,
    0.0,
    0.0,
    0.0,
    -1.3419806597916952,
    -1.2117973480981254,
    1.1522546551452189,
    2.631394160295386,
    3.5981373835012644,
    -2.459529308238231,
    0.0,
    0.0,
    0.0,
    -1.3409714482596062,
    2.4223785055770555,
    1.4320001604820025,
    1.2571208257294975,
    0.0,
    2.3283206844052597,
    0.0,
    0.0,
    1.1981500310392852,
    -1.5159092880284415,
    0.0,
    3.3066913272525866,
    2.9803630120795788,
    0.0,
    1.4197584381688408,
    1.1503532421137825,
    0.0,
    0.0,
    0.0,
    1.4537923743560717,
    0.0,
    0.0,
    -1.459044673926871,
    1.9878784863958676,
    0.0,
    -3.8566186944643603,
    2.0713766044746342,
    0.0,
    -5.420221650463087,
    -4.709647315721164
  ],
  "dynamic_gain": [
    0.5,
    0.5,
    0.5,
    0.5,
    0.5,
    0.5,
    0.5,
    0.5,
    0.5,
    0.5,
    0.5,
    0.5,
    0.5,
    0.5,
    0.5,
    0.5,
    0.5,
    0.5,
    0.5,
    0.5,
    0.5,
    0.5,
    0.5,
    0.5,
    0.5,
    0.5,
    0.5,
    0.5,
    0.5,
    0.5,
    0.5,
    0.5,
    0.5,
    0.5,
    0.5,
    0.5,
    0.5,
    0.5,
    0.5,
    0.5,
    0.5,
    0.5,
    0.5,
    0.5,
    0.5,
    0.5,
    0.5,
    0.5,
    0.5,
    0.5,
    0.5,
    0.5,
    0.5,
    0.5
  ],
  "value_map": {
    "next": "-0.05",
    "prev": "-0.05",
    "default": "-0.05"
  },
  "actuation_variation": [
    -1.7008366859352089,
    -0.04374678880214669,
    -2.4529362527931275,
    -0.9426257423679782,
    -0.9173218327411383,
    -1.4509173357369045,
    2.030692159559165,
    1.7568148652689919,
    0.1825171880927529,
    0.3591247169651842,
    -0.6901589661445504,
    1.1340516934481877,
    0.1100359637573245,
    0.0,
    -0.03354951649479238,
    -0.39933961514516936,
    -0.3379874208431464,
    0.35235995046986673,
    0.8423931950473933,
    0.9937844017642765,
    -0.586417125177982,
    -0.06148823270595577,
    0.0,
    -0.03352428620649016,
    -0.3082076856319653,
    0.6684298068392502,
    0.4857875274152146,
    0.3815082310876619,
    0.08963603775336892,
    0.6402881882114465,
    0.058208017110131495,
    0.02995375077598213,
    0.29159352633509245,
    -0.38692130343183934,
    0.044769550980603624,
    0.9838491902964509,
    0.9022671115031989,
    0.1100030362562105,
    0.4191924015492758,
    0.35184110253551126,
    0.028758831052844564,
    0.0,
    0.036344809358901796,
    0.39979290294791975,
    0.036344809358901796,
    -0.03647611684817178,
    -0.35154032316999284,
    0.5101904669106919,
    -0.04671850520171232,
    -1.0087857258658333,
    0.4732130988689155,
    -0.08372112614971133,
    -1.608302136770378,
    -1.5772463429847134
  ]
}