{
  "parameters": {
    "integral_band": 0,
    "dead_band": 1,
    "small_gain": 50.0,
    "large_gain": 80.0,
    "large_gain_regulations": 3,
    "valves_min": 0,
    "valves_max": 100,
    "matrix_minor": 10,
    "matrix_major": 55,
    "profiles_directions_used_for_regulation": 0,
    "profiles_to_average": 2,
    "profiles_for_first_regulation": 1,
    "profiles_for_regulation": 10,
    "phase_shift_misDx_haulDx": 0,
    "phase_shift_misDx_haulSx": 0,
    "phase_shift_misSx_haulDx": 0,
    "phase_shift_misSx_haulSx": 0,
    "revert_regulation": 0,
    "disturbation_type": 0,
    "disturbation_amount": 0.0,
    "disturbation_amplitude": 1.0,
    "disturbation_cycles": 1,
    "disturbation_frequency": 1,
    "measurer_speed_default": 2,
    "measurer_speed_control": 0,
    "measurer_speed_min": 3,
    "measurer_speed_max": 7,
    "measurer_twoSigma_for_speed_min": 2.0,
    "measurer_twoSigma_for_speed_max": 10.0
  },
  "production": {
    "line_speed": 45.0,
    "layflat": 1640.0,
    "thickness": 22.0
  },
  "status": {
    "application": {
      "measurer_active": true,
      "actuation_active": true
    },
    "measurer": {
      "is_valid": true,
      "reason_is_valid": "none",
      "direction": 1,
      "speed": 0
    },
    "hauloff": {
      "direction": 0,
      "position": 0,
      "speed": 0,
      "last_period": 0
    }
  },
  "stats": {
    "min_thickness": 20.583050847457635,
    "max_thickness": 23.2362113659023,
    "mean_thickness": 22.0,
    "sigma_perc": 5.626327670420215,
    "sigma_abs": 1.237792087492447,
    "stdDev": 0.6188960437462235
  },
  "rawProfile": [
    21.7,
    22.1,
    21.5,
    22.8,
    22.7,
    21.4,
    20.8,
    21.1,
    21.8,
    20.4,
    21.2,
    20.6,
    19.9,
    21.4,
    20.2,
    21.2,
    21.4,
    20.9,
    21.2,
    20.5,
    21.0,
    21.1,
    20.4,
    20.6,
    19.5,
    20.4,
    20.4,
    20.0,
    20.0,
    20.9,
    22.0,
    23.1,
    23.2,
    22.6,
    22.0,
    21.5,
    22.7,
    22.1,
    21.4,
    21.4,
    21.3,
    21.3,
    21.0,
    22.0,
    22.7,
    21.0,
    20.5,
    20.9,
    21.3,
    20.9,
    20.4,
    19.9,
    19.7,
    20.9,
    21.7,
    21.3,
    21.2,
    19.1,
    20.3,
    21.0,
    20.4,
    19.8,
    19.4,
    18.9,
    20.5,
    19.8,
    17.3,
    19.4,
    20.0,
    20.4,
    21.1,
    21.1,
    22.6,
    22.5,
    21.3,
    20.6,
    21.4,
    21.4,
    20.7,
    20.5,
    20.4,
    20.8,
    21.0,
    20.4,
    20.5,
    20.0,
    20.4,
    20.8,
    18.1,
    20.0,
    21.6,
    22.1,
    21.2,
    21.9,
    22.1,
    21.6,
    21.1,
    21.7,
    21.9,
    22.1,
    20.6,
    19.8,
    19.6,
    20.3,
    21.5,
    21.9,
    22.3,
    21.1,
    22.2,
    20.1,
    20.3,
    22.8,
    23.2,
    20.8,
    19.7,
    20.9,
    18.9,
    20.9,
    21.8,
    20.9,
    21.4,
    23.5,
    20.8,
    21.1,
    22.1,
    21.3,
    20.7,
    21.3,
    21.4,
    22.6,
    20.7,
    21.4,
    21.3,
    21.4,
    21.0,
    22.0,
    21.9,
    21.4,
    21.4,
    21.4,
    21.3,
    21.9,
    21.5,
    18.3,
    20.4,
    21.7,
    21.0,
    21.1,
    20.4,
    20.2,
    20.2,
    20.4,
    20.5,
    20.4,
    20.2,
    21.1,
    21.1,
    20.9,
    21.5,
    20.8,
    21.2,
    20.2,
    19.6,
    20.2,
    20.6,
    21.4,
    20.1,
    19.7,
    20.8,
    21.7,
    20.5,
    20.7,
    22.0,
    21.0,
    22.1,
    21.3,
    20.3,
    20.7,
    19.3,
    19.8,
    19.2,
    18.9,
    18.2,
    18.1,
    20.5,
    22.1,
    20.0,
    20.5,
    21.7,
    21.7,
    21.4,
    21.9,
    21.9,
    22.1,
    22.8,
    22.8,
    21.9,
    22.1,
    21.4,
    21.4,
    20.4,
    22.1,
    20.6,
    20.5,
    19.5,
    19.3,
    19.3,
    19.8,
    20.3,
    21.4,
    21.6,
    21.6,
    21.6,
    21.1,
    20.0,
    21.4,
    21.4,
    22.0,
    20.8,
    19.1,
    20.3,
    19.4,
    20.6,
    20.6,
    20.8,
    21.5,
    20.7,
    20.4,
    19.5,
    19.5,
    20.3,
    20.9,
    21.2,
    22.5,
    19.6,
    20.4,
    20.4,
    19.3,
    19.4,
    22.3,
    21.6,
    21.5,
    20.7,
    21.0,
    20.9,
    20.4,
    21.5,
    20.3,
    21.3,
    21.1,
    21.9,
    22.8,
    23.1,
    19.7,
    20.1,
    20.4,
    20.7,
    20.7,
    20.2,
    20.3,
    21.0,
    19.8,
    20.4,
    21.9,
    20.7,
    20.8,
    21.8,
    21.5,
    22.1,
    21.4,
    22.2,
    20.9,
    21.0,
    21.0,
    21.3,
    21.0,
    21.5,
    21.4,
    20.4,
    21.4,
    21.9,
    21.9,
    22.0,
    20.7,
    20.4,
    21.4,
    20.7,
    19.5,
    19.9,
    20.8,
    22.0,
    23.1,
    21.0,
    22.5,
    21.5,
    22.5,
    21.2,
    21.7,
    21.4,
    21.2,
    20.7,
    21.5,
    21.1,
    21.9,
    20.9,
    20.1,
    21.2,
    21.0,
    19.5,
    20.2,
    19.8,
    20.8,
    20.4,
    20.3,
    19.7,
    19.5,
    20.7,
    20.6,
    21.4,
    20.4,
    19.5,
    20.5,
    21.6,
    20.8,
    20.5,
    20.2,
    21.4,
    21.4,
    21.3,
    21.4,
    21.9,
    22.0,
    21.6,
    21.3,
    19.9,
    19.8,
    18.1,
    18.5,
    20.2,
    19.8,
    20.9,
    20.7,
    20.3,
    21.2,
    21.4,
    20.6,
    20.3,
    19.4,
    20.3,
    20.7,
    19.3,
    19.8,
    20.5,
    20.7,
    20.6,
    21.2,
    19.7,
    20.4,
    19.9,
    20.1
  ],
  "zonesProfile": [
    23.2362113659023,
    22.60450648055832,
    20.583050847457635,
    21.714855433698915,
    21.96753738783649,
    21.57272183449652,
    21.983330009970096,
    21.572721834496512,
    21.967537387836494,
    22.64135593220339,
    22.54133599202393,
    22.741375872382864,
    21.630628115653046,
    22.75190428713859,
    21.883310069790635,
    22.915094715852447,
    21.778025922233304,
    21.588514456630115,
    22.25180458624128,
    21.77276171485545,
    20.58305084745764,
    21.878045862412772,
    21.620099700897306,
    22.578185443669,
    23.083549351944168,
    22.66767696909273,
    21.57272183449651,
    22.057028913260222,
    21.96227318045863,
    23.067756729810572,
    21.43058823529412,
    21.109471585244275,
    21.893838484546368,
    20.609371884346963,
    22.71505483549353,
    21.69379860418744,
    21.451645064805582,
    21.40426719840479,
    22.162313060817553,
    22.820338983050842,
    22.22021934197409,
    22.441316051844463,
    22.267597208374873,
    22.641355932203393,
    21.972801595214364,
    21.40426719840479,
    22.778225324027925,
    22.17810568295114,
    21.541136590229318,
    21.509551345962116,
    21.635892323030912,
    21.914895314057837,
    22.072821535393835,
    21.36215353938186
  ],
  "actuators": {
    "values": [
      1,
      51,
      100,
      4,
      37,
      47,
      13,
      7,
      49,
      0,
      0,
      0,
      43,
      40,
      0,
      0,
      86,
      67,
      1,
      51,
      93,
      46,
      49,
      52,
      76,
      86,
      55,
      63,
      35,
      50,
      53,
      60,
      41,
      100,
      32,
      41,
      100,
      100,
      40,
      43,
      64,
      96,
      99,
      36,
      11,
      51,
      57,
      25,
      45,
      97,
      21,
      23,
      87,
      35
    ],
    "forced": [
      false,
      false,
      false,
      false,
      false,
      false,
      false,
      false,
      false,
      false,
      false,
      false,
      false,
      false,
      false,
      false,
      false,
      false,
      false,
      false,
      false,
      false,
      false,
      false,
      false,
      false,
      false,
      false,
      false,
      false,
      false,
      false,
      false,
      false,
      false,
      false,
      false,
      false,
      false,
      false,
      false,
      false,
      false,
      false,
      false,
      false,
      false,
      false,
      false,
      false,
      false,
      false,
      false,
      false
    ]
  },
  "old_actuators": {
    "values": [
      2,
      51,
      100,
      4,
      37,
      46,
      13,
      6,
      49,
      0,
      0,
      0,
      43,
      41,
      0,
      0,
      86,
      67,
      1,
      51,
      92,
      46,
      49,
      52,
      77,
      87,
      55,
      63,
      35,
      51,
      53,
      60,
      41,
      100,
      32,
      41,
      100,
      100,
      39,
      44,
      65,
      97,
      100,
      37,
      12,
      50,
      58,
      25,
      45,
      96,
      20,
      23,
      87,
      34
    ],
    "forced": [
      false,
      false,
      false,
      false,
      false,
      false,
      false,
      false,
      false,
      false,
      false,
      false,
      false,
      false,
      false,
      false,
      false,
      false,
      false,
      false,
      false,
      false,
      false,
      false,
      false,
      false,
      false,
      false,
      false,
      false,
      false,
      false,
      false,
      false,
      false,
      false,
      false,
      false,
      false,
      false,
      false,
      false,
      false,
      false,
      false,
      false,
      false,
      false,
      false,
      false,
      false,
      false,
      false,
      false
    ]
  },
  "average_zones_profile": [
    22.53108242164521,
    22.371092536536096,
    20.26153368916748,
    21.6249327351515,
    22.122746141078473,
    21.455152982427144,
    21.98257302246055,
    21.475934656768857,
    21.8240095724163,
    22.27262034418647,
    22.165460769657024,
    22.379779918715933,
    21.803624366009306,
    22.418814346899087,
    22.257276713960138,
    23.116066663629375,
    21.690288200223982,
    21.86049881527928,
    22.40255833279474,
    22.150048350638254,
    20.786270966295827,
    21.698734821630286,
    21.556773194408976,
    22.225448844162994,
    22.428774321739,
    22.83909294197936,
    21.382417122231132,
    21.905123265226166,
    21.90190645680152,
    22.826120660335675,
    21.836087599758294,
    21.870357471686965,
    21.911850166821537,
    20.73968417100805,
    22.377010237442125,
    22.43528045689358,
    21.716730549878292,
    21.168304339549543,
    21.778523397807522,
    22.647859891808807,
    22.607571000541896,
    22.564854507206917,
    22.43123631820326,
    22.524598145579795,
    22.400735429795162,
    21.550167605578586,
    22.80344729420194,
    22.469617252858264,
    21.662763359467,
    21.330050203622218,
    21.32568025054604,
    22.675714276464507,
    22.02212336658699,
    21.43299553223668
  ],
  "thickness_difference ": [
    2.414011007478223,
    1.6867842569822564,
    -7.9021195946932785,
    -1.7048512038568184,
    0.0,
    -2.4765773526038903,
    0.0,
    -2.3821151965051968,
    0.0,
    1.239183382665778,
    0.0,
    1.7262723577996943,
    0.0,
    1.90370157681403,
    1.169439608909719,
    5.073030289224434,
    -1.4077809080728088,
    0.0,
    1.8298106036124553,
    0.0,
    -5.516950153200784,
    -1.369387174407793,
    -2.014667298141019,
    1.0247674734681538,
    1.9489741897227217,
    3.814058827178906,
    -2.8071948989493998,
    0.0,
    0.0,
    3.7550939106167065,
    0.0,
    0.0,
    0.0,
    -5.7287083135997685,
    1.713682897464204,
    1.9785475313344525,
    -1.287588409644126,
    -3.7804348202293494,
    -1.0067118281476277,
    2.9448176900400305,
    2.761686366099525,
    2.5675204873041677,
    1.9601650827420967,
    2.3845370253627025,
    1.8215246808871008,
    -2.044692701915516,
    3.6520331554633696,
    2.134623876628471,
    -1.5328938206045446,
    -3.0452263471717376,
    -3.0650897702452764,
    3.0714285293841246,
    0.0,
    -2.577293035287812
  ],
  "dynamic_gain": [
    0.5,
    0.5,
    0.5,
    0.5,
    0.5,
    0.5,
    0.5,
    0.5,
    0.5,
    0.5,
    0.5,
    0.5,
    0.5,
    0.5,
    0.5,
    0.5,
    0.5,
    0.5,
    0.5,
    0.5,
    0.5,
    0.5,
    0.5,
    0.5,
    0.5,
    0.5,
    0.5,
    0.5,
    0.5,
    0.5,
    0.5,
    0.5,
    0.5,
    0.5,
    0.5,
    0.5,
    0.5,
    0.5,
    0.5,
    0.5,
    0.5,
    0.5,
    0.5,
    0.5,
    0.5,
    0.5,
    0.5,
    0.5,
    0.5,
    0.5,
    0.5,
    0.5,
    0.5,
    0.5
  ],
  "value_map": {
    "next": "-0.05",
    "prev": "-0.05",
    "default": "-0.05"
  },
  "actuation_variation": [
    0.6415903075988725,
    0.32666295598974415,
    -2.1735345622125157,
    -0.6663870709279571,
    -0.10453571391151772,
    -0.6810587719660699,
    -0.12146731372772718,
    -0.6550816790389291,
    -0.028573295345985465,
    0.340775430233089,
    0.07413639351163681,
    0.474724898394916,
    0.09074934836534311,
    0.5527539238466012,
    0.4960141891011343,
    1.3891247970576424,
    -0.2603139924894116,
    0.010550742388491165,
    0.5031979159934252,
    -0.09217848873970824,
    -1.5513959714904106,
    -0.5648719092456882,
    -0.5626489995122713,
    0.2801687274932849,
    0.6569385596899251,
    1.0274106597435322,
    -0.6766271265316123,
    -0.070179872473735,
    0.09387734776541767,
    1.0326508254195943,
    0.09387734776541767,
    0.0,
    -0.1432177078399942,
    -1.5325527138033312,
    0.3775087772460233,
    0.5547529333124764,
    -0.3991339948745071,
    -1.096977081507865,
    -0.2977361809953306,
    0.8536992282098059,
    0.8972722051109744,
    0.8241144202296867,
    0.6628468355707484,
    0.7502899260654732,
    0.5094153953301324,
    -0.4254515471180051,
    1.0065573971202508,
    0.6400000494443003,
    -0.4443108624298314,
    -0.9523868352434733,
    -0.8422446322621414,
    0.7680156013245024,
    0.012353387352407819,
    -0.6484053095171928
  ]
}