{
  "parameters": {
    "integral_band": 0,
    "dead_band": 1,
    "small_gain": 50.0,
    "large_gain": 80.0,
    "large_gain_regulations": 3,
    "valves_min": 0,
    "valves_max": 100,
    "matrix_minor": 10,
    "matrix_major": 55,
    "profiles_directions_used_for_regulation": 0,
    "profiles_to_average": 2,
    "profiles_for_first_regulation": 1,
    "profiles_for_regulation": 10,
    "phase_shift_misDx_haulDx": 0,
    "phase_shift_misDx_haulSx": 0,
    "phase_shift_misSx_haulDx": 0,
    "phase_shift_misSx_haulSx": 0,
    "revert_regulation": 0,
    "disturbation_type": 0,
    "disturbation_amount": 0.0,
    "disturbation_amplitude": 1.0,
    "disturbation_cycles": 1,
    "disturbation_frequency": 1,
    "measurer_speed_default": 2,
    "measurer_speed_control": 0,
    "measurer_speed_min": 3,
    "measurer_speed_max": 7,
    "measurer_twoSigma_for_speed_min": 2.0,
    "measurer_twoSigma_for_speed_max": 10.0
  },
  "production": {
    "line_speed": 45.0,
    "layflat": 1640.0,
    "thickness": 22.0
  },
  "status": {
    "application": {
      "measurer_active": true,
      "actuation_active": true
    },
    "measurer": {
      "is_valid": true,
      "reason_is_valid": "none",
      "direction": 1,
      "speed": 0
    },
    "hauloff": {
      "direction": 0,
      "position": 0,
      "speed": 0,
      "last_period": 0
    }
  },
  "stats": {
    "min_thickness": 20.274492603373343,
    "max_thickness": 23.55357071653576,
    "mean_thickness": 22.000000000000014,
    "sigma_perc": 5.811980500683199,
    "sigma_abs": 1.2786357101503034,
    "stdDev": 0.6393178550751517
  },
  "rawProfile": [
    20.6,
    20.3,
    19.7,
    20.4,
    22.0,
    22.0,
    21.4,
    21.3,
    20.5,
    20.4,
    20.9,
    21.2,
    20.0,
    20.2,
    20.6,
    21.0,
    20.8,
    20.3,
    20.9,
    21.0,
    21.4,
    21.4,
    21.8,
    21.4,
    21.0,
    19.9,
    21.4,
    21.1,
    19.9,
    20.9,
    21.2,
    21.8,
    22.7,
    21.4,
    21.9,
    21.7,
    21.7,
    20.8,
    21.1,
    21.4,
    20.2,
    21.1,
    21.5,
    20.4,
    21.6,
    19.9,
    21.2,
    22.5,
    21.1,
    21.2,
    19.8,
    20.7,
    20.1,
    20.1,
    20.8,
    20.4,
    20.7,
    20.4,
    21.3,
    20.2,
    20.2,
    22.2,
    20.6,
    19.7,
    19.9,
    18.5,
    19.5,
    21.1,
    21.3,
    22.5,
    22.2,
    21.4,
    21.4,
    21.9,
    23.4,
    21.5,
    21.6,
    21.5,
    21.7,
    20.1,
    20.5,
    21.9,
    21.4,
    23.0,
    22.5,
    21.1,
    20.4,
    20.6,
    20.7,
    20.3,
    21.4,
    20.9,
    20.9,
    21.2,
    21.0,
    21.5,
    21.6,
    21.6,
    21.3,
    21.8,
    21.3,
    21.0,
    20.3,
    20.6,
    20.8,
    22.0,
    21.9,
    20.5,
    20.7,
    20.4,
    21.1,
    22.1,
    22.0,
    22.3,
    20.9,
    20.9,
    20.4,
    20.9,
    22.2,
    20.9,
    21.7,
    21.4,
    20.9,
    21.7,
    19.9,
    20.1,
    20.5,
    21.5,
    22.3,
    21.7,
    21.0,
    21.1,
    20.5,
    19.9,
    21.5,
    22.0,
    21.5,
    21.6,
    21.5,
    21.8,
    21.0,
    21.6,
    20.5,
    21.0,
    20.4,
    21.5,
    20.2,
    20.4,
    21.8,
    22.3,
    22.2,
    21.8,
    20.2,
    20.9,
    21.6,
    22.0,
    21.6,
    21.8,
    22.0,
    21.8,
    21.4,
    21.8,
    21.7,
    21.5,
    20.4,
    20.8,
    21.4,
    21.4,
    21.6,
    22.1,
    21.4,
    22.1,
    21.8,
    22.3,
    21.8,
    21.6,
    21.5,
    21.9,
    20.8,
    20.3,
    19.7,
    18.7,
    19.4,
    18.8,
    18.1,
    19.9,
    20.7,
    21.8,
    23.1,
    23.2,
    22.6,
    22.1,
    22.1,
    22.1,
    21.3,
    21.7,
    21.7,
    21.3,
    20.7,
    21.4,
    21.3,
    20.4,
    20.4,
    20.1,
    20.1,
    20.4,
    19.1,
    19.3,
    19.3,
    19.6,
    21.8,
    19.9,
    20.6,
    20.7,
    21.7,
    22.0,
    21.8,
    20.5,
    20.9,
    19.1,
    20.4,
    19.7,
    19.8,
    20.4,
    20.5,
    19.4,
    19.9,
    20.2,
    19.9,
    20.9,
    21.3,
    21.1,
    20.4,
    20.5,
    19.5,
    17.9,
    19.9,
    19.8,
    20.7,
    22.1,
    21.5,
    20.4,
    19.9,
    20.9,
    22.1,
    18.7,
    20.0,
    21.4,
    21.4,
    21.0,
    22.9,
    23.5,
    21.4,
    21.2,
    21.2,
    22.5,
    21.5,
    21.4,
    20.4,
    20.6,
    21.3,
    21.4,
    20.4,
    22.5,
    21.9,
    21.4,
    21.5,
    21.4,
    21.4,
    20.8,
    20.5,
    19.6,
    20.0,
    20.5,
    20.4,
    20.3,
    20.0,
    20.2,
    19.8,
    20.0,
    20.2,
    21.0,
    20.1,
    20.1,
    20.5,
    21.0,
    20.5,
    21.4,
    21.3,
    20.6,
    20.2,
    20.4,
    21.2,
    20.7,
    19.2,
    19.5,
    20.6,
    20.7,
    20.0,
    21.3,
    19.9,
    20.9,
    20.7,
    20.3,
    20.4,
    19.5,
    19.1,
    19.6,
    20.3,
    20.3,
    21.0,
    19.5,
    19.0,
    19.8,
    20.1,
    20.7,
    21.6,
    21.6,
    21.0,
    20.4,
    21.0,
    20.0,
    21.9,
    20.2,
    21.1,
    22.3,
    21.6,
    21.6,
    21.5,
    20.9,
    21.2,
    20.4,
    18.8,
    17.8,
    18.5,
    19.8,
    20.7,
    21.0,
    18.5,
    19.4,
    20.7,
    21.4,
    20.8,
    20.0,
    20.4,
    22.0,
    20.5,
    19.3,
    20.7,
    20.1,
    21.0,
    23.2,
    21.9,
    21.3,
    20.0,
    21.4,
    21.5,
    20.9,
    20.9,
    20.5
  ],
  "zonesProfile": [
    22.553530842537576,
    23.55357071653576,
    20.274492603373343,
    22.543004107021815,
    22.890386379042234,
    22.400893177558913,
    22.85354280473704,
    22.48510706168508,
    22.021930698991188,
    22.606164520116444,
    22.353522867737958,
    22.00614059571754,
    22.274572351369674,
    22.348259499980074,
    22.200885202759288,
    22.56932094581125,
    21.895609872801945,
    22.737748714063567,
    22.800909127158185,
    22.69037840424259,
    21.17452848997169,
    21.664021691455005,
    21.974560389170232,
    21.92192671159137,
    22.55879421029547,
    22.400893177558917,
    22.29036245464333,
    21.80086925316002,
    21.81665935643368,
    21.99035049244388,
    22.01140396347542,
    22.127198054148888,
    21.942980182622918,
    20.49029068144663,
    21.71665536903386,
    22.248255512580258,
    21.88508313728618,
    20.94820367638264,
    21.227162167550546,
    21.33242952270825,
    21.921926711591368,
    21.56401770405519,
    21.216635432034778,
    21.742972207823293,
    22.616691255632205,
    22.379839706527378,
    22.94828342437896,
    21.606124646118275,
    21.09031460584554,
    21.67454842697078,
    21.074524502571876,
    22.07456437657005,
    21.121894812392846,
    21.385063200287103
  ],
  "actuators": {
    "values": [
      0,
      53,
      100,
      0,
      37,
      47,
      13,
      8,
      48,
      0,
      0,
      0,
      41,
      37,
      0,
      0,
      89,
      66,
      0,
      56,
      98,
      47,
      50,
      51,
      69,
      85,
      53,
      67,
      35,
      51,
      52,
      63,
      43,
      100,
      30,
      41,
      100,
      100,
      41,
      43,
      66,
      99,
      100,
      35,
      11,
      54,
      58,
      22,
      45,
      100,
      21,
      20,
      93,
      32
    ],
    "forced": [
      false,
      false,
      false,
      false,
      false,
      false,
      false,
      false,
      false,
      false,
      false,
      false,
      false,
      false,
      false,
      false,
      false,
      false,
      false,
      false,
      false,
      false,
      false,
      false,
      false,
      false,
      false,
      false,
      false,
      false,
      false,
      false,
      false,
      false,
      false,
      false,
      false,
      false,
      false,
      false,
      false,
      false,
      false,
      false,
      false,
      false,
      false,
      false,
      false,
      false,
      false,
      false,
      false,
      false
    ]
  },
  "old_actuators": {
    "values": [
      0,
      54,
      100,
      1,
      38,
      48,
      13,
      8,
      48,
      0,
      0,
      0,
      41,
      37,
      0,
      0,
      89,
      67,
      0,
      56,
      98,
      47,
      49,
      50,
      70,
      85,
      53,
      66,
      35,
      51,
      52,
      63,
      43,
      100,
      30,
      41,
      100,
      100,
      41,
      43,
      66,
      98,
      100,
      35,
      12,
      54,
      59,
      21,
      44,
      99,
      20,
      21,
      92,
      32
    ],
    "forced": [
      false,
      false,
      false,
      false,
      false,
      false,
      false,
      false,
      false,
      false,
      false,
      false,
      false,
      false,
      false,
      false,
      false,
      false,
      false,
      false,
      false,
      false,
      false,
      false,
      false,
      false,
      false,
      false,
      false,
      false,
      false,
      false,
      false,
      false,
      false,
      false,
      false,
      false,
      false,
      false,
      false,
      false,
      false,
      false,
      false,
      false,
      false,
      false,
      false,
      false,
      false,
      false,
      false,
      false
    ]
  },
  "average_zones_profile": [
    22.744626831065688,
    22.95814736543634,
    20.369743314828845,
    22.718335984215805,
    22.67386702464656,
    22.41597824947241,
    22.305863397589548,
    22.303007533232027,
    22.126616484501564,
    22.55015513938917,
    22.176761433868982,
    22.21334508877872,
    22.019006605792363,
    22.339721147839498,
    22.739152278799004,
    22.749893447816017,
    22.12391007379643,
    22.752625850460696,
    22.97608180372246,
    21.782704136410423,
    21.455842500660875,
    22.005487548236466,
    21.695523922183682,
    21.669207083394255,
    23.04427165711906,
    22.12422197707098,
    22.355456018241615,
    21.700673575206057,
    21.97404055037932,
    22.026716464859938,
    22.28957294947965,
    22.00577345957146,
    22.187021752004416,
    20.33833530488102,
    22.110657433620876,
    22.155668974928126,
    21.666555905560656,
    21.453074359099325,
    21.815970570035727,
    21.413885012250184,
    21.716518911351237,
    21.726811719411103,
    21.103658217809503,
    21.853087059706155,
    22.27154753940511,
    21.916562625067748,
    22.29277970502102,
    21.658498404301668,
    21.489960170306283,
    21.477178634034978,
    21.21922163001951,
    22.255442283864475,
    21.072058517307536,
    21.419174371947616
  ],
  "thickness_difference ": [
    3.3846674139349435,
    4.355215297437906,
    -7.410257659868885,
    3.2651635646172976,
    3.0630319302116438,
    1.89081022487459,
    1.3902881708615795,
    1.3773069692364843,
    0.0,
    2.5007051790416766,
    0.0,
    0.0,
    0.0,
    1.5441870356340814,
    3.359783085450019,
    3.4086065809818966,
    0.0,
    3.4210265930031625,
    4.436735471465735,
    0.0,
    -2.4734431788142044,
    0.0,
    -1.3839821718923546,
    -1.5036041663897493,
    4.746689350541189,
    0.0,
    1.6157091738255211,
    -1.360574658154286,
    0.0,
    0.0,
    1.3162406794529473,
    0.0,
    0.0,
    -7.553021341449906,
    0.0,
    0.0,
    -1.5156549747242887,
    -2.486025640457612,
    0.0,
    -2.664159035226438,
    -1.2885504029489232,
    -1.2417649117677148,
    -4.074280828138622,
    0.0,
    1.2343069972959502,
    0.0,
    1.330816841004631,
    -1.552279980446966,
    -2.318362862244169,
    -2.3764607543864646,
    -3.548992590820403,
    1.1611012902930702,
    -4.217915830420293,
    -2.640116491147201
  ],
  "dynamic_gain": [
    0.5,
    0.5,
    0.5,
    0.5,
    0.5,
    0.5,
    0.5,
    0.5,
    0.5,
    0.5,
    0.5,
    0.5,
    0.5,
    0.5,
    0.5,
    0.5,
    0.5,
    0.5,
    0.5,
    0.5,
    0.5,
    0.5,
    0.5,
    0.5,
    0.5,
    0.5,
    0.5,
    0.5,
    0.5,
    0.5,
    0.5,
    0.5,
    0.5,
    0.5,
    0.5,
    0.5,
    0.5,
    0.5,
    0.5,
    0.5,
    0.5,
    0.5,
    0.5,
    0.5,
    0.5,
    0.5,
    0.5,
    0.5,
    0.5,
    0.5,
    0.5,
    0.5,
    0.5,
    0.5
  ],
  "value_map": {
    "next": "-0.05",
    "prev": "-0.05",
    "default": "-0.05"
  },
  "actuation_variation": [
    0.9736610089893771,
    1.0970444506470756,
    -1.8473113849125635,
    0.7892393370283259,
    0.9712331255454992,
    0.6313058143673428,
    0.46403217683971126,
    0.4135166208115727,
    0.09695030370695404,
    0.6876939242364611,
    0.06251762947604192,
    0.0,
    0.038604675890852036,
    0.5086460119356229,
    1.0477601889141548,
    1.021361386906272,
    0.17074082934962648,
    1.0517006998625131,
    1.3056279194781564,
    0.049082307316288286,
    -0.6801968741739063,
    -0.09643563376766398,
    -0.41818520143014126,
    -0.32942346629096025,
    1.2677494672390832,
    0.15905996310916776,
    0.41030565634816124,
    -0.33376530164679064,
    -0.03401436645385715,
    0.032906016986323686,
    0.36196618684956056,
    0.032906016986323686,
    -0.18882553353624765,
    -2.077080868898724,
    -0.18882553353624765,
    -0.03789137436810722,
    -0.4789557590606197,
    -0.7215484254939505,
    -0.12875461689210127,
    -0.7648574947609936,
    -0.4519994594858078,
    -0.47555613151331017,
    -1.151471350532314,
    -0.07099934577106679,
    0.3394344242563863,
    0.06412809595751454,
    0.3271676317650994,
    -0.4515656451539041,
    -0.7357683054879822,
    -0.8002105937828922,
    -1.0063569490779458,
    0.12513014429957692,
    -1.196902233386934,
    -0.7468632454776141
  ]
}